DATE;WEBSITE;USER;ACTION
2016-06-13 07:16:13;MOTIONGATE;sandara.park@mailnesia.com;login
2016-06-13 07:44:32;MOTIONGATE;sandara.park@mailnesia.com;login
2016-06-13 07:57:16;MOTIONGATE;sandara.park@mailnesia.com;login
2016-06-13 08:07:39;MOTIONGATE;marta.marulli@accenture.com;login
