DATE;WEBSITE;USER;ACTION
2016-06-18 15:00:16;MOTIONGATE;jo.kepler@mailnesia.com;login
2016-06-18 22:48:46;MOTIONGATE;hesham.ghaleb@accenture.com;login
2016-06-18 22:51:35;MOTIONGATE;hesham.ghaleb@accenture.com;logout
