DATE;WEBSITE;USER;ACTION
2016-07-14 10:27:58;MOTIONGATE;marta.marulli@accenture.com;login
2016-07-14 15:27:39;MOTIONGATE;marta.marulli@accenture.com;login
2016-07-14 16:15:38;MOTIONGATE;marta.marulli@accenture.com;login
2016-07-14 16:39:32;MOTIONGATE;marta.marulli@accenture.com;login
