DATE;WEBSITE;USER;ACTION
2016-09-08 08:00:29;MOTIONGATE;silvio.rossi@live.it;login
2016-09-08 08:24:43;MOTIONGATE;marta.marulli@accenture.com;login
2016-09-08 16:50:14;MOTIONGATE;hesham.ghaleb@accenture.com;login
