DATE;WEBSITE;USER;ACTION
2016-08-17 07:45:25;MOTIONGATE;lorraine.c.ceniza@accenture.com;login
2016-08-17 07:48:00;MOTIONGATE;lorraine.c.ceniza@accenture.com;login
2016-08-17 08:27:52;MOTIONGATE;jgdwp003@mailnesia.com;logout
2016-08-17 08:51:47;MOTIONGATE;lorraine.c.ceniza@accenture.com;login
2016-08-17 12:18:13;MOTIONGATE;marta.marulli@accenture.com;login
2016-08-17 12:20:58;MOTIONGATE;marta.marulli@accenture.com;logout
2016-08-17 12:22:16;MOTIONGATE;lorraine.c.ceniza@accenture.com;login
