
24.09.2016 0:37:03 +0200 10.0.32.247 TOKEN ricevuto, cache creata
24.09.2016 1:37:39 +0200 10.0.32.247 TOKEN ricevuto, cache creata
24.09.2016 2:50:57 +0200 10.0.32.247 TOKEN ricevuto, cache creata
24.09.2016 3:46:54 +0200 10.0.32.247 TOKEN expired => RENEWING. Server response =>401
24.09.2016 3:46:54 +0200 10.0.32.247 RENEWING token
24.09.2016 3:46:54 +0200 10.0.32.247 RENEW TOKEN RESULT =>200 || f822a4f183117aaaef7760e7178db7d
24.09.2016 4:47:17 +0200 10.0.32.247 TOKEN ricevuto, cache creata
24.09.2016 5:47:35 +0200 10.0.32.247 TOKEN ricevuto, cache creata
24.09.2016 6:47:43 +0200 10.0.32.247 TOKEN ricevuto, cache creata
24.09.2016 6:47:53 +0200 10.0.32.247 TOKEN ricevuto, cache creata
24.09.2016 7:22:42 +0200 10.0.32.247 Login req: {
            "languageId":"2",
            "transactionId": "1474694562153279040",
            "tenant":"1",
            "profileAttributeFlag":true,
            "externalIdList": {
                "externalIds": [
                    {
                    "externalId" : "Emad3071@gmail.Com"
                    }
                ]
             }
            }
24.09.2016 7:22:42 +0200 10.0.32.247 Login token: f2e6ddfa89e76e78f565b1ba0b355bc
24.09.2016 7:22:42 +0200 10.0.32.247 Login response: {"transactionId":"1474694562153279040","userRetrievedList":{"users":[{"id":3876,"description":"emad3071@gmail.com","parentBusinessUserId":2,"statusId":1,"roleTypeId":2,"defaultLanguageId":2,"userExternalIdList":{"externalIds":[{"externalId":"emad3071@gmail.com","defaultFlag":1,"type":"email","statusId":1}]},"userAttributeList":{"attributeValues":[{"attributeId":9,"attributeName":"name","attributeValue":"emad","languageId":2,"languageName":"en","statusId":1,"statusName":"active"},{"attributeId":10,"attributeName":"surname","attributeValue":"almoallimi","languageId":2,"languageName":"en","statusId":1,"statusName":"active"},{"attributeId":14,"attributeName":"email","attributeValue":"emad3071@gmail.com","languageId":2,"languageName":"en","statusId":1,"statusName":"active"},{"attributeId":100003,"attributeName":"customerNumber","attributeValue":"CON-20160924-0009","languageId":2,"languageName":"en","statusId":1,"statusName":"active"},{"attributeId":100004,"attributeName":"language","attributeValue":"AR","languageId":2,"languageName":"en","statusId":1,"statusName":"active"},{"attributeId":100020,"attributeName":"NL_DUBAI_PARK_AND_RESORT","attributeValue":"true","languageId":2,"languageName":"en","statusId":1,"statusName":"active"}]}}]},"resultCode":"0"}
24.09.2016 7:22:42 +0200 10.0.32.247 Login status: 200
24.09.2016 7:48:40 +0200 10.0.32.247 TOKEN ricevuto, cache creata
24.09.2016 8:49:09 +0200 10.0.32.247 TOKEN ricevuto, cache creata
24.09.2016 8:58:47 +0200 10.0.32.247 Login req: {
            "languageId":"2",
            "transactionId": "14747003271356832204",
            "tenant":"1",
            "profileAttributeFlag":true,
            "externalIdList": {
                "externalIds": [
                    {
                    "externalId" : "1548610115165273"
                    }
                ]
             }
            }
24.09.2016 8:58:47 +0200 10.0.32.247 Login token: 9e6ad65ddcdb60cfef816f415cd47e25
24.09.2016 8:58:47 +0200 10.0.32.247 Login response: {"transactionId":"14747003271356832204","userRetrievedList":{"users":[{"id":3878,"description":"1548610115165273","parentBusinessUserId":2,"statusId":1,"roleTypeId":2,"defaultLanguageId":2,"userExternalIdList":{"externalIds":[{"externalId":"1548610115165273","defaultFlag":1,"type":"socialID","statusId":1}]},"userAttributeList":{"attributeValues":[{"attributeId":9,"attributeName":"name","attributeValue":"Mohammed","languageId":2,"languageName":"en","statusId":1,"statusName":"active"},{"attributeId":10,"attributeName":"surname","attributeValue":"Al Suleimani","languageId":2,"languageName":"en","statusId":1,"statusName":"active"},{"attributeId":14,"attributeName":"email","attributeValue":"mohammed.alsuleimani@gmail.com","languageId":2,"languageName":"en","statusId":1,"statusName":"active"},{"attributeId":100004,"attributeName":"language","attributeValue":"en","languageId":2,"languageName":"en","statusId":1,"statusName":"active"}]}}]},"resultCode":"0"}
24.09.2016 8:58:47 +0200 10.0.32.247 Login status: 200
24.09.2016 9:40:24 +0200 10.0.32.247 Login req: {
            "languageId":"2",
            "transactionId": "14747028241342410235",
            "tenant":"1",
            "profileAttributeFlag":true,
            "externalIdList": {
                "externalIds": [
                    {
                    "externalId" : "10208997459668158"
                    }
                ]
             }
            }
24.09.2016 9:40:24 +0200 10.0.32.247 Login token: 820d9e52a57d5e6132aeb27a35f67
24.09.2016 9:40:24 +0200 10.0.32.247 Login response: {"transactionId":"14747028241342410235","userRetrievedList":{"users":[{"id":3879,"description":"10208997459668158","parentBusinessUserId":2,"statusId":1,"roleTypeId":2,"defaultLanguageId":2,"userExternalIdList":{"externalIds":[{"externalId":"10208997459668158","defaultFlag":1,"type":"socialID","statusId":1}]},"userAttributeList":{"attributeValues":[{"attributeId":9,"attributeName":"name","attributeValue":"Maricar","languageId":2,"languageName":"en","statusId":1,"statusName":"active"},{"attributeId":10,"attributeName":"surname","attributeValue":"Mariano","languageId":2,"languageName":"en","statusId":1,"statusName":"active"},{"attributeId":14,"attributeName":"email","attributeValue":"icar1303@yahoo.com","languageId":2,"languageName":"en","statusId":1,"statusName":"active"},{"attributeId":100004,"attributeName":"language","attributeValue":"en","languageId":2,"languageName":"en","statusId":1,"statusName":"active"}]}}]},"resultCode":"0"}
24.09.2016 9:40:24 +0200 10.0.32.247 Login status: 200
24.09.2016 9:49:20 +0200 10.0.32.247 TOKEN ricevuto, cache creata
24.09.2016 10:37:06 +0200 10.0.32.247 Login req: {
            "languageId":"2",
            "transactionId": "14747062261827811961",
            "tenant":"1",
            "profileAttributeFlag":true,
            "externalIdList": {
                "externalIds": [
                    {
                    "externalId" : "1225228244162649"
                    }
                ]
             }
            }
24.09.2016 10:37:06 +0200 10.0.32.247 Login token: b6759483a9c7634624fd519f03140
24.09.2016 10:37:06 +0200 10.0.32.247 Login response: {"transactionId":"14747062261827811961","userRetrievedList":{"users":[{"id":1468,"description":"1225228244162649","parentBusinessUserId":2,"statusId":1,"roleTypeId":2,"defaultLanguageId":2,"userExternalIdList":{"externalIds":[{"externalId":"1225228244162649","defaultFlag":1,"type":"socialID","statusId":1}]},"userAttributeList":{"attributeValues":[{"attributeId":5,"attributeName":"country","attributeValue":"India","languageId":2,"languageName":"en","statusId":1,"statusName":"active"},{"attributeId":9,"attributeName":"name","attributeValue":"Shailu","languageId":2,"languageName":"en","statusId":1,"statusName":"active"},{"attributeId":10,"attributeName":"surname","attributeValue":"Suhalka","languageId":2,"languageName":"en","statusId":1,"statusName":"active"},{"attributeId":14,"attributeName":"email","attributeValue":"odatomumbai@gmail.com","languageId":2,"languageName":"en","statusId":1,"statusName":"active"},{"attributeId":49,"attributeName":"city","attributeValue":"Mumbai","languageId":2,"languageName":"en","statusId":1,"statusName":"active"},{"attributeId":50,"attributeName":"zipCode","attributeValue":"4000104","languageId":2,"languageName":"en","statusId":1,"statusName":"active"},{"attributeId":108,"attributeName":"address","attributeValue":"Goregaon west","languageId":2,"languageName":"en","statusId":1,"statusName":"active"},{"attributeId":100001,"attributeName":"msisdn","attributeValue":"+91-9004876952","languageId":2,"languageName":"en","statusId":1,"statusName":"active"},{"attributeId":100002,"attributeName":"birthday","attributeValue":"10\/06\/1990","languageId":2,"languageName":"en","statusId":1,"statusName":"active"},{"attributeId":100003,"attributeName":"customerNumber","attributeValue":"CON-20160702-0015","languageId":2,"languageName":"en","statusId":1,"statusName":"active"},{"attributeId":100004,"attributeName":"language","attributeValue":"en","languageId":2,"languageName":"en","statusId":1,"statusName":"active"},{"attributeId":100013,"attributeName":"NL_LEGOLAND","attributeValue":"false","languageId":2,"languageName":"en","statusId":1,"statusName":"active"},{"attributeId":100014,"attributeName":"NL_RIVERLAND","attributeValue":"false","languageId":2,"languageName":"en","statusId":1,"statusName":"active"},{"attributeId":100017,"attributeName":"mascotteID","attributeValue":"mascotte7_b.fw","languageId":2,"languageName":"en","statusId":1,"statusName":"active"},{"attributeId":100018,"attributeName":"NL_BOLLIWOOD_PARK","attributeValue":"true","languageId":2,"languageName":"en","statusId":1,"statusName":"active"},{"attributeId":100019,"attributeName":"NL_MOTIONGATE","attributeValue":"false","languageId":2,"languageName":"en","statusId":1,"statusName":"active"},{"attributeId":100020,"attributeName":"NL_DUBAI_PARK_AND_RESORT","attributeValue":"true","languageId":2,"languageName":"en","statusId":1,"statusName":"active"}]}}]},"resultCode":"0"}
24.09.2016 10:37:06 +0200 10.0.32.247 Login status: 200
24.09.2016 10:45:20 +0200 10.0.32.247 Login req: {
            "languageId":"2",
            "transactionId": "14747067201162684578",
            "tenant":"1",
            "profileAttributeFlag":true,
            "externalIdList": {
                "externalIds": [
                    {
                    "externalId" : "1250438345007463"
                    }
                ]
             }
            }
24.09.2016 10:45:20 +0200 10.0.32.247 Login token: 89e67d98f1ec812253cfff219e899e
24.09.2016 10:45:20 +0200 10.0.32.247 Login response: {"transactionId":"14747067201162684578","userRetrievedList":{"users":[{"id":3881,"description":"1250438345007463","parentBusinessUserId":2,"statusId":1,"roleTypeId":2,"defaultLanguageId":2,"userExternalIdList":{"externalIds":[{"externalId":"1250438345007463","defaultFlag":1,"type":"socialID","statusId":1}]},"userAttributeList":{"attributeValues":[{"attributeId":9,"attributeName":"name","attributeValue":"Jbrt","languageId":2,"languageName":"en","statusId":1,"statusName":"active"},{"attributeId":10,"attributeName":"surname","attributeValue":"Mngt","languageId":2,"languageName":"en","statusId":1,"statusName":"active"},{"attributeId":14,"attributeName":"email","attributeValue":"manguiat_jobert@yahoo.com","languageId":2,"languageName":"en","statusId":1,"statusName":"active"},{"attributeId":100004,"attributeName":"language","attributeValue":"en","languageId":2,"languageName":"en","statusId":1,"statusName":"active"}]}}]},"resultCode":"0"}
24.09.2016 10:45:20 +0200 10.0.32.247 Login status: 200
24.09.2016 10:49:37 +0200 10.0.32.247 TOKEN ricevuto, cache creata
24.09.2016 11:02:44 +0200 10.0.32.247 Login req: {
            "languageId":"2",
            "transactionId": "147470776433266788",
            "tenant":"1",
            "profileAttributeFlag":true,
            "externalIdList": {
                "externalIds": [
                    {
                    "externalId" : "sufyan.patel@accenture.com"
                    }
                ]
             }
            }
24.09.2016 11:02:44 +0200 10.0.32.247 Login token: 9e44b5f8712c8ef8dabe6c7f63d92bb
24.09.2016 11:02:44 +0200 10.0.32.247 Login response: {"transactionId":"147470776433266788","userRetrievedList":{"users":[{"id":30,"description":"sufyan.patel@accenture.com","parentBusinessUserId":2,"statusId":1,"roleTypeId":2,"defaultLanguageId":2,"userExternalIdList":{"externalIds":[{"externalId":"sufyan.patel@accenture.com","defaultFlag":1,"type":"email","statusId":1}]},"userAttributeList":{"attributeValues":[{"attributeId":5,"attributeName":"country","attributeValue":"United Arab Emirates","languageId":2,"languageName":"en","statusId":1,"statusName":"active"},{"attributeId":9,"attributeName":"name","attributeValue":"Sufyan","languageId":2,"languageName":"en","statusId":1,"statusName":"active"},{"attributeId":10,"attributeName":"surname","attributeValue":"Patel","languageId":2,"languageName":"en","statusId":1,"statusName":"active"},{"attributeId":14,"attributeName":"email","attributeValue":"sufyan.patel@accenture.com","languageId":2,"languageName":"en","statusId":1,"statusName":"active"},{"attributeId":49,"attributeName":"city","attributeValue":"Dubai","languageId":2,"languageName":"en","statusId":1,"statusName":"active"},{"attributeId":50,"attributeName":"zipCode","attributeValue":"A12345","languageId":2,"languageName":"en","statusId":1,"statusName":"active"},{"attributeId":108,"attributeName":"address","attributeValue":"Jummeriah Park","languageId":2,"languageName":"en","statusId":1,"statusName":"active"},{"attributeId":100001,"attributeName":"msisdn","attributeValue":"+971-5467222","languageId":2,"languageName":"en","statusId":1,"statusName":"active"},{"attributeId":100002,"attributeName":"birthday","attributeValue":"4\/6\/1971","languageId":2,"languageName":"en","statusId":1,"statusName":"active"},{"attributeId":100003,"attributeName":"customerNumber","attributeValue":"CON-20160422-0013","languageId":2,"languageName":"en","statusId":1,"statusName":"active"},{"attributeId":100004,"attributeName":"language","attributeValue":"EN","languageId":2,"languageName":"en","statusId":1,"statusName":"active"},{"attributeId":100013,"attributeName":"NL_LEGOLAND","attributeValue":"True","languageId":2,"languageName":"en","statusId":1,"statusName":"active"},{"attributeId":100014,"attributeName":"NL_RIVERLAND","attributeValue":"False","languageId":2,"languageName":"en","statusId":1,"statusName":"active"},{"attributeId":100015,"attributeName":"NL_GENERAL_COMMUNICATION","attributeValue":"False","languageId":2,"languageName":"en","statusId":1,"statusName":"active"},{"attributeId":100017,"attributeName":"mascotteID","attributeValue":"mascotte8_b.fw","languageId":2,"languageName":"en","statusId":1,"statusName":"active"},{"attributeId":100018,"attributeName":"NL_BOLLIWOOD_PARK","attributeValue":"False","languageId":2,"languageName":"en","statusId":1,"statusName":"active"},{"attributeId":100019,"attributeName":"NL_MOTIONGATE","attributeValue":"False","languageId":2,"languageName":"en","statusId":1,"statusName":"active"},{"attributeId":100020,"attributeName":"NL_DUBAI_PARK_AND_RESORT","attributeValue":"False","languageId":2,"languageName":"en","statusId":1,"statusName":"active"}]}}]},"resultCode":"0"}
24.09.2016 11:02:44 +0200 10.0.32.247 Login status: 200
24.09.2016 11:08:43 +0200 10.0.32.247 Login req: {
            "languageId":"2",
            "transactionId": "14747081231818735382",
            "tenant":"1",
            "profileAttributeFlag":true,
            "externalIdList": {
                "externalIds": [
                    {
                    "externalId" : "sufyan.patel@accenture.com"
                    }
                ]
             }
            }
24.09.2016 11:08:43 +0200 10.0.32.247 Login token: 9e44b5f8712c8ef8dabe6c7f63d92bb
24.09.2016 11:08:43 +0200 10.0.32.247 Login response: {"transactionId":"14747081231818735382","userRetrievedList":{"users":[{"id":30,"description":"sufyan.patel@accenture.com","parentBusinessUserId":2,"statusId":1,"roleTypeId":2,"defaultLanguageId":2,"userExternalIdList":{"externalIds":[{"externalId":"sufyan.patel@accenture.com","defaultFlag":1,"type":"email","statusId":1}]},"userAttributeList":{"attributeValues":[{"attributeId":5,"attributeName":"country","attributeValue":"United Arab Emirates","languageId":2,"languageName":"en","statusId":1,"statusName":"active"},{"attributeId":9,"attributeName":"name","attributeValue":"Sufyan","languageId":2,"languageName":"en","statusId":1,"statusName":"active"},{"attributeId":10,"attributeName":"surname","attributeValue":"Patel","languageId":2,"languageName":"en","statusId":1,"statusName":"active"},{"attributeId":14,"attributeName":"email","attributeValue":"sufyan.patel@accenture.com","languageId":2,"languageName":"en","statusId":1,"statusName":"active"},{"attributeId":49,"attributeName":"city","attributeValue":"Dubai","languageId":2,"languageName":"en","statusId":1,"statusName":"active"},{"attributeId":50,"attributeName":"zipCode","attributeValue":"A12345","languageId":2,"languageName":"en","statusId":1,"statusName":"active"},{"attributeId":108,"attributeName":"address","attributeValue":"Jummeriah Park","languageId":2,"languageName":"en","statusId":1,"statusName":"active"},{"attributeId":100001,"attributeName":"msisdn","attributeValue":"+971-5467222","languageId":2,"languageName":"en","statusId":1,"statusName":"active"},{"attributeId":100002,"attributeName":"birthday","attributeValue":"4\/6\/1971","languageId":2,"languageName":"en","statusId":1,"statusName":"active"},{"attributeId":100003,"attributeName":"customerNumber","attributeValue":"CON-20160422-0013","languageId":2,"languageName":"en","statusId":1,"statusName":"active"},{"attributeId":100004,"attributeName":"language","attributeValue":"EN","languageId":2,"languageName":"en","statusId":1,"statusName":"active"},{"attributeId":100005,"attributeName":"type","attributeValue":"customer","languageId":2,"languageName":"en","statusId":1,"statusName":"active"},{"attributeId":100013,"attributeName":"NL_LEGOLAND","attributeValue":"True","languageId":2,"languageName":"en","statusId":1,"statusName":"active"},{"attributeId":100014,"attributeName":"NL_RIVERLAND","attributeValue":"True","languageId":2,"languageName":"en","statusId":1,"statusName":"active"},{"attributeId":100015,"attributeName":"NL_GENERAL_COMMUNICATION","attributeValue":"False","languageId":2,"languageName":"en","statusId":1,"statusName":"active"},{"attributeId":100017,"attributeName":"mascotteID","attributeValue":"mascotte8_b.fw","languageId":2,"languageName":"en","statusId":1,"statusName":"active"},{"attributeId":100018,"attributeName":"NL_BOLLIWOOD_PARK","attributeValue":"True","languageId":2,"languageName":"en","statusId":1,"statusName":"active"},{"attributeId":100019,"attributeName":"NL_MOTIONGATE","attributeValue":"True","languageId":2,"languageName":"en","statusId":1,"statusName":"active"},{"attributeId":100020,"attributeName":"NL_DUBAI_PARK_AND_RESORT","attributeValue":"True","languageId":2,"languageName":"en","statusId":1,"statusName":"active"}]}}]},"resultCode":"0"}
24.09.2016 11:08:43 +0200 10.0.32.247 Login status: 200
24.09.2016 11:10:39 +0200 10.0.32.247 Login req: {
            "languageId":"2",
            "transactionId": "14747082392094593080",
            "tenant":"1",
            "profileAttributeFlag":true,
            "externalIdList": {
                "externalIds": [
                    {
                    "externalId" : "Sufyan.patel@accenture.com"
                    }
                ]
             }
            }
24.09.2016 11:10:39 +0200 10.0.32.247 Login token: 9e44b5f8712c8ef8dabe6c7f63d92bb
24.09.2016 11:10:39 +0200 10.0.32.247 Login response: {"transactionId":"14747082392094593080","userRetrievedList":{"users":[{"id":30,"description":"sufyan.patel@accenture.com","parentBusinessUserId":2,"statusId":1,"roleTypeId":2,"defaultLanguageId":2,"userExternalIdList":{"externalIds":[{"externalId":"sufyan.patel@accenture.com","defaultFlag":1,"type":"email","statusId":1}]},"userAttributeList":{"attributeValues":[{"attributeId":5,"attributeName":"country","attributeValue":"United Arab Emirates","languageId":2,"languageName":"en","statusId":1,"statusName":"active"},{"attributeId":9,"attributeName":"name","attributeValue":"Sufyan","languageId":2,"languageName":"en","statusId":1,"statusName":"active"},{"attributeId":10,"attributeName":"surname","attributeValue":"Patel","languageId":2,"languageName":"en","statusId":1,"statusName":"active"},{"attributeId":14,"attributeName":"email","attributeValue":"sufyan.patel@accenture.com","languageId":2,"languageName":"en","statusId":1,"statusName":"active"},{"attributeId":49,"attributeName":"city","attributeValue":"Dubai","languageId":2,"languageName":"en","statusId":1,"statusName":"active"},{"attributeId":50,"attributeName":"zipCode","attributeValue":"A12345","languageId":2,"languageName":"en","statusId":1,"statusName":"active"},{"attributeId":108,"attributeName":"address","attributeValue":"Jummeriah Park","languageId":2,"languageName":"en","statusId":1,"statusName":"active"},{"attributeId":100001,"attributeName":"msisdn","attributeValue":"+971-5467222","languageId":2,"languageName":"en","statusId":1,"statusName":"active"},{"attributeId":100002,"attributeName":"birthday","attributeValue":"4\/6\/1971","languageId":2,"languageName":"en","statusId":1,"statusName":"active"},{"attributeId":100003,"attributeName":"customerNumber","attributeValue":"CON-20160422-0013","languageId":2,"languageName":"en","statusId":1,"statusName":"active"},{"attributeId":100004,"attributeName":"language","attributeValue":"EN","languageId":2,"languageName":"en","statusId":1,"statusName":"active"},{"attributeId":100005,"attributeName":"type","attributeValue":"customer","languageId":2,"languageName":"en","statusId":1,"statusName":"active"},{"attributeId":100013,"attributeName":"NL_LEGOLAND","attributeValue":"True","languageId":2,"languageName":"en","statusId":1,"statusName":"active"},{"attributeId":100014,"attributeName":"NL_RIVERLAND","attributeValue":"True","languageId":2,"languageName":"en","statusId":1,"statusName":"active"},{"attributeId":100015,"attributeName":"NL_GENERAL_COMMUNICATION","attributeValue":"False","languageId":2,"languageName":"en","statusId":1,"statusName":"active"},{"attributeId":100017,"attributeName":"mascotteID","attributeValue":"mascotte8_b.fw","languageId":2,"languageName":"en","statusId":1,"statusName":"active"},{"attributeId":100018,"attributeName":"NL_BOLLIWOOD_PARK","attributeValue":"True","languageId":2,"languageName":"en","statusId":1,"statusName":"active"},{"attributeId":100019,"attributeName":"NL_MOTIONGATE","attributeValue":"True","languageId":2,"languageName":"en","statusId":1,"statusName":"active"},{"attributeId":100020,"attributeName":"NL_DUBAI_PARK_AND_RESORT","attributeValue":"True","languageId":2,"languageName":"en","statusId":1,"statusName":"active"}]}}]},"resultCode":"0"}
24.09.2016 11:10:39 +0200 10.0.32.247 Login status: 200
24.09.2016 11:18:54 +0200 10.0.32.247 Login req: {
            "languageId":"2",
            "transactionId": "1474708734888464738",
            "tenant":"1",
            "profileAttributeFlag":true,
            "externalIdList": {
                "externalIds": [
                    {
                    "externalId" : "10209656634673292"
                    }
                ]
             }
            }
24.09.2016 11:18:54 +0200 10.0.32.247 Login token: dfa6a7dd7ffb49ab367f4d376f1bc4fd
24.09.2016 11:18:54 +0200 10.0.32.247 Login response: {"transactionId":"1474708734888464738","userRetrievedList":{"users":[{"id":3664,"description":"10209656634673292","parentBusinessUserId":2,"statusId":1,"roleTypeId":2,"defaultLanguageId":2,"userExternalIdList":{"externalIds":[{"externalId":"10209656634673292","defaultFlag":1,"type":"socialID","statusId":1}]},"userAttributeList":{"attributeValues":[{"attributeId":9,"attributeName":"name","attributeValue":"Faten","languageId":2,"languageName":"en","statusId":1,"statusName":"active"},{"attributeId":10,"attributeName":"surname","attributeValue":"Helail","languageId":2,"languageName":"en","statusId":1,"statusName":"active"},{"attributeId":14,"attributeName":"email","attributeValue":"faten_m_h@yahoo.com","languageId":2,"languageName":"en","statusId":1,"statusName":"active"},{"attributeId":100003,"attributeName":"customerNumber","attributeValue":"CON-20160915-0018","languageId":2,"languageName":"en","statusId":1,"statusName":"active"},{"attributeId":100004,"attributeName":"language","attributeValue":"en","languageId":2,"languageName":"en","statusId":1,"statusName":"active"}]}}]},"resultCode":"0"}
24.09.2016 11:18:54 +0200 10.0.32.247 Login status: 200
24.09.2016 11:19:08 +0200 10.0.32.247 Login req: {
            "languageId":"2",
            "transactionId": "1474708748303499975",
            "tenant":"1",
            "profileAttributeFlag":true,
            "externalIdList": {
                "externalIds": [
                    {
                    "externalId" : "kiran.m.2604@gmail.com"
                    }
                ]
             }
            }
24.09.2016 11:19:08 +0200 10.0.32.247 Login token: 79a35966dedb8b537ae4adbb42968
24.09.2016 11:19:08 +0200 10.0.32.247 Login response: {"transactionId":"1474708748303499975","userRetrievedList":{"users":[{"id":2266,"description":"kiran.m.2604@gmail.com","parentBusinessUserId":2,"statusId":1,"roleTypeId":2,"defaultLanguageId":2,"userExternalIdList":{"externalIds":[{"externalId":"kiran.m.2604@gmail.com","defaultFlag":1,"type":"email","statusId":1}]},"userAttributeList":{"attributeValues":[{"attributeId":9,"attributeName":"name","attributeValue":"Kiran","languageId":2,"languageName":"en","statusId":1,"statusName":"active"},{"attributeId":10,"attributeName":"surname","attributeValue":"Muppavaram","languageId":2,"languageName":"en","statusId":1,"statusName":"active"},{"attributeId":14,"attributeName":"email","attributeValue":"kiran.m.2604@gmail.com","languageId":2,"languageName":"en","statusId":1,"statusName":"active"},{"attributeId":100003,"attributeName":"customerNumber","attributeValue":"CON-20160729-0015","languageId":2,"languageName":"en","statusId":1,"statusName":"active"},{"attributeId":100004,"attributeName":"language","attributeValue":"EN","languageId":2,"languageName":"en","statusId":1,"statusName":"active"},{"attributeId":100020,"attributeName":"NL_DUBAI_PARK_AND_RESORT","attributeValue":"true","languageId":2,"languageName":"en","statusId":1,"statusName":"active"}]}}]},"resultCode":"0"}
24.09.2016 11:19:08 +0200 10.0.32.247 Login status: 200
24.09.2016 11:50:13 +0200 10.0.32.247 TOKEN ricevuto, cache creata
24.09.2016 12:15:31 +0200 10.0.32.247 Login req: {
            "languageId":"2",
            "transactionId": "1474712131854862942",
            "tenant":"1",
            "profileAttributeFlag":true,
            "externalIdList": {
                "externalIds": [
                    {
                    "externalId" : "jjinxisha@gmail.com"
                    }
                ]
             }
            }
24.09.2016 12:15:31 +0200 10.0.32.247 Login token: 9e494aac9d6e338320b18985dc278f8
24.09.2016 12:15:31 +0200 10.0.32.247 Login response: {"transactionId":"1474712131854862942","userRetrievedList":{"users":[{"id":3707,"description":"jjinxisha@gmail.com","parentBusinessUserId":2,"statusId":1,"roleTypeId":2,"defaultLanguageId":2,"userExternalIdList":{"externalIds":[{"externalId":"jjinxisha@gmail.com","defaultFlag":1,"type":"email","statusId":1}]},"userAttributeList":{"attributeValues":[{"attributeId":9,"attributeName":"name","attributeValue":"Mohamed ","languageId":2,"languageName":"en","statusId":1,"statusName":"active"},{"attributeId":10,"attributeName":"surname","attributeValue":"Athman","languageId":2,"languageName":"en","statusId":1,"statusName":"active"},{"attributeId":14,"attributeName":"email","attributeValue":"jjinxisha@gmail.com","languageId":2,"languageName":"en","statusId":1,"statusName":"active"},{"attributeId":100003,"attributeName":"customerNumber","attributeValue":"CON-20160918-0032","languageId":2,"languageName":"en","statusId":1,"statusName":"active"},{"attributeId":100004,"attributeName":"language","attributeValue":"EN","languageId":2,"languageName":"en","statusId":1,"statusName":"active"}]}}]},"resultCode":"0"}
24.09.2016 12:15:31 +0200 10.0.32.247 Login status: 200
24.09.2016 12:33:39 +0200 10.0.32.247 Login req: {
            "languageId":"2",
            "transactionId": "14747132191513822872",
            "tenant":"1",
            "profileAttributeFlag":true,
            "externalIdList": {
                "externalIds": [
                    {
                    "externalId" : "1108960329157129"
                    }
                ]
             }
            }
24.09.2016 12:33:39 +0200 10.0.32.247 Login token: 8f573a4e911ea8b84b7ca539db35278
24.09.2016 12:33:39 +0200 10.0.32.247 Login response: {"transactionId":"14747132191513822872","userRetrievedList":{"users":[{"id":3884,"description":"1108960329157129","parentBusinessUserId":2,"statusId":1,"roleTypeId":2,"defaultLanguageId":2,"userExternalIdList":{"externalIds":[{"externalId":"1108960329157129","defaultFlag":1,"type":"socialID","statusId":1}]},"userAttributeList":{"attributeValues":[{"attributeId":9,"attributeName":"name","attributeValue":"Jeane Louieboi","languageId":2,"languageName":"en","statusId":1,"statusName":"active"},{"attributeId":10,"attributeName":"surname","attributeValue":"Aznar","languageId":2,"languageName":"en","statusId":1,"statusName":"active"},{"attributeId":14,"attributeName":"email","attributeValue":"jeanelouieaznar@gmail.com","languageId":2,"languageName":"en","statusId":1,"statusName":"active"},{"attributeId":100004,"attributeName":"language","attributeValue":"en","languageId":2,"languageName":"en","statusId":1,"statusName":"active"}]}}]},"resultCode":"0"}
24.09.2016 12:33:39 +0200 10.0.32.247 Login status: 200
24.09.2016 12:52:09 +0200 10.0.32.247 TOKEN ricevuto, cache creata
24.09.2016 13:04:21 +0200 10.0.32.247 Login req: {
            "languageId":"2",
            "transactionId": "14747150611928257650",
            "tenant":"1",
            "profileAttributeFlag":true,
            "externalIdList": {
                "externalIds": [
                    {
                    "externalId" : "dejiegalvan21@gmail.com"
                    }
                ]
             }
            }
24.09.2016 13:04:21 +0200 10.0.32.247 Login token: cdb67e7d5f17b3875efbd9ef12e62cc
24.09.2016 13:04:21 +0200 10.0.32.247 Login response: {"transactionId":"14747150611928257650","userRetrievedList":{"users":[{"id":3885,"description":"dejiegalvan21@gmail.com","parentBusinessUserId":2,"statusId":1,"roleTypeId":2,"defaultLanguageId":2,"userExternalIdList":{"externalIds":[{"externalId":"dejiegalvan21@gmail.com","defaultFlag":1,"type":"email","statusId":1}]},"userAttributeList":{"attributeValues":[{"attributeId":9,"attributeName":"name","attributeValue":"DEBORAH","languageId":2,"languageName":"en","statusId":1,"statusName":"active"},{"attributeId":10,"attributeName":"surname","attributeValue":"GALVAN","languageId":2,"languageName":"en","statusId":1,"statusName":"active"},{"attributeId":14,"attributeName":"email","attributeValue":"dejiegalvan21@gmail.com","languageId":2,"languageName":"en","statusId":1,"statusName":"active"},{"attributeId":100003,"attributeName":"customerNumber","attributeValue":"CON-20160924-0018","languageId":2,"languageName":"en","statusId":1,"statusName":"active"},{"attributeId":100004,"attributeName":"language","attributeValue":"EN","languageId":2,"languageName":"en","statusId":1,"statusName":"active"},{"attributeId":100020,"attributeName":"NL_DUBAI_PARK_AND_RESORT","attributeValue":"true","languageId":2,"languageName":"en","statusId":1,"statusName":"active"}]}}]},"resultCode":"0"}
24.09.2016 13:04:21 +0200 10.0.32.247 Login status: 200
24.09.2016 13:52:10 +0200 10.0.32.247 TOKEN ricevuto, cache creata
24.09.2016 13:59:17 +0200 10.0.32.247 Login req: {
            "languageId":"2",
            "transactionId": "1474718357300725807",
            "tenant":"1",
            "profileAttributeFlag":true,
            "externalIdList": {
                "externalIds": [
                    {
                    "externalId" : "1648428768820081"
                    }
                ]
             }
            }
24.09.2016 13:59:17 +0200 10.0.32.247 Login token: 67bf5d2b7e22e3dee9741d55f4b4f0
24.09.2016 13:59:17 +0200 10.0.32.247 Login response: {"transactionId":"1474718357300725807","userRetrievedList":{"users":[{"id":3887,"description":"1648428768820081","parentBusinessUserId":2,"statusId":1,"roleTypeId":2,"defaultLanguageId":2,"userExternalIdList":{"externalIds":[{"externalId":"1648428768820081","defaultFlag":1,"type":"socialID","statusId":1}]},"userAttributeList":{"attributeValues":[{"attributeId":9,"attributeName":"name","attributeValue":"Jaiprakash","languageId":2,"languageName":"en","statusId":1,"statusName":"active"},{"attributeId":10,"attributeName":"surname","attributeValue":"Rao","languageId":2,"languageName":"en","statusId":1,"statusName":"active"},{"attributeId":14,"attributeName":"email","attributeValue":"jprao1234@gmail.com","languageId":2,"languageName":"en","statusId":1,"statusName":"active"},{"attributeId":100004,"attributeName":"language","attributeValue":"en","languageId":2,"languageName":"en","statusId":1,"statusName":"active"}]}}]},"resultCode":"0"}
24.09.2016 13:59:17 +0200 10.0.32.247 Login status: 200
24.09.2016 14:08:24 +0200 10.0.32.247 Login req: {
            "languageId":"2",
            "transactionId": "1474718904889387485",
            "tenant":"1",
            "profileAttributeFlag":true,
            "externalIdList": {
                "externalIds": [
                    {
                    "externalId" : "a7md_englishaccounts@hotmail.com"
                    }
                ]
             }
            }
24.09.2016 14:08:24 +0200 10.0.32.247 Login token: ae1f393d7216f56503574697a44ac8
24.09.2016 14:08:24 +0200 10.0.32.247 Login response: {"transactionId":"1474718904889387485","userRetrievedList":{"users":[{"id":3872,"description":"A7md_englishaccounts@hotmail.com","parentBusinessUserId":2,"statusId":1,"roleTypeId":2,"defaultLanguageId":2,"userExternalIdList":{"externalIds":[{"externalId":"A7md_englishaccounts@hotmail.com","defaultFlag":1,"type":"email","statusId":1}]},"userAttributeList":{"attributeValues":[{"attributeId":9,"attributeName":"name","attributeValue":"Ahmed","languageId":2,"languageName":"en","statusId":1,"statusName":"active"},{"attributeId":10,"attributeName":"surname","attributeValue":"Al Shabasy","languageId":2,"languageName":"en","statusId":1,"statusName":"active"},{"attributeId":14,"attributeName":"email","attributeValue":"A7md_englishaccounts@hotmail.com","languageId":2,"languageName":"en","statusId":1,"statusName":"active"},{"attributeId":100003,"attributeName":"customerNumber","attributeValue":"CON-20160924-0002","languageId":2,"languageName":"en","statusId":1,"statusName":"active"},{"attributeId":100004,"attributeName":"language","attributeValue":"EN","languageId":2,"languageName":"en","statusId":1,"statusName":"active"},{"attributeId":100020,"attributeName":"NL_DUBAI_PARK_AND_RESORT","attributeValue":"true","languageId":2,"languageName":"en","statusId":1,"statusName":"active"}]}}]},"resultCode":"0"}
24.09.2016 14:08:24 +0200 10.0.32.247 Login status: 200
24.09.2016 14:08:44 +0200 10.0.32.247 Login req: {
            "languageId":"2",
            "transactionId": "14747189241026246607",
            "tenant":"1",
            "profileAttributeFlag":true,
            "externalIdList": {
                "externalIds": [
                    {
                    "externalId" : "a7md_englishaccounts@hotmail.com"
                    }
                ]
             }
            }
24.09.2016 14:08:44 +0200 10.0.32.247 Login token: ae1f393d7216f56503574697a44ac8
24.09.2016 14:08:44 +0200 10.0.32.247 Login response: {"transactionId":"14747189241026246607","userRetrievedList":{"users":[{"id":3872,"description":"A7md_englishaccounts@hotmail.com","parentBusinessUserId":2,"statusId":1,"roleTypeId":2,"defaultLanguageId":2,"userExternalIdList":{"externalIds":[{"externalId":"A7md_englishaccounts@hotmail.com","defaultFlag":1,"type":"email","statusId":1}]},"userAttributeList":{"attributeValues":[{"attributeId":9,"attributeName":"name","attributeValue":"Ahmed","languageId":2,"languageName":"en","statusId":1,"statusName":"active"},{"attributeId":10,"attributeName":"surname","attributeValue":"Al Shabasy","languageId":2,"languageName":"en","statusId":1,"statusName":"active"},{"attributeId":14,"attributeName":"email","attributeValue":"A7md_englishaccounts@hotmail.com","languageId":2,"languageName":"en","statusId":1,"statusName":"active"},{"attributeId":100003,"attributeName":"customerNumber","attributeValue":"CON-20160924-0002","languageId":2,"languageName":"en","statusId":1,"statusName":"active"},{"attributeId":100004,"attributeName":"language","attributeValue":"EN","languageId":2,"languageName":"en","statusId":1,"statusName":"active"},{"attributeId":100020,"attributeName":"NL_DUBAI_PARK_AND_RESORT","attributeValue":"true","languageId":2,"languageName":"en","statusId":1,"statusName":"active"}]}}]},"resultCode":"0"}
24.09.2016 14:08:44 +0200 10.0.32.247 Login status: 200
24.09.2016 14:52:13 +0200 10.0.32.247 TOKEN ricevuto, cache creata
24.09.2016 15:52:34 +0200 10.0.32.247 TOKEN ricevuto, cache creata
24.09.2016 15:54:41 +0200 10.0.32.247 TOKEN expired => RENEWING. Server response =>401
24.09.2016 15:54:41 +0200 10.0.32.247 RENEWING token
24.09.2016 15:54:41 +0200 10.0.32.247 RENEW TOKEN RESULT =>200 || 987beb8abaaf33b0a1c5465d3523e828
24.09.2016 16:11:51 +0200 10.0.32.247 Login req: {
            "languageId":"2",
            "transactionId": "14747263111156738885",
            "tenant":"1",
            "profileAttributeFlag":true,
            "externalIdList": {
                "externalIds": [
                    {
                    "externalId" : "aldarmaki.alanood@gmail.com"
                    }
                ]
             }
            }
24.09.2016 16:11:51 +0200 10.0.32.247 Login token: 13b06a6a139b6bf08af09cc530e9a576
24.09.2016 16:11:51 +0200 10.0.32.247 Login response: {"transactionId":"14747263111156738885","userRetrievedList":{"users":[{"id":3889,"description":"aldarmaki.alanood@gmail.com","parentBusinessUserId":2,"statusId":1,"roleTypeId":2,"defaultLanguageId":2,"userExternalIdList":{"externalIds":[{"externalId":"aldarmaki.alanood@gmail.com","defaultFlag":1,"type":"email","statusId":1}]},"userAttributeList":{"attributeValues":[{"attributeId":9,"attributeName":"name","attributeValue":"Alanood","languageId":2,"languageName":"en","statusId":1,"statusName":"active"},{"attributeId":10,"attributeName":"surname","attributeValue":"Aldarmaki","languageId":2,"languageName":"en","statusId":1,"statusName":"active"},{"attributeId":14,"attributeName":"email","attributeValue":"aldarmaki.alanood@gmail.com","languageId":2,"languageName":"en","statusId":1,"statusName":"active"},{"attributeId":100003,"attributeName":"customerNumber","attributeValue":"CON-20160924-0023","languageId":2,"languageName":"en","statusId":1,"statusName":"active"},{"attributeId":100004,"attributeName":"language","attributeValue":"EN","languageId":2,"languageName":"en","statusId":1,"statusName":"active"},{"attributeId":100020,"attributeName":"NL_DUBAI_PARK_AND_RESORT","attributeValue":"true","languageId":2,"languageName":"en","statusId":1,"statusName":"active"}]}}]},"resultCode":"0"}
24.09.2016 16:11:51 +0200 10.0.32.247 Login status: 200
24.09.2016 16:42:21 +0200 10.0.32.247 Login req: {
            "languageId":"2",
            "transactionId": "1474728141100277253",
            "tenant":"1",
            "profileAttributeFlag":true,
            "externalIdList": {
                "externalIds": [
                    {
                    "externalId" : "Irfan.siddiqui@live.com"
                    }
                ]
             }
            }
24.09.2016 16:42:21 +0200 10.0.32.247 Login token: bb4ff77d7681f3685ecb86fb82fea2
24.09.2016 16:42:21 +0200 10.0.32.247 Login response: {"transactionId":"1474728141100277253","userRetrievedList":{"users":[{"id":3890,"description":"Irfan.siddiqui@live.com","parentBusinessUserId":2,"statusId":1,"roleTypeId":2,"defaultLanguageId":2,"userExternalIdList":{"externalIds":[{"externalId":"Irfan.siddiqui@live.com","defaultFlag":1,"type":"email","statusId":1}]},"userAttributeList":{"attributeValues":[{"attributeId":9,"attributeName":"name","attributeValue":"Muhammad Irfan","languageId":2,"languageName":"en","statusId":1,"statusName":"active"},{"attributeId":10,"attributeName":"surname","attributeValue":"Siddiqui","languageId":2,"languageName":"en","statusId":1,"statusName":"active"},{"attributeId":14,"attributeName":"email","attributeValue":"Irfan.siddiqui@live.com","languageId":2,"languageName":"en","statusId":1,"statusName":"active"},{"attributeId":100003,"attributeName":"customerNumber","attributeValue":"CON-20160924-0024","languageId":2,"languageName":"en","statusId":1,"statusName":"active"},{"attributeId":100004,"attributeName":"language","attributeValue":"EN","languageId":2,"languageName":"en","statusId":1,"statusName":"active"},{"attributeId":100020,"attributeName":"NL_DUBAI_PARK_AND_RESORT","attributeValue":"true","languageId":2,"languageName":"en","statusId":1,"statusName":"active"}]}}]},"resultCode":"0"}
24.09.2016 16:42:21 +0200 10.0.32.247 Login status: 200
24.09.2016 16:45:43 +0200 10.0.32.247 Login req: {
            "languageId":"2",
            "transactionId": "1474728343332498875",
            "tenant":"1",
            "profileAttributeFlag":true,
            "externalIdList": {
                "externalIds": [
                    {
                    "externalId" : "10208997459668158"
                    }
                ]
             }
            }
24.09.2016 16:45:43 +0200 10.0.32.247 Login token: eb666ad8c5de6d3c947c2086458d25
24.09.2016 16:45:43 +0200 10.0.32.247 Login response: {"transactionId":"1474728343332498875","userRetrievedList":{"users":[{"id":3879,"description":"10208997459668158","parentBusinessUserId":2,"statusId":1,"roleTypeId":2,"defaultLanguageId":2,"userExternalIdList":{"externalIds":[{"externalId":"10208997459668158","defaultFlag":1,"type":"socialID","statusId":1}]},"userAttributeList":{"attributeValues":[{"attributeId":9,"attributeName":"name","attributeValue":"Maricar","languageId":2,"languageName":"en","statusId":1,"statusName":"active"},{"attributeId":10,"attributeName":"surname","attributeValue":"Mariano","languageId":2,"languageName":"en","statusId":1,"statusName":"active"},{"attributeId":14,"attributeName":"email","attributeValue":"icar1303@yahoo.com","languageId":2,"languageName":"en","statusId":1,"statusName":"active"},{"attributeId":100003,"attributeName":"customerNumber","attributeValue":"CON-20160924-0012","languageId":2,"languageName":"en","statusId":1,"statusName":"active"},{"attributeId":100004,"attributeName":"language","attributeValue":"en","languageId":2,"languageName":"en","statusId":1,"statusName":"active"}]}}]},"resultCode":"0"}
24.09.2016 16:45:43 +0200 10.0.32.247 Login status: 200
24.09.2016 16:54:50 +0200 10.0.32.247 TOKEN ricevuto, cache creata
24.09.2016 17:54:59 +0200 10.0.32.247 TOKEN ricevuto, cache creata
24.09.2016 17:59:03 +0200 10.0.32.247 TOKEN expired => RENEWING. Server response =>401
24.09.2016 17:59:03 +0200 10.0.32.247 RENEWING token
24.09.2016 17:59:03 +0200 10.0.32.247 RENEW TOKEN RESULT =>200 || 6bc3abbf4af4fa5944d164889ba73
24.09.2016 18:34:07 +0200 10.0.32.247 Login req: {
            "languageId":"2",
            "transactionId": "1474734847770692245",
            "tenant":"1",
            "profileAttributeFlag":true,
            "externalIdList": {
                "externalIds": [
                    {
                    "externalId" : "rohan7782436@hotmail.com"
                    }
                ]
             }
            }
24.09.2016 18:34:07 +0200 10.0.32.247 Login token: 8bcb6668f535adce131b516baa256fc0
24.09.2016 18:34:07 +0200 10.0.32.247 Login response: {"transactionId":"1474734847770692245","userRetrievedList":{"users":[{"id":3871,"description":"rohan7782436@hotmail.com","parentBusinessUserId":2,"statusId":1,"roleTypeId":2,"defaultLanguageId":2,"userExternalIdList":{"externalIds":[{"externalId":"rohan7782436@hotmail.com","defaultFlag":1,"type":"email","statusId":1}]},"userAttributeList":{"attributeValues":[{"attributeId":5,"attributeName":"country","attributeValue":"United Arab Emirates","languageId":2,"languageName":"en","statusId":1,"statusName":"active"},{"attributeId":9,"attributeName":"name","attributeValue":"Raja","languageId":2,"languageName":"en","statusId":1,"statusName":"active"},{"attributeId":10,"attributeName":"surname","attributeValue":"Guwalani","languageId":2,"languageName":"en","statusId":1,"statusName":"active"},{"attributeId":14,"attributeName":"email","attributeValue":"rohan7782436@hotmail.com","languageId":2,"languageName":"en","statusId":1,"statusName":"active"},{"attributeId":49,"attributeName":"city","attributeValue":"Dubai","languageId":2,"languageName":"en","statusId":1,"statusName":"active"},{"attributeId":50,"attributeName":"zipCode","attributeValue":"2375","languageId":2,"languageName":"en","statusId":1,"statusName":"active"},{"attributeId":108,"attributeName":"address","attributeValue":"F 15 sharaf dg bldg opp astoria hotel","languageId":2,"languageName":"en","statusId":1,"statusName":"active"},{"attributeId":100001,"attributeName":"msisdn","attributeValue":"+971-506508492","languageId":2,"languageName":"en","statusId":1,"statusName":"active"},{"attributeId":100002,"attributeName":"birthday","attributeValue":"11\/24\/1981","languageId":2,"languageName":"en","statusId":1,"statusName":"active"},{"attributeId":100003,"attributeName":"customerNumber","attributeValue":"CON-20160923-0034","languageId":2,"languageName":"en","statusId":1,"statusName":"active"},{"attributeId":100004,"attributeName":"language","attributeValue":"EN","languageId":2,"languageName":"en","statusId":1,"statusName":"active"},{"attributeId":100013,"attributeName":"NL_LEGOLAND","attributeValue":"False","languageId":2,"languageName":"en","statusId":1,"statusName":"active"},{"attributeId":100014,"attributeName":"NL_RIVERLAND","attributeValue":"False","languageId":2,"languageName":"en","statusId":1,"statusName":"active"},{"attributeId":100015,"attributeName":"NL_GENERAL_COMMUNICATION","attributeValue":"False","languageId":2,"languageName":"en","statusId":1,"statusName":"active"},{"attributeId":100018,"attributeName":"NL_BOLLIWOOD_PARK","attributeValue":"False","languageId":2,"languageName":"en","statusId":1,"statusName":"active"},{"attributeId":100019,"attributeName":"NL_MOTIONGATE","attributeValue":"False","languageId":2,"languageName":"en","statusId":1,"statusName":"active"},{"attributeId":100020,"attributeName":"NL_DUBAI_PARK_AND_RESORT","attributeValue":"True","languageId":2,"languageName":"en","statusId":1,"statusName":"active"}]}}]},"resultCode":"0"}
24.09.2016 18:34:07 +0200 10.0.32.247 Login status: 200
24.09.2016 18:36:44 +0200 10.0.32.247 Login req: {
            "languageId":"2",
            "transactionId": "14747350041589268055",
            "tenant":"1",
            "profileAttributeFlag":true,
            "externalIdList": {
                "externalIds": [
                    {
                    "externalId" : "almahmeed@live.com"
                    }
                ]
             }
            }
24.09.2016 18:36:44 +0200 10.0.32.247 Login token: 971266e7fa8759c812c88c3368b0a1
24.09.2016 18:36:44 +0200 10.0.32.247 Login response: {"transactionId":"14747350041589268055","userRetrievedList":{"users":[{"id":3748,"description":"almahmeed@live.com","parentBusinessUserId":2,"statusId":1,"roleTypeId":2,"defaultLanguageId":2,"userExternalIdList":{"externalIds":[{"externalId":"almahmeed@live.com","defaultFlag":1,"type":"email","statusId":1}]},"userAttributeList":{"attributeValues":[{"attributeId":5,"attributeName":"country","attributeValue":"United Arab Emirates","languageId":2,"languageName":"en","statusId":1,"statusName":"active"},{"attributeId":9,"attributeName":"name","attributeValue":"HASAN","languageId":2,"languageName":"en","statusId":1,"statusName":"active"},{"attributeId":10,"attributeName":"surname","attributeValue":"ALMAHMEED","languageId":2,"languageName":"en","statusId":1,"statusName":"active"},{"attributeId":14,"attributeName":"email","attributeValue":"almahmeed@live.com","languageId":2,"languageName":"en","statusId":1,"statusName":"active"},{"attributeId":49,"attributeName":"city","attributeValue":"Abu Dhabi","languageId":2,"languageName":"en","statusId":1,"statusName":"active"},{"attributeId":50,"attributeName":"zipCode","attributeValue":"AbuDhabi","languageId":2,"languageName":"en","statusId":1,"statusName":"active"},{"attributeId":108,"attributeName":"address","attributeValue":"P.o.Box 7235","languageId":2,"languageName":"en","statusId":1,"statusName":"active"},{"attributeId":100001,"attributeName":"msisdn","attributeValue":"+971-506150111","languageId":2,"languageName":"en","statusId":1,"statusName":"active"},{"attributeId":100002,"attributeName":"birthday","attributeValue":"6\/29\/1974","languageId":2,"languageName":"en","statusId":1,"statusName":"active"},{"attributeId":100003,"attributeName":"customerNumber","attributeValue":"CON-20160920-0001","languageId":2,"languageName":"en","statusId":1,"statusName":"active"},{"attributeId":100004,"attributeName":"language","attributeValue":"en","languageId":2,"languageName":"en","statusId":1,"statusName":"active"},{"attributeId":100013,"attributeName":"NL_LEGOLAND","attributeValue":"True","languageId":2,"languageName":"en","statusId":1,"statusName":"active"},{"attributeId":100014,"attributeName":"NL_RIVERLAND","attributeValue":"True","languageId":2,"languageName":"en","statusId":1,"statusName":"active"},{"attributeId":100015,"attributeName":"NL_GENERAL_COMMUNICATION","attributeValue":"False","languageId":2,"languageName":"en","statusId":1,"statusName":"active"},{"attributeId":100017,"attributeName":"mascotteID","attributeValue":"mascotte8_b.fw","languageId":2,"languageName":"en","statusId":1,"statusName":"active"},{"attributeId":100018,"attributeName":"NL_BOLLIWOOD_PARK","attributeValue":"True","languageId":2,"languageName":"en","statusId":1,"statusName":"active"},{"attributeId":100019,"attributeName":"NL_MOTIONGATE","attributeValue":"True","languageId":2,"languageName":"en","statusId":1,"statusName":"active"},{"attributeId":100020,"attributeName":"NL_DUBAI_PARK_AND_RESORT","attributeValue":"True","languageId":2,"languageName":"en","statusId":1,"statusName":"active"}]}}]},"resultCode":"0"}
24.09.2016 18:36:44 +0200 10.0.32.247 Login status: 200
24.09.2016 18:38:32 +0200 10.0.32.247 Login req: {
            "languageId":"2",
            "transactionId": "1474735111938760444",
            "tenant":"1",
            "profileAttributeFlag":true,
            "externalIdList": {
                "externalIds": [
                    {
                    "externalId" : "almahmeed@live.com"
                    }
                ]
             }
            }
24.09.2016 18:38:32 +0200 10.0.32.247 Login token: 971266e7fa8759c812c88c3368b0a1
24.09.2016 18:38:32 +0200 10.0.32.247 Login response: {"transactionId":"1474735111938760444","userRetrievedList":{"users":[{"id":3748,"description":"almahmeed@live.com","parentBusinessUserId":2,"statusId":1,"roleTypeId":2,"defaultLanguageId":2,"userExternalIdList":{"externalIds":[{"externalId":"almahmeed@live.com","defaultFlag":1,"type":"email","statusId":1}]},"userAttributeList":{"attributeValues":[{"attributeId":5,"attributeName":"country","attributeValue":"United Arab Emirates","languageId":2,"languageName":"en","statusId":1,"statusName":"active"},{"attributeId":9,"attributeName":"name","attributeValue":"HASAN","languageId":2,"languageName":"en","statusId":1,"statusName":"active"},{"attributeId":10,"attributeName":"surname","attributeValue":"ALMAHMEED","languageId":2,"languageName":"en","statusId":1,"statusName":"active"},{"attributeId":14,"attributeName":"email","attributeValue":"almahmeed@live.com","languageId":2,"languageName":"en","statusId":1,"statusName":"active"},{"attributeId":49,"attributeName":"city","attributeValue":"Abu Dhabi","languageId":2,"languageName":"en","statusId":1,"statusName":"active"},{"attributeId":50,"attributeName":"zipCode","attributeValue":"AbuDhabi","languageId":2,"languageName":"en","statusId":1,"statusName":"active"},{"attributeId":108,"attributeName":"address","attributeValue":"P.o.Box 7235","languageId":2,"languageName":"en","statusId":1,"statusName":"active"},{"attributeId":100001,"attributeName":"msisdn","attributeValue":"+971-506150111","languageId":2,"languageName":"en","statusId":1,"statusName":"active"},{"attributeId":100002,"attributeName":"birthday","attributeValue":"6\/29\/1974","languageId":2,"languageName":"en","statusId":1,"statusName":"active"},{"attributeId":100003,"attributeName":"customerNumber","attributeValue":"CON-20160920-0001","languageId":2,"languageName":"en","statusId":1,"statusName":"active"},{"attributeId":100004,"attributeName":"language","attributeValue":"en","languageId":2,"languageName":"en","statusId":1,"statusName":"active"},{"attributeId":100013,"attributeName":"NL_LEGOLAND","attributeValue":"True","languageId":2,"languageName":"en","statusId":1,"statusName":"active"},{"attributeId":100014,"attributeName":"NL_RIVERLAND","attributeValue":"True","languageId":2,"languageName":"en","statusId":1,"statusName":"active"},{"attributeId":100015,"attributeName":"NL_GENERAL_COMMUNICATION","attributeValue":"False","languageId":2,"languageName":"en","statusId":1,"statusName":"active"},{"attributeId":100017,"attributeName":"mascotteID","attributeValue":"mascotte8_b.fw","languageId":2,"languageName":"en","statusId":1,"statusName":"active"},{"attributeId":100018,"attributeName":"NL_BOLLIWOOD_PARK","attributeValue":"True","languageId":2,"languageName":"en","statusId":1,"statusName":"active"},{"attributeId":100019,"attributeName":"NL_MOTIONGATE","attributeValue":"True","languageId":2,"languageName":"en","statusId":1,"statusName":"active"},{"attributeId":100020,"attributeName":"NL_DUBAI_PARK_AND_RESORT","attributeValue":"True","languageId":2,"languageName":"en","statusId":1,"statusName":"active"}]}}]},"resultCode":"0"}
24.09.2016 18:38:32 +0200 10.0.32.247 Login status: 200
24.09.2016 18:58:48 +0200 10.0.32.247 TOKEN expired => RENEWING. Server response =>401
24.09.2016 18:58:48 +0200 10.0.32.247 RENEWING token
24.09.2016 18:58:48 +0200 10.0.32.247 RENEW TOKEN RESULT =>200 || fe7afd8eaad51ca25b89ee5a2ddc7e8
24.09.2016 19:45:02 +0200 10.0.32.247 Login req: {
            "languageId":"2",
            "transactionId": "14747391021991836308",
            "tenant":"1",
            "profileAttributeFlag":true,
            "externalIdList": {
                "externalIds": [
                    {
                    "externalId" : "adkarshantanu@gmail.com"
                    }
                ]
             }
            }
24.09.2016 19:45:02 +0200 10.0.32.247 Login token: f4942b661661bea9d304612a1c2ff86
24.09.2016 19:45:02 +0200 10.0.32.247 Login response: {"transactionId":"14747391021991836308","userRetrievedList":{"users":[{"id":3896,"description":"adkarshantanu@gmail.com","parentBusinessUserId":2,"statusId":1,"roleTypeId":2,"defaultLanguageId":2,"userExternalIdList":{"externalIds":[{"externalId":"adkarshantanu@gmail.com","defaultFlag":1,"type":"email","statusId":1}]},"userAttributeList":{"attributeValues":[{"attributeId":9,"attributeName":"name","attributeValue":"Shantanu","languageId":2,"languageName":"en","statusId":1,"statusName":"active"},{"attributeId":10,"attributeName":"surname","attributeValue":"Adkar","languageId":2,"languageName":"en","statusId":1,"statusName":"active"},{"attributeId":14,"attributeName":"email","attributeValue":"adkarshantanu@gmail.com","languageId":2,"languageName":"en","statusId":1,"statusName":"active"},{"attributeId":100003,"attributeName":"customerNumber","attributeValue":"CON-20160924-0032","languageId":2,"languageName":"en","statusId":1,"statusName":"active"},{"attributeId":100004,"attributeName":"language","attributeValue":"EN","languageId":2,"languageName":"en","statusId":1,"statusName":"active"}]}}]},"resultCode":"0"}
24.09.2016 19:45:02 +0200 10.0.32.247 Login status: 200
24.09.2016 19:49:29 +0200 10.0.32.247 Login req: {
            "languageId":"2",
            "transactionId": "1474739369909215237",
            "tenant":"1",
            "profileAttributeFlag":true,
            "externalIdList": {
                "externalIds": [
                    {
                    "externalId" : "793591500780581"
                    }
                ]
             }
            }
24.09.2016 19:49:29 +0200 10.0.32.247 Login token: b3ef9859c454596ea6a416fd8987e2f
24.09.2016 19:49:29 +0200 10.0.32.247 Login response: {"transactionId":"1474739369909215237","userRetrievedList":{"users":[{"id":3897,"description":"793591500780581","parentBusinessUserId":2,"statusId":1,"roleTypeId":2,"defaultLanguageId":2,"userExternalIdList":{"externalIds":[{"externalId":"793591500780581","defaultFlag":1,"type":"socialID","statusId":1}]},"userAttributeList":{"attributeValues":[{"attributeId":9,"attributeName":"name","attributeValue":"Riad","languageId":2,"languageName":"en","statusId":1,"statusName":"active"},{"attributeId":10,"attributeName":"surname","attributeValue":"Sifi","languageId":2,"languageName":"en","statusId":1,"statusName":"active"},{"attributeId":14,"attributeName":"email","attributeValue":"riad_sifi@yahoo.fr","languageId":2,"languageName":"en","statusId":1,"statusName":"active"},{"attributeId":100004,"attributeName":"language","attributeValue":"ar","languageId":2,"languageName":"en","statusId":1,"statusName":"active"}]}}]},"resultCode":"0"}
24.09.2016 19:49:29 +0200 10.0.32.247 Login status: 200
24.09.2016 19:59:48 +0200 10.0.32.247 TOKEN ricevuto, cache creata
24.09.2016 20:02:24 +0200 10.0.32.247 TOKEN expired => RENEWING. Server response =>401
24.09.2016 20:02:24 +0200 10.0.32.247 RENEWING token
24.09.2016 20:02:24 +0200 10.0.32.247 RENEW TOKEN RESULT =>200 || 2e76a5d64365bc093ca787da9c2edd
24.09.2016 20:05:50 +0200 10.0.32.247 Login req: {
            "languageId":"2",
            "transactionId": "1474740350719368494",
            "tenant":"1",
            "profileAttributeFlag":true,
            "externalIdList": {
                "externalIds": [
                    {
                    "externalId" : "jyoung.goh@gmail.com"
                    }
                ]
             }
            }
24.09.2016 20:05:50 +0200 10.0.32.247 Login token: 4818bcde38e05aeed88e34b5b3eadeb5
24.09.2016 20:05:50 +0200 10.0.32.247 Login response: {"transactionId":"1474740350719368494","userRetrievedList":{"users":[{"id":3898,"description":"jyoung.goh@gmail.com","parentBusinessUserId":2,"statusId":1,"roleTypeId":2,"defaultLanguageId":2,"userExternalIdList":{"externalIds":[{"externalId":"jyoung.goh@gmail.com","defaultFlag":1,"type":"email","statusId":1}]},"userAttributeList":{"attributeValues":[{"attributeId":9,"attributeName":"name","attributeValue":"Jin young","languageId":2,"languageName":"en","statusId":1,"statusName":"active"},{"attributeId":10,"attributeName":"surname","attributeValue":"Goh","languageId":2,"languageName":"en","statusId":1,"statusName":"active"},{"attributeId":14,"attributeName":"email","attributeValue":"jyoung.goh@gmail.com","languageId":2,"languageName":"en","statusId":1,"statusName":"active"},{"attributeId":100003,"attributeName":"customerNumber","attributeValue":"CON-20160924-0034","languageId":2,"languageName":"en","statusId":1,"statusName":"active"},{"attributeId":100004,"attributeName":"language","attributeValue":"EN","languageId":2,"languageName":"en","statusId":1,"statusName":"active"},{"attributeId":100020,"attributeName":"NL_DUBAI_PARK_AND_RESORT","attributeValue":"true","languageId":2,"languageName":"en","statusId":1,"statusName":"active"}]}}]},"resultCode":"0"}
24.09.2016 20:05:50 +0200 10.0.32.247 Login status: 200
24.09.2016 20:41:06 +0200 10.0.32.247 Login req: {
            "languageId":"2",
            "transactionId": "14747424661847335944",
            "tenant":"1",
            "profileAttributeFlag":true,
            "externalIdList": {
                "externalIds": [
                    {
                    "externalId" : "Nassh513@gmail.com"
                    }
                ]
             }
            }
24.09.2016 20:41:06 +0200 10.0.32.247 Login token: 54973e4bf56cc517f9bd29269f3d18d
24.09.2016 20:41:06 +0200 10.0.32.247 Login response: {"transactionId":"14747424661847335944","userRetrievedList":{"users":[{"id":3899,"description":"nassh513@gmail.com","parentBusinessUserId":2,"statusId":1,"roleTypeId":2,"defaultLanguageId":2,"userExternalIdList":{"externalIds":[{"externalId":"nassh513@gmail.com","defaultFlag":1,"type":"email","statusId":1}]},"userAttributeList":{"attributeValues":[{"attributeId":9,"attributeName":"name","attributeValue":"Nasser","languageId":2,"languageName":"en","statusId":1,"statusName":"active"},{"attributeId":10,"attributeName":"surname","attributeValue":"Alshuwayki","languageId":2,"languageName":"en","statusId":1,"statusName":"active"},{"attributeId":14,"attributeName":"email","attributeValue":"nassh513@gmail.com","languageId":2,"languageName":"en","statusId":1,"statusName":"active"},{"attributeId":100003,"attributeName":"customerNumber","attributeValue":"CON-20160924-0035","languageId":2,"languageName":"en","statusId":1,"statusName":"active"},{"attributeId":100004,"attributeName":"language","attributeValue":"AR","languageId":2,"languageName":"en","statusId":1,"statusName":"active"},{"attributeId":100020,"attributeName":"NL_DUBAI_PARK_AND_RESORT","attributeValue":"true","languageId":2,"languageName":"en","statusId":1,"statusName":"active"}]}}]},"resultCode":"0"}
24.09.2016 20:41:06 +0200 10.0.32.247 Login status: 200
24.09.2016 20:53:48 +0200 10.0.32.247 Login req: {
            "languageId":"2",
            "transactionId": "14747432281163860355",
            "tenant":"1",
            "profileAttributeFlag":true,
            "externalIdList": {
                "externalIds": [
                    {
                    "externalId" : "carlareyes@gmail.com"
                    }
                ]
             }
            }
24.09.2016 20:53:48 +0200 10.0.32.247 Login token: ef5231c243c3a1a4e66b6747931c
24.09.2016 20:53:48 +0200 10.0.32.247 Login response: {"transactionId":"14747432281163860355","userRetrievedList":{"users":[{"id":3578,"description":"carlareyes@gmail.com","parentBusinessUserId":2,"statusId":1,"roleTypeId":2,"defaultLanguageId":2,"userExternalIdList":{"externalIds":[{"externalId":"carlareyes@gmail.com","defaultFlag":1,"type":"email","statusId":1}]},"userAttributeList":{"attributeValues":[{"attributeId":5,"attributeName":"country","attributeValue":"United Arab Emirates","languageId":2,"languageName":"en","statusId":1,"statusName":"active"},{"attributeId":9,"attributeName":"name","attributeValue":"Anna","languageId":2,"languageName":"en","statusId":1,"statusName":"active"},{"attributeId":10,"attributeName":"surname","attributeValue":"Guzman","languageId":2,"languageName":"en","statusId":1,"statusName":"active"},{"attributeId":14,"attributeName":"email","attributeValue":"carlareyes@gmail.com","languageId":2,"languageName":"en","statusId":1,"statusName":"active"},{"attributeId":100001,"attributeName":"msisdn","attributeValue":"+971-557437960","languageId":2,"languageName":"en","statusId":1,"statusName":"active"},{"attributeId":100003,"attributeName":"customerNumber","attributeValue":"CON-20160913-0008","languageId":2,"languageName":"en","statusId":1,"statusName":"active"},{"attributeId":100004,"attributeName":"language","attributeValue":"en","languageId":2,"languageName":"en","statusId":1,"statusName":"active"},{"attributeId":100013,"attributeName":"NL_LEGOLAND","attributeValue":"True","languageId":2,"languageName":"en","statusId":1,"statusName":"active"},{"attributeId":100014,"attributeName":"NL_RIVERLAND","attributeValue":"False","languageId":2,"languageName":"en","statusId":1,"statusName":"active"},{"attributeId":100015,"attributeName":"NL_GENERAL_COMMUNICATION","attributeValue":"False","languageId":2,"languageName":"en","statusId":1,"statusName":"active"},{"attributeId":100018,"attributeName":"NL_BOLLIWOOD_PARK","attributeValue":"False","languageId":2,"languageName":"en","statusId":1,"statusName":"active"},{"attributeId":100019,"attributeName":"NL_MOTIONGATE","attributeValue":"False","languageId":2,"languageName":"en","statusId":1,"statusName":"active"},{"attributeId":100020,"attributeName":"NL_DUBAI_PARK_AND_RESORT","attributeValue":"True","languageId":2,"languageName":"en","statusId":1,"statusName":"active"}]}}]},"resultCode":"0"}
24.09.2016 20:53:48 +0200 10.0.32.247 Login status: 200
24.09.2016 21:04:20 +0200 10.0.32.247 TOKEN ricevuto, cache creata
24.09.2016 21:13:53 +0200 10.0.32.247 Login req: {
            "languageId":"2",
            "transactionId": "14747444331847905791",
            "tenant":"1",
            "profileAttributeFlag":true,
            "externalIdList": {
                "externalIds": [
                    {
                    "externalId" : "1266872276691065"
                    }
                ]
             }
            }
24.09.2016 21:13:53 +0200 10.0.32.247 Login token: 1caa04582f2fcdae3d02aedbac4c4ee
24.09.2016 21:13:53 +0200 10.0.32.247 Login response: {"transactionId":"14747444331847905791","userRetrievedList":{"users":[{"id":3900,"description":"1266872276691065","parentBusinessUserId":2,"statusId":1,"roleTypeId":2,"defaultLanguageId":2,"userExternalIdList":{"externalIds":[{"externalId":"1266872276691065","defaultFlag":1,"type":"socialID","statusId":1}]},"userAttributeList":{"attributeValues":[{"attributeId":9,"attributeName":"name","attributeValue":"Rohaan","languageId":2,"languageName":"en","statusId":1,"statusName":"active"},{"attributeId":10,"attributeName":"surname","attributeValue":"Khan","languageId":2,"languageName":"en","statusId":1,"statusName":"active"},{"attributeId":14,"attributeName":"email","attributeValue":"luckyrsk@gmail.com","languageId":2,"languageName":"en","statusId":1,"statusName":"active"},{"attributeId":100004,"attributeName":"language","attributeValue":"en","languageId":2,"languageName":"en","statusId":1,"statusName":"active"}]}}]},"resultCode":"0"}
24.09.2016 21:13:53 +0200 10.0.32.247 Login status: 200
24.09.2016 21:13:59 +0200 10.0.32.247 Login req: {
            "languageId":"2",
            "transactionId": "14747444399707667",
            "tenant":"1",
            "profileAttributeFlag":true,
            "externalIdList": {
                "externalIds": [
                    {
                    "externalId" : "carlareyes@gmail.com"
                    }
                ]
             }
            }
24.09.2016 21:13:59 +0200 10.0.32.247 Login token: ef5231c243c3a1a4e66b6747931c
24.09.2016 21:13:59 +0200 10.0.32.247 Login response: {"transactionId":"14747444399707667","userRetrievedList":{"users":[{"id":3578,"description":"carlareyes@gmail.com","parentBusinessUserId":2,"statusId":1,"roleTypeId":2,"defaultLanguageId":2,"userExternalIdList":{"externalIds":[{"externalId":"carlareyes@gmail.com","defaultFlag":1,"type":"email","statusId":1}]},"userAttributeList":{"attributeValues":[{"attributeId":5,"attributeName":"country","attributeValue":"United Arab Emirates","languageId":2,"languageName":"en","statusId":1,"statusName":"active"},{"attributeId":9,"attributeName":"name","attributeValue":"Anna","languageId":2,"languageName":"en","statusId":1,"statusName":"active"},{"attributeId":10,"attributeName":"surname","attributeValue":"Guzman","languageId":2,"languageName":"en","statusId":1,"statusName":"active"},{"attributeId":14,"attributeName":"email","attributeValue":"carlareyes@gmail.com","languageId":2,"languageName":"en","statusId":1,"statusName":"active"},{"attributeId":100001,"attributeName":"msisdn","attributeValue":"+971-557437960","languageId":2,"languageName":"en","statusId":1,"statusName":"active"},{"attributeId":100003,"attributeName":"customerNumber","attributeValue":"CON-20160913-0008","languageId":2,"languageName":"en","statusId":1,"statusName":"active"},{"attributeId":100004,"attributeName":"language","attributeValue":"en","languageId":2,"languageName":"en","statusId":1,"statusName":"active"},{"attributeId":100013,"attributeName":"NL_LEGOLAND","attributeValue":"True","languageId":2,"languageName":"en","statusId":1,"statusName":"active"},{"attributeId":100014,"attributeName":"NL_RIVERLAND","attributeValue":"False","languageId":2,"languageName":"en","statusId":1,"statusName":"active"},{"attributeId":100015,"attributeName":"NL_GENERAL_COMMUNICATION","attributeValue":"False","languageId":2,"languageName":"en","statusId":1,"statusName":"active"},{"attributeId":100018,"attributeName":"NL_BOLLIWOOD_PARK","attributeValue":"False","languageId":2,"languageName":"en","statusId":1,"statusName":"active"},{"attributeId":100019,"attributeName":"NL_MOTIONGATE","attributeValue":"False","languageId":2,"languageName":"en","statusId":1,"statusName":"active"},{"attributeId":100020,"attributeName":"NL_DUBAI_PARK_AND_RESORT","attributeValue":"True","languageId":2,"languageName":"en","statusId":1,"statusName":"active"}]}}]},"resultCode":"0"}
24.09.2016 21:13:59 +0200 10.0.32.247 Login status: 200
24.09.2016 22:03:13 +0200 10.0.32.247 TOKEN expired => RENEWING. Server response =>401
24.09.2016 22:03:13 +0200 10.0.32.247 RENEWING token
24.09.2016 22:03:13 +0200 10.0.32.247 RENEW TOKEN RESULT =>200 || 80a7c88697457bd387fba71faac49e3e
24.09.2016 22:51:29 +0200 10.0.32.247 Login req: {
            "languageId":"2",
            "transactionId": "1474750288728130452",
            "tenant":"1",
            "profileAttributeFlag":true,
            "externalIdList": {
                "externalIds": [
                    {
                    "externalId" : "Sreynolds1971@hotmail.co.uk"
                    }
                ]
             }
            }
24.09.2016 22:51:29 +0200 10.0.32.247 Login token: 8ae9168f9179f1159b37394f9aa6043
24.09.2016 22:51:29 +0200 10.0.32.247 Login response: {"transactionId":"1474750288728130452","userRetrievedList":{"users":[{"id":3893,"description":"sreynolds1971@hotmail.co.uk","parentBusinessUserId":2,"statusId":1,"roleTypeId":2,"defaultLanguageId":2,"userExternalIdList":{"externalIds":[{"externalId":"sreynolds1971@hotmail.co.uk","defaultFlag":1,"type":"email","statusId":1}]},"userAttributeList":{"attributeValues":[{"attributeId":9,"attributeName":"name","attributeValue":"Sarah","languageId":2,"languageName":"en","statusId":1,"statusName":"active"},{"attributeId":10,"attributeName":"surname","attributeValue":"Reynolds","languageId":2,"languageName":"en","statusId":1,"statusName":"active"},{"attributeId":14,"attributeName":"email","attributeValue":"sreynolds1971@hotmail.co.uk","languageId":2,"languageName":"en","statusId":1,"statusName":"active"},{"attributeId":100003,"attributeName":"customerNumber","attributeValue":"CON-20160924-0025","languageId":2,"languageName":"en","statusId":1,"statusName":"active"},{"attributeId":100004,"attributeName":"language","attributeValue":"EN","languageId":2,"languageName":"en","statusId":1,"statusName":"active"},{"attributeId":100020,"attributeName":"NL_DUBAI_PARK_AND_RESORT","attributeValue":"true","languageId":2,"languageName":"en","statusId":1,"statusName":"active"}]}}]},"resultCode":"0"}
24.09.2016 22:51:29 +0200 10.0.32.247 Login status: 200
24.09.2016 23:01:54 +0200 10.0.32.247 TOKEN expired => RENEWING. Server response =>401
24.09.2016 23:01:54 +0200 10.0.32.247 RENEWING token
24.09.2016 23:01:54 +0200 10.0.32.247 RENEW TOKEN RESULT =>200 || 6c38eeaa9718e4dedd4e7bcdf259e8