
01.10.2016 0:08:47 +0200 10.0.32.247 TOKEN expired => RENEWING. Server response =>401
01.10.2016 0:08:47 +0200 10.0.32.247 RENEWING token
01.10.2016 0:08:47 +0200 10.0.32.247 RENEW TOKEN RESULT =>200 || 8e178cba7f9fcc8f69954f6840db7b2
01.10.2016 0:17:52 +0200 10.0.32.247 Login req: {
            "languageId":"2",
            "transactionId": "14752738711463830262",
            "tenant":"1",
            "profileAttributeFlag":true,
            "externalIdList": {
                "externalIds": [
                    {
                    "externalId" : "10157552634640051"
                    }
                ]
             }
            }
01.10.2016 0:17:52 +0200 10.0.32.247 Login token: 23a1f621d83b658a3a293028b5ba22
01.10.2016 0:17:52 +0200 10.0.32.247 Login response: {"transactionId":"14752738711463830262","userRetrievedList":{"users":[{"id":4062,"description":"10157552634640051","parentBusinessUserId":2,"statusId":1,"roleTypeId":2,"defaultLanguageId":2,"userExternalIdList":{"externalIds":[{"externalId":"10157552634640051","defaultFlag":1,"type":"socialID","statusId":1}]},"userAttributeList":{"attributeValues":[{"attributeId":9,"attributeName":"name","attributeValue":"Cher","languageId":2,"languageName":"en","statusId":1,"statusName":"active"},{"attributeId":10,"attributeName":"surname","attributeValue":"Agtarap","languageId":2,"languageName":"en","statusId":1,"statusName":"active"},{"attributeId":14,"attributeName":"email","attributeValue":"cher.agtarap@gmail.com","languageId":2,"languageName":"en","statusId":1,"statusName":"active"},{"attributeId":100004,"attributeName":"language","attributeValue":"en","languageId":2,"languageName":"en","statusId":1,"statusName":"active"}]}}]},"resultCode":"0"}
01.10.2016 0:17:52 +0200 10.0.32.247 Login status: 200
01.10.2016 1:09:31 +0200 10.0.32.247 TOKEN ricevuto, cache creata
01.10.2016 2:05:05 +0200 10.0.32.247 Login req: {
            "languageId":"2",
            "transactionId": "1475280305357803029",
            "tenant":"1",
            "profileAttributeFlag":true,
            "externalIdList": {
                "externalIds": [
                    {
                    "externalId" : "adeebur_rehman@yahoo.in"
                    }
                ]
             }
            }
01.10.2016 2:05:05 +0200 10.0.32.247 Login token: 4a8ebe932ccf42b6ea8d35a41d238a7
01.10.2016 2:05:05 +0200 10.0.32.247 Login response: {"transactionId":"1475280305357803029","userRetrievedList":{"users":[{"id":229,"description":"adeebur_rehman@yahoo.in","parentBusinessUserId":2,"statusId":1,"roleTypeId":2,"defaultLanguageId":2,"userExternalIdList":{"externalIds":[{"externalId":"adeebur_rehman@yahoo.in","defaultFlag":1,"type":"email","statusId":1}]},"userAttributeList":{"attributeValues":[{"attributeId":5,"attributeName":"country","attributeValue":"United Arab Emirates","languageId":2,"languageName":"en","statusId":1,"statusName":"active"},{"attributeId":9,"attributeName":"name","attributeValue":"Adeebur ","languageId":2,"languageName":"en","statusId":1,"statusName":"active"},{"attributeId":10,"attributeName":"surname","attributeValue":"Rehman Hassan Jabber ","languageId":2,"languageName":"en","statusId":1,"statusName":"active"},{"attributeId":14,"attributeName":"email","attributeValue":"adeebur_rehman@yahoo.in","languageId":2,"languageName":"en","statusId":1,"statusName":"active"},{"attributeId":49,"attributeName":"city","attributeValue":"Dubai","languageId":2,"languageName":"en","statusId":1,"statusName":"active"},{"attributeId":50,"attributeName":"zipCode","attributeValue":"8888","languageId":2,"languageName":"en","statusId":1,"statusName":"active"},{"attributeId":108,"attributeName":"address","attributeValue":"Al Karama","languageId":2,"languageName":"en","statusId":1,"statusName":"active"},{"attributeId":100001,"attributeName":"msisdn","attributeValue":"+971-521471883","languageId":2,"languageName":"en","statusId":1,"statusName":"active"},{"attributeId":100002,"attributeName":"birthday","attributeValue":"1\/29\/1988","languageId":2,"languageName":"en","statusId":1,"statusName":"active"},{"attributeId":100003,"attributeName":"customerNumber","attributeValue":"CON-20160427-0002","languageId":2,"languageName":"en","statusId":1,"statusName":"active"},{"attributeId":100004,"attributeName":"language","attributeValue":"EN","languageId":2,"languageName":"en","statusId":1,"statusName":"active"},{"attributeId":100013,"attributeName":"NL_LEGOLAND","attributeValue":"False","languageId":2,"languageName":"en","statusId":1,"statusName":"active"},{"attributeId":100014,"attributeName":"NL_RIVERLAND","attributeValue":"False","languageId":2,"languageName":"en","statusId":1,"statusName":"active"},{"attributeId":100015,"attributeName":"NL_GENERAL_COMMUNICATION","attributeValue":"False","languageId":2,"languageName":"en","statusId":1,"statusName":"active"},{"attributeId":100018,"attributeName":"NL_BOLLIWOOD_PARK","attributeValue":"False","languageId":2,"languageName":"en","statusId":1,"statusName":"active"},{"attributeId":100019,"attributeName":"NL_MOTIONGATE","attributeValue":"True","languageId":2,"languageName":"en","statusId":1,"statusName":"active"},{"attributeId":100020,"attributeName":"NL_DUBAI_PARK_AND_RESORT","attributeValue":"True","languageId":2,"languageName":"en","statusId":1,"statusName":"active"}]}}]},"resultCode":"0"}
01.10.2016 2:05:05 +0200 10.0.32.247 Login status: 200
01.10.2016 2:09:38 +0200 10.0.32.247 TOKEN ricevuto, cache creata
01.10.2016 3:12:49 +0200 10.0.32.247 TOKEN ricevuto, cache creata
01.10.2016 4:10:28 +0200 10.0.32.247 TOKEN expired => RENEWING. Server response =>401
01.10.2016 4:10:28 +0200 10.0.32.247 RENEWING token
01.10.2016 4:10:28 +0200 10.0.32.247 RENEW TOKEN RESULT =>200 || 758da5ea43eebfa85eefc7371db5a92
01.10.2016 5:10:52 +0200 10.0.32.247 TOKEN ricevuto, cache creata
01.10.2016 6:09:46 +0200 10.0.32.247 TOKEN expired => RENEWING. Server response =>401
01.10.2016 6:09:46 +0200 10.0.32.247 RENEWING token
01.10.2016 6:09:46 +0200 10.0.32.247 RENEW TOKEN RESULT =>200 || eae75106710d4efb85b10ae4b2b2957
01.10.2016 6:54:59 +0200 10.0.32.247 Login req: {
            "languageId":"2",
            "transactionId": "14752976991706341499",
            "tenant":"1",
            "profileAttributeFlag":true,
            "externalIdList": {
                "externalIds": [
                    {
                    "externalId" : "yasirali81@hotmail.com"
                    }
                ]
             }
            }
01.10.2016 6:54:59 +0200 10.0.32.247 Login token: 84f3354aa91a9c8f909e599ca981c0
01.10.2016 6:54:59 +0200 10.0.32.247 Login response: {"transactionId":"14752976991706341499","userRetrievedList":{"users":[{"id":4064,"description":"yasirali81@hotmail.com","parentBusinessUserId":2,"statusId":1,"roleTypeId":2,"defaultLanguageId":2,"userExternalIdList":{"externalIds":[{"externalId":"yasirali81@hotmail.com","defaultFlag":1,"type":"email","statusId":1}]},"userAttributeList":{"attributeValues":[{"attributeId":9,"attributeName":"name","attributeValue":"MUHAMMAD","languageId":2,"languageName":"en","statusId":1,"statusName":"active"},{"attributeId":10,"attributeName":"surname","attributeValue":"ALI","languageId":2,"languageName":"en","statusId":1,"statusName":"active"},{"attributeId":14,"attributeName":"email","attributeValue":"yasirali81@hotmail.com","languageId":2,"languageName":"en","statusId":1,"statusName":"active"},{"attributeId":100003,"attributeName":"customerNumber","attributeValue":"CON-20161001-0006","languageId":2,"languageName":"en","statusId":1,"statusName":"active"},{"attributeId":100004,"attributeName":"language","attributeValue":"EN","languageId":2,"languageName":"en","statusId":1,"statusName":"active"},{"attributeId":100020,"attributeName":"NL_DUBAI_PARK_AND_RESORT","attributeValue":"true","languageId":2,"languageName":"en","statusId":1,"statusName":"active"}]}}]},"resultCode":"0"}
01.10.2016 6:54:59 +0200 10.0.32.247 Login status: 200
01.10.2016 7:11:04 +0200 10.0.32.247 TOKEN ricevuto, cache creata
01.10.2016 8:10:04 +0200 10.0.32.247 TOKEN expired => RENEWING. Server response =>401
01.10.2016 8:10:04 +0200 10.0.32.247 RENEWING token
01.10.2016 8:10:04 +0200 10.0.32.247 RENEW TOKEN RESULT =>200 || cc94ce4a3342264f01be965e5d08aac
01.10.2016 9:11:04 +0200 10.0.32.247 TOKEN ricevuto, cache creata
01.10.2016 9:29:37 +0200 10.0.32.247 Login req: {
            "languageId":"2",
            "transactionId": "14753069771699134548",
            "tenant":"1",
            "profileAttributeFlag":true,
            "externalIdList": {
                "externalIds": [
                    {
                    "externalId" : "manu7s32@hotmail.com"
                    }
                ]
             }
            }
01.10.2016 9:29:37 +0200 10.0.32.247 Login token: a93b3aafff09ccbcfb729395a9be11c
01.10.2016 9:29:37 +0200 10.0.32.247 Login response: {"transactionId":"14753069771699134548","userRetrievedList":{"users":[{"id":4066,"description":"manu7s32@hotmail.com","parentBusinessUserId":2,"statusId":1,"roleTypeId":2,"defaultLanguageId":2,"userExternalIdList":{"externalIds":[{"externalId":"manu7s32@hotmail.com","defaultFlag":1,"type":"email","statusId":1}]},"userAttributeList":{"attributeValues":[{"attributeId":9,"attributeName":"name","attributeValue":"MANUMOHAN","languageId":2,"languageName":"en","statusId":1,"statusName":"active"},{"attributeId":10,"attributeName":"surname","attributeValue":"RAJMOHAN","languageId":2,"languageName":"en","statusId":1,"statusName":"active"},{"attributeId":14,"attributeName":"email","attributeValue":"manu7s32@hotmail.com","languageId":2,"languageName":"en","statusId":1,"statusName":"active"},{"attributeId":100003,"attributeName":"customerNumber","attributeValue":"CON-20161001-0009","languageId":2,"languageName":"en","statusId":1,"statusName":"active"},{"attributeId":100004,"attributeName":"language","attributeValue":"EN","languageId":2,"languageName":"en","statusId":1,"statusName":"active"}]}}]},"resultCode":"0"}
01.10.2016 9:29:37 +0200 10.0.32.247 Login status: 200
01.10.2016 9:30:05 +0200 10.0.32.247 Login req: {
            "languageId":"2",
            "transactionId": "14753070041587729092",
            "tenant":"1",
            "profileAttributeFlag":true,
            "externalIdList": {
                "externalIds": [
                    {
                    "externalId" : "howie_p@ntlworld.com"
                    }
                ]
             }
            }
01.10.2016 9:30:05 +0200 10.0.32.247 Login token: ec65953aae5bb22bfcdaaa7aa62111b9
01.10.2016 9:30:05 +0200 10.0.32.247 Login response: {"transactionId":"14753070041587729092","userRetrievedList":{"users":[{"id":4067,"description":"howie_p@ntlworld.com","parentBusinessUserId":2,"statusId":1,"roleTypeId":2,"defaultLanguageId":2,"userExternalIdList":{"externalIds":[{"externalId":"howie_p@ntlworld.com","defaultFlag":1,"type":"email","statusId":1}]},"userAttributeList":{"attributeValues":[{"attributeId":9,"attributeName":"name","attributeValue":"Howard","languageId":2,"languageName":"en","statusId":1,"statusName":"active"},{"attributeId":10,"attributeName":"surname","attributeValue":"Pykett","languageId":2,"languageName":"en","statusId":1,"statusName":"active"},{"attributeId":14,"attributeName":"email","attributeValue":"howie_p@ntlworld.com","languageId":2,"languageName":"en","statusId":1,"statusName":"active"},{"attributeId":100003,"attributeName":"customerNumber","attributeValue":"CON-20161001-0010","languageId":2,"languageName":"en","statusId":1,"statusName":"active"},{"attributeId":100004,"attributeName":"language","attributeValue":"EN","languageId":2,"languageName":"en","statusId":1,"statusName":"active"},{"attributeId":100020,"attributeName":"NL_DUBAI_PARK_AND_RESORT","attributeValue":"true","languageId":2,"languageName":"en","statusId":1,"statusName":"active"}]}}]},"resultCode":"0"}
01.10.2016 9:30:05 +0200 10.0.32.247 Login status: 200
01.10.2016 9:55:53 +0200 10.0.32.247 Login req: {
            "languageId":"2",
            "transactionId": "14753085522046868882",
            "tenant":"1",
            "profileAttributeFlag":true,
            "externalIdList": {
                "externalIds": [
                    {
                    "externalId" : "manu7s32@hotmail.com"
                    }
                ]
             }
            }
01.10.2016 9:55:53 +0200 10.0.32.247 Login token: a93b3aafff09ccbcfb729395a9be11c
01.10.2016 9:55:53 +0200 10.0.32.247 Login response: {"transactionId":"14753085522046868882","userRetrievedList":{"users":[{"id":4066,"description":"manu7s32@hotmail.com","parentBusinessUserId":2,"statusId":1,"roleTypeId":2,"defaultLanguageId":2,"userExternalIdList":{"externalIds":[{"externalId":"manu7s32@hotmail.com","defaultFlag":1,"type":"email","statusId":1}]},"userAttributeList":{"attributeValues":[{"attributeId":9,"attributeName":"name","attributeValue":"MANUMOHAN","languageId":2,"languageName":"en","statusId":1,"statusName":"active"},{"attributeId":10,"attributeName":"surname","attributeValue":"RAJMOHAN","languageId":2,"languageName":"en","statusId":1,"statusName":"active"},{"attributeId":14,"attributeName":"email","attributeValue":"manu7s32@hotmail.com","languageId":2,"languageName":"en","statusId":1,"statusName":"active"},{"attributeId":100003,"attributeName":"customerNumber","attributeValue":"CON-20161001-0009","languageId":2,"languageName":"en","statusId":1,"statusName":"active"},{"attributeId":100004,"attributeName":"language","attributeValue":"EN","languageId":2,"languageName":"en","statusId":1,"statusName":"active"}]}}]},"resultCode":"0"}
01.10.2016 9:55:53 +0200 10.0.32.247 Login status: 200
01.10.2016 10:10:20 +0200 10.0.32.247 TOKEN expired => RENEWING. Server response =>401
01.10.2016 10:10:20 +0200 10.0.32.247 RENEWING token
01.10.2016 10:10:20 +0200 10.0.32.247 RENEW TOKEN RESULT =>200 || fd2f9a715c7ceb7d9f394947e4e17cb
01.10.2016 11:10:44 +0200 10.0.32.247 TOKEN ricevuto, cache creata
01.10.2016 11:27:54 +0200 10.0.32.247 Login req: {
            "languageId":"2",
            "transactionId": "1475314073565524332",
            "tenant":"1",
            "profileAttributeFlag":true,
            "externalIdList": {
                "externalIds": [
                    {
                    "externalId" : "jospetrosan@yahoo.com"
                    }
                ]
             }
            }
01.10.2016 11:27:54 +0200 10.0.32.247 Login token: 2fa81974d3fdcce4fdcb4867eafa819
01.10.2016 11:27:54 +0200 10.0.32.247 Login response: {"transactionId":"1475314073565524332","userRetrievedList":{"users":[{"id":4071,"description":"jospetrosan@yahoo.com","parentBusinessUserId":2,"statusId":1,"roleTypeId":2,"defaultLanguageId":2,"userExternalIdList":{"externalIds":[{"externalId":"jospetrosan@yahoo.com","defaultFlag":1,"type":"email","statusId":1}]},"userAttributeList":{"attributeValues":[{"attributeId":9,"attributeName":"name","attributeValue":"Maria Roma","languageId":2,"languageName":"en","statusId":1,"statusName":"active"},{"attributeId":10,"attributeName":"surname","attributeValue":"Sanez","languageId":2,"languageName":"en","statusId":1,"statusName":"active"},{"attributeId":14,"attributeName":"email","attributeValue":"jospetrosan@yahoo.com","languageId":2,"languageName":"en","statusId":1,"statusName":"active"},{"attributeId":100003,"attributeName":"customerNumber","attributeValue":"CON-20161001-0014","languageId":2,"languageName":"en","statusId":1,"statusName":"active"},{"attributeId":100004,"attributeName":"language","attributeValue":"EN","languageId":2,"languageName":"en","statusId":1,"statusName":"active"},{"attributeId":100020,"attributeName":"NL_DUBAI_PARK_AND_RESORT","attributeValue":"true","languageId":2,"languageName":"en","statusId":1,"statusName":"active"}]}}]},"resultCode":"0"}
01.10.2016 11:27:54 +0200 10.0.32.247 Login status: 200
01.10.2016 12:11:00 +0200 10.0.32.247 TOKEN ricevuto, cache creata
01.10.2016 12:59:49 +0200 10.0.32.247 Login req: {
            "languageId":"2",
            "transactionId": "1475319589159742628",
            "tenant":"1",
            "profileAttributeFlag":true,
            "externalIdList": {
                "externalIds": [
                    {
                    "externalId" : "1111535685595019"
                    }
                ]
             }
            }
01.10.2016 12:59:49 +0200 10.0.32.247 Login token: 274e1c16e1ef6db221d823118a2595
01.10.2016 12:59:49 +0200 10.0.32.247 Login response: {"transactionId":"1475319589159742628","userRetrievedList":{"users":[{"id":4072,"description":"1111535685595019","parentBusinessUserId":2,"statusId":1,"roleTypeId":2,"defaultLanguageId":2,"userExternalIdList":{"externalIds":[{"externalId":"1111535685595019","defaultFlag":1,"type":"socialID","statusId":1}]},"userAttributeList":{"attributeValues":[{"attributeId":9,"attributeName":"name","attributeValue":"Sophia","languageId":2,"languageName":"en","statusId":1,"statusName":"active"},{"attributeId":10,"attributeName":"surname","attributeValue":"Joseph","languageId":2,"languageName":"en","statusId":1,"statusName":"active"},{"attributeId":14,"attributeName":"email","attributeValue":"joseph.sophia24@gmail.com","languageId":2,"languageName":"en","statusId":1,"statusName":"active"},{"attributeId":100004,"attributeName":"language","attributeValue":"en","languageId":2,"languageName":"en","statusId":1,"statusName":"active"}]}}]},"resultCode":"0"}
01.10.2016 12:59:49 +0200 10.0.32.247 Login status: 200
01.10.2016 13:12:55 +0200 10.0.32.247 TOKEN ricevuto, cache creata
01.10.2016 13:45:19 +0200 10.0.32.247 Login req: {
            "languageId":"2",
            "transactionId": "1475322319704965528",
            "tenant":"1",
            "profileAttributeFlag":true,
            "externalIdList": {
                "externalIds": [
                    {
                    "externalId" : "rma.6@hotmail.com"
                    }
                ]
             }
            }
01.10.2016 13:45:19 +0200 10.0.32.247 Login token: 1a832c76a83fe2bc38309c79f01fdc
01.10.2016 13:45:19 +0200 10.0.32.247 Login response: {"transactionId":"1475322319704965528","userRetrievedList":{"users":[{"id":4073,"description":"rma.6@hotmail.com","parentBusinessUserId":2,"statusId":1,"roleTypeId":2,"defaultLanguageId":2,"userExternalIdList":{"externalIds":[{"externalId":"rma.6@hotmail.com","defaultFlag":1,"type":"email","statusId":1}]},"userAttributeList":{"attributeValues":[{"attributeId":9,"attributeName":"name","attributeValue":"Reem","languageId":2,"languageName":"en","statusId":1,"statusName":"active"},{"attributeId":10,"attributeName":"surname","attributeValue":"Abumelha","languageId":2,"languageName":"en","statusId":1,"statusName":"active"},{"attributeId":14,"attributeName":"email","attributeValue":"rma.6@hotmail.com","languageId":2,"languageName":"en","statusId":1,"statusName":"active"},{"attributeId":100003,"attributeName":"customerNumber","attributeValue":"CON-20161001-0021","languageId":2,"languageName":"en","statusId":1,"statusName":"active"},{"attributeId":100004,"attributeName":"language","attributeValue":"AR","languageId":2,"languageName":"en","statusId":1,"statusName":"active"},{"attributeId":100020,"attributeName":"NL_DUBAI_PARK_AND_RESORT","attributeValue":"true","languageId":2,"languageName":"en","statusId":1,"statusName":"active"}]}}]},"resultCode":"0"}
01.10.2016 13:45:19 +0200 10.0.32.247 Login status: 200
01.10.2016 14:12:30 +0200 10.0.32.247 TOKEN expired => RENEWING. Server response =>401
01.10.2016 14:12:30 +0200 10.0.32.247 RENEWING token
01.10.2016 14:12:30 +0200 10.0.32.247 RENEW TOKEN RESULT =>200 || 21617b5a917d9d82e4fd20e884b92081
01.10.2016 15:13:14 +0200 10.0.32.247 TOKEN ricevuto, cache creata
01.10.2016 15:37:08 +0200 10.0.32.247 Login req: {
            "languageId":"2",
            "transactionId": "14753290281863013649",
            "tenant":"1",
            "profileAttributeFlag":true,
            "externalIdList": {
                "externalIds": [
                    {
                    "externalId" : "128581197604258"
                    }
                ]
             }
            }
01.10.2016 15:37:08 +0200 10.0.32.247 Login token: eb155e571db27cb2624dc99f04a3f60
01.10.2016 15:37:08 +0200 10.0.32.247 Login response: {"transactionId":"14753290281863013649","userRetrievedList":{"users":[{"id":4074,"description":"128581197604258","parentBusinessUserId":2,"statusId":1,"roleTypeId":2,"defaultLanguageId":2,"userExternalIdList":{"externalIds":[{"externalId":"128581197604258","defaultFlag":1,"type":"socialID","statusId":1}]},"userAttributeList":{"attributeValues":[{"attributeId":9,"attributeName":"name","attributeValue":"Hajihussain","languageId":2,"languageName":"en","statusId":1,"statusName":"active"},{"attributeId":10,"attributeName":"surname","attributeValue":"Kadhim","languageId":2,"languageName":"en","statusId":1,"statusName":"active"},{"attributeId":14,"attributeName":"email","attributeValue":"hy.hh2020@gmail.com","languageId":2,"languageName":"en","statusId":1,"statusName":"active"},{"attributeId":100004,"attributeName":"language","attributeValue":"ar","languageId":2,"languageName":"en","statusId":1,"statusName":"active"}]}}]},"resultCode":"0"}
01.10.2016 15:37:08 +0200 10.0.32.247 Login status: 200
01.10.2016 15:46:27 +0200 10.0.32.247 Login req: {
            "languageId":"2",
            "transactionId": "1475329587240080582",
            "tenant":"1",
            "profileAttributeFlag":true,
            "externalIdList": {
                "externalIds": [
                    {
                    "externalId" : "128581197604258"
                    }
                ]
             }
            }
01.10.2016 15:46:27 +0200 10.0.32.247 Login token: eb155e571db27cb2624dc99f04a3f60
01.10.2016 15:46:27 +0200 10.0.32.247 Login response: {"transactionId":"1475329587240080582","userRetrievedList":{"users":[{"id":4074,"description":"128581197604258","parentBusinessUserId":2,"statusId":1,"roleTypeId":2,"defaultLanguageId":2,"userExternalIdList":{"externalIds":[{"externalId":"128581197604258","defaultFlag":1,"type":"socialID","statusId":1}]},"userAttributeList":{"attributeValues":[{"attributeId":5,"attributeName":"country","attributeValue":"United Arab Emirates","languageId":2,"languageName":"en","statusId":1,"statusName":"active"},{"attributeId":9,"attributeName":"name","attributeValue":"Hajihussain","languageId":2,"languageName":"en","statusId":1,"statusName":"active"},{"attributeId":10,"attributeName":"surname","attributeValue":"Kadhim","languageId":2,"languageName":"en","statusId":1,"statusName":"active"},{"attributeId":14,"attributeName":"email","attributeValue":"hy.hh2020@gmail.com","languageId":2,"languageName":"en","statusId":1,"statusName":"active"},{"attributeId":49,"attributeName":"city","attributeValue":"Dubai","languageId":2,"languageName":"en","statusId":1,"statusName":"active"},{"attributeId":50,"attributeName":"zipCode","attributeValue":"283605","languageId":2,"languageName":"en","statusId":1,"statusName":"active"},{"attributeId":108,"attributeName":"address","attributeValue":"Al qouz 1 dubai","languageId":2,"languageName":"en","statusId":1,"statusName":"active"},{"attributeId":100001,"attributeName":"msisdn","attributeValue":"+971-0543444388","languageId":2,"languageName":"en","statusId":1,"statusName":"active"},{"attributeId":100002,"attributeName":"birthday","attributeValue":"14\/12\/1977","languageId":2,"languageName":"en","statusId":1,"statusName":"active"},{"attributeId":100003,"attributeName":"customerNumber","attributeValue":"CON-20160930-0019","languageId":2,"languageName":"en","statusId":1,"statusName":"active"},{"attributeId":100004,"attributeName":"language","attributeValue":"AR","languageId":2,"languageName":"en","statusId":1,"statusName":"active"},{"attributeId":100013,"attributeName":"NL_LEGOLAND","attributeValue":"true","languageId":2,"languageName":"en","statusId":1,"statusName":"active"},{"attributeId":100014,"attributeName":"NL_RIVERLAND","attributeValue":"true","languageId":2,"languageName":"en","statusId":1,"statusName":"active"},{"attributeId":100018,"attributeName":"NL_BOLLIWOOD_PARK","attributeValue":"true","languageId":2,"languageName":"en","statusId":1,"statusName":"active"},{"attributeId":100019,"attributeName":"NL_MOTIONGATE","attributeValue":"true","languageId":2,"languageName":"en","statusId":1,"statusName":"active"},{"attributeId":100020,"attributeName":"NL_DUBAI_PARK_AND_RESORT","attributeValue":"true","languageId":2,"languageName":"en","statusId":1,"statusName":"active"}]}}]},"resultCode":"0"}
01.10.2016 15:46:27 +0200 10.0.32.247 Login status: 200
01.10.2016 15:47:49 +0200 10.0.32.247 Login req: {
            "languageId":"2",
            "transactionId": "14753296691036123275",
            "tenant":"1",
            "profileAttributeFlag":true,
            "externalIdList": {
                "externalIds": [
                    {
                    "externalId" : "128581197604258"
                    }
                ]
             }
            }
01.10.2016 15:47:49 +0200 10.0.32.247 Login token: eb155e571db27cb2624dc99f04a3f60
01.10.2016 15:47:49 +0200 10.0.32.247 Login response: {"transactionId":"14753296691036123275","userRetrievedList":{"users":[{"id":4074,"description":"128581197604258","parentBusinessUserId":2,"statusId":1,"roleTypeId":2,"defaultLanguageId":2,"userExternalIdList":{"externalIds":[{"externalId":"128581197604258","defaultFlag":1,"type":"socialID","statusId":1}]},"userAttributeList":{"attributeValues":[{"attributeId":5,"attributeName":"country","attributeValue":"United Arab Emirates","languageId":2,"languageName":"en","statusId":1,"statusName":"active"},{"attributeId":9,"attributeName":"name","attributeValue":"Hajihussain","languageId":2,"languageName":"en","statusId":1,"statusName":"active"},{"attributeId":10,"attributeName":"surname","attributeValue":"Kadhim","languageId":2,"languageName":"en","statusId":1,"statusName":"active"},{"attributeId":14,"attributeName":"email","attributeValue":"hy.hh2020@gmail.com","languageId":2,"languageName":"en","statusId":1,"statusName":"active"},{"attributeId":49,"attributeName":"city","attributeValue":"Dubai","languageId":2,"languageName":"en","statusId":1,"statusName":"active"},{"attributeId":50,"attributeName":"zipCode","attributeValue":"283605","languageId":2,"languageName":"en","statusId":1,"statusName":"active"},{"attributeId":108,"attributeName":"address","attributeValue":"Al qouz 1 dubai","languageId":2,"languageName":"en","statusId":1,"statusName":"active"},{"attributeId":100001,"attributeName":"msisdn","attributeValue":"+971-0543444388","languageId":2,"languageName":"en","statusId":1,"statusName":"active"},{"attributeId":100002,"attributeName":"birthday","attributeValue":"14\/12\/1977","languageId":2,"languageName":"en","statusId":1,"statusName":"active"},{"attributeId":100003,"attributeName":"customerNumber","attributeValue":"CON-20160930-0019","languageId":2,"languageName":"en","statusId":1,"statusName":"active"},{"attributeId":100004,"attributeName":"language","attributeValue":"AR","languageId":2,"languageName":"en","statusId":1,"statusName":"active"},{"attributeId":100013,"attributeName":"NL_LEGOLAND","attributeValue":"true","languageId":2,"languageName":"en","statusId":1,"statusName":"active"},{"attributeId":100014,"attributeName":"NL_RIVERLAND","attributeValue":"true","languageId":2,"languageName":"en","statusId":1,"statusName":"active"},{"attributeId":100018,"attributeName":"NL_BOLLIWOOD_PARK","attributeValue":"true","languageId":2,"languageName":"en","statusId":1,"statusName":"active"},{"attributeId":100019,"attributeName":"NL_MOTIONGATE","attributeValue":"true","languageId":2,"languageName":"en","statusId":1,"statusName":"active"},{"attributeId":100020,"attributeName":"NL_DUBAI_PARK_AND_RESORT","attributeValue":"true","languageId":2,"languageName":"en","statusId":1,"statusName":"active"}]}}]},"resultCode":"0"}
01.10.2016 15:47:49 +0200 10.0.32.247 Login status: 200
01.10.2016 15:55:04 +0200 10.0.32.247 Login req: {
            "languageId":"2",
            "transactionId": "1475330104858182103",
            "tenant":"1",
            "profileAttributeFlag":true,
            "externalIdList": {
                "externalIds": [
                    {
                    "externalId" : "559109454277139"
                    }
                ]
             }
            }
01.10.2016 15:55:04 +0200 10.0.32.247 Login token: 695a2b8a64b9e292015aaf5d1fc555
01.10.2016 15:55:04 +0200 10.0.32.247 Login response: {"transactionId":"1475330104858182103","userRetrievedList":{"users":[{"id":4056,"description":"559109454277139","parentBusinessUserId":2,"statusId":1,"roleTypeId":2,"defaultLanguageId":2,"userExternalIdList":{"externalIds":[{"externalId":"559109454277139","defaultFlag":1,"type":"socialID","statusId":1}]},"userAttributeList":{"attributeValues":[{"attributeId":9,"attributeName":"name","attributeValue":"Hussain","languageId":2,"languageName":"en","statusId":1,"statusName":"active"},{"attributeId":10,"attributeName":"surname","attributeValue":"Kadhim","languageId":2,"languageName":"en","statusId":1,"statusName":"active"},{"attributeId":14,"attributeName":"email","attributeValue":"hy.2014@hotmail.com","languageId":2,"languageName":"en","statusId":1,"statusName":"active"},{"attributeId":100003,"attributeName":"customerNumber","attributeValue":"CON-20160930-0032","languageId":2,"languageName":"en","statusId":1,"statusName":"active"},{"attributeId":100004,"attributeName":"language","attributeValue":"AR","languageId":2,"languageName":"en","statusId":1,"statusName":"active"},{"attributeId":100013,"attributeName":"NL_LEGOLAND","attributeValue":"true","languageId":2,"languageName":"en","statusId":1,"statusName":"active"},{"attributeId":100014,"attributeName":"NL_RIVERLAND","attributeValue":"true","languageId":2,"languageName":"en","statusId":1,"statusName":"active"},{"attributeId":100018,"attributeName":"NL_BOLLIWOOD_PARK","attributeValue":"true","languageId":2,"languageName":"en","statusId":1,"statusName":"active"},{"attributeId":100019,"attributeName":"NL_MOTIONGATE","attributeValue":"true","languageId":2,"languageName":"en","statusId":1,"statusName":"active"},{"attributeId":100020,"attributeName":"NL_DUBAI_PARK_AND_RESORT","attributeValue":"true","languageId":2,"languageName":"en","statusId":1,"statusName":"active"}]}}]},"resultCode":"0"}
01.10.2016 15:55:04 +0200 10.0.32.247 Login status: 200
01.10.2016 15:58:18 +0200 10.0.32.247 Login req: {
            "languageId":"2",
            "transactionId": "1475330298921447457",
            "tenant":"1",
            "profileAttributeFlag":true,
            "externalIdList": {
                "externalIds": [
                    {
                    "externalId" : "559109454277139"
                    }
                ]
             }
            }
01.10.2016 15:58:18 +0200 10.0.32.247 Login token: 695a2b8a64b9e292015aaf5d1fc555
01.10.2016 15:58:18 +0200 10.0.32.247 Login response: {"transactionId":"1475330298921447457","userRetrievedList":{"users":[{"id":4056,"description":"559109454277139","parentBusinessUserId":2,"statusId":1,"roleTypeId":2,"defaultLanguageId":2,"userExternalIdList":{"externalIds":[{"externalId":"559109454277139","defaultFlag":1,"type":"socialID","statusId":1}]},"userAttributeList":{"attributeValues":[{"attributeId":9,"attributeName":"name","attributeValue":"Hussain","languageId":2,"languageName":"en","statusId":1,"statusName":"active"},{"attributeId":10,"attributeName":"surname","attributeValue":"Kadhim","languageId":2,"languageName":"en","statusId":1,"statusName":"active"},{"attributeId":14,"attributeName":"email","attributeValue":"hy.2014@hotmail.com","languageId":2,"languageName":"en","statusId":1,"statusName":"active"},{"attributeId":100003,"attributeName":"customerNumber","attributeValue":"CON-20160930-0032","languageId":2,"languageName":"en","statusId":1,"statusName":"active"},{"attributeId":100004,"attributeName":"language","attributeValue":"AR","languageId":2,"languageName":"en","statusId":1,"statusName":"active"},{"attributeId":100013,"attributeName":"NL_LEGOLAND","attributeValue":"true","languageId":2,"languageName":"en","statusId":1,"statusName":"active"},{"attributeId":100014,"attributeName":"NL_RIVERLAND","attributeValue":"true","languageId":2,"languageName":"en","statusId":1,"statusName":"active"},{"attributeId":100018,"attributeName":"NL_BOLLIWOOD_PARK","attributeValue":"true","languageId":2,"languageName":"en","statusId":1,"statusName":"active"},{"attributeId":100019,"attributeName":"NL_MOTIONGATE","attributeValue":"true","languageId":2,"languageName":"en","statusId":1,"statusName":"active"},{"attributeId":100020,"attributeName":"NL_DUBAI_PARK_AND_RESORT","attributeValue":"true","languageId":2,"languageName":"en","statusId":1,"statusName":"active"}]}}]},"resultCode":"0"}
01.10.2016 15:58:18 +0200 10.0.32.247 Login status: 200
01.10.2016 16:06:49 +0200 10.0.32.247 Login req: {
            "languageId":"2",
            "transactionId": "1475330809161731271",
            "tenant":"1",
            "profileAttributeFlag":true,
            "externalIdList": {
                "externalIds": [
                    {
                    "externalId" : "128581197604258"
                    }
                ]
             }
            }
01.10.2016 16:06:49 +0200 10.0.32.247 Login token: eb155e571db27cb2624dc99f04a3f60
01.10.2016 16:06:49 +0200 10.0.32.247 Login response: {"transactionId":"1475330809161731271","userRetrievedList":{"users":[{"id":4074,"description":"128581197604258","parentBusinessUserId":2,"statusId":1,"roleTypeId":2,"defaultLanguageId":2,"userExternalIdList":{"externalIds":[{"externalId":"128581197604258","defaultFlag":1,"type":"socialID","statusId":1}]},"userAttributeList":{"attributeValues":[{"attributeId":5,"attributeName":"country","attributeValue":"United Arab Emirates","languageId":2,"languageName":"en","statusId":1,"statusName":"active"},{"attributeId":9,"attributeName":"name","attributeValue":"Hajihussain","languageId":2,"languageName":"en","statusId":1,"statusName":"active"},{"attributeId":10,"attributeName":"surname","attributeValue":"Kadhim","languageId":2,"languageName":"en","statusId":1,"statusName":"active"},{"attributeId":14,"attributeName":"email","attributeValue":"hy.hh2020@gmail.com","languageId":2,"languageName":"en","statusId":1,"statusName":"active"},{"attributeId":49,"attributeName":"city","attributeValue":"Dubai","languageId":2,"languageName":"en","statusId":1,"statusName":"active"},{"attributeId":50,"attributeName":"zipCode","attributeValue":"283605","languageId":2,"languageName":"en","statusId":1,"statusName":"active"},{"attributeId":108,"attributeName":"address","attributeValue":"Al qouz 1 dubai","languageId":2,"languageName":"en","statusId":1,"statusName":"active"},{"attributeId":100001,"attributeName":"msisdn","attributeValue":"+971-0543444388","languageId":2,"languageName":"en","statusId":1,"statusName":"active"},{"attributeId":100002,"attributeName":"birthday","attributeValue":"14\/12\/1977","languageId":2,"languageName":"en","statusId":1,"statusName":"active"},{"attributeId":100003,"attributeName":"customerNumber","attributeValue":"CON-20160930-0019","languageId":2,"languageName":"en","statusId":1,"statusName":"active"},{"attributeId":100004,"attributeName":"language","attributeValue":"AR","languageId":2,"languageName":"en","statusId":1,"statusName":"active"},{"attributeId":100013,"attributeName":"NL_LEGOLAND","attributeValue":"true","languageId":2,"languageName":"en","statusId":1,"statusName":"active"},{"attributeId":100014,"attributeName":"NL_RIVERLAND","attributeValue":"true","languageId":2,"languageName":"en","statusId":1,"statusName":"active"},{"attributeId":100018,"attributeName":"NL_BOLLIWOOD_PARK","attributeValue":"true","languageId":2,"languageName":"en","statusId":1,"statusName":"active"},{"attributeId":100019,"attributeName":"NL_MOTIONGATE","attributeValue":"true","languageId":2,"languageName":"en","statusId":1,"statusName":"active"},{"attributeId":100020,"attributeName":"NL_DUBAI_PARK_AND_RESORT","attributeValue":"true","languageId":2,"languageName":"en","statusId":1,"statusName":"active"}]}}]},"resultCode":"0"}
01.10.2016 16:06:49 +0200 10.0.32.247 Login status: 200
01.10.2016 16:13:43 +0200 10.0.32.247 TOKEN ricevuto, cache creata
01.10.2016 16:52:20 +0200 10.0.32.247 Login req: {
            "languageId":"2",
            "transactionId": "14753335401831233466",
            "tenant":"1",
            "profileAttributeFlag":true,
            "externalIdList": {
                "externalIds": [
                    {
                    "externalId" : "1486469444713075"
                    }
                ]
             }
            }
01.10.2016 16:52:20 +0200 10.0.32.247 Login token: 66b7f620497fd33f6e571c17e5204bdf
01.10.2016 16:52:20 +0200 10.0.32.247 Login response: {"transactionId":"14753335401831233466","userRetrievedList":{"users":[{"id":4080,"description":"1486469444713075","parentBusinessUserId":2,"statusId":1,"roleTypeId":2,"defaultLanguageId":2,"userExternalIdList":{"externalIds":[{"externalId":"1486469444713075","defaultFlag":1,"type":"socialID","statusId":1}]},"userAttributeList":{"attributeValues":[{"attributeId":9,"attributeName":"name","attributeValue":"Ajaz","languageId":2,"languageName":"en","statusId":1,"statusName":"active"},{"attributeId":10,"attributeName":"surname","attributeValue":"Zargar","languageId":2,"languageName":"en","statusId":1,"statusName":"active"},{"attributeId":14,"attributeName":"email","attributeValue":"bejukhan@yahoo.com","languageId":2,"languageName":"en","statusId":1,"statusName":"active"},{"attributeId":100004,"attributeName":"language","attributeValue":"en","languageId":2,"languageName":"en","statusId":1,"statusName":"active"}]}}]},"resultCode":"0"}
01.10.2016 16:52:20 +0200 10.0.32.247 Login status: 200
01.10.2016 17:13:35 +0200 10.0.32.247 TOKEN expired => RENEWING. Server response =>401
01.10.2016 17:13:35 +0200 10.0.32.247 RENEWING token
01.10.2016 17:13:35 +0200 10.0.32.247 RENEW TOKEN RESULT =>200 || 4e7c7985c0fff9fd25d5d6054cc6b9
01.10.2016 17:32:55 +0200 10.0.32.247 Login req: {
            "languageId":"2",
            "transactionId": "1475335975186265379",
            "tenant":"1",
            "profileAttributeFlag":true,
            "externalIdList": {
                "externalIds": [
                    {
                    "externalId" : "128581197604258"
                    }
                ]
             }
            }
01.10.2016 17:32:55 +0200 10.0.32.247 Login token: 1912d85ee11d171c5c321bd3c6b167b0
01.10.2016 17:32:55 +0200 10.0.32.247 Login response: {"transactionId":"1475335975186265379","userRetrievedList":{"users":[{"id":4074,"description":"128581197604258","parentBusinessUserId":2,"statusId":1,"roleTypeId":2,"defaultLanguageId":2,"userExternalIdList":{"externalIds":[{"externalId":"128581197604258","defaultFlag":1,"type":"socialID","statusId":1}]},"userAttributeList":{"attributeValues":[{"attributeId":5,"attributeName":"country","attributeValue":"United Arab Emirates","languageId":2,"languageName":"en","statusId":1,"statusName":"active"},{"attributeId":9,"attributeName":"name","attributeValue":"Hajihussain","languageId":2,"languageName":"en","statusId":1,"statusName":"active"},{"attributeId":10,"attributeName":"surname","attributeValue":"Kadhim","languageId":2,"languageName":"en","statusId":1,"statusName":"active"},{"attributeId":14,"attributeName":"email","attributeValue":"hy.hh2020@gmail.com","languageId":2,"languageName":"en","statusId":1,"statusName":"active"},{"attributeId":49,"attributeName":"city","attributeValue":"Dubai","languageId":2,"languageName":"en","statusId":1,"statusName":"active"},{"attributeId":50,"attributeName":"zipCode","attributeValue":"283605","languageId":2,"languageName":"en","statusId":1,"statusName":"active"},{"attributeId":108,"attributeName":"address","attributeValue":"Al qouz 1 dubai","languageId":2,"languageName":"en","statusId":1,"statusName":"active"},{"attributeId":100001,"attributeName":"msisdn","attributeValue":"+971-0543444388","languageId":2,"languageName":"en","statusId":1,"statusName":"active"},{"attributeId":100002,"attributeName":"birthday","attributeValue":"14\/12\/1977","languageId":2,"languageName":"en","statusId":1,"statusName":"active"},{"attributeId":100003,"attributeName":"customerNumber","attributeValue":"CON-20160930-0019","languageId":2,"languageName":"en","statusId":1,"statusName":"active"},{"attributeId":100004,"attributeName":"language","attributeValue":"AR","languageId":2,"languageName":"en","statusId":1,"statusName":"active"},{"attributeId":100013,"attributeName":"NL_LEGOLAND","attributeValue":"true","languageId":2,"languageName":"en","statusId":1,"statusName":"active"},{"attributeId":100014,"attributeName":"NL_RIVERLAND","attributeValue":"true","languageId":2,"languageName":"en","statusId":1,"statusName":"active"},{"attributeId":100018,"attributeName":"NL_BOLLIWOOD_PARK","attributeValue":"true","languageId":2,"languageName":"en","statusId":1,"statusName":"active"},{"attributeId":100019,"attributeName":"NL_MOTIONGATE","attributeValue":"true","languageId":2,"languageName":"en","statusId":1,"statusName":"active"},{"attributeId":100020,"attributeName":"NL_DUBAI_PARK_AND_RESORT","attributeValue":"true","languageId":2,"languageName":"en","statusId":1,"statusName":"active"}]}}]},"resultCode":"0"}
01.10.2016 17:32:55 +0200 10.0.32.247 Login status: 200
01.10.2016 18:14:38 +0200 10.0.32.247 TOKEN ricevuto, cache creata
01.10.2016 18:43:05 +0200 10.0.32.247 Login req: {
            "languageId":"2",
            "transactionId": "1475340185300013021",
            "tenant":"1",
            "profileAttributeFlag":true,
            "externalIdList": {
                "externalIds": [
                    {
                    "externalId" : "rohan7782436@hotmail.com"
                    }
                ]
             }
            }
01.10.2016 18:43:05 +0200 10.0.32.247 Login token: 4d14e9fd42eabe50229ca6a792879a2
01.10.2016 18:43:05 +0200 10.0.32.247 Login response: {"transactionId":"1475340185300013021","userRetrievedList":{"users":[{"id":3871,"description":"rohan7782436@hotmail.com","parentBusinessUserId":2,"statusId":1,"roleTypeId":2,"defaultLanguageId":2,"userExternalIdList":{"externalIds":[{"externalId":"rohan7782436@hotmail.com","defaultFlag":1,"type":"email","statusId":1}]},"userAttributeList":{"attributeValues":[{"attributeId":5,"attributeName":"country","attributeValue":"United Arab Emirates","languageId":2,"languageName":"en","statusId":1,"statusName":"active"},{"attributeId":9,"attributeName":"name","attributeValue":"Raja","languageId":2,"languageName":"en","statusId":1,"statusName":"active"},{"attributeId":10,"attributeName":"surname","attributeValue":"Guwalani","languageId":2,"languageName":"en","statusId":1,"statusName":"active"},{"attributeId":14,"attributeName":"email","attributeValue":"rohan7782436@hotmail.com","languageId":2,"languageName":"en","statusId":1,"statusName":"active"},{"attributeId":49,"attributeName":"city","attributeValue":"Dubai","languageId":2,"languageName":"en","statusId":1,"statusName":"active"},{"attributeId":50,"attributeName":"zipCode","attributeValue":"2375","languageId":2,"languageName":"en","statusId":1,"statusName":"active"},{"attributeId":108,"attributeName":"address","attributeValue":"F 15 sharaf dg bldg opp astoria hotel","languageId":2,"languageName":"en","statusId":1,"statusName":"active"},{"attributeId":100001,"attributeName":"msisdn","attributeValue":"+971-506508492","languageId":2,"languageName":"en","statusId":1,"statusName":"active"},{"attributeId":100002,"attributeName":"birthday","attributeValue":"11\/24\/1981","languageId":2,"languageName":"en","statusId":1,"statusName":"active"},{"attributeId":100003,"attributeName":"customerNumber","attributeValue":"CON-20160923-0034","languageId":2,"languageName":"en","statusId":1,"statusName":"active"},{"attributeId":100004,"attributeName":"language","attributeValue":"en","languageId":2,"languageName":"en","statusId":1,"statusName":"active"},{"attributeId":100013,"attributeName":"NL_LEGOLAND","attributeValue":"False","languageId":2,"languageName":"en","statusId":1,"statusName":"active"},{"attributeId":100014,"attributeName":"NL_RIVERLAND","attributeValue":"False","languageId":2,"languageName":"en","statusId":1,"statusName":"active"},{"attributeId":100015,"attributeName":"NL_GENERAL_COMMUNICATION","attributeValue":"False","languageId":2,"languageName":"en","statusId":1,"statusName":"active"},{"attributeId":100018,"attributeName":"NL_BOLLIWOOD_PARK","attributeValue":"False","languageId":2,"languageName":"en","statusId":1,"statusName":"active"},{"attributeId":100019,"attributeName":"NL_MOTIONGATE","attributeValue":"False","languageId":2,"languageName":"en","statusId":1,"statusName":"active"},{"attributeId":100020,"attributeName":"NL_DUBAI_PARK_AND_RESORT","attributeValue":"True","languageId":2,"languageName":"en","statusId":1,"statusName":"active"}]}}]},"resultCode":"0"}
01.10.2016 18:43:05 +0200 10.0.32.247 Login status: 200
01.10.2016 19:14:57 +0200 10.0.32.247 TOKEN ricevuto, cache creata
01.10.2016 20:13:18 +0200 10.0.32.247 TOKEN expired => RENEWING. Server response =>401
01.10.2016 20:13:18 +0200 10.0.32.247 RENEWING token
01.10.2016 20:13:18 +0200 10.0.32.247 RENEW TOKEN RESULT =>200 || 807cfb9b6eb7134e817e15dd66e86aa
01.10.2016 21:07:18 +0200 10.0.32.247 Login req: {
            "languageId":"2",
            "transactionId": "14753488381065127715",
            "tenant":"1",
            "profileAttributeFlag":true,
            "externalIdList": {
                "externalIds": [
                    {
                    "externalId" : "342303732781781"
                    }
                ]
             }
            }
01.10.2016 21:07:18 +0200 10.0.32.247 Login token: 8e3ec962dd9df5fe896761f8a58fddf
01.10.2016 21:07:18 +0200 10.0.32.247 Login response: {"transactionId":"14753488381065127715","userRetrievedList":{"users":[{"id":4082,"description":"342303732781781","parentBusinessUserId":2,"statusId":1,"roleTypeId":2,"defaultLanguageId":2,"userExternalIdList":{"externalIds":[{"externalId":"342303732781781","defaultFlag":1,"type":"socialID","statusId":1}]},"userAttributeList":{"attributeValues":[{"attributeId":9,"attributeName":"name","attributeValue":"Ahmed","languageId":2,"languageName":"en","statusId":1,"statusName":"active"},{"attributeId":10,"attributeName":"surname","attributeValue":"Karsoun","languageId":2,"languageName":"en","statusId":1,"statusName":"active"},{"attributeId":14,"attributeName":"email","attributeValue":"ahmed.saxon@yahoo.com","languageId":2,"languageName":"en","statusId":1,"statusName":"active"},{"attributeId":100004,"attributeName":"language","attributeValue":"en","languageId":2,"languageName":"en","statusId":1,"statusName":"active"}]}}]},"resultCode":"0"}
01.10.2016 21:07:18 +0200 10.0.32.247 Login status: 200
01.10.2016 21:13:33 +0200 10.0.32.247 TOKEN ricevuto, cache creata
01.10.2016 22:13:35 +0200 10.0.32.247 TOKEN ricevuto, cache creata
01.10.2016 22:31:31 +0200 10.0.32.247 Login req: {
            "languageId":"2",
            "transactionId": "14753538912020145412",
            "tenant":"1",
            "profileAttributeFlag":true,
            "externalIdList": {
                "externalIds": [
                    {
                    "externalId" : "128581197604258"
                    }
                ]
             }
            }
01.10.2016 22:31:31 +0200 10.0.32.247 Login token: 9dca80d78eee9edd6e83951675d46d7f
01.10.2016 22:31:31 +0200 10.0.32.247 Login response: {"transactionId":"14753538912020145412","userRetrievedList":{"users":[{"id":4074,"description":"128581197604258","parentBusinessUserId":2,"statusId":1,"roleTypeId":2,"defaultLanguageId":2,"userExternalIdList":{"externalIds":[{"externalId":"128581197604258","defaultFlag":1,"type":"socialID","statusId":1}]},"userAttributeList":{"attributeValues":[{"attributeId":5,"attributeName":"country","attributeValue":"United Arab Emirates","languageId":2,"languageName":"en","statusId":1,"statusName":"active"},{"attributeId":9,"attributeName":"name","attributeValue":"Hajihussain","languageId":2,"languageName":"en","statusId":1,"statusName":"active"},{"attributeId":10,"attributeName":"surname","attributeValue":"Kadhim","languageId":2,"languageName":"en","statusId":1,"statusName":"active"},{"attributeId":14,"attributeName":"email","attributeValue":"hy.hh2020@gmail.com","languageId":2,"languageName":"en","statusId":1,"statusName":"active"},{"attributeId":49,"attributeName":"city","attributeValue":"Dubai","languageId":2,"languageName":"en","statusId":1,"statusName":"active"},{"attributeId":50,"attributeName":"zipCode","attributeValue":"283605","languageId":2,"languageName":"en","statusId":1,"statusName":"active"},{"attributeId":108,"attributeName":"address","attributeValue":"Al qouz 1 dubai","languageId":2,"languageName":"en","statusId":1,"statusName":"active"},{"attributeId":100001,"attributeName":"msisdn","attributeValue":"+971-0543444388","languageId":2,"languageName":"en","statusId":1,"statusName":"active"},{"attributeId":100002,"attributeName":"birthday","attributeValue":"14\/12\/1977","languageId":2,"languageName":"en","statusId":1,"statusName":"active"},{"attributeId":100003,"attributeName":"customerNumber","attributeValue":"CON-20160930-0019","languageId":2,"languageName":"en","statusId":1,"statusName":"active"},{"attributeId":100004,"attributeName":"language","attributeValue":"AR","languageId":2,"languageName":"en","statusId":1,"statusName":"active"},{"attributeId":100013,"attributeName":"NL_LEGOLAND","attributeValue":"true","languageId":2,"languageName":"en","statusId":1,"statusName":"active"},{"attributeId":100014,"attributeName":"NL_RIVERLAND","attributeValue":"true","languageId":2,"languageName":"en","statusId":1,"statusName":"active"},{"attributeId":100018,"attributeName":"NL_BOLLIWOOD_PARK","attributeValue":"true","languageId":2,"languageName":"en","statusId":1,"statusName":"active"},{"attributeId":100019,"attributeName":"NL_MOTIONGATE","attributeValue":"true","languageId":2,"languageName":"en","statusId":1,"statusName":"active"},{"attributeId":100020,"attributeName":"NL_DUBAI_PARK_AND_RESORT","attributeValue":"true","languageId":2,"languageName":"en","statusId":1,"statusName":"active"}]}}]},"resultCode":"0"}
01.10.2016 22:31:31 +0200 10.0.32.247 Login status: 200
01.10.2016 23:14:26 +0200 10.0.32.247 TOKEN ricevuto, cache creata