
07.07.2016 0:40:50 +0200 10.0.32.247 TOKEN ricevuto, cache creata
07.07.2016 1:42:44 +0200 10.0.32.247 TOKEN ricevuto, cache creata
07.07.2016 2:44:15 +0200 10.0.32.247 TOKEN ricevuto, cache creata
07.07.2016 3:45:46 +0200 10.0.32.247 TOKEN ricevuto, cache creata
07.07.2016 4:09:46 +0200 10.0.32.247 Login req: {
            "languageId":"2",
            "transactionId": "1467857386533179485",
            "tenant":"1",
            "profileAttributeFlag":true,
            "externalIdList": {
                "externalIds": [
                    {
                    "externalId" : "leizel.sales@alfuttaim.ae"
                    }
                ]
             }
            }
07.07.2016 4:09:46 +0200 10.0.32.247 Login token: 7ec3e35fe23586a768a61e8af74799b3
07.07.2016 4:09:46 +0200 10.0.32.247 Login response: {"transactionId":"1467857386533179485","userRetrievedList":{"users":[{"id":1602,"description":"leizel.sales@alfuttaim.ae","parentBusinessUserId":2,"statusId":1,"roleTypeId":2,"defaultLanguageId":2,"userExternalIdList":{"externalIds":[{"externalId":"leizel.sales@alfuttaim.ae","defaultFlag":1,"type":"email","statusId":1}]},"userAttributeList":{"attributeValues":[{"attributeId":9,"attributeName":"name","attributeValue":"Liezel","languageId":2,"languageName":"en","statusId":1,"statusName":"active"},{"attributeId":10,"attributeName":"surname","attributeValue":"Romero","languageId":2,"languageName":"en","statusId":1,"statusName":"active"},{"attributeId":14,"attributeName":"email","attributeValue":"leizel.sales@alfuttaim.ae","languageId":2,"languageName":"en","statusId":1,"statusName":"active"},{"attributeId":100003,"attributeName":"customerNumber","attributeValue":"CON-20160707-0006","languageId":2,"languageName":"en","statusId":1,"statusName":"active"},{"attributeId":100004,"attributeName":"language","attributeValue":"EN","languageId":2,"languageName":"en","statusId":1,"statusName":"active"}]}}]},"resultCode":"0"}
07.07.2016 4:09:46 +0200 10.0.32.247 Login status: 200
07.07.2016 4:46:36 +0200 10.0.32.247 TOKEN ricevuto, cache creata
07.07.2016 5:48:14 +0200 10.0.32.247 TOKEN ricevuto, cache creata
07.07.2016 6:51:16 +0200 10.0.32.247 TOKEN ricevuto, cache creata
07.07.2016 7:51:09 +0200 10.0.32.247 TOKEN expired => RENEWING. Server response =>401
07.07.2016 7:51:09 +0200 10.0.32.247 RENEWING token
07.07.2016 7:51:09 +0200 10.0.32.247 RENEW TOKEN RESULT =>200 || 2d923fc741a7354d672e32b5d923b77
07.07.2016 7:51:09 +0200 10.0.32.247 error in acapiaccess_getProducts_annualPass: 
07.07.2016 8:56:31 +0200 10.0.32.247 TOKEN ricevuto, cache creata
07.07.2016 9:51:06 +0200 10.0.32.247 TOKEN expired => RENEWING. Server response =>401
07.07.2016 9:51:06 +0200 10.0.32.247 RENEWING token
07.07.2016 9:51:06 +0200 10.0.32.247 RENEW TOKEN RESULT =>200 || 8366bd1e7b849c1b74c2c49741a5b16
07.07.2016 10:04:41 +0200 10.0.32.247 Login req: {
            "languageId":"2",
            "transactionId": "14678786811879642846",
            "tenant":"1",
            "profileAttributeFlag":true,
            "externalIdList": {
                "externalIds": [
                    {
                    "externalId" : "1260266463998335"
                    }
                ]
             }
            }
07.07.2016 10:04:41 +0200 10.0.32.247 Login token: 298e2d737f45c631a79be646ae2709e
07.07.2016 10:04:41 +0200 10.0.32.247 Login response: {"transactionId":"14678786811879642846","userRetrievedList":{"users":[{"id":1604,"description":"1260266463998335","parentBusinessUserId":2,"statusId":1,"roleTypeId":2,"defaultLanguageId":2,"userExternalIdList":{"externalIds":[{"externalId":"1260266463998335","defaultFlag":1,"type":"socialID","statusId":1}]},"userAttributeList":{"attributeValues":[{"attributeId":9,"attributeName":"name","attributeValue":"Aqeel","languageId":2,"languageName":"en","statusId":1,"statusName":"active"},{"attributeId":10,"attributeName":"surname","attributeValue":"Al Hashemi","languageId":2,"languageName":"en","statusId":1,"statusName":"active"},{"attributeId":14,"attributeName":"email","attributeValue":"alhashemi711@hotmail.com","languageId":2,"languageName":"en","statusId":1,"statusName":"active"},{"attributeId":100004,"attributeName":"language","attributeValue":"ar","languageId":2,"languageName":"en","statusId":1,"statusName":"active"}]}}]},"resultCode":"0"}
07.07.2016 10:04:41 +0200 10.0.32.247 Login status: 200
07.07.2016 10:05:01 +0200 10.0.32.247 Login req: {
            "languageId":"2",
            "transactionId": "1467878701404292073",
            "tenant":"1",
            "profileAttributeFlag":true,
            "externalIdList": {
                "externalIds": [
                    {
                    "externalId" : "10210319163041114"
                    }
                ]
             }
            }
07.07.2016 10:05:01 +0200 10.0.32.247 Login token: ae9f9d23adcdf6f3d3f28947fe5a6961
07.07.2016 10:05:01 +0200 10.0.32.247 Login response: {"transactionId":"1467878701404292073","userRetrievedList":{"users":[{"id":1605,"description":"10210319163041114","parentBusinessUserId":2,"statusId":1,"roleTypeId":2,"defaultLanguageId":2,"userExternalIdList":{"externalIds":[{"externalId":"10210319163041114","defaultFlag":1,"type":"socialID","statusId":1}]},"userAttributeList":{"attributeValues":[{"attributeId":9,"attributeName":"name","attributeValue":"Rajeena","languageId":2,"languageName":"en","statusId":1,"statusName":"active"},{"attributeId":10,"attributeName":"surname","attributeValue":"Sivakumaran","languageId":2,"languageName":"en","statusId":1,"statusName":"active"},{"attributeId":14,"attributeName":"email","attributeValue":"rajeena.sivakumaran@gmail.com","languageId":2,"languageName":"en","statusId":1,"statusName":"active"},{"attributeId":100004,"attributeName":"language","attributeValue":"en","languageId":2,"languageName":"en","statusId":1,"statusName":"active"}]}}]},"resultCode":"0"}
07.07.2016 10:05:01 +0200 10.0.32.247 Login status: 200
07.07.2016 10:57:04 +0200 10.0.32.247 TOKEN ricevuto, cache creata
07.07.2016 11:03:40 +0200 10.0.32.247 Login req: {
            "languageId":"2",
            "transactionId": "14678822201724777802",
            "tenant":"1",
            "profileAttributeFlag":true,
            "externalIdList": {
                "externalIds": [
                    {
                    "externalId" : "1131428486878231"
                    }
                ]
             }
            }
07.07.2016 11:03:40 +0200 10.0.32.247 Login token: bce1ee1a8ee864b849a55cc31925779
07.07.2016 11:03:40 +0200 10.0.32.247 Login response: {"transactionId":"14678822201724777802","userRetrievedList":{"users":[{"id":1535,"description":"1131428486878231","parentBusinessUserId":2,"statusId":1,"roleTypeId":2,"defaultLanguageId":2,"userExternalIdList":{"externalIds":[{"externalId":"1131428486878231","defaultFlag":1,"type":"socialID","statusId":1}]},"userAttributeList":{"attributeValues":[{"attributeId":9,"attributeName":"name","attributeValue":"Gilbert","languageId":2,"languageName":"en","statusId":1,"statusName":"active"},{"attributeId":10,"attributeName":"surname","attributeValue":"Barlet","languageId":2,"languageName":"en","statusId":1,"statusName":"active"},{"attributeId":14,"attributeName":"email","attributeValue":"gilbert_barlet@yahoo.com","languageId":2,"languageName":"en","statusId":1,"statusName":"active"},{"attributeId":100003,"attributeName":"customerNumber","attributeValue":"CON-20160704-0012","languageId":2,"languageName":"en","statusId":1,"statusName":"active"},{"attributeId":100004,"attributeName":"language","attributeValue":"en","languageId":2,"languageName":"en","statusId":1,"statusName":"active"}]}}]},"resultCode":"0"}
07.07.2016 11:03:40 +0200 10.0.32.247 Login status: 200
07.07.2016 11:15:27 +0200 10.0.32.247 Login req: {
            "languageId":"2",
            "transactionId": "1467882927858829073",
            "tenant":"1",
            "profileAttributeFlag":true,
            "externalIdList": {
                "externalIds": [
                    {
                    "externalId" : "garverfrancis@gmail.com"
                    }
                ]
             }
            }
07.07.2016 11:15:27 +0200 10.0.32.247 Login token: 3175224a9f267182962354d0cfdeb83d
07.07.2016 11:15:27 +0200 10.0.32.247 Login response: {"transactionId":"1467882927858829073","userRetrievedList":{"users":[{"id":1607,"description":"garverfrancis@gmail.com","parentBusinessUserId":2,"statusId":1,"roleTypeId":2,"defaultLanguageId":2,"userExternalIdList":{"externalIds":[{"externalId":"garverfrancis@gmail.com","defaultFlag":1,"type":"email","statusId":1}]},"userAttributeList":{"attributeValues":[{"attributeId":9,"attributeName":"name","attributeValue":"Francis","languageId":2,"languageName":"en","statusId":1,"statusName":"active"},{"attributeId":10,"attributeName":"surname","attributeValue":"Kariuki","languageId":2,"languageName":"en","statusId":1,"statusName":"active"},{"attributeId":14,"attributeName":"email","attributeValue":"garverfrancis@gmail.com","languageId":2,"languageName":"en","statusId":1,"statusName":"active"},{"attributeId":100003,"attributeName":"customerNumber","attributeValue":"CON-20160707-0016","languageId":2,"languageName":"en","statusId":1,"statusName":"active"},{"attributeId":100004,"attributeName":"language","attributeValue":"EN","languageId":2,"languageName":"en","statusId":1,"statusName":"active"},{"attributeId":100020,"attributeName":"NL_DUBAI_PARK_AND_RESORT","attributeValue":"true","languageId":2,"languageName":"en","statusId":1,"statusName":"active"}]}}]},"resultCode":"0"}
07.07.2016 11:15:27 +0200 10.0.32.247 Login status: 200
07.07.2016 11:57:07 +0200 10.0.32.247 TOKEN ricevuto, cache creata
07.07.2016 12:57:14 +0200 10.0.32.247 TOKEN ricevuto, cache creata
07.07.2016 13:58:43 +0200 10.0.32.247 TOKEN ricevuto, cache creata
07.07.2016 14:59:35 +0200 10.0.32.247 TOKEN ricevuto, cache creata
07.07.2016 16:02:26 +0200 10.0.32.247 TOKEN ricevuto, cache creata
07.07.2016 16:44:54 +0200 10.0.32.247 Login req: {
            "languageId":"2",
            "transactionId": "14679026931710755639",
            "tenant":"1",
            "profileAttributeFlag":true,
            "externalIdList": {
                "externalIds": [
                    {
                    "externalId" : "m.alshatti@gmail.com"
                    }
                ]
             }
            }
07.07.2016 16:44:54 +0200 10.0.32.247 Login token: d0c8a3e075749124e72568665aa75b2
07.07.2016 16:44:54 +0200 10.0.32.247 Login response: {"transactionId":"14679026931710755639","userRetrievedList":{"users":[{"id":1115,"description":"m.alshatti@gmail.com","parentBusinessUserId":2,"statusId":1,"roleTypeId":2,"defaultLanguageId":2,"userExternalIdList":{"externalIds":[{"externalId":"m.alshatti@gmail.com","defaultFlag":1,"type":"email","statusId":1}]},"userAttributeList":{"attributeValues":[{"attributeId":5,"attributeName":"country","attributeValue":"Kuwait","languageId":2,"languageName":"en","statusId":1,"statusName":"active"},{"attributeId":9,"attributeName":"name","attributeValue":"MESHAL","languageId":2,"languageName":"en","statusId":1,"statusName":"active"},{"attributeId":10,"attributeName":"surname","attributeValue":"ALSHATTI","languageId":2,"languageName":"en","statusId":1,"statusName":"active"},{"attributeId":14,"attributeName":"email","attributeValue":"m.alshatti@gmail.com","languageId":2,"languageName":"en","statusId":1,"statusName":"active"},{"attributeId":49,"attributeName":"city","attributeValue":"kuwait","languageId":2,"languageName":"en","statusId":1,"statusName":"active"},{"attributeId":50,"attributeName":"zipCode","attributeValue":"47383","languageId":2,"languageName":"en","statusId":1,"statusName":"active"},{"attributeId":108,"attributeName":"address","attributeValue":"AL-Adan","languageId":2,"languageName":"en","statusId":1,"statusName":"active"},{"attributeId":100001,"attributeName":"msisdn","attributeValue":"+965-99815577","languageId":2,"languageName":"en","statusId":1,"statusName":"active"},{"attributeId":100002,"attributeName":"birthday","attributeValue":"7\/13\/1976","languageId":2,"languageName":"en","statusId":1,"statusName":"active"},{"attributeId":100003,"attributeName":"customerNumber","attributeValue":"CON-20160610-0025","languageId":2,"languageName":"en","statusId":1,"statusName":"active"},{"attributeId":100004,"attributeName":"language","attributeValue":"EN","languageId":2,"languageName":"en","statusId":1,"statusName":"active"},{"attributeId":100013,"attributeName":"NL_LEGOLAND","attributeValue":"True","languageId":2,"languageName":"en","statusId":1,"statusName":"active"},{"attributeId":100014,"attributeName":"NL_RIVERLAND","attributeValue":"True","languageId":2,"languageName":"en","statusId":1,"statusName":"active"},{"attributeId":100015,"attributeName":"NL_GENERAL_COMMUNICATION","attributeValue":"False","languageId":2,"languageName":"en","statusId":1,"statusName":"active"},{"attributeId":100018,"attributeName":"NL_BOLLIWOOD_PARK","attributeValue":"True","languageId":2,"languageName":"en","statusId":1,"statusName":"active"},{"attributeId":100019,"attributeName":"NL_MOTIONGATE","attributeValue":"True","languageId":2,"languageName":"en","statusId":1,"statusName":"active"},{"attributeId":100020,"attributeName":"NL_DUBAI_PARK_AND_RESORT","attributeValue":"True","languageId":2,"languageName":"en","statusId":1,"statusName":"active"}]}}]},"resultCode":"0"}
07.07.2016 16:44:54 +0200 10.0.32.247 Login status: 200
07.07.2016 17:03:00 +0200 10.0.32.247 TOKEN ricevuto, cache creata
07.07.2016 17:09:19 +0200 10.0.32.247 TOKEN expired => RENEWING. Server response =>401
07.07.2016 17:09:19 +0200 10.0.32.247 RENEWING token
07.07.2016 17:09:19 +0200 10.0.32.247 RENEW TOKEN RESULT =>200 || 606a738d9b7541768e7becf720f21f2a
07.07.2016 17:09:19 +0200 10.0.32.247 error in acapiaccess_getProducts_annualPass: 
07.07.2016 17:50:04 +0200 10.0.32.247 Login req: {
            "languageId":"2",
            "transactionId": "14679066042014031984",
            "tenant":"1",
            "profileAttributeFlag":true,
            "externalIdList": {
                "externalIds": [
                    {
                    "externalId" : "shatha.smb@gmail.com"
                    }
                ]
             }
            }
07.07.2016 17:50:04 +0200 10.0.32.247 Login token: 9d61fde633692c2c7cc9f92fa0353d34
07.07.2016 17:50:04 +0200 10.0.32.247 Login response: {"transactionId":"14679066042014031984","userRetrievedList":{"users":[{"id":1608,"description":"shatha.smb@gmail.com","parentBusinessUserId":2,"statusId":1,"roleTypeId":2,"defaultLanguageId":2,"userExternalIdList":{"externalIds":[{"externalId":"shatha.smb@gmail.com","defaultFlag":1,"type":"email","statusId":1}]},"userAttributeList":{"attributeValues":[{"attributeId":9,"attributeName":"name","attributeValue":"Shatha","languageId":2,"languageName":"en","statusId":1,"statusName":"active"},{"attributeId":10,"attributeName":"surname","attributeValue":"Bouresli","languageId":2,"languageName":"en","statusId":1,"statusName":"active"},{"attributeId":14,"attributeName":"email","attributeValue":"shatha.smb@gmail.com","languageId":2,"languageName":"en","statusId":1,"statusName":"active"},{"attributeId":100003,"attributeName":"customerNumber","attributeValue":"CON-20160707-0025","languageId":2,"languageName":"en","statusId":1,"statusName":"active"},{"attributeId":100004,"attributeName":"language","attributeValue":"EN","languageId":2,"languageName":"en","statusId":1,"statusName":"active"},{"attributeId":100020,"attributeName":"NL_DUBAI_PARK_AND_RESORT","attributeValue":"true","languageId":2,"languageName":"en","statusId":1,"statusName":"active"}]}}]},"resultCode":"0"}
07.07.2016 17:50:04 +0200 10.0.32.247 Login status: 200
07.07.2016 17:55:14 +0200 10.0.32.247 Login req: {
            "languageId":"2",
            "transactionId": "1467906914163505411",
            "tenant":"1",
            "profileAttributeFlag":true,
            "externalIdList": {
                "externalIds": [
                    {
                    "externalId" : "Hashimmr9@gmail.com"
                    }
                ]
             }
            }
07.07.2016 17:55:14 +0200 10.0.32.247 Login token: 19cc31e1daef99944a7f13748e9c811
07.07.2016 17:55:14 +0200 10.0.32.247 Login response: {"transactionId":"1467906914163505411","userRetrievedList":{"users":[{"id":1471,"description":"hashimmr9@gmail.com","parentBusinessUserId":2,"statusId":1,"roleTypeId":2,"defaultLanguageId":2,"userExternalIdList":{"externalIds":[{"externalId":"hashimmr9@gmail.com","defaultFlag":1,"type":"email","statusId":1}]},"userAttributeList":{"attributeValues":[{"attributeId":9,"attributeName":"name","attributeValue":"Hashim","languageId":2,"languageName":"en","statusId":1,"statusName":"active"},{"attributeId":10,"attributeName":"surname","attributeValue":"omer","languageId":2,"languageName":"en","statusId":1,"statusName":"active"},{"attributeId":14,"attributeName":"email","attributeValue":"hashimmr9@gmail.com","languageId":2,"languageName":"en","statusId":1,"statusName":"active"},{"attributeId":100003,"attributeName":"customerNumber","attributeValue":"CON-20160702-0020","languageId":2,"languageName":"en","statusId":1,"statusName":"active"},{"attributeId":100004,"attributeName":"language","attributeValue":"AR","languageId":2,"languageName":"en","statusId":1,"statusName":"active"},{"attributeId":100020,"attributeName":"NL_DUBAI_PARK_AND_RESORT","attributeValue":"true","languageId":2,"languageName":"en","statusId":1,"statusName":"active"}]}}]},"resultCode":"0"}
07.07.2016 17:55:14 +0200 10.0.32.247 Login status: 200
07.07.2016 18:09:50 +0200 10.0.32.247 TOKEN ricevuto, cache creata
07.07.2016 18:11:29 +0200 10.0.32.247 TOKEN expired => RENEWING. Server response =>401
07.07.2016 18:11:29 +0200 10.0.32.247 RENEWING token
07.07.2016 18:11:29 +0200 10.0.32.247 RENEW TOKEN RESULT =>200 || d1c0ccf048f0bd6fcab9398f6754267f
07.07.2016 18:11:29 +0200 10.0.32.247 error in acapiaccess_getProducts_annualPass: 
07.07.2016 18:46:59 +0200 10.0.32.247 Login req: {
            "languageId":"2",
            "transactionId": "1467910019735076353",
            "tenant":"1",
            "profileAttributeFlag":true,
            "externalIdList": {
                "externalIds": [
                    {
                    "externalId" : "adelhooti@yahoo.com"
                    }
                ]
             }
            }
07.07.2016 18:46:59 +0200 10.0.32.247 Login token: 151d6505fe74148ef515dfdd2326590
07.07.2016 18:46:59 +0200 10.0.32.247 Login response: {"transactionId":"1467910019735076353","userRetrievedList":{"users":[{"id":1610,"description":"adelhooti@yahoo.com","parentBusinessUserId":2,"statusId":1,"roleTypeId":2,"defaultLanguageId":2,"userExternalIdList":{"externalIds":[{"externalId":"adelhooti@yahoo.com","defaultFlag":1,"type":"email","statusId":1}]},"userAttributeList":{"attributeValues":[{"attributeId":9,"attributeName":"name","attributeValue":"Adel","languageId":2,"languageName":"en","statusId":1,"statusName":"active"},{"attributeId":10,"attributeName":"surname","attributeValue":"Alhooti","languageId":2,"languageName":"en","statusId":1,"statusName":"active"},{"attributeId":14,"attributeName":"email","attributeValue":"adelhooti@yahoo.com","languageId":2,"languageName":"en","statusId":1,"statusName":"active"},{"attributeId":100003,"attributeName":"customerNumber","attributeValue":"CON-20160707-0029","languageId":2,"languageName":"en","statusId":1,"statusName":"active"},{"attributeId":100004,"attributeName":"language","attributeValue":"AR","languageId":2,"languageName":"en","statusId":1,"statusName":"active"},{"attributeId":100020,"attributeName":"NL_DUBAI_PARK_AND_RESORT","attributeValue":"true","languageId":2,"languageName":"en","statusId":1,"statusName":"active"}]}}]},"resultCode":"0"}
07.07.2016 18:46:59 +0200 10.0.32.247 Login status: 200
07.07.2016 19:14:40 +0200 10.0.32.247 TOKEN ricevuto, cache creata
07.07.2016 20:18:59 +0200 10.0.32.247 TOKEN ricevuto, cache creata
07.07.2016 21:21:55 +0200 10.0.32.247 TOKEN ricevuto, cache creata
07.07.2016 22:23:53 +0200 10.0.32.247 TOKEN ricevuto, cache creata
07.07.2016 22:51:11 +0200 10.0.32.247 Login req: {
            "languageId":"2",
            "transactionId": "14679246711993716694",
            "tenant":"1",
            "profileAttributeFlag":true,
            "externalIdList": {
                "externalIds": [
                    {
                    "externalId" : "ahmed.hassen@gmail.com"
                    }
                ]
             }
            }
07.07.2016 22:51:11 +0200 10.0.32.247 Login token: 2989d3e349ce9341afebf4cfe76f1f0
07.07.2016 22:51:11 +0200 10.0.32.247 Login response: {"transactionId":"14679246711993716694","userRetrievedList":{"users":[{"id":1613,"description":"ahmed.hassen@gmail.com","parentBusinessUserId":2,"statusId":1,"roleTypeId":2,"defaultLanguageId":2,"userExternalIdList":{"externalIds":[{"externalId":"ahmed.hassen@gmail.com","defaultFlag":1,"type":"email","statusId":1}]},"userAttributeList":{"attributeValues":[{"attributeId":9,"attributeName":"name","attributeValue":"Ahmed","languageId":2,"languageName":"en","statusId":1,"statusName":"active"},{"attributeId":10,"attributeName":"surname","attributeValue":"Hassan","languageId":2,"languageName":"en","statusId":1,"statusName":"active"},{"attributeId":14,"attributeName":"email","attributeValue":"ahmed.hassen@gmail.com","languageId":2,"languageName":"en","statusId":1,"statusName":"active"},{"attributeId":100003,"attributeName":"customerNumber","attributeValue":"CON-20160708-0002","languageId":2,"languageName":"en","statusId":1,"statusName":"active"},{"attributeId":100004,"attributeName":"language","attributeValue":"EN","languageId":2,"languageName":"en","statusId":1,"statusName":"active"},{"attributeId":100020,"attributeName":"NL_DUBAI_PARK_AND_RESORT","attributeValue":"true","languageId":2,"languageName":"en","statusId":1,"statusName":"active"}]}}]},"resultCode":"0"}
07.07.2016 22:51:11 +0200 10.0.32.247 Login status: 200
07.07.2016 23:26:22 +0200 10.0.32.247 TOKEN ricevuto, cache creata