
21.10.2016 0:06:49 +0200 10.0.32.247 TOKEN expired => RENEWING. Server response =>401
21.10.2016 0:06:49 +0200 10.0.32.247 RENEWING token
21.10.2016 0:06:49 +0200 10.0.32.247 RENEW TOKEN RESULT =>200 || 187c5fddc2cb57543e32c3c4798b71
21.10.2016 1:08:15 +0200 10.0.32.247 TOKEN ricevuto, cache creata
21.10.2016 2:16:31 +0200 10.0.32.247 TOKEN ricevuto, cache creata
21.10.2016 3:14:53 +0200 10.0.32.247 TOKEN expired => RENEWING. Server response =>401
21.10.2016 3:14:53 +0200 10.0.32.247 RENEWING token
21.10.2016 3:14:53 +0200 10.0.32.247 RENEW TOKEN RESULT =>200 || 67c112acf6e525229ba3c2d3e48c
21.10.2016 4:13:50 +0200 10.0.32.247 TOKEN expired => RENEWING. Server response =>401
21.10.2016 4:13:50 +0200 10.0.32.247 RENEWING token
21.10.2016 4:13:50 +0200 10.0.32.247 RENEW TOKEN RESULT =>200 || 934bed35e1bddfe62e1ba32693a39217
21.10.2016 5:15:07 +0200 10.0.32.247 TOKEN ricevuto, cache creata
21.10.2016 6:16:05 +0200 10.0.32.247 TOKEN ricevuto, cache creata
21.10.2016 7:16:54 +0200 10.0.32.247 TOKEN ricevuto, cache creata
21.10.2016 8:17:08 +0200 10.0.32.247 TOKEN ricevuto, cache creata
21.10.2016 8:18:50 +0200 10.0.32.247 TOKEN expired => RENEWING. Server response =>401
21.10.2016 8:18:50 +0200 10.0.32.247 RENEWING token
21.10.2016 8:18:50 +0200 10.0.32.247 RENEW TOKEN RESULT =>200 || c7714b34f934266764228dcdeccc980
21.10.2016 9:20:29 +0200 10.0.32.247 TOKEN ricevuto, cache creata
21.10.2016 10:10:25 +0200 10.0.32.247 Login req: {
            "languageId":"2",
            "transactionId": "1477037425549797720",
            "tenant":"1",
            "profileAttributeFlag":true,
            "externalIdList": {
                "externalIds": [
                    {
                    "externalId" : "lynwaller001@yahoo.com"
                    }
                ]
             }
            }
21.10.2016 10:10:25 +0200 10.0.32.247 Login token: bd30bd7bbae767a849551fb6cee6dfa0
21.10.2016 10:10:25 +0200 10.0.32.247 Login response: {"transactionId":"1477037425549797720","userRetrievedList":{"users":[{"id":4420,"description":"lynwaller001@yahoo.com","parentBusinessUserId":2,"statusId":1,"roleTypeId":2,"defaultLanguageId":2,"userExternalIdList":{"externalIds":[{"externalId":"lynwaller001@yahoo.com","defaultFlag":1,"type":"email","statusId":1}]},"userAttributeList":{"attributeValues":[{"attributeId":9,"attributeName":"name","attributeValue":"Lyn","languageId":2,"languageName":"en","statusId":1,"statusName":"active"},{"attributeId":10,"attributeName":"surname","attributeValue":"Waller","languageId":2,"languageName":"en","statusId":1,"statusName":"active"},{"attributeId":14,"attributeName":"email","attributeValue":"lynwaller001@yahoo.com","languageId":2,"languageName":"en","statusId":1,"statusName":"active"},{"attributeId":100003,"attributeName":"customerNumber","attributeValue":"CON-20161020-0005","languageId":2,"languageName":"en","statusId":1,"statusName":"active"},{"attributeId":100004,"attributeName":"language","attributeValue":"EN","languageId":2,"languageName":"en","statusId":1,"statusName":"active"},{"attributeId":100020,"attributeName":"NL_DUBAI_PARK_AND_RESORT","attributeValue":"true","languageId":2,"languageName":"en","statusId":1,"statusName":"active"}]}}]},"resultCode":"0"}
21.10.2016 10:10:25 +0200 10.0.32.247 Login status: 200
21.10.2016 11:28:43 +0200 10.0.32.247 TOKEN ricevuto, cache creata
21.10.2016 13:07:33 +0200 10.0.32.247 TOKEN ricevuto, cache creata
21.10.2016 13:42:14 +0200 10.0.32.247 TOKEN expired => RENEWING. Server response =>401
21.10.2016 13:42:14 +0200 10.0.32.247 RENEWING token
21.10.2016 13:42:14 +0200 10.0.32.247 RENEW TOKEN RESULT =>200 || 5b9021342993eac61e98eff91278fb3
21.10.2016 13:43:57 +0200 10.0.32.247 Login req: {
            "languageId":"2",
            "transactionId": "1477050237146504497",
            "tenant":"1",
            "profileAttributeFlag":true,
            "externalIdList": {
                "externalIds": [
                    {
                    "externalId" : "Elhaj.mohd@yahoo.com"
                    }
                ]
             }
            }
21.10.2016 13:43:57 +0200 10.0.32.247 Login token: e3ca78361672c4c7f99d31bfae94af68
21.10.2016 13:43:57 +0200 10.0.32.247 Login response: {"transactionId":"1477050237146504497","userRetrievedList":{"users":[{"id":4426,"description":"elhaj.mohd@yahoo.com","parentBusinessUserId":2,"statusId":1,"roleTypeId":2,"defaultLanguageId":2,"userExternalIdList":{"externalIds":[{"externalId":"elhaj.mohd@yahoo.com","defaultFlag":1,"type":"email","statusId":1}]},"userAttributeList":{"attributeValues":[{"attributeId":9,"attributeName":"name","attributeValue":"Mohamad","languageId":2,"languageName":"en","statusId":1,"statusName":"active"},{"attributeId":10,"attributeName":"surname","attributeValue":"Elhaj","languageId":2,"languageName":"en","statusId":1,"statusName":"active"},{"attributeId":14,"attributeName":"email","attributeValue":"elhaj.mohd@yahoo.com","languageId":2,"languageName":"en","statusId":1,"statusName":"active"},{"attributeId":100003,"attributeName":"customerNumber","attributeValue":"CON-20161021-0010","languageId":2,"languageName":"en","statusId":1,"statusName":"active"},{"attributeId":100004,"attributeName":"language","attributeValue":"EN","languageId":2,"languageName":"en","statusId":1,"statusName":"active"},{"attributeId":100020,"attributeName":"NL_DUBAI_PARK_AND_RESORT","attributeValue":"true","languageId":2,"languageName":"en","statusId":1,"statusName":"active"}]}}]},"resultCode":"0"}
21.10.2016 13:43:57 +0200 10.0.32.247 Login status: 200
21.10.2016 13:59:51 +0200 10.0.32.247 Login req: {
            "languageId":"2",
            "transactionId": "14770511911718402449",
            "tenant":"1",
            "profileAttributeFlag":true,
            "externalIdList": {
                "externalIds": [
                    {
                    "externalId" : "1798097533813441"
                    }
                ]
             }
            }
21.10.2016 13:59:51 +0200 10.0.32.247 Login token: 63b72642129ea79dee344e3d9cd995a
21.10.2016 13:59:51 +0200 10.0.32.247 Login response: {"transactionId":"14770511911718402449","userRetrievedList":{"users":[]},"resultCode":"0"}
21.10.2016 13:59:51 +0200 10.0.32.247 Login status: 200
21.10.2016 14:16:13 +0200 10.0.32.247 Login req: {
            "languageId":"2",
            "transactionId": "14770521731231251455",
            "tenant":"1",
            "profileAttributeFlag":true,
            "externalIdList": {
                "externalIds": [
                    {
                    "externalId" : "1111712508864972"
                    }
                ]
             }
            }
21.10.2016 14:16:13 +0200 10.0.32.247 Login token: db93f3d84ad6f761242ff52f3bc0a5bb
21.10.2016 14:16:13 +0200 10.0.32.247 Login response: {"transactionId":"14770521731231251455","userRetrievedList":{"users":[]},"resultCode":"0"}
21.10.2016 14:16:13 +0200 10.0.32.247 Login status: 200
21.10.2016 14:16:30 +0200 10.0.32.247 Login req: {
            "languageId":"2",
            "transactionId": "14770521901504390720",
            "tenant":"1",
            "profileAttributeFlag":true,
            "externalIdList": {
                "externalIds": [
                    {
                    "externalId" : "1111712508864972"
                    }
                ]
             }
            }
21.10.2016 14:16:30 +0200 10.0.32.247 Login token: db93f3d84ad6f761242ff52f3bc0a5bb
21.10.2016 14:16:30 +0200 10.0.32.247 Login response: {"transactionId":"14770521901504390720","userRetrievedList":{"users":[]},"resultCode":"0"}
21.10.2016 14:16:30 +0200 10.0.32.247 Login status: 200
21.10.2016 14:16:52 +0200 10.0.32.247 Login req: {
            "languageId":"2",
            "transactionId": "1477052212614938463",
            "tenant":"1",
            "profileAttributeFlag":true,
            "externalIdList": {
                "externalIds": [
                    {
                    "externalId" : "1111712508864972"
                    }
                ]
             }
            }
21.10.2016 14:16:52 +0200 10.0.32.247 Login token: db93f3d84ad6f761242ff52f3bc0a5bb
21.10.2016 14:16:52 +0200 10.0.32.247 Login response: {"transactionId":"1477052212614938463","userRetrievedList":{"users":[]},"resultCode":"0"}
21.10.2016 14:16:52 +0200 10.0.32.247 Login status: 200
21.10.2016 14:17:09 +0200 10.0.32.247 Login req: {
            "languageId":"2",
            "transactionId": "14770522291622411531",
            "tenant":"1",
            "profileAttributeFlag":true,
            "externalIdList": {
                "externalIds": [
                    {
                    "externalId" : "1111712508864972"
                    }
                ]
             }
            }
21.10.2016 14:17:09 +0200 10.0.32.247 Login token: db93f3d84ad6f761242ff52f3bc0a5bb
21.10.2016 14:17:09 +0200 10.0.32.247 Login response: {"transactionId":"14770522291622411531","userRetrievedList":{"users":[]},"resultCode":"0"}
21.10.2016 14:17:09 +0200 10.0.32.247 Login status: 200
21.10.2016 14:17:41 +0200 10.0.32.247 Login req: {
            "languageId":"2",
            "transactionId": "1477052261610153401",
            "tenant":"1",
            "profileAttributeFlag":true,
            "externalIdList": {
                "externalIds": [
                    {
                    "externalId" : "1111712508864972"
                    }
                ]
             }
            }
21.10.2016 14:17:41 +0200 10.0.32.247 Login token: db93f3d84ad6f761242ff52f3bc0a5bb
21.10.2016 14:17:41 +0200 10.0.32.247 Login response: {"transactionId":"1477052261610153401","userRetrievedList":{"users":[]},"resultCode":"0"}
21.10.2016 14:17:41 +0200 10.0.32.247 Login status: 200
21.10.2016 14:19:07 +0200 10.0.32.247 Login req: {
            "languageId":"2",
            "transactionId": "14770523471532113484",
            "tenant":"1",
            "profileAttributeFlag":true,
            "externalIdList": {
                "externalIds": [
                    {
                    "externalId" : "1111712508864972"
                    }
                ]
             }
            }
21.10.2016 14:19:07 +0200 10.0.32.247 Login token: db93f3d84ad6f761242ff52f3bc0a5bb
21.10.2016 14:19:07 +0200 10.0.32.247 Login response: {"transactionId":"14770523471532113484","userRetrievedList":{"users":[]},"resultCode":"0"}
21.10.2016 14:19:07 +0200 10.0.32.247 Login status: 200
21.10.2016 14:20:31 +0200 10.0.32.247 Login req: {
            "languageId":"2",
            "transactionId": "14770524311321021022",
            "tenant":"1",
            "profileAttributeFlag":true,
            "externalIdList": {
                "externalIds": [
                    {
                    "externalId" : "1111712508864972"
                    }
                ]
             }
            }
21.10.2016 14:20:31 +0200 10.0.32.247 Login token: db93f3d84ad6f761242ff52f3bc0a5bb
21.10.2016 14:20:31 +0200 10.0.32.247 Login response: {"transactionId":"14770524311321021022","userRetrievedList":{"users":[]},"resultCode":"0"}
21.10.2016 14:20:31 +0200 10.0.32.247 Login status: 200
21.10.2016 14:20:51 +0200 10.0.32.247 Login req: {
            "languageId":"2",
            "transactionId": "14770524511415383148",
            "tenant":"1",
            "profileAttributeFlag":true,
            "externalIdList": {
                "externalIds": [
                    {
                    "externalId" : "1111712508864972"
                    }
                ]
             }
            }
21.10.2016 14:20:51 +0200 10.0.32.247 Login token: db93f3d84ad6f761242ff52f3bc0a5bb
21.10.2016 14:20:51 +0200 10.0.32.247 Login response: {"transactionId":"14770524511415383148","userRetrievedList":{"users":[]},"resultCode":"0"}
21.10.2016 14:20:51 +0200 10.0.32.247 Login status: 200
21.10.2016 14:23:12 +0200 10.0.32.247 Login req: {
            "languageId":"2",
            "transactionId": "14770525921894429640",
            "tenant":"1",
            "profileAttributeFlag":true,
            "externalIdList": {
                "externalIds": [
                    {
                    "externalId" : "1111712508864972"
                    }
                ]
             }
            }
21.10.2016 14:23:12 +0200 10.0.32.247 Login token: db93f3d84ad6f761242ff52f3bc0a5bb
21.10.2016 14:23:12 +0200 10.0.32.247 Login response: {"transactionId":"14770525921894429640","userRetrievedList":{"users":[]},"resultCode":"0"}
21.10.2016 14:23:12 +0200 10.0.32.247 Login status: 200
21.10.2016 16:16:27 +0200 10.0.32.247 TOKEN ricevuto, cache creata
21.10.2016 16:31:22 +0200 10.0.32.247 Login req: {
            "languageId":"2",
            "transactionId": "1477060282283065089",
            "tenant":"1",
            "profileAttributeFlag":true,
            "externalIdList": {
                "externalIds": [
                    {
                    "externalId" : "sabahgtr@gmail.com"
                    }
                ]
             }
            }
21.10.2016 16:31:22 +0200 10.0.32.247 Login token: d061da30ad5de95b6162f8796ea0a24
21.10.2016 16:31:22 +0200 10.0.32.247 Login response: {"transactionId":"1477060282283065089","userRetrievedList":{"users":[{"id":4054,"description":"sabahgtr@gmail.com","parentBusinessUserId":2,"statusId":1,"roleTypeId":2,"defaultLanguageId":2,"userExternalIdList":{"externalIds":[{"externalId":"sabahgtr@gmail.com","defaultFlag":1,"type":"email","statusId":1}]},"userAttributeList":{"attributeValues":[{"attributeId":9,"attributeName":"name","attributeValue":"Sabah","languageId":2,"languageName":"en","statusId":1,"statusName":"active"},{"attributeId":10,"attributeName":"surname","attributeValue":"Gtr","languageId":2,"languageName":"en","statusId":1,"statusName":"active"},{"attributeId":14,"attributeName":"email","attributeValue":"sabahgtr@gmail.com","languageId":2,"languageName":"en","statusId":1,"statusName":"active"},{"attributeId":100001,"attributeName":"msisdn","attributeValue":"+971-502777222","languageId":2,"languageName":"en","statusId":1,"statusName":"active"},{"attributeId":100002,"attributeName":"birthday","attributeValue":"1\/17\/1977","languageId":2,"languageName":"en","statusId":1,"statusName":"active"},{"attributeId":100003,"attributeName":"customerNumber","attributeValue":"CON-20160930-0028","languageId":2,"languageName":"en","statusId":1,"statusName":"active"},{"attributeId":100004,"attributeName":"language","attributeValue":"EN","languageId":2,"languageName":"en","statusId":1,"statusName":"active"},{"attributeId":100005,"attributeName":"type","attributeValue":"customer","languageId":2,"languageName":"en","statusId":1,"statusName":"active"},{"attributeId":100013,"attributeName":"NL_LEGOLAND","attributeValue":"True","languageId":2,"languageName":"en","statusId":1,"statusName":"active"},{"attributeId":100014,"attributeName":"NL_RIVERLAND","attributeValue":"True","languageId":2,"languageName":"en","statusId":1,"statusName":"active"},{"attributeId":100015,"attributeName":"NL_GENERAL_COMMUNICATION","attributeValue":"False","languageId":2,"languageName":"en","statusId":1,"statusName":"active"},{"attributeId":100017,"attributeName":"mascotteID","attributeValue":"mascotte5_b.fw","languageId":2,"languageName":"en","statusId":1,"statusName":"active"},{"attributeId":100018,"attributeName":"NL_BOLLIWOOD_PARK","attributeValue":"True","languageId":2,"languageName":"en","statusId":1,"statusName":"active"},{"attributeId":100019,"attributeName":"NL_MOTIONGATE","attributeValue":"True","languageId":2,"languageName":"en","statusId":1,"statusName":"active"},{"attributeId":100020,"attributeName":"NL_DUBAI_PARK_AND_RESORT","attributeValue":"True","languageId":2,"languageName":"en","statusId":1,"statusName":"active"}]}}]},"resultCode":"0"}
21.10.2016 16:31:22 +0200 10.0.32.247 Login status: 200
21.10.2016 16:50:05 +0200 10.0.32.247 TOKEN expired => RENEWING. Server response =>401
21.10.2016 16:50:05 +0200 10.0.32.247 RENEWING token
21.10.2016 16:50:05 +0200 10.0.32.247 RENEW TOKEN RESULT =>200 || 286b7867d6edc8b1a4f0fea334f439
21.10.2016 16:51:58 +0200 10.0.32.247 Login req: {
            "languageId":"2",
            "transactionId": "1477061518217283267",
            "tenant":"1",
            "profileAttributeFlag":true,
            "externalIdList": {
                "externalIds": [
                    {
                    "externalId" : "anianees77@gmail.com"
                    }
                ]
             }
            }
21.10.2016 16:51:58 +0200 10.0.32.247 Login token: 3e57fb8ab66a8d9ad6bb59859f934b
21.10.2016 16:51:58 +0200 10.0.32.247 Login response: {"transactionId":"1477061518217283267","userRetrievedList":{"users":[{"id":4430,"description":"anianees77@gmail.com","parentBusinessUserId":2,"statusId":1,"roleTypeId":2,"defaultLanguageId":2,"userExternalIdList":{"externalIds":[{"externalId":"anianees77@gmail.com","defaultFlag":1,"type":"email","statusId":1}]},"userAttributeList":{"attributeValues":[{"attributeId":9,"attributeName":"name","attributeValue":"Anees","languageId":2,"languageName":"en","statusId":1,"statusName":"active"},{"attributeId":10,"attributeName":"surname","attributeValue":"Nazeer","languageId":2,"languageName":"en","statusId":1,"statusName":"active"},{"attributeId":14,"attributeName":"email","attributeValue":"anianees77@gmail.com","languageId":2,"languageName":"en","statusId":1,"statusName":"active"},{"attributeId":100003,"attributeName":"customerNumber","attributeValue":"CON-20161021-0013","languageId":2,"languageName":"en","statusId":1,"statusName":"active"},{"attributeId":100004,"attributeName":"language","attributeValue":"EN","languageId":2,"languageName":"en","statusId":1,"statusName":"active"},{"attributeId":100013,"attributeName":"NL_LEGOLAND","attributeValue":"False","languageId":2,"languageName":"en","statusId":1,"statusName":"active"},{"attributeId":100014,"attributeName":"NL_RIVERLAND","attributeValue":"False","languageId":2,"languageName":"en","statusId":1,"statusName":"active"},{"attributeId":100015,"attributeName":"NL_GENERAL_COMMUNICATION","attributeValue":"False","languageId":2,"languageName":"en","statusId":1,"statusName":"active"},{"attributeId":100018,"attributeName":"NL_BOLLIWOOD_PARK","attributeValue":"False","languageId":2,"languageName":"en","statusId":1,"statusName":"active"},{"attributeId":100019,"attributeName":"NL_MOTIONGATE","attributeValue":"False","languageId":2,"languageName":"en","statusId":1,"statusName":"active"},{"attributeId":100020,"attributeName":"NL_DUBAI_PARK_AND_RESORT","attributeValue":"True","languageId":2,"languageName":"en","statusId":1,"statusName":"active"}]}}]},"resultCode":"0"}
21.10.2016 16:51:58 +0200 10.0.32.247 Login status: 200
21.10.2016 16:59:37 +0200 10.0.32.247 Login req: {
            "languageId":"2",
            "transactionId": "1477061976101561757",
            "tenant":"1",
            "profileAttributeFlag":true,
            "externalIdList": {
                "externalIds": [
                    {
                    "externalId" : "testProd11@mailinator.com"
                    }
                ]
             }
            }
21.10.2016 16:59:37 +0200 10.0.32.247 Login token: 10c41999b98aa016932b78f5255a69cc
21.10.2016 16:59:37 +0200 10.0.32.247 Login response: {"transactionId":"1477061976101561757","userRetrievedList":{"users":[{"id":27,"description":"testProd11@mailinator.com","parentBusinessUserId":2,"statusId":1,"roleTypeId":2,"defaultLanguageId":2,"userExternalIdList":{"externalIds":[{"externalId":"testProd11@mailinator.com","defaultFlag":1,"type":"email","statusId":1}]},"userAttributeList":{"attributeValues":[{"attributeId":5,"attributeName":"country","attributeValue":"IT","languageId":2,"languageName":"en","statusId":1,"statusName":"active"},{"attributeId":9,"attributeName":"name","attributeValue":"Testname","languageId":2,"languageName":"en","statusId":1,"statusName":"active"},{"attributeId":10,"attributeName":"surname","attributeValue":"Testsurname","languageId":2,"languageName":"en","statusId":1,"statusName":"active"},{"attributeId":14,"attributeName":"email","attributeValue":"testProd11@mailinator.com","languageId":2,"languageName":"en","statusId":1,"statusName":"active"},{"attributeId":49,"attributeName":"city","attributeValue":"Rome","languageId":2,"languageName":"en","statusId":1,"statusName":"active"},{"attributeId":50,"attributeName":"zipCode","attributeValue":"00100","languageId":2,"languageName":"en","statusId":1,"statusName":"active"},{"attributeId":108,"attributeName":"address","attributeValue":"via Roma 1","languageId":2,"languageName":"en","statusId":1,"statusName":"active"},{"attributeId":100000,"attributeName":"title","attributeValue":"Ms","languageId":2,"languageName":"en","statusId":1,"statusName":"active"},{"attributeId":100003,"attributeName":"customerNumber","attributeValue":"CON-20160421-0005","languageId":2,"languageName":"en","statusId":1,"statusName":"active"},{"attributeId":100004,"attributeName":"language","attributeValue":"en","languageId":2,"languageName":"en","statusId":1,"statusName":"active"},{"attributeId":100008,"attributeName":"preferredmethodofcontact","attributeValue":"email","languageId":2,"languageName":"en","statusId":1,"statusName":"active"},{"attributeId":100013,"attributeName":"NL_LEGOLAND","attributeValue":"False","languageId":2,"languageName":"en","statusId":1,"statusName":"active"},{"attributeId":100014,"attributeName":"NL_RIVERLAND","attributeValue":"True","languageId":2,"languageName":"en","statusId":1,"statusName":"active"},{"attributeId":100015,"attributeName":"NL_GENERAL_COMMUNICATION","attributeValue":"False","languageId":2,"languageName":"en","statusId":1,"statusName":"active"},{"attributeId":100016,"attributeName":"NL_ALL","attributeValue":"true","languageId":2,"languageName":"en","statusId":1,"statusName":"active"},{"attributeId":100017,"attributeName":"mascotteID","attributeValue":"ciao","languageId":2,"languageName":"en","statusId":1,"statusName":"active"},{"attributeId":100018,"attributeName":"NL_BOLLIWOOD_PARK","attributeValue":"True","languageId":2,"languageName":"en","statusId":1,"statusName":"active"},{"attributeId":100019,"attributeName":"NL_MOTIONGATE","attributeValue":"False","languageId":2,"languageName":"en","statusId":1,"statusName":"active"},{"attributeId":100020,"attributeName":"NL_DUBAI_PARK_AND_RESORT","attributeValue":"True","languageId":2,"languageName":"en","statusId":1,"statusName":"active"}]}}]},"resultCode":"0"}
21.10.2016 16:59:37 +0200 10.0.32.247 Login status: 200
21.10.2016 17:38:41 +0200 10.0.32.247 Login req: {
            "languageId":"2",
            "transactionId": "14770643211796473662",
            "tenant":"1",
            "profileAttributeFlag":true,
            "externalIdList": {
                "externalIds": [
                    {
                    "externalId" : "vijaykumar3617@gmail.com"
                    }
                ]
             }
            }
21.10.2016 17:38:41 +0200 10.0.32.247 Login token: e9a913f7793c7b9f63adf9a33d8e6aeb
21.10.2016 17:38:41 +0200 10.0.32.247 Login response: {"transactionId":"14770643211796473662","userRetrievedList":{"users":[{"id":4432,"description":"vijaykumar3617@gmail.com","parentBusinessUserId":2,"statusId":1,"roleTypeId":2,"defaultLanguageId":2,"userExternalIdList":{"externalIds":[{"externalId":"vijaykumar3617@gmail.com","defaultFlag":1,"type":"email","statusId":1}]},"userAttributeList":{"attributeValues":[{"attributeId":9,"attributeName":"name","attributeValue":"Vijay Kumar","languageId":2,"languageName":"en","statusId":1,"statusName":"active"},{"attributeId":10,"attributeName":"surname","attributeValue":"Khatri","languageId":2,"languageName":"en","statusId":1,"statusName":"active"},{"attributeId":14,"attributeName":"email","attributeValue":"vijaykumar3617@gmail.com","languageId":2,"languageName":"en","statusId":1,"statusName":"active"},{"attributeId":100003,"attributeName":"customerNumber","attributeValue":"CON-20161021-0015","languageId":2,"languageName":"en","statusId":1,"statusName":"active"},{"attributeId":100004,"attributeName":"language","attributeValue":"EN","languageId":2,"languageName":"en","statusId":1,"statusName":"active"},{"attributeId":100020,"attributeName":"NL_DUBAI_PARK_AND_RESORT","attributeValue":"true","languageId":2,"languageName":"en","statusId":1,"statusName":"active"}]}}]},"resultCode":"0"}
21.10.2016 17:38:41 +0200 10.0.32.247 Login status: 200
21.10.2016 17:39:35 +0200 10.0.32.247 Login req: {
            "languageId":"2",
            "transactionId": "14770643751298034468",
            "tenant":"1",
            "profileAttributeFlag":true,
            "externalIdList": {
                "externalIds": [
                    {
                    "externalId" : "1122851347760818"
                    }
                ]
             }
            }
21.10.2016 17:39:35 +0200 10.0.32.247 Login token: ec04d95a36e2921bb3583b6d51d3f9
21.10.2016 17:39:35 +0200 10.0.32.247 Login response: {"transactionId":"14770643751298034468","userRetrievedList":{"users":[{"id":2747,"description":"1122851347760818","parentBusinessUserId":2,"statusId":1,"roleTypeId":2,"defaultLanguageId":2,"userExternalIdList":{"externalIds":[{"externalId":"1122851347760818","defaultFlag":1,"type":"socialID","statusId":1}]},"userAttributeList":{"attributeValues":[{"attributeId":9,"attributeName":"name","attributeValue":"Bader","languageId":2,"languageName":"en","statusId":1,"statusName":"active"},{"attributeId":10,"attributeName":"surname","attributeValue":"Ebrahim","languageId":2,"languageName":"en","statusId":1,"statusName":"active"},{"attributeId":14,"attributeName":"email","attributeValue":"al.bader44@hotmail.com","languageId":2,"languageName":"en","statusId":1,"statusName":"active"},{"attributeId":100003,"attributeName":"customerNumber","attributeValue":"CON-20160815-0040","languageId":2,"languageName":"en","statusId":1,"statusName":"active"},{"attributeId":100004,"attributeName":"language","attributeValue":"ar","languageId":2,"languageName":"en","statusId":1,"statusName":"active"}]}}]},"resultCode":"0"}
21.10.2016 17:39:35 +0200 10.0.32.247 Login status: 200
21.10.2016 18:05:49 +0200 10.0.32.247 TOKEN ricevuto, cache creata
21.10.2016 18:09:01 +0200 10.0.32.247 Login req: {
            "languageId":"2",
            "transactionId": "1477066141631082586",
            "tenant":"1",
            "profileAttributeFlag":true,
            "externalIdList": {
                "externalIds": [
                    {
                    "externalId" : "chamie_romero23@yahoo.com"
                    }
                ]
             }
            }
21.10.2016 18:09:01 +0200 10.0.32.247 Login token: f0565a2450a42d8ff58d8119b741c27
21.10.2016 18:09:01 +0200 10.0.32.247 Login response: {"transactionId":"1477066141631082586","userRetrievedList":{"users":[{"id":4434,"description":"chamie_romero23@yahoo.com","parentBusinessUserId":2,"statusId":1,"roleTypeId":2,"defaultLanguageId":2,"userExternalIdList":{"externalIds":[{"externalId":"chamie_romero23@yahoo.com","defaultFlag":1,"type":"email","statusId":1}]},"userAttributeList":{"attributeValues":[{"attributeId":9,"attributeName":"name","attributeValue":"Charmaine","languageId":2,"languageName":"en","statusId":1,"statusName":"active"},{"attributeId":10,"attributeName":"surname","attributeValue":"Romero","languageId":2,"languageName":"en","statusId":1,"statusName":"active"},{"attributeId":14,"attributeName":"email","attributeValue":"chamie_romero23@yahoo.com","languageId":2,"languageName":"en","statusId":1,"statusName":"active"},{"attributeId":100003,"attributeName":"customerNumber","attributeValue":"CON-20161021-0016","languageId":2,"languageName":"en","statusId":1,"statusName":"active"},{"attributeId":100004,"attributeName":"language","attributeValue":"EN","languageId":2,"languageName":"en","statusId":1,"statusName":"active"},{"attributeId":100013,"attributeName":"NL_LEGOLAND","attributeValue":"False","languageId":2,"languageName":"en","statusId":1,"statusName":"active"},{"attributeId":100014,"attributeName":"NL_RIVERLAND","attributeValue":"False","languageId":2,"languageName":"en","statusId":1,"statusName":"active"},{"attributeId":100015,"attributeName":"NL_GENERAL_COMMUNICATION","attributeValue":"False","languageId":2,"languageName":"en","statusId":1,"statusName":"active"},{"attributeId":100018,"attributeName":"NL_BOLLIWOOD_PARK","attributeValue":"False","languageId":2,"languageName":"en","statusId":1,"statusName":"active"},{"attributeId":100019,"attributeName":"NL_MOTIONGATE","attributeValue":"False","languageId":2,"languageName":"en","statusId":1,"statusName":"active"},{"attributeId":100020,"attributeName":"NL_DUBAI_PARK_AND_RESORT","attributeValue":"True","languageId":2,"languageName":"en","statusId":1,"statusName":"active"}]}}]},"resultCode":"0"}
21.10.2016 18:09:01 +0200 10.0.32.247 Login status: 200
21.10.2016 19:30:50 +0200 10.0.32.247 TOKEN ricevuto, cache creata
21.10.2016 20:28:53 +0200 10.0.32.247 TOKEN expired => RENEWING. Server response =>401
21.10.2016 20:28:53 +0200 10.0.32.247 RENEWING token
21.10.2016 20:28:53 +0200 10.0.32.247 RENEW TOKEN RESULT =>200 || f9ece9aaf044ca7edded5c707b12ae5
21.10.2016 20:30:27 +0200 10.0.32.247 Login req: {
            "languageId":"2",
            "transactionId": "147707462716943659",
            "tenant":"1",
            "profileAttributeFlag":true,
            "externalIdList": {
                "externalIds": [
                    {
                    "externalId" : "4myexperiment@gmail.com"
                    }
                ]
             }
            }
21.10.2016 20:30:27 +0200 10.0.32.247 Login token: 4685cdb5a5e8f9e166f492d94635d59
21.10.2016 20:30:27 +0200 10.0.32.247 Login response: {"transactionId":"147707462716943659","userRetrievedList":{"users":[{"id":247,"description":"4myexperiment@gmail.com","parentBusinessUserId":2,"statusId":1,"roleTypeId":2,"defaultLanguageId":2,"userExternalIdList":{"externalIds":[{"externalId":"4myexperiment@gmail.com","defaultFlag":1,"type":"email","statusId":1}]},"userAttributeList":{"attributeValues":[{"attributeId":9,"attributeName":"name","attributeValue":"my","languageId":2,"languageName":"en","statusId":1,"statusName":"active"},{"attributeId":10,"attributeName":"surname","attributeValue":"experiment","languageId":2,"languageName":"en","statusId":1,"statusName":"active"},{"attributeId":14,"attributeName":"email","attributeValue":"4myexperiment@gmail.com","languageId":2,"languageName":"en","statusId":1,"statusName":"active"},{"attributeId":100003,"attributeName":"customerNumber","attributeValue":"CON-20160427-0018","languageId":2,"languageName":"en","statusId":1,"statusName":"active"},{"attributeId":100004,"attributeName":"language","attributeValue":"EN","languageId":2,"languageName":"en","statusId":1,"statusName":"active"}]}}]},"resultCode":"0"}
21.10.2016 20:30:27 +0200 10.0.32.247 Login status: 200
21.10.2016 21:51:10 +0200 10.0.32.247 TOKEN ricevuto, cache creata
21.10.2016 21:54:28 +0200 10.0.32.247 Login req: {
            "languageId":"2",
            "transactionId": "14770796681859079503",
            "tenant":"1",
            "profileAttributeFlag":true,
            "externalIdList": {
                "externalIds": [
                    {
                    "externalId" : "chamie_romero23@yahoo.com"
                    }
                ]
             }
            }
21.10.2016 21:54:28 +0200 10.0.32.247 Login token: fd93106ecc5ec2e696cfb9d4c1d443a1
21.10.2016 21:54:28 +0200 10.0.32.247 Login response: {"transactionId":"14770796681859079503","userRetrievedList":{"users":[{"id":4434,"description":"chamie_romero23@yahoo.com","parentBusinessUserId":2,"statusId":1,"roleTypeId":2,"defaultLanguageId":2,"userExternalIdList":{"externalIds":[{"externalId":"chamie_romero23@yahoo.com","defaultFlag":1,"type":"email","statusId":1}]},"userAttributeList":{"attributeValues":[{"attributeId":9,"attributeName":"name","attributeValue":"Charmaine","languageId":2,"languageName":"en","statusId":1,"statusName":"active"},{"attributeId":10,"attributeName":"surname","attributeValue":"Romero","languageId":2,"languageName":"en","statusId":1,"statusName":"active"},{"attributeId":14,"attributeName":"email","attributeValue":"chamie_romero23@yahoo.com","languageId":2,"languageName":"en","statusId":1,"statusName":"active"},{"attributeId":100003,"attributeName":"customerNumber","attributeValue":"CON-20161021-0016","languageId":2,"languageName":"en","statusId":1,"statusName":"active"},{"attributeId":100004,"attributeName":"language","attributeValue":"EN","languageId":2,"languageName":"en","statusId":1,"statusName":"active"},{"attributeId":100013,"attributeName":"NL_LEGOLAND","attributeValue":"False","languageId":2,"languageName":"en","statusId":1,"statusName":"active"},{"attributeId":100014,"attributeName":"NL_RIVERLAND","attributeValue":"False","languageId":2,"languageName":"en","statusId":1,"statusName":"active"},{"attributeId":100015,"attributeName":"NL_GENERAL_COMMUNICATION","attributeValue":"False","languageId":2,"languageName":"en","statusId":1,"statusName":"active"},{"attributeId":100018,"attributeName":"NL_BOLLIWOOD_PARK","attributeValue":"False","languageId":2,"languageName":"en","statusId":1,"statusName":"active"},{"attributeId":100019,"attributeName":"NL_MOTIONGATE","attributeValue":"False","languageId":2,"languageName":"en","statusId":1,"statusName":"active"},{"attributeId":100020,"attributeName":"NL_DUBAI_PARK_AND_RESORT","attributeValue":"True","languageId":2,"languageName":"en","statusId":1,"statusName":"active"}]}}]},"resultCode":"0"}
21.10.2016 21:54:28 +0200 10.0.32.247 Login status: 200
21.10.2016 21:57:25 +0200 10.0.32.247 Login req: {
            "languageId":"2",
            "transactionId": "14770798451731807253",
            "tenant":"1",
            "profileAttributeFlag":true,
            "externalIdList": {
                "externalIds": [
                    {
                    "externalId" : "4smile@live.com"
                    }
                ]
             }
            }
21.10.2016 21:57:25 +0200 10.0.32.247 Login token: 9e3af1a0f84cfe6bef7051b0e4d1c
21.10.2016 21:57:25 +0200 10.0.32.247 Login response: {"transactionId":"14770798451731807253","userRetrievedList":{"users":[{"id":1622,"description":"4smile@live.com","parentBusinessUserId":2,"statusId":1,"roleTypeId":2,"defaultLanguageId":2,"userExternalIdList":{"externalIds":[{"externalId":"4smile@live.com","defaultFlag":1,"type":"email","statusId":1}]},"userAttributeList":{"attributeValues":[{"attributeId":5,"attributeName":"country","attributeValue":"United Arab Emirates","languageId":2,"languageName":"en","statusId":1,"statusName":"active"},{"attributeId":49,"attributeName":"city","attributeValue":"FUJAIRAH","languageId":2,"languageName":"en","statusId":1,"statusName":"active"},{"attributeId":50,"attributeName":"zipCode","attributeValue":"11786","languageId":2,"languageName":"en","statusId":1,"statusName":"active"},{"attributeId":108,"attributeName":"address","attributeValue":"DIBBA","languageId":2,"languageName":"en","statusId":1,"statusName":"active"},{"attributeId":100002,"attributeName":"birthday","attributeValue":"7\/31\/1981","languageId":2,"languageName":"en","statusId":1,"statusName":"active"},{"attributeId":100003,"attributeName":"customerNumber","attributeValue":"CON-20160708-0017","languageId":2,"languageName":"en","statusId":1,"statusName":"active"},{"attributeId":100004,"attributeName":"language","attributeValue":"EN","languageId":2,"languageName":"en","statusId":1,"statusName":"active"},{"attributeId":100017,"attributeName":"mascotteID","attributeValue":"mascotte8_b.fw","languageId":2,"languageName":"en","statusId":1,"statusName":"active"},{"attributeId":9,"attributeName":"name","attributeValue":"Mohamed","languageId":2,"languageName":"en","statusId":2,"statusName":"deleted"},{"attributeId":10,"attributeName":"surname","attributeValue":"Alyammahi","languageId":2,"languageName":"en","statusId":2,"statusName":"deleted"},{"attributeId":14,"attributeName":"email","attributeValue":"4smile@live.com","languageId":2,"languageName":"en","statusId":2,"statusName":"deleted"},{"attributeId":100001,"attributeName":"msisdn","attributeValue":"+971-504966559","languageId":2,"languageName":"en","statusId":2,"statusName":"deleted"},{"attributeId":100013,"attributeName":"NL_LEGOLAND","attributeValue":"True","languageId":2,"languageName":"en","statusId":2,"statusName":"deleted"},{"attributeId":100014,"attributeName":"NL_RIVERLAND","attributeValue":"False","languageId":2,"languageName":"en","statusId":2,"statusName":"deleted"},{"attributeId":100015,"attributeName":"NL_GENERAL_COMMUNICATION","attributeValue":"False","languageId":2,"languageName":"en","statusId":2,"statusName":"deleted"},{"attributeId":100018,"attributeName":"NL_BOLLIWOOD_PARK","attributeValue":"False","languageId":2,"languageName":"en","statusId":2,"statusName":"deleted"},{"attributeId":100019,"attributeName":"NL_MOTIONGATE","attributeValue":"False","languageId":2,"languageName":"en","statusId":2,"statusName":"deleted"},{"attributeId":100020,"attributeName":"NL_DUBAI_PARK_AND_RESORT","attributeValue":"True","languageId":2,"languageName":"en","statusId":2,"statusName":"deleted"}]}}]},"resultCode":"0"}
21.10.2016 21:57:25 +0200 10.0.32.247 Login status: 200
21.10.2016 22:50:26 +0200 10.0.32.247 TOKEN expired => RENEWING. Server response =>401
21.10.2016 22:50:26 +0200 10.0.32.247 RENEWING token
21.10.2016 22:50:26 +0200 10.0.32.247 RENEW TOKEN RESULT =>200 || 1e55a41d93616f773a30acbd40c97128
21.10.2016 23:07:39 +0200 10.0.32.247 Login req: {
            "languageId":"2",
            "transactionId": "14770840591864336059",
            "tenant":"1",
            "profileAttributeFlag":true,
            "externalIdList": {
                "externalIds": [
                    {
                    "externalId" : "sufugita@gmail.com"
                    }
                ]
             }
            }
21.10.2016 23:07:39 +0200 10.0.32.247 Login token: 28ea27c350d28d6cd58ecb44215196
21.10.2016 23:07:39 +0200 10.0.32.247 Login response: {"transactionId":"14770840591864336059","userRetrievedList":{"users":[{"id":4236,"description":"sufugita@gmail.com","parentBusinessUserId":2,"statusId":1,"roleTypeId":2,"defaultLanguageId":2,"userExternalIdList":{"externalIds":[{"externalId":"sufugita@gmail.com","defaultFlag":1,"type":"email","statusId":1}]},"userAttributeList":{"attributeValues":[{"attributeId":9,"attributeName":"name","attributeValue":"Fernando Yasuyuki","languageId":2,"languageName":"en","statusId":1,"statusName":"active"},{"attributeId":10,"attributeName":"surname","attributeValue":"Fugita","languageId":2,"languageName":"en","statusId":1,"statusName":"active"},{"attributeId":14,"attributeName":"email","attributeValue":"sufugita@gmail.com","languageId":2,"languageName":"en","statusId":1,"statusName":"active"},{"attributeId":100003,"attributeName":"customerNumber","attributeValue":"CON-20161009-0039","languageId":2,"languageName":"en","statusId":1,"statusName":"active"},{"attributeId":100004,"attributeName":"language","attributeValue":"EN","languageId":2,"languageName":"en","statusId":1,"statusName":"active"},{"attributeId":100013,"attributeName":"NL_LEGOLAND","attributeValue":"False","languageId":2,"languageName":"en","statusId":1,"statusName":"active"},{"attributeId":100014,"attributeName":"NL_RIVERLAND","attributeValue":"False","languageId":2,"languageName":"en","statusId":1,"statusName":"active"},{"attributeId":100015,"attributeName":"NL_GENERAL_COMMUNICATION","attributeValue":"False","languageId":2,"languageName":"en","statusId":1,"statusName":"active"},{"attributeId":100018,"attributeName":"NL_BOLLIWOOD_PARK","attributeValue":"False","languageId":2,"languageName":"en","statusId":1,"statusName":"active"},{"attributeId":100019,"attributeName":"NL_MOTIONGATE","attributeValue":"False","languageId":2,"languageName":"en","statusId":1,"statusName":"active"},{"attributeId":100020,"attributeName":"NL_DUBAI_PARK_AND_RESORT","attributeValue":"True","languageId":2,"languageName":"en","statusId":1,"statusName":"active"}]}}]},"resultCode":"0"}
21.10.2016 23:07:39 +0200 10.0.32.247 Login status: 200
21.10.2016 23:29:07 +0200 10.0.32.247 Login req: {
            "languageId":"2",
            "transactionId": "14770853471959948117",
            "tenant":"1",
            "profileAttributeFlag":true,
            "externalIdList": {
                "externalIds": [
                    {
                    "externalId" : "sufugita@gmail.com"
                    }
                ]
             }
            }
21.10.2016 23:29:07 +0200 10.0.32.247 Login token: 28ea27c350d28d6cd58ecb44215196
21.10.2016 23:29:07 +0200 10.0.32.247 Login response: {"transactionId":"14770853471959948117","userRetrievedList":{"users":[{"id":4236,"description":"sufugita@gmail.com","parentBusinessUserId":2,"statusId":1,"roleTypeId":2,"defaultLanguageId":2,"userExternalIdList":{"externalIds":[{"externalId":"sufugita@gmail.com","defaultFlag":1,"type":"email","statusId":1}]},"userAttributeList":{"attributeValues":[{"attributeId":9,"attributeName":"name","attributeValue":"Fernando Yasuyuki","languageId":2,"languageName":"en","statusId":1,"statusName":"active"},{"attributeId":10,"attributeName":"surname","attributeValue":"Fugita","languageId":2,"languageName":"en","statusId":1,"statusName":"active"},{"attributeId":14,"attributeName":"email","attributeValue":"sufugita@gmail.com","languageId":2,"languageName":"en","statusId":1,"statusName":"active"},{"attributeId":100003,"attributeName":"customerNumber","attributeValue":"CON-20161009-0039","languageId":2,"languageName":"en","statusId":1,"statusName":"active"},{"attributeId":100004,"attributeName":"language","attributeValue":"EN","languageId":2,"languageName":"en","statusId":1,"statusName":"active"},{"attributeId":100013,"attributeName":"NL_LEGOLAND","attributeValue":"False","languageId":2,"languageName":"en","statusId":1,"statusName":"active"},{"attributeId":100014,"attributeName":"NL_RIVERLAND","attributeValue":"False","languageId":2,"languageName":"en","statusId":1,"statusName":"active"},{"attributeId":100015,"attributeName":"NL_GENERAL_COMMUNICATION","attributeValue":"False","languageId":2,"languageName":"en","statusId":1,"statusName":"active"},{"attributeId":100018,"attributeName":"NL_BOLLIWOOD_PARK","attributeValue":"False","languageId":2,"languageName":"en","statusId":1,"statusName":"active"},{"attributeId":100019,"attributeName":"NL_MOTIONGATE","attributeValue":"False","languageId":2,"languageName":"en","statusId":1,"statusName":"active"},{"attributeId":100020,"attributeName":"NL_DUBAI_PARK_AND_RESORT","attributeValue":"True","languageId":2,"languageName":"en","statusId":1,"statusName":"active"}]}}]},"resultCode":"0"}
21.10.2016 23:29:07 +0200 10.0.32.247 Login status: 200
21.10.2016 23:50:54 +0200 10.0.32.247 TOKEN ricevuto, cache creata