
06.11.2016 0:01:11 +0100 10.0.32.247 TOKEN expired => RENEWING. Server response =>401
06.11.2016 0:01:11 +0100 10.0.32.247 RENEWING token
06.11.2016 0:01:11 +0100 10.0.32.247 RENEW TOKEN RESULT =>200 || f6401aaa93883535f0fb16d1d236e835
06.11.2016 1:04:44 +0100 10.0.32.247 TOKEN ricevuto, cache creata
06.11.2016 2:02:03 +0100 10.0.32.247 TOKEN expired => RENEWING. Server response =>401
06.11.2016 2:02:03 +0100 10.0.32.247 RENEWING token
06.11.2016 2:02:03 +0100 10.0.32.247 RENEW TOKEN RESULT =>200 || e9c02be861fbc5a31c68e7e8adbd9ba2
06.11.2016 3:01:33 +0100 10.0.32.247 TOKEN expired => RENEWING. Server response =>401
06.11.2016 3:01:33 +0100 10.0.32.247 RENEWING token
06.11.2016 3:01:33 +0100 10.0.32.247 RENEW TOKEN RESULT =>200 || eb35cb7b5fbeedbb9c4c7028d2706e1c
06.11.2016 4:01:12 +0100 10.0.32.247 TOKEN expired => RENEWING. Server response =>401
06.11.2016 4:01:12 +0100 10.0.32.247 RENEWING token
06.11.2016 4:01:12 +0100 10.0.32.247 RENEW TOKEN RESULT =>200 || caa467d680cee1927dee1f40a44c6c42
06.11.2016 4:57:55 +0100 10.0.32.247 Login req: {
            "languageId":"2",
            "transactionId": "1478404675809475398",
            "tenant":"1",
            "profileAttributeFlag":true,
            "externalIdList": {
                "externalIds": [
                    {
                    "externalId" : "gurarjun@gmail.com"
                    }
                ]
             }
            }
06.11.2016 4:57:55 +0100 10.0.32.247 Login token: 598cda12bf5787af16477070518016
06.11.2016 4:57:55 +0100 10.0.32.247 Login response: {"transactionId":"1478404675809475398","userRetrievedList":{"users":[{"id":4655,"description":"gurarjun@gmail.com","parentBusinessUserId":2,"statusId":1,"roleTypeId":2,"defaultLanguageId":2,"userExternalIdList":{"externalIds":[{"externalId":"gurarjun@gmail.com","defaultFlag":1,"type":"email","statusId":1}]},"userAttributeList":{"attributeValues":[{"attributeId":5,"attributeName":"country","attributeValue":"United Arab Emirates","languageId":2,"languageName":"en","statusId":1,"statusName":"active"},{"attributeId":9,"attributeName":"name","attributeValue":"GURARJUN","languageId":2,"languageName":"en","statusId":1,"statusName":"active"},{"attributeId":10,"attributeName":"surname","attributeValue":"SINGH","languageId":2,"languageName":"en","statusId":1,"statusName":"active"},{"attributeId":14,"attributeName":"email","attributeValue":"gurarjun@gmail.com","languageId":2,"languageName":"en","statusId":1,"statusName":"active"},{"attributeId":100001,"attributeName":"msisdn","attributeValue":"+971-503577904","languageId":2,"languageName":"en","statusId":1,"statusName":"active"},{"attributeId":100003,"attributeName":"customerNumber","attributeValue":"CON-20161026-0086","languageId":2,"languageName":"en","statusId":1,"statusName":"active"},{"attributeId":100004,"attributeName":"language","attributeValue":"EN","languageId":2,"languageName":"en","statusId":1,"statusName":"active"},{"attributeId":100013,"attributeName":"NL_LEGOLAND","attributeValue":"True","languageId":2,"languageName":"en","statusId":1,"statusName":"active"},{"attributeId":100014,"attributeName":"NL_RIVERLAND","attributeValue":"False","languageId":2,"languageName":"en","statusId":1,"statusName":"active"},{"attributeId":100015,"attributeName":"NL_GENERAL_COMMUNICATION","attributeValue":"False","languageId":2,"languageName":"en","statusId":1,"statusName":"active"},{"attributeId":100018,"attributeName":"NL_BOLLIWOOD_PARK","attributeValue":"False","languageId":2,"languageName":"en","statusId":1,"statusName":"active"},{"attributeId":100019,"attributeName":"NL_MOTIONGATE","attributeValue":"False","languageId":2,"languageName":"en","statusId":1,"statusName":"active"},{"attributeId":100020,"attributeName":"NL_DUBAI_PARK_AND_RESORT","attributeValue":"True","languageId":2,"languageName":"en","statusId":1,"statusName":"active"}]}}]},"resultCode":"0"}
06.11.2016 4:57:55 +0100 10.0.32.247 Login status: 200
06.11.2016 5:01:23 +0100 10.0.32.247 TOKEN ricevuto, cache creata
06.11.2016 5:51:25 +0100 10.0.32.247 Login req: {
            "languageId":"2",
            "transactionId": "1478407885999648429",
            "tenant":"1",
            "profileAttributeFlag":true,
            "externalIdList": {
                "externalIds": [
                    {
                    "externalId" : "nkaduskar1985@gmail.com"
                    }
                ]
             }
            }
06.11.2016 5:51:25 +0100 10.0.32.247 Login token: e4158cb15418e3da4a285e5169e3d6e7
06.11.2016 5:51:25 +0100 10.0.32.247 Login response: {"transactionId":"1478407885999648429","userRetrievedList":{"users":[{"id":5083,"description":"nkaduskar1985@gmail.com","parentBusinessUserId":2,"statusId":1,"roleTypeId":2,"defaultLanguageId":2,"userExternalIdList":{"externalIds":[{"externalId":"nkaduskar1985@gmail.com","defaultFlag":1,"type":"email","statusId":1}]},"userAttributeList":{"attributeValues":[{"attributeId":9,"attributeName":"name","attributeValue":"NIRAV","languageId":2,"languageName":"en","statusId":1,"statusName":"active"},{"attributeId":10,"attributeName":"surname","attributeValue":"KADUSKAR","languageId":2,"languageName":"en","statusId":1,"statusName":"active"},{"attributeId":14,"attributeName":"email","attributeValue":"nkaduskar1985@gmail.com","languageId":2,"languageName":"en","statusId":1,"statusName":"active"},{"attributeId":100003,"attributeName":"customerNumber","attributeValue":"CON-20161106-0011","languageId":2,"languageName":"en","statusId":1,"statusName":"active"},{"attributeId":100004,"attributeName":"language","attributeValue":"EN","languageId":2,"languageName":"en","statusId":1,"statusName":"active"},{"attributeId":100013,"attributeName":"NL_LEGOLAND","attributeValue":"False","languageId":2,"languageName":"en","statusId":1,"statusName":"active"},{"attributeId":100014,"attributeName":"NL_RIVERLAND","attributeValue":"False","languageId":2,"languageName":"en","statusId":1,"statusName":"active"},{"attributeId":100015,"attributeName":"NL_GENERAL_COMMUNICATION","attributeValue":"False","languageId":2,"languageName":"en","statusId":1,"statusName":"active"},{"attributeId":100018,"attributeName":"NL_BOLLIWOOD_PARK","attributeValue":"False","languageId":2,"languageName":"en","statusId":1,"statusName":"active"},{"attributeId":100019,"attributeName":"NL_MOTIONGATE","attributeValue":"False","languageId":2,"languageName":"en","statusId":1,"statusName":"active"},{"attributeId":100020,"attributeName":"NL_DUBAI_PARK_AND_RESORT","attributeValue":"True","languageId":2,"languageName":"en","statusId":1,"statusName":"active"}]}}]},"resultCode":"0"}
06.11.2016 5:51:25 +0100 10.0.32.247 Login status: 200
06.11.2016 6:02:08 +0100 10.0.32.247 TOKEN ricevuto, cache creata
06.11.2016 6:09:46 +0100 10.0.32.247 Login req: {
            "languageId":"2",
            "transactionId": "1478408986895750853",
            "tenant":"1",
            "profileAttributeFlag":true,
            "externalIdList": {
                "externalIds": [
                    {
                    "externalId" : "jacob.f.pomperada@gmail.com"
                    }
                ]
             }
            }
06.11.2016 6:09:46 +0100 10.0.32.247 Login token: 3da42b782fa49132fdaf25cf41eef84
06.11.2016 6:09:46 +0100 10.0.32.247 Login response: {"transactionId":"1478408986895750853","userRetrievedList":{"users":[{"id":2309,"description":"jacob.f.pomperada@gmail.com","parentBusinessUserId":2,"statusId":1,"roleTypeId":2,"defaultLanguageId":2,"userExternalIdList":{"externalIds":[{"externalId":"jacob.f.pomperada@gmail.com","defaultFlag":1,"type":"email","statusId":1}]},"userAttributeList":{"attributeValues":[{"attributeId":9,"attributeName":"name","attributeValue":"Jacob","languageId":2,"languageName":"en","statusId":1,"statusName":"active"},{"attributeId":10,"attributeName":"surname","attributeValue":"Pomperada","languageId":2,"languageName":"en","statusId":1,"statusName":"active"},{"attributeId":14,"attributeName":"email","attributeValue":"jacob.f.pomperada@gmail.com","languageId":2,"languageName":"en","statusId":1,"statusName":"active"},{"attributeId":100003,"attributeName":"customerNumber","attributeValue":"CON-20160725-0018","languageId":2,"languageName":"en","statusId":1,"statusName":"active"},{"attributeId":100004,"attributeName":"language","attributeValue":"EN","languageId":2,"languageName":"en","statusId":1,"statusName":"active"},{"attributeId":100013,"attributeName":"NL_LEGOLAND","attributeValue":"False","languageId":2,"languageName":"en","statusId":1,"statusName":"active"},{"attributeId":100014,"attributeName":"NL_RIVERLAND","attributeValue":"False","languageId":2,"languageName":"en","statusId":1,"statusName":"active"},{"attributeId":100015,"attributeName":"NL_GENERAL_COMMUNICATION","attributeValue":"False","languageId":2,"languageName":"en","statusId":1,"statusName":"active"},{"attributeId":100018,"attributeName":"NL_BOLLIWOOD_PARK","attributeValue":"False","languageId":2,"languageName":"en","statusId":1,"statusName":"active"},{"attributeId":100019,"attributeName":"NL_MOTIONGATE","attributeValue":"False","languageId":2,"languageName":"en","statusId":1,"statusName":"active"},{"attributeId":100020,"attributeName":"NL_DUBAI_PARK_AND_RESORT","attributeValue":"False","languageId":2,"languageName":"en","statusId":1,"statusName":"active"}]}}]},"resultCode":"0"}
06.11.2016 6:09:46 +0100 10.0.32.247 Login status: 200
06.11.2016 7:02:08 +0100 10.0.32.247 TOKEN ricevuto, cache creata
06.11.2016 7:02:08 +0100 10.0.32.247 TOKEN ricevuto, cache creata
06.11.2016 7:02:08 +0100 10.0.32.247 TOKEN ricevuto, cache creata
06.11.2016 7:02:08 +0100 10.0.32.247 TOKEN ricevuto, cache creata
06.11.2016 7:37:47 +0100 10.0.32.247 Login req: {
            "languageId":"2",
            "transactionId": "14784142671711611188",
            "tenant":"1",
            "profileAttributeFlag":true,
            "externalIdList": {
                "externalIds": [
                    {
                    "externalId" : "10154263595198138"
                    }
                ]
             }
            }
06.11.2016 7:37:47 +0100 10.0.32.247 Login token: eec93658b5ddb35a2ebc41ad9c52e5
06.11.2016 7:37:47 +0100 10.0.32.247 Login response: {"transactionId":"14784142671711611188","userRetrievedList":{"users":[{"id":5085,"description":"10154263595198138","parentBusinessUserId":2,"statusId":1,"roleTypeId":2,"defaultLanguageId":2,"userExternalIdList":{"externalIds":[{"externalId":"10154263595198138","defaultFlag":1,"type":"socialID","statusId":1}]},"userAttributeList":{"attributeValues":[{"attributeId":9,"attributeName":"name","attributeValue":"Hazem","languageId":2,"languageName":"en","statusId":1,"statusName":"active"},{"attributeId":10,"attributeName":"surname","attributeValue":"Yehia","languageId":2,"languageName":"en","statusId":1,"statusName":"active"},{"attributeId":14,"attributeName":"email","attributeValue":"desbrado96@yahoo.com","languageId":2,"languageName":"en","statusId":1,"statusName":"active"},{"attributeId":100004,"attributeName":"language","attributeValue":"en","languageId":2,"languageName":"en","statusId":1,"statusName":"active"}]}}]},"resultCode":"0"}
06.11.2016 7:37:47 +0100 10.0.32.247 Login status: 200
06.11.2016 8:02:25 +0100 10.0.32.247 TOKEN ricevuto, cache creata
06.11.2016 8:51:06 +0100 10.0.32.247 Login req: {
            "languageId":"2",
            "transactionId": "1478418666693507189",
            "tenant":"1",
            "profileAttributeFlag":true,
            "externalIdList": {
                "externalIds": [
                    {
                    "externalId" : "t.abuthurayya@gmail.com"
                    }
                ]
             }
            }
06.11.2016 8:51:06 +0100 10.0.32.247 Login token: 94eab5915ed51d40259c79b6644c3f33
06.11.2016 8:51:07 +0100 10.0.32.247 Login response: {"transactionId":"1478418666693507189","userRetrievedList":{"users":[{"id":1204,"description":"t.abuthurayya@gmail.com","parentBusinessUserId":2,"statusId":1,"roleTypeId":2,"defaultLanguageId":2,"userExternalIdList":{"externalIds":[{"externalId":"t.abuthurayya@gmail.com","defaultFlag":1,"type":"email","statusId":1}]},"userAttributeList":{"attributeValues":[{"attributeId":9,"attributeName":"name","attributeValue":"Tariq","languageId":2,"languageName":"en","statusId":1,"statusName":"active"},{"attributeId":10,"attributeName":"surname","attributeValue":"Abuthurayya","languageId":2,"languageName":"en","statusId":1,"statusName":"active"},{"attributeId":14,"attributeName":"email","attributeValue":"t.abuthurayya@gmail.com","languageId":2,"languageName":"en","statusId":1,"statusName":"active"},{"attributeId":100003,"attributeName":"customerNumber","attributeValue":"CON-20160615-0012","languageId":2,"languageName":"en","statusId":1,"statusName":"active"},{"attributeId":100004,"attributeName":"language","attributeValue":"AR","languageId":2,"languageName":"en","statusId":1,"statusName":"active"},{"attributeId":100013,"attributeName":"NL_LEGOLAND","attributeValue":"False","languageId":2,"languageName":"en","statusId":1,"statusName":"active"},{"attributeId":100014,"attributeName":"NL_RIVERLAND","attributeValue":"False","languageId":2,"languageName":"en","statusId":1,"statusName":"active"},{"attributeId":100015,"attributeName":"NL_GENERAL_COMMUNICATION","attributeValue":"False","languageId":2,"languageName":"en","statusId":1,"statusName":"active"},{"attributeId":100018,"attributeName":"NL_BOLLIWOOD_PARK","attributeValue":"False","languageId":2,"languageName":"en","statusId":1,"statusName":"active"},{"attributeId":100019,"attributeName":"NL_MOTIONGATE","attributeValue":"False","languageId":2,"languageName":"en","statusId":1,"statusName":"active"},{"attributeId":100020,"attributeName":"NL_DUBAI_PARK_AND_RESORT","attributeValue":"True","languageId":2,"languageName":"en","statusId":1,"statusName":"active"}]}}]},"resultCode":"0"}
06.11.2016 8:51:07 +0100 10.0.32.247 Login status: 200
06.11.2016 8:53:19 +0100 10.0.32.247 Login req: {
            "languageId":"2",
            "transactionId": "14784187991334696597",
            "tenant":"1",
            "profileAttributeFlag":true,
            "externalIdList": {
                "externalIds": [
                    {
                    "externalId" : "mohamed@marzouk.me"
                    }
                ]
             }
            }
06.11.2016 8:53:19 +0100 10.0.32.247 Login token: 831e99229d5acd93b75f3c4c766d22a0
06.11.2016 8:53:19 +0100 10.0.32.247 Login response: {"transactionId":"14784187991334696597","userRetrievedList":{"users":[{"id":4293,"description":"mohamed@marzouk.me","parentBusinessUserId":2,"statusId":1,"roleTypeId":2,"defaultLanguageId":2,"userExternalIdList":{"externalIds":[{"externalId":"mohamed@marzouk.me","defaultFlag":1,"type":"email","statusId":1}]},"userAttributeList":{"attributeValues":[{"attributeId":5,"attributeName":"country","attributeValue":"United Arab Emirates","languageId":2,"languageName":"en","statusId":1,"statusName":"active"},{"attributeId":9,"attributeName":"name","attributeValue":"Mohamed","languageId":2,"languageName":"en","statusId":1,"statusName":"active"},{"attributeId":10,"attributeName":"surname","attributeValue":"Abdelrahman","languageId":2,"languageName":"en","statusId":1,"statusName":"active"},{"attributeId":14,"attributeName":"email","attributeValue":"mohamed@marzouk.me","languageId":2,"languageName":"en","statusId":1,"statusName":"active"},{"attributeId":49,"attributeName":"city","attributeValue":"Dubai","languageId":2,"languageName":"en","statusId":1,"statusName":"active"},{"attributeId":50,"attributeName":"zipCode","attributeValue":"00000","languageId":2,"languageName":"en","statusId":1,"statusName":"active"},{"attributeId":108,"attributeName":"address","attributeValue":"Villa 2, 75C street, Mirdif","languageId":2,"languageName":"en","statusId":1,"statusName":"active"},{"attributeId":100001,"attributeName":"msisdn","attributeValue":"+971-565627467","languageId":2,"languageName":"en","statusId":1,"statusName":"active"},{"attributeId":100002,"attributeName":"birthday","attributeValue":"3\/22\/1979","languageId":2,"languageName":"en","statusId":1,"statusName":"active"},{"attributeId":100003,"attributeName":"customerNumber","attributeValue":"CON-20161012-0023","languageId":2,"languageName":"en","statusId":1,"statusName":"active"},{"attributeId":100004,"attributeName":"language","attributeValue":"EN","languageId":2,"languageName":"en","statusId":1,"statusName":"active"},{"attributeId":100013,"attributeName":"NL_LEGOLAND","attributeValue":"True","languageId":2,"languageName":"en","statusId":1,"statusName":"active"},{"attributeId":100014,"attributeName":"NL_RIVERLAND","attributeValue":"True","languageId":2,"languageName":"en","statusId":1,"statusName":"active"},{"attributeId":100015,"attributeName":"NL_GENERAL_COMMUNICATION","attributeValue":"False","languageId":2,"languageName":"en","statusId":1,"statusName":"active"},{"attributeId":100018,"attributeName":"NL_BOLLIWOOD_PARK","attributeValue":"True","languageId":2,"languageName":"en","statusId":1,"statusName":"active"},{"attributeId":100019,"attributeName":"NL_MOTIONGATE","attributeValue":"True","languageId":2,"languageName":"en","statusId":1,"statusName":"active"},{"attributeId":100020,"attributeName":"NL_DUBAI_PARK_AND_RESORT","attributeValue":"True","languageId":2,"languageName":"en","statusId":1,"statusName":"active"}]}}]},"resultCode":"0"}
06.11.2016 8:53:19 +0100 10.0.32.247 Login status: 200
06.11.2016 9:02:28 +0100 10.0.32.247 TOKEN ricevuto, cache creata
06.11.2016 9:04:06 +0100 10.0.32.247 Login req: {
            "languageId":"2",
            "transactionId": "1478419446167616540",
            "tenant":"1",
            "profileAttributeFlag":true,
            "externalIdList": {
                "externalIds": [
                    {
                    "externalId" : "adel.ginger@Gmail.com"
                    }
                ]
             }
            }
06.11.2016 9:04:06 +0100 10.0.32.247 Login token: 12743cfd3ce7d776c8b2fbe245be621e
06.11.2016 9:04:06 +0100 10.0.32.247 Login response: {"transactionId":"1478419446167616540","userRetrievedList":{"users":[{"id":4759,"description":"adel.ginger@gmail.com","parentBusinessUserId":2,"statusId":1,"roleTypeId":2,"defaultLanguageId":2,"userExternalIdList":{"externalIds":[{"externalId":"adel.ginger@gmail.com","defaultFlag":1,"type":"email","statusId":1}]},"userAttributeList":{"attributeValues":[{"attributeId":5,"attributeName":"country","attributeValue":"United Arab Emirates","languageId":2,"languageName":"en","statusId":1,"statusName":"active"},{"attributeId":9,"attributeName":"name","attributeValue":"Adel","languageId":2,"languageName":"en","statusId":1,"statusName":"active"},{"attributeId":10,"attributeName":"surname","attributeValue":"Ginger","languageId":2,"languageName":"en","statusId":1,"statusName":"active"},{"attributeId":14,"attributeName":"email","attributeValue":"adel.ginger@gmail.com","languageId":2,"languageName":"en","statusId":1,"statusName":"active"},{"attributeId":49,"attributeName":"city","attributeValue":"Dubai","languageId":2,"languageName":"en","statusId":1,"statusName":"active"},{"attributeId":50,"attributeName":"zipCode","attributeValue":"71360","languageId":2,"languageName":"en","statusId":1,"statusName":"active"},{"attributeId":108,"attributeName":"address","attributeValue":"Dubai","languageId":2,"languageName":"en","statusId":1,"statusName":"active"},{"attributeId":100001,"attributeName":"msisdn","attributeValue":"+971-50654172","languageId":2,"languageName":"en","statusId":1,"statusName":"active"},{"attributeId":100002,"attributeName":"birthday","attributeValue":"5\/14\/1973","languageId":2,"languageName":"en","statusId":1,"statusName":"active"},{"attributeId":100003,"attributeName":"customerNumber","attributeValue":"CON-20161030-0061","languageId":2,"languageName":"en","statusId":1,"statusName":"active"},{"attributeId":100004,"attributeName":"language","attributeValue":"en","languageId":2,"languageName":"en","statusId":1,"statusName":"active"},{"attributeId":100013,"attributeName":"NL_LEGOLAND","attributeValue":"True","languageId":2,"languageName":"en","statusId":1,"statusName":"active"},{"attributeId":100014,"attributeName":"NL_RIVERLAND","attributeValue":"False","languageId":2,"languageName":"en","statusId":1,"statusName":"active"},{"attributeId":100015,"attributeName":"NL_GENERAL_COMMUNICATION","attributeValue":"False","languageId":2,"languageName":"en","statusId":1,"statusName":"active"},{"attributeId":100017,"attributeName":"mascotteID","attributeValue":"mascotte8_b.fw","languageId":2,"languageName":"en","statusId":1,"statusName":"active"},{"attributeId":100018,"attributeName":"NL_BOLLIWOOD_PARK","attributeValue":"False","languageId":2,"languageName":"en","statusId":1,"statusName":"active"},{"attributeId":100019,"attributeName":"NL_MOTIONGATE","attributeValue":"False","languageId":2,"languageName":"en","statusId":1,"statusName":"active"},{"attributeId":100020,"attributeName":"NL_DUBAI_PARK_AND_RESORT","attributeValue":"True","languageId":2,"languageName":"en","statusId":1,"statusName":"active"}]}}]},"resultCode":"0"}
06.11.2016 9:04:06 +0100 10.0.32.247 Login status: 200
06.11.2016 9:56:35 +0100 10.0.32.247 Login req: {
            "languageId":"2",
            "transactionId": "147842259557302419",
            "tenant":"1",
            "profileAttributeFlag":true,
            "externalIdList": {
                "externalIds": [
                    {
                    "externalId" : "bharatzaveri4@gmail.com"
                    }
                ]
             }
            }
06.11.2016 9:56:36 +0100 10.0.32.247 Login token: 9c0be46f8c9b4ad546af5990434ae
06.11.2016 9:56:36 +0100 10.0.32.247 Login response: {"transactionId":"147842259557302419","userRetrievedList":{"users":[{"id":4667,"description":"bharatzaveri4@gmail.com","parentBusinessUserId":2,"statusId":1,"roleTypeId":2,"defaultLanguageId":2,"userExternalIdList":{"externalIds":[{"externalId":"bharatzaveri4@gmail.com","defaultFlag":1,"type":"email","statusId":1}]},"userAttributeList":{"attributeValues":[{"attributeId":9,"attributeName":"name","attributeValue":"Bharat ","languageId":2,"languageName":"en","statusId":1,"statusName":"active"},{"attributeId":10,"attributeName":"surname","attributeValue":"Zaveri","languageId":2,"languageName":"en","statusId":1,"statusName":"active"},{"attributeId":14,"attributeName":"email","attributeValue":"bharatzaveri4@gmail.com","languageId":2,"languageName":"en","statusId":1,"statusName":"active"},{"attributeId":100003,"attributeName":"customerNumber","attributeValue":"CON-20161027-0008","languageId":2,"languageName":"en","statusId":1,"statusName":"active"},{"attributeId":100004,"attributeName":"language","attributeValue":"EN","languageId":2,"languageName":"en","statusId":1,"statusName":"active"},{"attributeId":100013,"attributeName":"NL_LEGOLAND","attributeValue":"False","languageId":2,"languageName":"en","statusId":1,"statusName":"active"},{"attributeId":100014,"attributeName":"NL_RIVERLAND","attributeValue":"False","languageId":2,"languageName":"en","statusId":1,"statusName":"active"},{"attributeId":100015,"attributeName":"NL_GENERAL_COMMUNICATION","attributeValue":"False","languageId":2,"languageName":"en","statusId":1,"statusName":"active"},{"attributeId":100018,"attributeName":"NL_BOLLIWOOD_PARK","attributeValue":"False","languageId":2,"languageName":"en","statusId":1,"statusName":"active"},{"attributeId":100019,"attributeName":"NL_MOTIONGATE","attributeValue":"False","languageId":2,"languageName":"en","statusId":1,"statusName":"active"},{"attributeId":100020,"attributeName":"NL_DUBAI_PARK_AND_RESORT","attributeValue":"True","languageId":2,"languageName":"en","statusId":1,"statusName":"active"}]}}]},"resultCode":"0"}
06.11.2016 9:56:36 +0100 10.0.32.247 Login status: 200
06.11.2016 10:02:46 +0100 10.0.32.247 TOKEN ricevuto, cache creata
06.11.2016 10:02:46 +0100 10.0.32.247 TOKEN ricevuto, cache creata
06.11.2016 10:02:46 +0100 10.0.32.247 TOKEN ricevuto, cache creata
06.11.2016 10:02:46 +0100 10.0.32.247 TOKEN ricevuto, cache creata
06.11.2016 10:12:24 +0100 10.0.32.247 Login req: {
            "languageId":"2",
            "transactionId": "147842354494720768",
            "tenant":"1",
            "profileAttributeFlag":true,
            "externalIdList": {
                "externalIds": [
                    {
                    "externalId" : "1186611344766814"
                    }
                ]
             }
            }
06.11.2016 10:12:24 +0100 10.0.32.247 Login token: 61c49a86fa935aad0c72189c7a9ec4
06.11.2016 10:12:24 +0100 10.0.32.247 Login response: {"transactionId":"147842354494720768","userRetrievedList":{"users":[{"id":5051,"description":"1186611344766814","parentBusinessUserId":2,"statusId":1,"roleTypeId":2,"defaultLanguageId":2,"userExternalIdList":{"externalIds":[{"externalId":"1186611344766814","defaultFlag":1,"type":"socialID","statusId":1}]},"userAttributeList":{"attributeValues":[{"attributeId":9,"attributeName":"name","attributeValue":"\u0628\u0648\u062e\u0644\u064a\u0641\u0647","languageId":2,"languageName":"en","statusId":1,"statusName":"active"},{"attributeId":10,"attributeName":"surname","attributeValue":"\u0627\u0644\u0643\u0648\u0627\u0631\u064a","languageId":2,"languageName":"en","statusId":1,"statusName":"active"},{"attributeId":14,"attributeName":"email","attributeValue":"bo_khalifa3033@hotmail.com","languageId":2,"languageName":"en","statusId":1,"statusName":"active"},{"attributeId":100004,"attributeName":"language","attributeValue":"ar","languageId":2,"languageName":"en","statusId":1,"statusName":"active"}]}}]},"resultCode":"0"}
06.11.2016 10:12:24 +0100 10.0.32.247 Login status: 200
06.11.2016 10:27:54 +0100 10.0.32.247 Login req: {
            "languageId":"2",
            "transactionId": "14784244741128338256",
            "tenant":"1",
            "profileAttributeFlag":true,
            "externalIdList": {
                "externalIds": [
                    {
                    "externalId" : "ajalalah@gmail.com"
                    }
                ]
             }
            }
06.11.2016 10:27:54 +0100 10.0.32.247 Login token: 173996085598e66c751707e0349bb1
06.11.2016 10:27:54 +0100 10.0.32.247 Login response: {"transactionId":"14784244741128338256","userRetrievedList":{"users":[{"id":4253,"description":"ajalalah@gmail.com","parentBusinessUserId":2,"statusId":1,"roleTypeId":2,"defaultLanguageId":2,"userExternalIdList":{"externalIds":[{"externalId":"ajalalah@gmail.com","defaultFlag":1,"type":"email","statusId":1}]},"userAttributeList":{"attributeValues":[{"attributeId":9,"attributeName":"name","attributeValue":"Ahmed","languageId":2,"languageName":"en","statusId":1,"statusName":"active"},{"attributeId":10,"attributeName":"surname","attributeValue":"Jalalah","languageId":2,"languageName":"en","statusId":1,"statusName":"active"},{"attributeId":14,"attributeName":"email","attributeValue":"ajalalah@gmail.com","languageId":2,"languageName":"en","statusId":1,"statusName":"active"},{"attributeId":100003,"attributeName":"customerNumber","attributeValue":"CON-20161010-0022","languageId":2,"languageName":"en","statusId":1,"statusName":"active"},{"attributeId":100004,"attributeName":"language","attributeValue":"AR","languageId":2,"languageName":"en","statusId":1,"statusName":"active"},{"attributeId":100013,"attributeName":"NL_LEGOLAND","attributeValue":"True","languageId":2,"languageName":"en","statusId":1,"statusName":"active"},{"attributeId":100014,"attributeName":"NL_RIVERLAND","attributeValue":"True","languageId":2,"languageName":"en","statusId":1,"statusName":"active"},{"attributeId":100015,"attributeName":"NL_GENERAL_COMMUNICATION","attributeValue":"False","languageId":2,"languageName":"en","statusId":1,"statusName":"active"},{"attributeId":100017,"attributeName":"mascotteID","attributeValue":"mascotte8_b.fw","languageId":2,"languageName":"en","statusId":1,"statusName":"active"},{"attributeId":100018,"attributeName":"NL_BOLLIWOOD_PARK","attributeValue":"True","languageId":2,"languageName":"en","statusId":1,"statusName":"active"},{"attributeId":100019,"attributeName":"NL_MOTIONGATE","attributeValue":"True","languageId":2,"languageName":"en","statusId":1,"statusName":"active"},{"attributeId":100020,"attributeName":"NL_DUBAI_PARK_AND_RESORT","attributeValue":"True","languageId":2,"languageName":"en","statusId":1,"statusName":"active"}]}}]},"resultCode":"0"}
06.11.2016 10:27:54 +0100 10.0.32.247 Login status: 200
06.11.2016 10:45:32 +0100 10.0.32.247 Login req: {
            "languageId":"2",
            "transactionId": "1478425532584785639",
            "tenant":"1",
            "profileAttributeFlag":true,
            "externalIdList": {
                "externalIds": [
                    {
                    "externalId" : "1stsalem@gmail.com"
                    }
                ]
             }
            }
06.11.2016 10:45:32 +0100 10.0.32.247 Login token: 8fb166fc56463321e4a61803ebe3ad3
06.11.2016 10:45:32 +0100 10.0.32.247 Login response: {"transactionId":"1478425532584785639","userRetrievedList":{"users":[{"id":4850,"description":"1stsalem@gmail.com","parentBusinessUserId":2,"statusId":1,"roleTypeId":2,"defaultLanguageId":2,"userExternalIdList":{"externalIds":[{"externalId":"1stsalem@gmail.com","defaultFlag":1,"type":"email","statusId":1}]},"userAttributeList":{"attributeValues":[{"attributeId":5,"attributeName":"country","attributeValue":"Saudi Arabia","languageId":2,"languageName":"en","statusId":1,"statusName":"active"},{"attributeId":9,"attributeName":"name","attributeValue":"Salem","languageId":2,"languageName":"en","statusId":1,"statusName":"active"},{"attributeId":10,"attributeName":"surname","attributeValue":"Alshehri","languageId":2,"languageName":"en","statusId":1,"statusName":"active"},{"attributeId":14,"attributeName":"email","attributeValue":"1stsalem@gmail.com","languageId":2,"languageName":"en","statusId":1,"statusName":"active"},{"attributeId":49,"attributeName":"city","attributeValue":"Riyadh","languageId":2,"languageName":"en","statusId":1,"statusName":"active"},{"attributeId":50,"attributeName":"zipCode","attributeValue":"12626","languageId":2,"languageName":"en","statusId":1,"statusName":"active"},{"attributeId":108,"attributeName":"address","attributeValue":"Riyadh","languageId":2,"languageName":"en","statusId":1,"statusName":"active"},{"attributeId":100001,"attributeName":"msisdn","attributeValue":"+966-554870706","languageId":2,"languageName":"en","statusId":1,"statusName":"active"},{"attributeId":100002,"attributeName":"birthday","attributeValue":"10\/28\/1979","languageId":2,"languageName":"en","statusId":1,"statusName":"active"},{"attributeId":100003,"attributeName":"customerNumber","attributeValue":"CON-20161101-0012","languageId":2,"languageName":"en","statusId":1,"statusName":"active"},{"attributeId":100004,"attributeName":"language","attributeValue":"EN","languageId":2,"languageName":"en","statusId":1,"statusName":"active"},{"attributeId":100013,"attributeName":"NL_LEGOLAND","attributeValue":"False","languageId":2,"languageName":"en","statusId":1,"statusName":"active"},{"attributeId":100014,"attributeName":"NL_RIVERLAND","attributeValue":"False","languageId":2,"languageName":"en","statusId":1,"statusName":"active"},{"attributeId":100015,"attributeName":"NL_GENERAL_COMMUNICATION","attributeValue":"False","languageId":2,"languageName":"en","statusId":1,"statusName":"active"},{"attributeId":100017,"attributeName":"mascotteID","attributeValue":"mascotte8_b.fw","languageId":2,"languageName":"en","statusId":1,"statusName":"active"},{"attributeId":100018,"attributeName":"NL_BOLLIWOOD_PARK","attributeValue":"False","languageId":2,"languageName":"en","statusId":1,"statusName":"active"},{"attributeId":100019,"attributeName":"NL_MOTIONGATE","attributeValue":"False","languageId":2,"languageName":"en","statusId":1,"statusName":"active"},{"attributeId":100020,"attributeName":"NL_DUBAI_PARK_AND_RESORT","attributeValue":"True","languageId":2,"languageName":"en","statusId":1,"statusName":"active"}]}}]},"resultCode":"0"}
06.11.2016 10:45:32 +0100 10.0.32.247 Login status: 200
06.11.2016 11:02:49 +0100 10.0.32.247 TOKEN ricevuto, cache creata
06.11.2016 11:53:52 +0100 10.0.32.247 Login req: {
            "languageId":"2",
            "transactionId": "14784296322022241406",
            "tenant":"1",
            "profileAttributeFlag":true,
            "externalIdList": {
                "externalIds": [
                    {
                    "externalId" : "Karim_attaalla92@hotmail.com"
                    }
                ]
             }
            }
06.11.2016 11:53:52 +0100 10.0.32.247 Login token: d32048d70f81efedf9e9a99b1f0c671
06.11.2016 11:53:52 +0100 10.0.32.247 Login response: {"transactionId":"14784296322022241406","userRetrievedList":{"users":[{"id":5091,"description":"karim_attaalla92@hotmail.com","parentBusinessUserId":2,"statusId":1,"roleTypeId":2,"defaultLanguageId":2,"userExternalIdList":{"externalIds":[{"externalId":"karim_attaalla92@hotmail.com","defaultFlag":1,"type":"email","statusId":1}]},"userAttributeList":{"attributeValues":[{"attributeId":9,"attributeName":"name","attributeValue":"Karim","languageId":2,"languageName":"en","statusId":1,"statusName":"active"},{"attributeId":10,"attributeName":"surname","attributeValue":"Attaalla","languageId":2,"languageName":"en","statusId":1,"statusName":"active"},{"attributeId":14,"attributeName":"email","attributeValue":"karim_attaalla92@hotmail.com","languageId":2,"languageName":"en","statusId":1,"statusName":"active"},{"attributeId":100003,"attributeName":"customerNumber","attributeValue":"CON-20161106-0035","languageId":2,"languageName":"en","statusId":1,"statusName":"active"},{"attributeId":100004,"attributeName":"language","attributeValue":"EN","languageId":2,"languageName":"en","statusId":1,"statusName":"active"},{"attributeId":100013,"attributeName":"NL_LEGOLAND","attributeValue":"False","languageId":2,"languageName":"en","statusId":1,"statusName":"active"},{"attributeId":100014,"attributeName":"NL_RIVERLAND","attributeValue":"False","languageId":2,"languageName":"en","statusId":1,"statusName":"active"},{"attributeId":100015,"attributeName":"NL_GENERAL_COMMUNICATION","attributeValue":"False","languageId":2,"languageName":"en","statusId":1,"statusName":"active"},{"attributeId":100018,"attributeName":"NL_BOLLIWOOD_PARK","attributeValue":"False","languageId":2,"languageName":"en","statusId":1,"statusName":"active"},{"attributeId":100019,"attributeName":"NL_MOTIONGATE","attributeValue":"False","languageId":2,"languageName":"en","statusId":1,"statusName":"active"},{"attributeId":100020,"attributeName":"NL_DUBAI_PARK_AND_RESORT","attributeValue":"True","languageId":2,"languageName":"en","statusId":1,"statusName":"active"}]}}]},"resultCode":"0"}
06.11.2016 11:53:52 +0100 10.0.32.247 Login status: 200
06.11.2016 12:03:10 +0100 10.0.32.247 TOKEN ricevuto, cache creata
06.11.2016 12:04:33 +0100 10.0.32.247 TOKEN expired => RENEWING. Server response =>401
06.11.2016 12:04:33 +0100 10.0.32.247 RENEWING token
06.11.2016 12:04:33 +0100 10.0.32.247 RENEW TOKEN RESULT =>200 || 57c034e1816506e207f63c0da32b932
06.11.2016 13:05:09 +0100 10.0.32.247 TOKEN ricevuto, cache creata
06.11.2016 13:07:47 +0100 10.0.32.247 Login req: {
            "languageId":"2",
            "transactionId": "14784340671497226240",
            "tenant":"1",
            "profileAttributeFlag":true,
            "externalIdList": {
                "externalIds": [
                    {
                    "externalId" : "10210845774845139"
                    }
                ]
             }
            }
06.11.2016 13:07:47 +0100 10.0.32.247 Login token: 3029a6ad1f599f892945c5bbe6465b
06.11.2016 13:07:47 +0100 10.0.32.247 Login response: {"transactionId":"14784340671497226240","userRetrievedList":{"users":[{"id":4991,"description":"10210845774845139","parentBusinessUserId":2,"statusId":1,"roleTypeId":2,"defaultLanguageId":2,"userExternalIdList":{"externalIds":[{"externalId":"10210845774845139","defaultFlag":1,"type":"socialID","statusId":1}]},"userAttributeList":{"attributeValues":[{"attributeId":9,"attributeName":"name","attributeValue":"Fawzi","languageId":2,"languageName":"en","statusId":1,"statusName":"active"},{"attributeId":10,"attributeName":"surname","attributeValue":"Mashhour","languageId":2,"languageName":"en","statusId":1,"statusName":"active"},{"attributeId":14,"attributeName":"email","attributeValue":"fawzi69@hotmail.com","languageId":2,"languageName":"en","statusId":1,"statusName":"active"},{"attributeId":100003,"attributeName":"customerNumber","attributeValue":"CON-20161103-0047","languageId":2,"languageName":"en","statusId":1,"statusName":"active"},{"attributeId":100004,"attributeName":"language","attributeValue":"ar","languageId":2,"languageName":"en","statusId":1,"statusName":"active"}]}}]},"resultCode":"0"}
06.11.2016 13:07:47 +0100 10.0.32.247 Login status: 200
06.11.2016 14:05:03 +0100 10.0.32.247 TOKEN expired => RENEWING. Server response =>401
06.11.2016 14:05:03 +0100 10.0.32.247 RENEWING token
06.11.2016 14:05:03 +0100 10.0.32.247 RENEW TOKEN RESULT =>200 || 1f4d99d5ba8cef2d7c62ee7ea5c861b
06.11.2016 15:05:14 +0100 10.0.32.247 TOKEN ricevuto, cache creata
06.11.2016 15:43:44 +0100 10.0.32.247 Login req: {
            "languageId":"2",
            "transactionId": "14784434241328207481",
            "tenant":"1",
            "profileAttributeFlag":true,
            "externalIdList": {
                "externalIds": [
                    {
                    "externalId" : "haniq8@live.com"
                    }
                ]
             }
            }
06.11.2016 15:43:44 +0100 10.0.32.247 Login token: 024ff897359c6fabd84e3d19eb7655
06.11.2016 15:43:44 +0100 10.0.32.247 Login response: {"transactionId":"14784434241328207481","userRetrievedList":{"users":[{"id":4798,"description":"haniq8@live.com","parentBusinessUserId":2,"statusId":1,"roleTypeId":2,"defaultLanguageId":2,"userExternalIdList":{"externalIds":[{"externalId":"haniq8@live.com","defaultFlag":1,"type":"email","statusId":1}]},"userAttributeList":{"attributeValues":[{"attributeId":5,"attributeName":"country","attributeValue":"Kuwait","languageId":2,"languageName":"en","statusId":1,"statusName":"active"},{"attributeId":9,"attributeName":"name","attributeValue":"Hani","languageId":2,"languageName":"en","statusId":1,"statusName":"active"},{"attributeId":10,"attributeName":"surname","attributeValue":"Alenezi","languageId":2,"languageName":"en","statusId":1,"statusName":"active"},{"attributeId":14,"attributeName":"email","attributeValue":"haniq8@live.com","languageId":2,"languageName":"en","statusId":1,"statusName":"active"},{"attributeId":49,"attributeName":"city","attributeValue":"Kuwait","languageId":2,"languageName":"en","statusId":1,"statusName":"active"},{"attributeId":50,"attributeName":"zipCode","attributeValue":"90006","languageId":2,"languageName":"en","statusId":1,"statusName":"active"},{"attributeId":108,"attributeName":"address","attributeValue":"Sulaibekat bolc 4 st 116 aven 6 hoom","languageId":2,"languageName":"en","statusId":1,"statusName":"active"},{"attributeId":100001,"attributeName":"msisdn","attributeValue":"+965-55556787","languageId":2,"languageName":"en","statusId":1,"statusName":"active"},{"attributeId":100002,"attributeName":"birthday","attributeValue":"1\/14\/1980","languageId":2,"languageName":"en","statusId":1,"statusName":"active"},{"attributeId":100003,"attributeName":"customerNumber","attributeValue":"CON-20161031-0047","languageId":2,"languageName":"en","statusId":1,"statusName":"active"},{"attributeId":100004,"attributeName":"language","attributeValue":"AR","languageId":2,"languageName":"en","statusId":1,"statusName":"active"},{"attributeId":100013,"attributeName":"NL_LEGOLAND","attributeValue":"False","languageId":2,"languageName":"en","statusId":1,"statusName":"active"},{"attributeId":100014,"attributeName":"NL_RIVERLAND","attributeValue":"False","languageId":2,"languageName":"en","statusId":1,"statusName":"active"},{"attributeId":100015,"attributeName":"NL_GENERAL_COMMUNICATION","attributeValue":"False","languageId":2,"languageName":"en","statusId":1,"statusName":"active"},{"attributeId":100018,"attributeName":"NL_BOLLIWOOD_PARK","attributeValue":"False","languageId":2,"languageName":"en","statusId":1,"statusName":"active"},{"attributeId":100019,"attributeName":"NL_MOTIONGATE","attributeValue":"False","languageId":2,"languageName":"en","statusId":1,"statusName":"active"},{"attributeId":100020,"attributeName":"NL_DUBAI_PARK_AND_RESORT","attributeValue":"True","languageId":2,"languageName":"en","statusId":1,"statusName":"active"}]}}]},"resultCode":"0"}
06.11.2016 15:43:44 +0100 10.0.32.247 Login status: 200
06.11.2016 16:05:23 +0100 10.0.32.247 TOKEN ricevuto, cache creata
06.11.2016 17:05:41 +0100 10.0.32.247 TOKEN ricevuto, cache creata
06.11.2016 17:36:03 +0100 10.0.32.247 Login req: {
            "languageId":"2",
            "transactionId": "14784501621461868487",
            "tenant":"1",
            "profileAttributeFlag":true,
            "externalIdList": {
                "externalIds": [
                    {
                    "externalId" : "fattymaharjan@gmail.com"
                    }
                ]
             }
            }
06.11.2016 17:36:03 +0100 10.0.32.247 Login token: 1b97be0b17139706fd1a89168ce3ce3
06.11.2016 17:36:03 +0100 10.0.32.247 Login response: {"transactionId":"14784501621461868487","userRetrievedList":{"users":[{"id":5028,"description":"fattymaharjan@gmail.com","parentBusinessUserId":2,"statusId":1,"roleTypeId":2,"defaultLanguageId":2,"userExternalIdList":{"externalIds":[{"externalId":"fattymaharjan@gmail.com","defaultFlag":1,"type":"email","statusId":1}]},"userAttributeList":{"attributeValues":[{"attributeId":9,"attributeName":"name","attributeValue":"Ajay","languageId":2,"languageName":"en","statusId":1,"statusName":"active"},{"attributeId":10,"attributeName":"surname","attributeValue":"Maharjan","languageId":2,"languageName":"en","statusId":1,"statusName":"active"},{"attributeId":14,"attributeName":"email","attributeValue":"fattymaharjan@gmail.com","languageId":2,"languageName":"en","statusId":1,"statusName":"active"},{"attributeId":100003,"attributeName":"customerNumber","attributeValue":"CON-20161104-0065","languageId":2,"languageName":"en","statusId":1,"statusName":"active"},{"attributeId":100004,"attributeName":"language","attributeValue":"EN","languageId":2,"languageName":"en","statusId":1,"statusName":"active"},{"attributeId":100013,"attributeName":"NL_LEGOLAND","attributeValue":"False","languageId":2,"languageName":"en","statusId":1,"statusName":"active"},{"attributeId":100014,"attributeName":"NL_RIVERLAND","attributeValue":"False","languageId":2,"languageName":"en","statusId":1,"statusName":"active"},{"attributeId":100015,"attributeName":"NL_GENERAL_COMMUNICATION","attributeValue":"False","languageId":2,"languageName":"en","statusId":1,"statusName":"active"},{"attributeId":100018,"attributeName":"NL_BOLLIWOOD_PARK","attributeValue":"False","languageId":2,"languageName":"en","statusId":1,"statusName":"active"},{"attributeId":100019,"attributeName":"NL_MOTIONGATE","attributeValue":"False","languageId":2,"languageName":"en","statusId":1,"statusName":"active"},{"attributeId":100020,"attributeName":"NL_DUBAI_PARK_AND_RESORT","attributeValue":"False","languageId":2,"languageName":"en","statusId":1,"statusName":"active"}]}}]},"resultCode":"0"}
06.11.2016 17:36:03 +0100 10.0.32.247 Login status: 200
06.11.2016 17:51:42 +0100 10.0.32.247 Login req: {
            "languageId":"2",
            "transactionId": "1478451102433634619",
            "tenant":"1",
            "profileAttributeFlag":true,
            "externalIdList": {
                "externalIds": [
                    {
                    "externalId" : "10208294112526806"
                    }
                ]
             }
            }
06.11.2016 17:51:42 +0100 10.0.32.247 Login token: 42e41bb3e489877e7ea88973ed99df5
06.11.2016 17:51:42 +0100 10.0.32.247 Login response: {"transactionId":"1478451102433634619","userRetrievedList":{"users":[{"id":5100,"description":"10208294112526806","parentBusinessUserId":2,"statusId":1,"roleTypeId":2,"defaultLanguageId":2,"userExternalIdList":{"externalIds":[{"externalId":"10208294112526806","defaultFlag":1,"type":"socialID","statusId":1}]},"userAttributeList":{"attributeValues":[{"attributeId":9,"attributeName":"name","attributeValue":"Michael","languageId":2,"languageName":"en","statusId":1,"statusName":"active"},{"attributeId":10,"attributeName":"surname","attributeValue":"Capuno","languageId":2,"languageName":"en","statusId":1,"statusName":"active"},{"attributeId":14,"attributeName":"email","attributeValue":"blackgold_02@yahoo.com","languageId":2,"languageName":"en","statusId":1,"statusName":"active"},{"attributeId":100004,"attributeName":"language","attributeValue":"en","languageId":2,"languageName":"en","statusId":1,"statusName":"active"}]}}]},"resultCode":"0"}
06.11.2016 17:51:42 +0100 10.0.32.247 Login status: 200
06.11.2016 18:06:08 +0100 10.0.32.247 TOKEN ricevuto, cache creata
06.11.2016 18:57:33 +0100 10.0.32.247 Login req: {
            "languageId":"2",
            "transactionId": "1478455053603189524",
            "tenant":"1",
            "profileAttributeFlag":true,
            "externalIdList": {
                "externalIds": [
                    {
                    "externalId" : "dubkovnick@gmail.com"
                    }
                ]
             }
            }
06.11.2016 18:57:33 +0100 10.0.32.247 Login token: 862e434f6b50feda3b27faa13ce4ad8f
06.11.2016 18:57:33 +0100 10.0.32.247 Login response: {"transactionId":"1478455053603189524","userRetrievedList":{"users":[{"id":5101,"description":"dubkovnick@gmail.com","parentBusinessUserId":2,"statusId":1,"roleTypeId":2,"defaultLanguageId":2,"userExternalIdList":{"externalIds":[{"externalId":"dubkovnick@gmail.com","defaultFlag":1,"type":"email","statusId":1}]},"userAttributeList":{"attributeValues":[{"attributeId":14,"attributeName":"email","attributeValue":"dubkovnick@gmail.com","languageId":2,"languageName":"en","statusId":1,"statusName":"active"},{"attributeId":10,"attributeName":"surname","attributeValue":"Dubkov","languageId":2,"languageName":"en","statusId":1,"statusName":"active"},{"attributeId":100020,"attributeName":"NL_DUBAI_PARK_AND_RESORT","attributeValue":"True","languageId":2,"languageName":"en","statusId":1,"statusName":"active"},{"attributeId":9,"attributeName":"name","attributeValue":"Nikolay","languageId":2,"languageName":"en","statusId":1,"statusName":"active"},{"attributeId":100004,"attributeName":"language","attributeValue":"EN","languageId":2,"languageName":"en","statusId":1,"statusName":"active"},{"attributeId":100003,"attributeName":"customerNumber","attributeValue":"CON-20161106-0058","languageId":2,"languageName":"en","statusId":1,"statusName":"active"},{"attributeId":100019,"attributeName":"NL_MOTIONGATE","attributeValue":"False","languageId":2,"languageName":"en","statusId":1,"statusName":"active"},{"attributeId":100018,"attributeName":"NL_BOLLIWOOD_PARK","attributeValue":"False","languageId":2,"languageName":"en","statusId":1,"statusName":"active"},{"attributeId":100013,"attributeName":"NL_LEGOLAND","attributeValue":"False","languageId":2,"languageName":"en","statusId":1,"statusName":"active"},{"attributeId":100014,"attributeName":"NL_RIVERLAND","attributeValue":"False","languageId":2,"languageName":"en","statusId":1,"statusName":"active"},{"attributeId":100015,"attributeName":"NL_GENERAL_COMMUNICATION","attributeValue":"False","languageId":2,"languageName":"en","statusId":1,"statusName":"active"}]}}]},"resultCode":"0"}
06.11.2016 18:57:33 +0100 10.0.32.247 Login status: 200
06.11.2016 19:06:13 +0100 10.0.32.247 TOKEN ricevuto, cache creata
06.11.2016 20:06:37 +0100 10.0.32.247 TOKEN ricevuto, cache creata
06.11.2016 20:58:31 +0100 10.0.32.247 Login req: {
            "languageId":"2",
            "transactionId": "14784623101531831561",
            "tenant":"1",
            "profileAttributeFlag":true,
            "externalIdList": {
                "externalIds": [
                    {
                    "externalId" : "karim_attaalla92@hotmail.com"
                    }
                ]
             }
            }
06.11.2016 20:58:31 +0100 10.0.32.247 Login token: e3a6d27e56edd26ac561c2c91d6daff
06.11.2016 20:58:31 +0100 10.0.32.247 Login response: {"transactionId":"14784623101531831561","userRetrievedList":{"users":[{"id":5091,"description":"karim_attaalla92@hotmail.com","parentBusinessUserId":2,"statusId":1,"roleTypeId":2,"defaultLanguageId":2,"userExternalIdList":{"externalIds":[{"externalId":"karim_attaalla92@hotmail.com","defaultFlag":1,"type":"email","statusId":1}]},"userAttributeList":{"attributeValues":[{"attributeId":9,"attributeName":"name","attributeValue":"Karim","languageId":2,"languageName":"en","statusId":1,"statusName":"active"},{"attributeId":10,"attributeName":"surname","attributeValue":"Attaalla","languageId":2,"languageName":"en","statusId":1,"statusName":"active"},{"attributeId":14,"attributeName":"email","attributeValue":"karim_attaalla92@hotmail.com","languageId":2,"languageName":"en","statusId":1,"statusName":"active"},{"attributeId":100003,"attributeName":"customerNumber","attributeValue":"CON-20161106-0035","languageId":2,"languageName":"en","statusId":1,"statusName":"active"},{"attributeId":100004,"attributeName":"language","attributeValue":"EN","languageId":2,"languageName":"en","statusId":1,"statusName":"active"},{"attributeId":100013,"attributeName":"NL_LEGOLAND","attributeValue":"False","languageId":2,"languageName":"en","statusId":1,"statusName":"active"},{"attributeId":100014,"attributeName":"NL_RIVERLAND","attributeValue":"False","languageId":2,"languageName":"en","statusId":1,"statusName":"active"},{"attributeId":100015,"attributeName":"NL_GENERAL_COMMUNICATION","attributeValue":"False","languageId":2,"languageName":"en","statusId":1,"statusName":"active"},{"attributeId":100018,"attributeName":"NL_BOLLIWOOD_PARK","attributeValue":"False","languageId":2,"languageName":"en","statusId":1,"statusName":"active"},{"attributeId":100019,"attributeName":"NL_MOTIONGATE","attributeValue":"False","languageId":2,"languageName":"en","statusId":1,"statusName":"active"},{"attributeId":100020,"attributeName":"NL_DUBAI_PARK_AND_RESORT","attributeValue":"True","languageId":2,"languageName":"en","statusId":1,"statusName":"active"}]}}]},"resultCode":"0"}
06.11.2016 20:58:31 +0100 10.0.32.247 Login status: 200
06.11.2016 21:06:41 +0100 10.0.32.247 TOKEN ricevuto, cache creata
06.11.2016 21:06:41 +0100 10.0.32.247 TOKEN ricevuto, cache creata
06.11.2016 22:06:46 +0100 10.0.32.247 TOKEN ricevuto, cache creata
06.11.2016 23:06:55 +0100 10.0.32.247 TOKEN ricevuto, cache creata
06.11.2016 23:25:51 +0100 10.0.32.247 Login req: {
            "languageId":"2",
            "transactionId": "14784711511303110173",
            "tenant":"1",
            "profileAttributeFlag":true,
            "externalIdList": {
                "externalIds": [
                    {
                    "externalId" : "vitaly@notan.ua"
                    }
                ]
             }
            }
06.11.2016 23:25:51 +0100 10.0.32.247 Login token: aae51f0457a95aa97dca472b28a73ff
06.11.2016 23:25:51 +0100 10.0.32.247 Login response: {"transactionId":"14784711511303110173","userRetrievedList":{"users":[{"id":5103,"description":"vitaly@notan.ua","parentBusinessUserId":2,"statusId":1,"roleTypeId":2,"defaultLanguageId":2,"userExternalIdList":{"externalIds":[{"externalId":"vitaly@notan.ua","defaultFlag":1,"type":"email","statusId":1}]},"userAttributeList":{"attributeValues":[{"attributeId":9,"attributeName":"name","attributeValue":"Vitalii","languageId":2,"languageName":"en","statusId":1,"statusName":"active"},{"attributeId":10,"attributeName":"surname","attributeValue":"Smilianets","languageId":2,"languageName":"en","statusId":1,"statusName":"active"},{"attributeId":14,"attributeName":"email","attributeValue":"vitaly@notan.ua","languageId":2,"languageName":"en","statusId":1,"statusName":"active"},{"attributeId":100003,"attributeName":"customerNumber","attributeValue":"CON-20161107-0007","languageId":2,"languageName":"en","statusId":1,"statusName":"active"},{"attributeId":100004,"attributeName":"language","attributeValue":"EN","languageId":2,"languageName":"en","statusId":1,"statusName":"active"},{"attributeId":100013,"attributeName":"NL_LEGOLAND","attributeValue":"False","languageId":2,"languageName":"en","statusId":1,"statusName":"active"},{"attributeId":100014,"attributeName":"NL_RIVERLAND","attributeValue":"False","languageId":2,"languageName":"en","statusId":1,"statusName":"active"},{"attributeId":100015,"attributeName":"NL_GENERAL_COMMUNICATION","attributeValue":"False","languageId":2,"languageName":"en","statusId":1,"statusName":"active"},{"attributeId":100018,"attributeName":"NL_BOLLIWOOD_PARK","attributeValue":"False","languageId":2,"languageName":"en","statusId":1,"statusName":"active"},{"attributeId":100019,"attributeName":"NL_MOTIONGATE","attributeValue":"False","languageId":2,"languageName":"en","statusId":1,"statusName":"active"},{"attributeId":100020,"attributeName":"NL_DUBAI_PARK_AND_RESORT","attributeValue":"True","languageId":2,"languageName":"en","statusId":1,"statusName":"active"}]}}]},"resultCode":"0"}
06.11.2016 23:25:51 +0100 10.0.32.247 Login status: 200