
12.05.2016 0:15:57 +0200 10.0.32.247 TOKEN ricevuto, cache creata
12.05.2016 0:26:21 +0200 10.0.32.247 TOKEN expired => RENEWING. Server response =>401
12.05.2016 0:26:21 +0200 10.0.32.247 RENEWING token
12.05.2016 0:26:21 +0200 10.0.32.247 RENEW TOKEN RESULT =>200 || 1f16eb7664747e2579babb13901f90
12.05.2016 0:26:21 +0200 10.0.32.247 error in acapiaccess_getProducts_annualPass: 
12.05.2016 1:41:59 +0200 10.0.32.247 TOKEN ricevuto, cache creata
12.05.2016 2:43:01 +0200 10.0.32.247 TOKEN ricevuto, cache creata
12.05.2016 3:43:53 +0200 10.0.32.247 TOKEN ricevuto, cache creata
12.05.2016 4:08:55 +0200 10.0.32.247 Login req: {
            "languageId":"2",
            "transactionId": "14630189351231521566",
            "tenant":"1",
            "profileAttributeFlag":true,
            "externalIdList": {
                "externalIds": [
                    {
                    "externalId" : "mohamedshama@gmail.com"
                    }
                ]
             }   
            }
12.05.2016 4:08:55 +0200 10.0.32.247 Login token: d954289520aad7b1c4ce4b7df751b40
12.05.2016 4:08:55 +0200 10.0.32.247 Login response: {"transactionId":"14630189351231521566","userRetrievedList":{"users":[{"id":520,"description":"mohamedshama@gmail.com","parentBusinessUserId":2,"statusId":1,"roleTypeId":2,"defaultLanguageId":2,"userExternalIdList":{"externalIds":[{"externalId":"mohamedshama@gmail.com","defaultFlag":1,"type":"email","statusId":1}]},"userAttributeList":{"attributeValues":[{"attributeId":9,"attributeName":"name","attributeValue":"Mohamed","languageId":2,"languageName":"en","statusId":1,"statusName":"active"},{"attributeId":10,"attributeName":"surname","attributeValue":"Shama","languageId":2,"languageName":"en","statusId":1,"statusName":"active"},{"attributeId":14,"attributeName":"email","attributeValue":"mohamedshama@gmail.com","languageId":2,"languageName":"en","statusId":1,"statusName":"active"},{"attributeId":100004,"attributeName":"language","attributeValue":"EN","languageId":2,"languageName":"en","statusId":1,"statusName":"active"},{"attributeId":100020,"attributeName":"NL_DUBAI_PARK_AND_RESORT","attributeValue":"true","languageId":2,"languageName":"en","statusId":1,"statusName":"active"}]}}]},"resultCode":"0"}
12.05.2016 4:08:55 +0200 10.0.32.247 Login status: 200
12.05.2016 4:52:26 +0200 10.0.32.247 TOKEN ricevuto, cache creata
12.05.2016 5:51:12 +0200 10.0.32.247 TOKEN expired => RENEWING. Server response =>401
12.05.2016 5:51:12 +0200 10.0.32.247 RENEWING token
12.05.2016 5:51:12 +0200 10.0.32.247 RENEW TOKEN RESULT =>200 || 19593dcfb6b5f062562a933c4dcac4
12.05.2016 5:51:12 +0200 10.0.32.247 error in acapiaccess_getProducts_annualPass: 
12.05.2016 6:20:31 +0200 10.0.32.247 Login req: {
            "languageId":"2",
            "transactionId": "1463026831805812147",
            "tenant":"1",
            "profileAttributeFlag":true,
            "externalIdList": {
                "externalIds": [
                    {
                    "externalId" : "1063528993713669"
                    }
                ]
             }   
            }
12.05.2016 6:20:31 +0200 10.0.32.247 Login token: 1e22d24b4151639f5bdbbb110898fab
12.05.2016 6:20:31 +0200 10.0.32.247 Login response: {"transactionId":"1463026831805812147","userRetrievedList":{"users":[{"id":521,"description":"1063528993713669","parentBusinessUserId":2,"statusId":1,"roleTypeId":2,"defaultLanguageId":2,"userExternalIdList":{"externalIds":[{"externalId":"1063528993713669","defaultFlag":1,"type":"socialID","statusId":1}]},"userAttributeList":{"attributeValues":[{"attributeId":9,"attributeName":"name","attributeValue":"Sajeena","languageId":2,"languageName":"en","statusId":1,"statusName":"active"},{"attributeId":10,"attributeName":"surname","attributeValue":"Sherin","languageId":2,"languageName":"en","statusId":1,"statusName":"active"},{"attributeId":14,"attributeName":"email","attributeValue":"sajeenaksherin@yahoo.com","languageId":2,"languageName":"en","statusId":1,"statusName":"active"},{"attributeId":100004,"attributeName":"language","attributeValue":"en","languageId":2,"languageName":"en","statusId":1,"statusName":"active"}]}}]},"resultCode":"0"}
12.05.2016 6:20:31 +0200 10.0.32.247 Login status: 200
12.05.2016 6:36:00 +0200 10.0.32.247 Login req: {
            "languageId":"2",
            "transactionId": "1463027760405633954",
            "tenant":"1",
            "profileAttributeFlag":true,
            "externalIdList": {
                "externalIds": [
                    {
                    "externalId" : "melcar_04@yahoo.com"
                    }
                ]
             }   
            }
12.05.2016 6:36:00 +0200 10.0.32.247 Login token: 4dc9a175973dee4ae09d75291bdcebe
12.05.2016 6:36:00 +0200 10.0.32.247 Login response: {"transactionId":"1463027760405633954","userRetrievedList":{"users":[{"id":522,"description":"melcar_04@yahoo.com","parentBusinessUserId":2,"statusId":1,"roleTypeId":2,"defaultLanguageId":2,"userExternalIdList":{"externalIds":[{"externalId":"melcar_04@yahoo.com","defaultFlag":1,"type":"email","statusId":1}]},"userAttributeList":{"attributeValues":[{"attributeId":9,"attributeName":"name","attributeValue":"Rommel","languageId":2,"languageName":"en","statusId":1,"statusName":"active"},{"attributeId":10,"attributeName":"surname","attributeValue":"Carlos","languageId":2,"languageName":"en","statusId":1,"statusName":"active"},{"attributeId":14,"attributeName":"email","attributeValue":"melcar_04@yahoo.com","languageId":2,"languageName":"en","statusId":1,"statusName":"active"},{"attributeId":100003,"attributeName":"customerNumber","attributeValue":"CON-20160512-0003","languageId":2,"languageName":"en","statusId":1,"statusName":"active"},{"attributeId":100004,"attributeName":"language","attributeValue":"EN","languageId":2,"languageName":"en","statusId":1,"statusName":"active"},{"attributeId":100020,"attributeName":"NL_DUBAI_PARK_AND_RESORT","attributeValue":"true","languageId":2,"languageName":"en","statusId":1,"statusName":"active"}]}}]},"resultCode":"0"}
12.05.2016 6:36:00 +0200 10.0.32.247 Login status: 200
12.05.2016 6:51:41 +0200 10.0.32.247 TOKEN ricevuto, cache creata
12.05.2016 7:52:17 +0200 10.0.32.247 TOKEN ricevuto, cache creata
12.05.2016 8:24:31 +0200 10.0.32.247 Login req: {
            "languageId":"2",
            "transactionId": "1463034270128092619",
            "tenant":"1",
            "profileAttributeFlag":true,
            "externalIdList": {
                "externalIds": [
                    {
                    "externalId" : "1393422347336408"
                    }
                ]
             }   
            }
12.05.2016 8:24:31 +0200 10.0.32.247 Login token: 35d8b0605dc62427c52d2dc5cc9562a
12.05.2016 8:24:31 +0200 10.0.32.247 Login response: {"transactionId":"1463034270128092619","userRetrievedList":{"users":[{"id":523,"description":"1393422347336408","parentBusinessUserId":2,"statusId":1,"roleTypeId":2,"defaultLanguageId":2,"userExternalIdList":{"externalIds":[{"externalId":"1393422347336408","defaultFlag":1,"type":"socialID","statusId":1}]},"userAttributeList":{"attributeValues":[{"attributeId":9,"attributeName":"name","attributeValue":"Mca Jac","languageId":2,"languageName":"en","statusId":1,"statusName":"active"},{"attributeId":10,"attributeName":"surname","attributeValue":"Ward","languageId":2,"languageName":"en","statusId":1,"statusName":"active"},{"attributeId":14,"attributeName":"email","attributeValue":"jackto24@yahoo.com","languageId":2,"languageName":"en","statusId":1,"statusName":"active"},{"attributeId":100004,"attributeName":"language","attributeValue":"en","languageId":2,"languageName":"en","statusId":1,"statusName":"active"}]}}]},"resultCode":"0"}
12.05.2016 8:24:31 +0200 10.0.32.247 Login status: 200
12.05.2016 8:52:19 +0200 10.0.32.247 TOKEN ricevuto, cache creata
12.05.2016 9:09:50 +0200 10.0.32.247 Login req: {
            "languageId":"2",
            "transactionId": "14630369901991917126",
            "tenant":"1",
            "profileAttributeFlag":true,
            "externalIdList": {
                "externalIds": [
                    {
                    "externalId" : "jomargalguerra@yahoo.com"
                    }
                ]
             }   
            }
12.05.2016 9:09:50 +0200 10.0.32.247 Login token: 898423a6e30b2e5c17ab9ac8d4a01e
12.05.2016 9:09:50 +0200 10.0.32.247 Login response: {"transactionId":"14630369901991917126","userRetrievedList":{"users":[{"id":524,"description":"jomargalguerra@yahoo.com","parentBusinessUserId":2,"statusId":1,"roleTypeId":2,"defaultLanguageId":2,"userExternalIdList":{"externalIds":[{"externalId":"jomargalguerra@yahoo.com","defaultFlag":1,"type":"email","statusId":1}]},"userAttributeList":{"attributeValues":[{"attributeId":9,"attributeName":"name","attributeValue":"Jo Marole","languageId":2,"languageName":"en","statusId":1,"statusName":"active"},{"attributeId":10,"attributeName":"surname","attributeValue":"Galguerra","languageId":2,"languageName":"en","statusId":1,"statusName":"active"},{"attributeId":14,"attributeName":"email","attributeValue":"jomargalguerra@yahoo.com","languageId":2,"languageName":"en","statusId":1,"statusName":"active"},{"attributeId":100003,"attributeName":"customerNumber","attributeValue":"CON-20160512-0006","languageId":2,"languageName":"en","statusId":1,"statusName":"active"},{"attributeId":100004,"attributeName":"language","attributeValue":"EN","languageId":2,"languageName":"en","statusId":1,"statusName":"active"}]}}]},"resultCode":"0"}
12.05.2016 9:09:50 +0200 10.0.32.247 Login status: 200
12.05.2016 9:37:01 +0200 10.0.32.247 Login req: {
            "languageId":"2",
            "transactionId": "146303862119155591",
            "tenant":"1",
            "profileAttributeFlag":true,
            "externalIdList": {
                "externalIds": [
                    {
                    "externalId" : "eleniparas@yahoo.com"
                    }
                ]
             }   
            }
12.05.2016 9:37:01 +0200 10.0.32.247 Login token: a8606819f3286faf878238679c4b32
12.05.2016 9:37:01 +0200 10.0.32.247 Login response: {"transactionId":"146303862119155591","userRetrievedList":{"users":[{"id":526,"description":"eleniparas@yahoo.com","parentBusinessUserId":2,"statusId":1,"roleTypeId":2,"defaultLanguageId":2,"userExternalIdList":{"externalIds":[{"externalId":"eleniparas@yahoo.com","defaultFlag":1,"type":"email","statusId":1}]},"userAttributeList":{"attributeValues":[{"attributeId":9,"attributeName":"name","attributeValue":"Eleni","languageId":2,"languageName":"en","statusId":1,"statusName":"active"},{"attributeId":10,"attributeName":"surname","attributeValue":"Paraskevopoulou","languageId":2,"languageName":"en","statusId":1,"statusName":"active"},{"attributeId":14,"attributeName":"email","attributeValue":"eleniparas@yahoo.com","languageId":2,"languageName":"en","statusId":1,"statusName":"active"},{"attributeId":100004,"attributeName":"language","attributeValue":"EN","languageId":2,"languageName":"en","statusId":1,"statusName":"active"},{"attributeId":100020,"attributeName":"NL_DUBAI_PARK_AND_RESORT","attributeValue":"true","languageId":2,"languageName":"en","statusId":1,"statusName":"active"}]}}]},"resultCode":"0"}
12.05.2016 9:37:01 +0200 10.0.32.247 Login status: 200
12.05.2016 9:52:58 +0200 10.0.32.247 TOKEN ricevuto, cache creata
12.05.2016 10:07:08 +0200 10.0.32.247 Login req: {
            "languageId":"2",
            "transactionId": "14630404281118736676",
            "tenant":"1",
            "profileAttributeFlag":true,
            "externalIdList": {
                "externalIds": [
                    {
                    "externalId" : "1163130703750572"
                    }
                ]
             }   
            }
12.05.2016 10:07:08 +0200 10.0.32.247 Login token: 3d9b888f2d62a88110d5bec2bb5d76
12.05.2016 10:07:08 +0200 10.0.32.247 Login response: {"transactionId":"14630404281118736676","userRetrievedList":{"users":[{"id":527,"description":"1163130703750572","parentBusinessUserId":2,"statusId":1,"roleTypeId":2,"defaultLanguageId":2,"userExternalIdList":{"externalIds":[{"externalId":"1163130703750572","defaultFlag":1,"type":"socialID","statusId":1}]},"userAttributeList":{"attributeValues":[{"attributeId":9,"attributeName":"name","attributeValue":"Shey","languageId":2,"languageName":"en","statusId":1,"statusName":"active"},{"attributeId":10,"attributeName":"surname","attributeValue":"Sean","languageId":2,"languageName":"en","statusId":1,"statusName":"active"},{"attributeId":14,"attributeName":"email","attributeValue":"macshey28@gmail.com","languageId":2,"languageName":"en","statusId":1,"statusName":"active"},{"attributeId":100004,"attributeName":"language","attributeValue":"en","languageId":2,"languageName":"en","statusId":1,"statusName":"active"}]}}]},"resultCode":"0"}
12.05.2016 10:07:08 +0200 10.0.32.247 Login status: 200
12.05.2016 10:34:02 +0200 10.0.32.247 error in acapiaccess_getProducts_annualPass: 
12.05.2016 10:39:24 +0200 10.0.32.247 Login req: {
            "languageId":"2",
            "transactionId": "1463042364526679564",
            "tenant":"1",
            "profileAttributeFlag":true,
            "externalIdList": {
                "externalIds": [
                    {
                    "externalId" : "220375008346783"
                    }
                ]
             }   
            }
12.05.2016 10:39:24 +0200 10.0.32.247 Login token: f2d5dc50f87d9de6cfb53d0b7d26438
12.05.2016 10:39:24 +0200 10.0.32.247 Login response: {"transactionId":"1463042364526679564","userRetrievedList":{"users":[{"id":528,"description":"220375008346783","parentBusinessUserId":2,"statusId":1,"roleTypeId":2,"defaultLanguageId":2,"userExternalIdList":{"externalIds":[{"externalId":"220375008346783","defaultFlag":1,"type":"socialID","statusId":1}]},"userAttributeList":{"attributeValues":[{"attributeId":9,"attributeName":"name","attributeValue":"Alex","languageId":2,"languageName":"en","statusId":1,"statusName":"active"},{"attributeId":10,"attributeName":"surname","attributeValue":"Dinca","languageId":2,"languageName":"en","statusId":1,"statusName":"active"},{"attributeId":14,"attributeName":"email","attributeValue":"alex08dinca@gmail.com","languageId":2,"languageName":"en","statusId":1,"statusName":"active"},{"attributeId":100004,"attributeName":"language","attributeValue":"en","languageId":2,"languageName":"en","statusId":1,"statusName":"active"}]}}]},"resultCode":"0"}
12.05.2016 10:39:24 +0200 10.0.32.247 Login status: 200
12.05.2016 10:53:00 +0200 10.0.32.247 TOKEN ricevuto, cache creata
12.05.2016 11:23:41 +0200 10.0.32.247 Login req: {
            "languageId":"2",
            "transactionId": "14630450211108443677",
            "tenant":"1",
            "profileAttributeFlag":true,
            "externalIdList": {
                "externalIds": [
                    {
                    "externalId" : "10208825936790447"
                    }
                ]
             }   
            }
12.05.2016 11:23:41 +0200 10.0.32.247 Login token: b98143e36febd59b0975e5754b8633f
12.05.2016 11:23:41 +0200 10.0.32.247 Login response: {"transactionId":"14630450211108443677","userRetrievedList":{"users":[{"id":401,"description":"10208825936790447","parentBusinessUserId":2,"statusId":1,"roleTypeId":2,"defaultLanguageId":2,"userExternalIdList":{"externalIds":[{"externalId":"10208825936790447","defaultFlag":1,"type":"socialID","statusId":1}]},"userAttributeList":{"attributeValues":[{"attributeId":9,"attributeName":"name","attributeValue":"La Federica","languageId":2,"languageName":"en","statusId":1,"statusName":"active"},{"attributeId":10,"attributeName":"surname","attributeValue":"Corinto","languageId":2,"languageName":"en","statusId":1,"statusName":"active"},{"attributeId":14,"attributeName":"email","attributeValue":"fede-corinto@hotmail.it","languageId":2,"languageName":"en","statusId":1,"statusName":"active"},{"attributeId":100003,"attributeName":"customerNumber","attributeValue":"CON-20160503-0031","languageId":2,"languageName":"en","statusId":1,"statusName":"active"},{"attributeId":100004,"attributeName":"language","attributeValue":"en","languageId":2,"languageName":"en","statusId":1,"statusName":"active"}]}}]},"resultCode":"0"}
12.05.2016 11:23:41 +0200 10.0.32.247 Login status: 200
12.05.2016 11:53:53 +0200 10.0.32.247 TOKEN ricevuto, cache creata
12.05.2016 11:59:18 +0200 10.0.32.247 Login req: {
            "languageId":"2",
            "transactionId": "14630471581599960024",
            "tenant":"1",
            "profileAttributeFlag":true,
            "externalIdList": {
                "externalIds": [
                    {
                    "externalId" : "sayedmustaqeem@gmail.com"
                    }
                ]
             }   
            }
12.05.2016 11:59:18 +0200 10.0.32.247 Login token: 11e3eb6ee215a7a64c538ac61ddf2e
12.05.2016 11:59:18 +0200 10.0.32.247 Login response: {"transactionId":"14630471581599960024","userRetrievedList":{"users":[{"id":532,"description":"sayedmustaqeem@gmail.com","parentBusinessUserId":2,"statusId":1,"roleTypeId":2,"defaultLanguageId":2,"userExternalIdList":{"externalIds":[{"externalId":"sayedmustaqeem@gmail.com","defaultFlag":1,"type":"email","statusId":1}]},"userAttributeList":{"attributeValues":[{"attributeId":9,"attributeName":"name","attributeValue":"MUSTAQEEM","languageId":2,"languageName":"en","statusId":1,"statusName":"active"},{"attributeId":10,"attributeName":"surname","attributeValue":"SAYED","languageId":2,"languageName":"en","statusId":1,"statusName":"active"},{"attributeId":14,"attributeName":"email","attributeValue":"sayedmustaqeem@gmail.com","languageId":2,"languageName":"en","statusId":1,"statusName":"active"},{"attributeId":100003,"attributeName":"customerNumber","attributeValue":"CON-20160512-0014","languageId":2,"languageName":"en","statusId":1,"statusName":"active"},{"attributeId":100004,"attributeName":"language","attributeValue":"EN","languageId":2,"languageName":"en","statusId":1,"statusName":"active"},{"attributeId":100020,"attributeName":"NL_DUBAI_PARK_AND_RESORT","attributeValue":"true","languageId":2,"languageName":"en","statusId":1,"statusName":"active"}]}}]},"resultCode":"0"}
12.05.2016 11:59:18 +0200 10.0.32.247 Login status: 200
12.05.2016 12:30:47 +0200 10.0.32.247 Login req: {
            "languageId":"2",
            "transactionId": "1463049047191524749",
            "tenant":"1",
            "profileAttributeFlag":true,
            "externalIdList": {
                "externalIds": [
                    {
                    "externalId" : "bana.yogesh@gmail.com"
                    }
                ]
             }   
            }
12.05.2016 12:30:47 +0200 10.0.32.247 Login token: 129cb8e27274ce2e8c9205bd712b6d4
12.05.2016 12:30:47 +0200 10.0.32.247 Login response: {"transactionId":"1463049047191524749","userRetrievedList":{"users":[{"id":531,"description":"bana.yogesh@gmail.com","parentBusinessUserId":2,"statusId":1,"roleTypeId":2,"defaultLanguageId":2,"userExternalIdList":{"externalIds":[{"externalId":"bana.yogesh@gmail.com","defaultFlag":1,"type":"email","statusId":1}]},"userAttributeList":{"attributeValues":[{"attributeId":9,"attributeName":"name","attributeValue":"Yogesh","languageId":2,"languageName":"en","statusId":1,"statusName":"active"},{"attributeId":10,"attributeName":"surname","attributeValue":"Bana","languageId":2,"languageName":"en","statusId":1,"statusName":"active"},{"attributeId":14,"attributeName":"email","attributeValue":"bana.yogesh@gmail.com","languageId":2,"languageName":"en","statusId":1,"statusName":"active"},{"attributeId":100003,"attributeName":"customerNumber","attributeValue":"CON-20160512-0013","languageId":2,"languageName":"en","statusId":1,"statusName":"active"},{"attributeId":100004,"attributeName":"language","attributeValue":"EN","languageId":2,"languageName":"en","statusId":1,"statusName":"active"},{"attributeId":100020,"attributeName":"NL_DUBAI_PARK_AND_RESORT","attributeValue":"true","languageId":2,"languageName":"en","statusId":1,"statusName":"active"}]}}]},"resultCode":"0"}
12.05.2016 12:30:47 +0200 10.0.32.247 Login status: 200
12.05.2016 12:56:20 +0200 10.0.32.247 TOKEN ricevuto, cache creata
12.05.2016 13:01:33 +0200 10.0.32.247 Login req: {
            "languageId":"2",
            "transactionId": "14630508931680429084",
            "tenant":"1",
            "profileAttributeFlag":true,
            "externalIdList": {
                "externalIds": [
                    {
                    "externalId" : "1601525203497375"
                    }
                ]
             }   
            }
12.05.2016 13:01:33 +0200 10.0.32.247 Login token: d9f3d5bbb7c2d84e27254c419269
12.05.2016 13:01:33 +0200 10.0.32.247 Login response: {"transactionId":"14630508931680429084","userRetrievedList":{"users":[{"id":533,"description":"1601525203497375","parentBusinessUserId":2,"statusId":1,"roleTypeId":2,"defaultLanguageId":2,"userExternalIdList":{"externalIds":[{"externalId":"1601525203497375","defaultFlag":1,"type":"socialID","statusId":1}]},"userAttributeList":{"attributeValues":[{"attributeId":9,"attributeName":"name","attributeValue":"Kae","languageId":2,"languageName":"en","statusId":1,"statusName":"active"},{"attributeId":10,"attributeName":"surname","attributeValue":"Nolasco Camu","languageId":2,"languageName":"en","statusId":1,"statusName":"active"},{"attributeId":14,"attributeName":"email","attributeValue":"kaecamu@gmail.com","languageId":2,"languageName":"en","statusId":1,"statusName":"active"},{"attributeId":100004,"attributeName":"language","attributeValue":"en","languageId":2,"languageName":"en","statusId":1,"statusName":"active"}]}}]},"resultCode":"0"}
12.05.2016 13:01:33 +0200 10.0.32.247 Login status: 200
12.05.2016 14:00:22 +0200 10.0.32.247 TOKEN ricevuto, cache creata
12.05.2016 14:04:23 +0200 10.0.32.247 Login req: {
            "languageId":"2",
            "transactionId": "1463054663355568825",
            "tenant":"1",
            "profileAttributeFlag":true,
            "externalIdList": {
                "externalIds": [
                    {
                    "externalId" : "Lkbags2000@yahoo.com"
                    }
                ]
             }   
            }
12.05.2016 14:04:23 +0200 10.0.32.247 Login token: 6df9e7bcd78d59c325e37f77c6ea8086
12.05.2016 14:04:23 +0200 10.0.32.247 Login response: {"transactionId":"1463054663355568825","userRetrievedList":{"users":[{"id":534,"description":"lkbags2000@yahoo.com","parentBusinessUserId":2,"statusId":1,"roleTypeId":2,"defaultLanguageId":2,"userExternalIdList":{"externalIds":[{"externalId":"lkbags2000@yahoo.com","defaultFlag":1,"type":"email","statusId":1}]},"userAttributeList":{"attributeValues":[{"attributeId":9,"attributeName":"name","attributeValue":"Kaye","languageId":2,"languageName":"en","statusId":1,"statusName":"active"},{"attributeId":10,"attributeName":"surname","attributeValue":"Bags","languageId":2,"languageName":"en","statusId":1,"statusName":"active"},{"attributeId":14,"attributeName":"email","attributeValue":"lkbags2000@yahoo.com","languageId":2,"languageName":"en","statusId":1,"statusName":"active"},{"attributeId":100003,"attributeName":"customerNumber","attributeValue":"CON-20160512-0016","languageId":2,"languageName":"en","statusId":1,"statusName":"active"},{"attributeId":100004,"attributeName":"language","attributeValue":"EN","languageId":2,"languageName":"en","statusId":1,"statusName":"active"},{"attributeId":100020,"attributeName":"NL_DUBAI_PARK_AND_RESORT","attributeValue":"true","languageId":2,"languageName":"en","statusId":1,"statusName":"active"}]}}]},"resultCode":"0"}
12.05.2016 14:04:23 +0200 10.0.32.247 Login status: 200
12.05.2016 14:14:30 +0200 10.0.32.247 Login req: {
            "languageId":"2",
            "transactionId": "1463055270507155624",
            "tenant":"1",
            "profileAttributeFlag":true,
            "externalIdList": {
                "externalIds": [
                    {
                    "externalId" : "1176278109073592"
                    }
                ]
             }   
            }
12.05.2016 14:14:30 +0200 10.0.32.247 Login token: dc33cb2a47ede66fbc062284fc930ed
12.05.2016 14:14:30 +0200 10.0.32.247 Login response: {"transactionId":"1463055270507155624","userRetrievedList":{"users":[{"id":535,"description":"1176278109073592","parentBusinessUserId":2,"statusId":2,"roleTypeId":2,"defaultLanguageId":2,"userExternalIdList":{"externalIds":[{"externalId":"1176278109073592","defaultFlag":1,"type":"socialID","statusId":2}]},"userAttributeList":{"attributeValues":[{"attributeId":9,"attributeName":"name","attributeValue":"MT","languageId":2,"languageName":"en","statusId":1,"statusName":"active"},{"attributeId":10,"attributeName":"surname","attributeValue":"M Maravilla","languageId":2,"languageName":"en","statusId":1,"statusName":"active"},{"attributeId":14,"attributeName":"email","attributeValue":"tmagsico2005@yahoo.com.ph","languageId":2,"languageName":"en","statusId":1,"statusName":"active"},{"attributeId":100004,"attributeName":"language","attributeValue":"en","languageId":2,"languageName":"en","statusId":1,"statusName":"active"}]}}]},"resultCode":"0"}
12.05.2016 14:14:30 +0200 10.0.32.247 Login status: 200
12.05.2016 14:32:45 +0200 10.0.32.247 Login req: {
            "languageId":"2",
            "transactionId": "1463056365644899604",
            "tenant":"1",
            "profileAttributeFlag":true,
            "externalIdList": {
                "externalIds": [
                    {
                    "externalId" : "1117557634933409"
                    }
                ]
             }   
            }
12.05.2016 14:32:45 +0200 10.0.32.247 Login token: 2117706ced179fe63d3efe9443eac67
12.05.2016 14:32:45 +0200 10.0.32.247 Login response: {"transactionId":"1463056365644899604","userRetrievedList":{"users":[{"id":536,"description":"1117557634933409","parentBusinessUserId":2,"statusId":1,"roleTypeId":2,"defaultLanguageId":2,"userExternalIdList":{"externalIds":[{"externalId":"1117557634933409","defaultFlag":1,"type":"socialID","statusId":1}]},"userAttributeList":{"attributeValues":[{"attributeId":9,"attributeName":"name","attributeValue":"Jerrymiah","languageId":2,"languageName":"en","statusId":1,"statusName":"active"},{"attributeId":10,"attributeName":"surname","attributeValue":"Evangelista","languageId":2,"languageName":"en","statusId":1,"statusName":"active"},{"attributeId":14,"attributeName":"email","attributeValue":"willardcohen0wipb@outlook.com","languageId":2,"languageName":"en","statusId":1,"statusName":"active"},{"attributeId":100004,"attributeName":"language","attributeValue":"en","languageId":2,"languageName":"en","statusId":1,"statusName":"active"}]}}]},"resultCode":"0"}
12.05.2016 14:32:45 +0200 10.0.32.247 Login status: 200
12.05.2016 14:55:26 +0200 10.0.32.247 Login req: {
            "languageId":"2",
            "transactionId": "1463057726360374690",
            "tenant":"1",
            "profileAttributeFlag":true,
            "externalIdList": {
                "externalIds": [
                    {
                    "externalId" : "vbe@gmas.wa.edu.au"
                    }
                ]
             }   
            }
12.05.2016 14:55:26 +0200 10.0.32.247 Login token: f4fabd4e5f22c817556945e571dbec5f
12.05.2016 14:55:26 +0200 10.0.32.247 Login response: {"transactionId":"1463057726360374690","userRetrievedList":{"users":[{"id":537,"description":"vbe@gmas.wa.edu.au","parentBusinessUserId":2,"statusId":1,"roleTypeId":2,"defaultLanguageId":2,"userExternalIdList":{"externalIds":[{"externalId":"vbe@gmas.wa.edu.au","defaultFlag":1,"type":"email","statusId":1}]},"userAttributeList":{"attributeValues":[{"attributeId":9,"attributeName":"name","attributeValue":"Val","languageId":2,"languageName":"en","statusId":1,"statusName":"active"},{"attributeId":10,"attributeName":"surname","attributeValue":"Best","languageId":2,"languageName":"en","statusId":1,"statusName":"active"},{"attributeId":14,"attributeName":"email","attributeValue":"vbe@gmas.wa.edu.au","languageId":2,"languageName":"en","statusId":1,"statusName":"active"},{"attributeId":100003,"attributeName":"customerNumber","attributeValue":"CON-20160512-0020","languageId":2,"languageName":"en","statusId":1,"statusName":"active"},{"attributeId":100004,"attributeName":"language","attributeValue":"EN","languageId":2,"languageName":"en","statusId":1,"statusName":"active"},{"attributeId":100020,"attributeName":"NL_DUBAI_PARK_AND_RESORT","attributeValue":"true","languageId":2,"languageName":"en","statusId":1,"statusName":"active"}]}}]},"resultCode":"0"}
12.05.2016 14:55:26 +0200 10.0.32.247 Login status: 200
12.05.2016 15:00:44 +0200 10.0.32.247 TOKEN ricevuto, cache creata
12.05.2016 15:24:12 +0200 10.0.32.247 Login req: {
            "languageId":"2",
            "transactionId": "1463059452674361848",
            "tenant":"1",
            "profileAttributeFlag":true,
            "externalIdList": {
                "externalIds": [
                    {
                    "externalId" : "10156956421585352"
                    }
                ]
             }   
            }
12.05.2016 15:24:12 +0200 10.0.32.247 Login token: 956211754fde8e7e61878ec17b14ff5a
12.05.2016 15:24:12 +0200 10.0.32.247 Login response: {"transactionId":"1463059452674361848","userRetrievedList":{"users":[{"id":539,"description":"10156956421585352","parentBusinessUserId":2,"statusId":1,"roleTypeId":2,"defaultLanguageId":2,"userExternalIdList":{"externalIds":[{"externalId":"10156956421585352","defaultFlag":1,"type":"socialID","statusId":1}]},"userAttributeList":{"attributeValues":[{"attributeId":9,"attributeName":"name","attributeValue":"Amr","languageId":2,"languageName":"en","statusId":1,"statusName":"active"},{"attributeId":10,"attributeName":"surname","attributeValue":"Helal","languageId":2,"languageName":"en","statusId":1,"statusName":"active"},{"attributeId":14,"attributeName":"email","attributeValue":"ouchka_paris_14@hotmail.com","languageId":2,"languageName":"en","statusId":1,"statusName":"active"},{"attributeId":100004,"attributeName":"language","attributeValue":"en","languageId":2,"languageName":"en","statusId":1,"statusName":"active"}]}}]},"resultCode":"0"}
12.05.2016 15:24:12 +0200 10.0.32.247 Login status: 200
12.05.2016 15:48:14 +0200 10.0.32.247 Login req: {
            "languageId":"2",
            "transactionId": "1463060894760917622",
            "tenant":"1",
            "profileAttributeFlag":true,
            "externalIdList": {
                "externalIds": [
                    {
                    "externalId" : "1134188396620936"
                    }
                ]
             }   
            }
12.05.2016 15:48:14 +0200 10.0.32.247 Login token: d87c92ff953817cac64e9858935633
12.05.2016 15:48:14 +0200 10.0.32.247 Login response: {"transactionId":"1463060894760917622","userRetrievedList":{"users":[{"id":540,"description":"1134188396620936","parentBusinessUserId":2,"statusId":1,"roleTypeId":2,"defaultLanguageId":2,"userExternalIdList":{"externalIds":[{"externalId":"1134188396620936","defaultFlag":1,"type":"socialID","statusId":1}]},"userAttributeList":{"attributeValues":[{"attributeId":9,"attributeName":"name","attributeValue":"Zhel","languageId":2,"languageName":"en","statusId":1,"statusName":"active"},{"attributeId":10,"attributeName":"surname","attributeValue":"Harata-Simbulan","languageId":2,"languageName":"en","statusId":1,"statusName":"active"},{"attributeId":14,"attributeName":"email","attributeValue":"zhelharata@yahoo.com","languageId":2,"languageName":"en","statusId":1,"statusName":"active"},{"attributeId":100004,"attributeName":"language","attributeValue":"en","languageId":2,"languageName":"en","statusId":1,"statusName":"active"}]}}]},"resultCode":"0"}
12.05.2016 15:48:14 +0200 10.0.32.247 Login status: 200
12.05.2016 16:03:18 +0200 10.0.32.247 TOKEN ricevuto, cache creata
12.05.2016 17:03:22 +0200 10.0.32.247 TOKEN ricevuto, cache creata
12.05.2016 18:03:33 +0200 10.0.32.247 TOKEN ricevuto, cache creata
12.05.2016 18:38:33 +0200 10.0.32.247 Login req: {
            "languageId":"2",
            "transactionId": "1463071113327785664",
            "tenant":"1",
            "profileAttributeFlag":true,
            "externalIdList": {
                "externalIds": [
                    {
                    "externalId" : "10154203492713413"
                    }
                ]
             }   
            }
12.05.2016 18:38:33 +0200 10.0.32.247 Login token: 65ea2a538997b15affcc753c6c81d7
12.05.2016 18:38:33 +0200 10.0.32.247 Login response: {"transactionId":"1463071113327785664","userRetrievedList":{"users":[{"id":283,"description":"10154203492713413","parentBusinessUserId":2,"statusId":1,"roleTypeId":2,"defaultLanguageId":2,"userExternalIdList":{"externalIds":[{"externalId":"10154203492713413","defaultFlag":1,"type":"socialID","statusId":1}]},"userAttributeList":{"attributeValues":[{"attributeId":5,"attributeName":"country","attributeValue":"United Arab Emirates","languageId":2,"languageName":"en","statusId":1,"statusName":"active"},{"attributeId":9,"attributeName":"name","attributeValue":"Yburann","languageId":2,"languageName":"en","statusId":1,"statusName":"active"},{"attributeId":10,"attributeName":"surname","attributeValue":"Azodnem","languageId":2,"languageName":"en","statusId":1,"statusName":"active"},{"attributeId":14,"attributeName":"email","attributeValue":"rubyannsmendoza@gmail.com","languageId":2,"languageName":"en","statusId":1,"statusName":"active"},{"attributeId":49,"attributeName":"city","attributeValue":"Abudhabi","languageId":2,"languageName":"en","statusId":1,"statusName":"active"},{"attributeId":50,"attributeName":"zipCode","attributeValue":"4115","languageId":2,"languageName":"en","statusId":1,"statusName":"active"},{"attributeId":108,"attributeName":"address","attributeValue":"Banyas East","languageId":2,"languageName":"en","statusId":1,"statusName":"active"},{"attributeId":100001,"attributeName":"msisdn","attributeValue":"+971-559653861","languageId":2,"languageName":"en","statusId":1,"statusName":"active"},{"attributeId":100002,"attributeName":"birthday","attributeValue":"06\/28\/1987","languageId":2,"languageName":"en","statusId":1,"statusName":"active"},{"attributeId":100003,"attributeName":"customerNumber","attributeValue":"CON-20160428-0001","languageId":2,"languageName":"en","statusId":1,"statusName":"active"},{"attributeId":100004,"attributeName":"language","attributeValue":"EN","languageId":2,"languageName":"en","statusId":1,"statusName":"active"},{"attributeId":100013,"attributeName":"NL_LEGOLAND","attributeValue":"true","languageId":2,"languageName":"en","statusId":1,"statusName":"active"},{"attributeId":100014,"attributeName":"NL_RIVERLAND","attributeValue":"true","languageId":2,"languageName":"en","statusId":1,"statusName":"active"},{"attributeId":100017,"attributeName":"mascotteID","attributeValue":"mascotte4_b.fw","languageId":2,"languageName":"en","statusId":1,"statusName":"active"},{"attributeId":100018,"attributeName":"NL_BOLLIWOOD_PARK","attributeValue":"true","languageId":2,"languageName":"en","statusId":1,"statusName":"active"},{"attributeId":100019,"attributeName":"NL_MOTIONGATE","attributeValue":"true","languageId":2,"languageName":"en","statusId":1,"statusName":"active"},{"attributeId":100020,"attributeName":"NL_DUBAI_PARK_AND_RESORT","attributeValue":"true","languageId":2,"languageName":"en","statusId":1,"statusName":"active"}]}}]},"resultCode":"0"}
12.05.2016 18:38:33 +0200 10.0.32.247 Login status: 200
12.05.2016 19:05:16 +0200 10.0.32.247 TOKEN ricevuto, cache creata
12.05.2016 19:05:56 +0200 10.0.32.247 Login req: {
            "languageId":"2",
            "transactionId": "1463072756653029942",
            "tenant":"1",
            "profileAttributeFlag":true,
            "externalIdList": {
                "externalIds": [
                    {
                    "externalId" : "10209350729829801"
                    }
                ]
             }   
            }
12.05.2016 19:05:56 +0200 10.0.32.247 Login token: ddb13ddd9d75e38427bd912babbf0
12.05.2016 19:05:56 +0200 10.0.32.247 Login response: {"transactionId":"1463072756653029942","userRetrievedList":{"users":[{"id":543,"description":"10209350729829801","parentBusinessUserId":2,"statusId":1,"roleTypeId":2,"defaultLanguageId":2,"userExternalIdList":{"externalIds":[{"externalId":"10209350729829801","defaultFlag":1,"type":"socialID","statusId":1}]},"userAttributeList":{"attributeValues":[{"attributeId":9,"attributeName":"name","attributeValue":"Ken","languageId":2,"languageName":"en","statusId":1,"statusName":"active"},{"attributeId":10,"attributeName":"surname","attributeValue":"Shakespeare","languageId":2,"languageName":"en","statusId":1,"statusName":"active"},{"attributeId":14,"attributeName":"email","attributeValue":"kenexque06@yahoo.com","languageId":2,"languageName":"en","statusId":1,"statusName":"active"},{"attributeId":100004,"attributeName":"language","attributeValue":"en","languageId":2,"languageName":"en","statusId":1,"statusName":"active"}]}}]},"resultCode":"0"}
12.05.2016 19:05:56 +0200 10.0.32.247 Login status: 200
12.05.2016 20:08:34 +0200 10.0.32.247 TOKEN ricevuto, cache creata
12.05.2016 21:13:09 +0200 10.0.32.247 TOKEN ricevuto, cache creata
12.05.2016 21:31:20 +0200 10.0.32.247 Login req: {
            "languageId":"2",
            "transactionId": "1463081480157633980",
            "tenant":"1",
            "profileAttributeFlag":true,
            "externalIdList": {
                "externalIds": [
                    {
                    "externalId" : "10205419791445864"
                    }
                ]
             }   
            }
12.05.2016 21:31:20 +0200 10.0.32.247 Login token: 364611ea7ff0dcb2735bf8349ea3c64f
12.05.2016 21:31:20 +0200 10.0.32.247 Login response: {"transactionId":"1463081480157633980","userRetrievedList":{"users":[{"id":544,"description":"10205419791445864","parentBusinessUserId":2,"statusId":1,"roleTypeId":2,"defaultLanguageId":2,"userExternalIdList":{"externalIds":[{"externalId":"10205419791445864","defaultFlag":1,"type":"socialID","statusId":1}]},"userAttributeList":{"attributeValues":[{"attributeId":9,"attributeName":"name","attributeValue":"Padma","languageId":2,"languageName":"en","statusId":1,"statusName":"active"},{"attributeId":10,"attributeName":"surname","attributeValue":"Ayina","languageId":2,"languageName":"en","statusId":1,"statusName":"active"},{"attributeId":14,"attributeName":"email","attributeValue":"a_rekha2001@yahoo.com","languageId":2,"languageName":"en","statusId":1,"statusName":"active"},{"attributeId":100004,"attributeName":"language","attributeValue":"en","languageId":2,"languageName":"en","statusId":1,"statusName":"active"}]}}]},"resultCode":"0"}
12.05.2016 21:31:20 +0200 10.0.32.247 Login status: 200
12.05.2016 22:13:26 +0200 10.0.32.247 TOKEN ricevuto, cache creata
12.05.2016 23:16:16 +0200 10.0.32.247 TOKEN ricevuto, cache creata