
29.03.2016 5:49:37 +0000 10.0.11.73 TOKEN ricevuto, cache creata
29.03.2016 9:10:18 +0200 10.0.11.73 TOKEN ricevuto, cache creata
29.03.2016 9:13:22 +0200 10.0.11.73 Login req: {
            "languageId":"2",
            "transactionId": "14592356021725855397",
            "tenant":"1",
            "profileAttributeFlag":true,
            "externalIdList": {
                "externalIds": [
                    {
                    "externalId" : "danielrad@sharklasers.com"
                    }
                ]
             }   
            }
29.03.2016 9:13:22 +0200 10.0.11.73 Login response: {"transactionId":"14592356021725855397","userRetrievedList":{"users":[{"id":234,"description":"danielrad@sharklasers.com","parentBusinessUserId":2,"statusId":1,"roleTypeId":2,"defaultLanguageId":2,"userExternalIdList":{"externalIds":[{"externalId":"danielrad@sharklasers.com","defaultFlag":1,"type":"email","statusId":1}]},"userAttributeList":{"attributeValues":[{"attributeId":5,"attributeName":"country","attributeValue":"United Arab Emirates","languageId":2,"languageName":"en","statusId":1,"statusName":"active"},{"attributeId":9,"attributeName":"name","attributeValue":"daniel","languageId":2,"languageName":"en","statusId":1,"statusName":"active"},{"attributeId":10,"attributeName":"surname","attributeValue":"rad","languageId":2,"languageName":"en","statusId":1,"statusName":"active"},{"attributeId":14,"attributeName":"email","attributeValue":"danielrad@sharklasers.com","languageId":2,"languageName":"en","statusId":1,"statusName":"active"},{"attributeId":49,"attributeName":"city","attributeValue":"Dubai","languageId":2,"languageName":"en","statusId":1,"statusName":"active"},{"attributeId":50,"attributeName":"zipCode","attributeValue":"1234","languageId":2,"languageName":"en","statusId":1,"statusName":"active"},{"attributeId":108,"attributeName":"address","attributeValue":"19th St","languageId":2,"languageName":"en","statusId":1,"statusName":"active"},{"attributeId":100001,"attributeName":"msisdn","attributeValue":"+971-51298768","languageId":2,"languageName":"en","statusId":1,"statusName":"active"},{"attributeId":100002,"attributeName":"birthday","attributeValue":"03\/01\/1991","languageId":2,"languageName":"en","statusId":1,"statusName":"active"},{"attributeId":100003,"attributeName":"customerNumber","attributeValue":"CON-20160326-0007","languageId":2,"languageName":"en","statusId":1,"statusName":"active"},{"attributeId":100004,"attributeName":"language","attributeValue":"EN","languageId":2,"languageName":"en","statusId":1,"statusName":"active"}]}}]},"resultCode":"0"}
29.03.2016 9:13:22 +0200 10.0.11.73 Login status: 200
29.03.2016 9:41:26 +0200 10.0.11.73 Login req: {
            "languageId":"2",
            "transactionId": "14592372862080613670",
            "tenant":"1",
            "profileAttributeFlag":true,
            "externalIdList": {
                "externalIds": [
                    {
                    "externalId" : "sheo.hamilton@sharklasers.com"
                    }
                ]
             }   
            }
29.03.2016 9:41:27 +0200 10.0.11.73 Login response: {"transactionId":"14592372862080613670","userRetrievedList":{"users":[{"id":287,"description":"sheo.hamilton@sharklasers.com","parentBusinessUserId":2,"statusId":1,"roleTypeId":2,"defaultLanguageId":2,"userExternalIdList":{"externalIds":[{"externalId":"sheo.hamilton@sharklasers.com","defaultFlag":1,"type":"email","statusId":1}]},"userAttributeList":{"attributeValues":[{"attributeId":9,"attributeName":"name","attributeValue":"Sheo","languageId":2,"languageName":"en","statusId":1,"statusName":"active"},{"attributeId":10,"attributeName":"surname","attributeValue":"Hamilton","languageId":2,"languageName":"en","statusId":1,"statusName":"active"},{"attributeId":14,"attributeName":"email","attributeValue":"sheo.hamilton@sharklasers.com","languageId":2,"languageName":"en","statusId":1,"statusName":"active"},{"attributeId":100001,"attributeName":"msisdn","attributeValue":"+971-51023456","languageId":2,"languageName":"en","statusId":1,"statusName":"active"},{"attributeId":100003,"attributeName":"customerNumber","attributeValue":"CON-20160329-0006","languageId":2,"languageName":"en","statusId":1,"statusName":"active"},{"attributeId":100004,"attributeName":"language","attributeValue":"EN","languageId":2,"languageName":"en","statusId":1,"statusName":"active"},{"attributeId":100010,"attributeName":"NL_DUBAI_PARK_AND_RESORT","attributeValue":"False","languageId":2,"languageName":"en","statusId":1,"statusName":"active"},{"attributeId":100011,"attributeName":"NL_MOTIONGATE","attributeValue":"False","languageId":2,"languageName":"en","statusId":1,"statusName":"active"},{"attributeId":100012,"attributeName":"NL_BOLLIWOOD_PARK","attributeValue":"False","languageId":2,"languageName":"en","statusId":1,"statusName":"active"},{"attributeId":100019,"attributeName":"NL_GENERAL_COMMUNICATION","attributeValue":"False","languageId":2,"languageName":"en","statusId":1,"statusName":"active"},{"attributeId":100021,"attributeName":"NL_LEGOLAND","attributeValue":"False","languageId":2,"languageName":"en","statusId":1,"statusName":"active"},{"attributeId":100022,"attributeName":"NL_RIVERLAND","attributeValue":"False","languageId":2,"languageName":"en","statusId":1,"statusName":"active"}]}}]},"resultCode":"0"}
29.03.2016 9:41:27 +0200 10.0.11.73 Login status: 200
29.03.2016 10:05:33 +0200 10.0.11.73 Login req: {
            "languageId":"2",
            "transactionId": "14592387331777706159",
            "tenant":"1",
            "profileAttributeFlag":true,
            "externalIdList": {
                "externalIds": [
                    {
                    "externalId" : "aymane.jabrane@accenture.com"
                    }
                ]
             }   
            }
29.03.2016 10:05:34 +0200 10.0.11.73 Login response: {"transactionId":"14592387331777706159","userRetrievedList":{"users":[{"id":72,"description":"aymane.jabrane@accenture.com","parentBusinessUserId":2,"statusId":1,"roleTypeId":2,"defaultLanguageId":2,"userExternalIdList":{"externalIds":[{"externalId":"aymane.jabrane@accenture.com","defaultFlag":1,"type":"email","statusId":1}]},"userAttributeList":{"attributeValues":[{"attributeId":5,"attributeName":"country","attributeValue":"United Arab Emirates","languageId":2,"languageName":"en","statusId":1,"statusName":"active"},{"attributeId":9,"attributeName":"name","attributeValue":"????","languageId":2,"languageName":"en","statusId":1,"statusName":"active"},{"attributeId":10,"attributeName":"surname","attributeValue":"Jabrane","languageId":2,"languageName":"en","statusId":1,"statusName":"active"},{"attributeId":14,"attributeName":"email","attributeValue":"aymane.jabrane@accenture.com","languageId":2,"languageName":"en","statusId":1,"statusName":"active"},{"attributeId":49,"attributeName":"city","attributeValue":"LKSJDKLSDN","languageId":2,"languageName":"en","statusId":1,"statusName":"active"},{"attributeId":50,"attributeName":"zipCode","attributeValue":"435435","languageId":2,"languageName":"en","statusId":1,"statusName":"active"},{"attributeId":108,"attributeName":"address","attributeValue":"FKLDJSFLK","languageId":2,"languageName":"en","statusId":1,"statusName":"active"},{"attributeId":100001,"attributeName":"msisdn","attributeValue":"+971-564016903","languageId":2,"languageName":"en","statusId":1,"statusName":"active"},{"attributeId":100002,"attributeName":"birthday","attributeValue":"06\/19\/1901","languageId":2,"languageName":"en","statusId":1,"statusName":"active"},{"attributeId":100003,"attributeName":"customerNumber","attributeValue":"CON-20160316-0012","languageId":2,"languageName":"en","statusId":1,"statusName":"active"},{"attributeId":100004,"attributeName":"language","attributeValue":"EN","languageId":2,"languageName":"en","statusId":1,"statusName":"active"},{"attributeId":100010,"attributeName":"NL_DUBAI_PARK_AND_RESORT","attributeValue":"true","languageId":2,"languageName":"en","statusId":1,"statusName":"active"},{"attributeId":100011,"attributeName":"NL_MOTIONGATE","attributeValue":"false","languageId":2,"languageName":"en","statusId":1,"statusName":"active"},{"attributeId":100012,"attributeName":"NL_BOLLIWOOD_PARK","attributeValue":"true","languageId":2,"languageName":"en","statusId":1,"statusName":"active"},{"attributeId":100019,"attributeName":"NL_GENERAL_COMMUNICATION","attributeValue":"true","languageId":2,"languageName":"en","statusId":1,"statusName":"active"},{"attributeId":100021,"attributeName":"NL_LEGOLAND","attributeValue":"true","languageId":2,"languageName":"en","statusId":1,"statusName":"active"},{"attributeId":100022,"attributeName":"NL_RIVERLAND","attributeValue":"true","languageId":2,"languageName":"en","statusId":1,"statusName":"active"},{"attributeId":100023,"attributeName":"mascotteID","attributeValue":"mascotte1_b.fw","languageId":2,"languageName":"en","statusId":1,"statusName":"active"}]}}]},"resultCode":"0"}
29.03.2016 10:05:34 +0200 10.0.11.73 Login status: 200
29.03.2016 10:23:29 +0200 10.0.11.73 Login req: {
            "languageId":"2",
            "transactionId": "1459239809869279989",
            "tenant":"1",
            "profileAttributeFlag":true,
            "externalIdList": {
                "externalIds": [
                    {
                    "externalId" : "Kim.sarreal@mailnesia.com"
                    }
                ]
             }   
            }
29.03.2016 10:23:29 +0200 10.0.11.73 Login response: {"transactionId":"1459239809869279989","userRetrievedList":{"users":[{"id":218,"description":"kim.sarreal@mailnesia.com","parentBusinessUserId":2,"statusId":1,"roleTypeId":2,"defaultLanguageId":2,"userExternalIdList":{"externalIds":[{"externalId":"kim.sarreal@mailnesia.com","defaultFlag":1,"type":"email","statusId":1}]},"userAttributeList":{"attributeValues":[{"attributeId":9,"attributeName":"name","attributeValue":"Kim","languageId":2,"languageName":"en","statusId":1,"statusName":"active"},{"attributeId":10,"attributeName":"surname","attributeValue":"Sarreal","languageId":2,"languageName":"en","statusId":1,"statusName":"active"},{"attributeId":14,"attributeName":"email","attributeValue":"kim.sarreal@mailnesia.com","languageId":2,"languageName":"en","statusId":1,"statusName":"active"},{"attributeId":100001,"attributeName":"msisdn","attributeValue":"+63-789456123","languageId":2,"languageName":"en","statusId":1,"statusName":"active"},{"attributeId":100003,"attributeName":"customerNumber","attributeValue":"CON-20160325-0060","languageId":2,"languageName":"en","statusId":1,"statusName":"active"},{"attributeId":100004,"attributeName":"language","attributeValue":"en","languageId":2,"languageName":"en","statusId":1,"statusName":"active"}]}}]},"resultCode":"0"}
29.03.2016 10:23:29 +0200 10.0.11.73 Login status: 200
29.03.2016 10:24:58 +0200 10.0.11.73 TOKEN ricevuto, cache creata
29.03.2016 11:22:38 +0200 10.0.11.73 TOKEN expired => RENEWING. Server response =>401
29.03.2016 11:22:38 +0200 10.0.11.73 RENEWING token
29.03.2016 11:22:38 +0200 10.0.11.73 RENEW TOKEN RESULT =>200 || a3ae322af6a3b5be7f199f7c3efe633f
29.03.2016 11:22:39 +0200 10.0.11.73 error in acapiaccess_getProducts_annualPass: 
29.03.2016 14:14:53 +0200 10.0.11.73 TOKEN ricevuto, cache creata
29.03.2016 14:33:22 +0200 10.0.11.73 Login req: {
            "languageId":"2",
            "transactionId": "1459254802130526389",
            "tenant":"1",
            "profileAttributeFlag":true,
            "externalIdList": {
                "externalIds": [
                    {
                    "externalId" : "meangirls@mailnesia.com"
                    }
                ]
             }   
            }
29.03.2016 14:33:22 +0200 10.0.11.73 Login response: {"transactionId":"1459254802130526389","userRetrievedList":{"users":[{"id":291,"description":"meangirls@mailnesia.com","parentBusinessUserId":2,"statusId":1,"roleTypeId":2,"defaultLanguageId":2,"userExternalIdList":{"externalIds":[{"externalId":"meangirls@mailnesia.com","defaultFlag":1,"type":"email","statusId":1}]},"userAttributeList":{"attributeValues":[{"attributeId":9,"attributeName":"name","attributeValue":"Regina","languageId":2,"languageName":"en","statusId":1,"statusName":"active"},{"attributeId":10,"attributeName":"surname","attributeValue":"George","languageId":2,"languageName":"en","statusId":1,"statusName":"active"},{"attributeId":14,"attributeName":"email","attributeValue":"meangirls@mailnesia.com","languageId":2,"languageName":"en","statusId":1,"statusName":"active"},{"attributeId":100003,"attributeName":"customerNumber","attributeValue":"CON-20160329-0033","languageId":2,"languageName":"en","statusId":1,"statusName":"active"},{"attributeId":100004,"attributeName":"language","attributeValue":"EN","languageId":2,"languageName":"en","statusId":1,"statusName":"active"}]}}]},"resultCode":"0"}
29.03.2016 14:33:22 +0200 10.0.11.73 Login status: 200
29.03.2016 14:45:56 +0200 10.0.11.73 Login req: {
            "languageId":"2",
            "transactionId": "1459255556480968447",
            "tenant":"1",
            "profileAttributeFlag":true,
            "externalIdList": {
                "externalIds": [
                    {
                    "externalId" : "danielrad@sharklasers.com"
                    }
                ]
             }   
            }
29.03.2016 14:45:56 +0200 10.0.11.73 Login response: {"transactionId":"1459255556480968447","userRetrievedList":{"users":[{"id":234,"description":"danielrad@sharklasers.com","parentBusinessUserId":2,"statusId":1,"roleTypeId":2,"defaultLanguageId":2,"userExternalIdList":{"externalIds":[{"externalId":"danielrad@sharklasers.com","defaultFlag":1,"type":"email","statusId":1}]},"userAttributeList":{"attributeValues":[{"attributeId":5,"attributeName":"country","attributeValue":"United Arab Emirates","languageId":2,"languageName":"en","statusId":1,"statusName":"active"},{"attributeId":9,"attributeName":"name","attributeValue":"daniel","languageId":2,"languageName":"en","statusId":1,"statusName":"active"},{"attributeId":10,"attributeName":"surname","attributeValue":"rad","languageId":2,"languageName":"en","statusId":1,"statusName":"active"},{"attributeId":14,"attributeName":"email","attributeValue":"danielrad@sharklasers.com","languageId":2,"languageName":"en","statusId":1,"statusName":"active"},{"attributeId":49,"attributeName":"city","attributeValue":"Dubai","languageId":2,"languageName":"en","statusId":1,"statusName":"active"},{"attributeId":50,"attributeName":"zipCode","attributeValue":"1234","languageId":2,"languageName":"en","statusId":1,"statusName":"active"},{"attributeId":108,"attributeName":"address","attributeValue":"19th St","languageId":2,"languageName":"en","statusId":1,"statusName":"active"},{"attributeId":100001,"attributeName":"msisdn","attributeValue":"+971-51298768","languageId":2,"languageName":"en","statusId":1,"statusName":"active"},{"attributeId":100002,"attributeName":"birthday","attributeValue":"03\/01\/1991","languageId":2,"languageName":"en","statusId":1,"statusName":"active"},{"attributeId":100003,"attributeName":"customerNumber","attributeValue":"CON-20160326-0007","languageId":2,"languageName":"en","statusId":1,"statusName":"active"},{"attributeId":100004,"attributeName":"language","attributeValue":"EN","languageId":2,"languageName":"en","statusId":1,"statusName":"active"}]}}]},"resultCode":"0"}
29.03.2016 14:45:56 +0200 10.0.11.73 Login status: 200
29.03.2016 15:24:42 +0200 10.0.11.73 ERROR! - TOKEN NON ricevuto, redirect to error page, API status=0
29.03.2016 16:21:26 +0200 10.0.11.73 Login req: {
            "languageId":"2",
            "transactionId": "14592612861516058557",
            "tenant":"1",
            "profileAttributeFlag":true,
            "externalIdList": {
                "externalIds": [
                    {
                    "externalId" : "danielrad@sharklasers.com"
                    }
                ]
             }   
            }
29.03.2016 16:21:26 +0200 10.0.11.73 Login response: {"transactionId":"14592612861516058557","userRetrievedList":{"users":[{"id":234,"description":"danielrad@sharklasers.com","parentBusinessUserId":2,"statusId":1,"roleTypeId":2,"defaultLanguageId":2,"userExternalIdList":{"externalIds":[{"externalId":"danielrad@sharklasers.com","defaultFlag":1,"type":"email","statusId":1}]},"userAttributeList":{"attributeValues":[{"attributeId":5,"attributeName":"country","attributeValue":"United Arab Emirates","languageId":2,"languageName":"en","statusId":1,"statusName":"active"},{"attributeId":9,"attributeName":"name","attributeValue":"daniel","languageId":2,"languageName":"en","statusId":1,"statusName":"active"},{"attributeId":10,"attributeName":"surname","attributeValue":"rad","languageId":2,"languageName":"en","statusId":1,"statusName":"active"},{"attributeId":14,"attributeName":"email","attributeValue":"danielrad@sharklasers.com","languageId":2,"languageName":"en","statusId":1,"statusName":"active"},{"attributeId":49,"attributeName":"city","attributeValue":"Dubai","languageId":2,"languageName":"en","statusId":1,"statusName":"active"},{"attributeId":50,"attributeName":"zipCode","attributeValue":"1234","languageId":2,"languageName":"en","statusId":1,"statusName":"active"},{"attributeId":108,"attributeName":"address","attributeValue":"19th St","languageId":2,"languageName":"en","statusId":1,"statusName":"active"},{"attributeId":100001,"attributeName":"msisdn","attributeValue":"+971-51298768","languageId":2,"languageName":"en","statusId":1,"statusName":"active"},{"attributeId":100002,"attributeName":"birthday","attributeValue":"03\/01\/1991","languageId":2,"languageName":"en","statusId":1,"statusName":"active"},{"attributeId":100003,"attributeName":"customerNumber","attributeValue":"CON-20160326-0007","languageId":2,"languageName":"en","statusId":1,"statusName":"active"},{"attributeId":100004,"attributeName":"language","attributeValue":"EN","languageId":2,"languageName":"en","statusId":1,"statusName":"active"}]}}]},"resultCode":"0"}
29.03.2016 16:21:26 +0200 10.0.11.73 Login status: 200
29.03.2016 14:51:20 +0000 10.0.11.73 TOKEN ricevuto, cache creata
29.03.2016 15:17:10 +0000 10.0.11.73 error in acapiaccess_getProducts_annualPass: 
29.03.2016 15:17:13 +0000 10.0.11.73 error in acapiaccess_getProducts_annualPass: 
29.03.2016 15:17:49 +0000 10.0.11.73 error in acapiaccess_getProducts_annualPass: 
29.03.2016 15:18:06 +0000 10.0.11.73 error in acapiaccess_getProducts_annualPass: 
29.03.2016 15:18:36 +0000 10.0.11.73 error in acapiaccess_getProducts_annualPass: 
29.03.2016 15:19:26 +0000 10.0.11.73 error in acapiaccess_getProducts_annualPass: 
29.03.2016 15:20:36 +0000 10.0.11.73 error in acapiaccess_getProducts_annualPass: 
29.03.2016 15:21:24 +0000 10.0.11.73 error in acapiaccess_getProducts_annualPass: 
29.03.2016 18:16:21 +0200 10.0.11.73 TOKEN ricevuto, cache creata
29.03.2016 20:52:54 +0200 10.0.11.73 Login req: {
            "languageId":"2",
            "transactionId": "1459277574240548845",
            "tenant":"1",
            "profileAttributeFlag":true,
            "externalIdList": {
                "externalIds": [
                    {
                    "externalId" : "heshamCH35.ghalebCH25@mailinator.com"
                    }
                ]
             }   
            }
29.03.2016 20:52:54 +0200 10.0.11.73 Login response: {"transactionId":"1459277574240548845","userRetrievedList":{"users":[{"id":213,"description":"heshamCH35.ghalebCH25@mailinator.com","parentBusinessUserId":2,"statusId":1,"roleTypeId":2,"defaultLanguageId":2,"userExternalIdList":{"externalIds":[{"externalId":"heshamCH35.ghalebCH25@mailinator.com","defaultFlag":1,"type":"email","statusId":1}]},"userAttributeList":{"attributeValues":[{"attributeId":9,"attributeName":"name","attributeValue":"HeshamCI","languageId":2,"languageName":"en","statusId":1,"statusName":"active"},{"attributeId":10,"attributeName":"surname","attributeValue":"GhalebCI","languageId":2,"languageName":"en","statusId":1,"statusName":"active"},{"attributeId":14,"attributeName":"email","attributeValue":"heshamCH35.ghalebCH25@mailinator.com","languageId":2,"languageName":"en","statusId":1,"statusName":"active"},{"attributeId":100001,"attributeName":"msisdn","attributeValue":"+971-551098200","languageId":2,"languageName":"en","statusId":1,"statusName":"active"},{"attributeId":100003,"attributeName":"customerNumber","attributeValue":"CON-20160325-0046","languageId":2,"languageName":"en","statusId":1,"statusName":"active"},{"attributeId":100004,"attributeName":"language","attributeValue":"EN","languageId":2,"languageName":"en","statusId":1,"statusName":"active"},{"attributeId":100010,"attributeName":"NL_DUBAI_PARK_AND_RESORT","attributeValue":"false","languageId":2,"languageName":"en","statusId":1,"statusName":"active"},{"attributeId":100011,"attributeName":"NL_MOTIONGATE","attributeValue":"false","languageId":2,"languageName":"en","statusId":1,"statusName":"active"},{"attributeId":100012,"attributeName":"NL_BOLLIWOOD_PARK","attributeValue":"false","languageId":2,"languageName":"en","statusId":1,"statusName":"active"},{"attributeId":100019,"attributeName":"NL_GENERAL_COMMUNICATION","attributeValue":"false","languageId":2,"languageName":"en","statusId":1,"statusName":"active"},{"attributeId":100021,"attributeName":"NL_LEGOLAND","attributeValue":"false","languageId":2,"languageName":"en","statusId":1,"statusName":"active"},{"attributeId":100022,"attributeName":"NL_RIVERLAND","attributeValue":"true","languageId":2,"languageName":"en","statusId":1,"statusName":"active"},{"attributeId":100023,"attributeName":"mascotteID","attributeValue":"mascotte2_b.fw","languageId":2,"languageName":"en","statusId":1,"statusName":"active"}]}}]},"resultCode":"0"}
29.03.2016 20:52:54 +0200 10.0.11.73 Login status: 200
29.03.2016 23:43:50 +0200 10.0.11.73 Login req: {
            "languageId":"2",
            "transactionId": "14592878301307022734",
            "tenant":"1",
            "profileAttributeFlag":true,
            "externalIdList": {
                "externalIds": [
                    {
                    "externalId" : "hesh007@mailinator.com"
                    }
                ]
             }   
            }
29.03.2016 23:43:50 +0200 10.0.11.73 Login response: {"transactionId":"14592878301307022734","userRetrievedList":{"users":[{"id":47,"description":"hesh007@mailinator.com","parentBusinessUserId":2,"statusId":1,"roleTypeId":2,"defaultLanguageId":2,"userExternalIdList":{"externalIds":[{"externalId":"hesh007@mailinator.com","defaultFlag":1,"type":"email","statusId":1}]},"userAttributeList":{"attributeValues":[{"attributeId":5,"attributeName":"country","attributeValue":"United Arab Emirates","languageId":2,"languageName":"en","statusId":1,"statusName":"active"},{"attributeId":9,"attributeName":"name","attributeValue":"Hesham","languageId":2,"languageName":"en","statusId":1,"statusName":"active"},{"attributeId":10,"attributeName":"surname","attributeValue":"Ghaleb","languageId":2,"languageName":"en","statusId":1,"statusName":"active"},{"attributeId":14,"attributeName":"email","attributeValue":"hesh007@mailinator.com","languageId":2,"languageName":"en","statusId":1,"statusName":"active"},{"attributeId":49,"attributeName":"city","attributeValue":"Dubai","languageId":2,"languageName":"en","statusId":1,"statusName":"active"},{"attributeId":50,"attributeName":"zipCode","attributeValue":"33283","languageId":2,"languageName":"en","statusId":1,"statusName":"active"},{"attributeId":108,"attributeName":"address","attributeValue":"Villa 435","languageId":2,"languageName":"en","statusId":1,"statusName":"active"},{"attributeId":100001,"attributeName":"msisdn","attributeValue":"+971-551098200","languageId":2,"languageName":"en","statusId":1,"statusName":"active"},{"attributeId":100002,"attributeName":"birthday","attributeValue":"07\/03\/1980","languageId":2,"languageName":"en","statusId":1,"statusName":"active"},{"attributeId":100003,"attributeName":"customerNumber","attributeValue":"CON-20160320-0007","languageId":2,"languageName":"en","statusId":1,"statusName":"active"},{"attributeId":100004,"attributeName":"language","attributeValue":"EN","languageId":2,"languageName":"en","statusId":1,"statusName":"active"},{"attributeId":100010,"attributeName":"NL_DUBAI_PARK_AND_RESORT","attributeValue":"false","languageId":2,"languageName":"en","statusId":1,"statusName":"active"},{"attributeId":100011,"attributeName":"NL_MOTIONGATE","attributeValue":"true","languageId":2,"languageName":"en","statusId":1,"statusName":"active"},{"attributeId":100012,"attributeName":"NL_BOLLIWOOD_PARK","attributeValue":"false","languageId":2,"languageName":"en","statusId":1,"statusName":"active"},{"attributeId":100019,"attributeName":"NL_GENERAL_COMMUNICATION","attributeValue":"false","languageId":2,"languageName":"en","statusId":1,"statusName":"active"},{"attributeId":100021,"attributeName":"NL_LEGOLAND","attributeValue":"false","languageId":2,"languageName":"en","statusId":1,"statusName":"active"},{"attributeId":100022,"attributeName":"NL_RIVERLAND","attributeValue":"false","languageId":2,"languageName":"en","statusId":1,"statusName":"active"},{"attributeId":100023,"attributeName":"mascotteID","attributeValue":"mascotte1_b.fw","languageId":2,"languageName":"en","statusId":1,"statusName":"active"}]}}]},"resultCode":"0"}
29.03.2016 23:43:50 +0200 10.0.11.73 Login status: 200