
28.02.2016 12:58:15 +0100 10.10.50.22 TOKEN ricevuto, cache creata
28.02.2016 14:14:31 +0100 10.10.50.22 TOKEN ricevuto, cache creata
28.02.2016 14:14:31 +0100 10.10.50.22 ERROR! - TOKEN NON ricevuto, redirect to error page, API status=0
28.02.2016 14:15:52 +0100 10.10.50.22 error in acapiaccess_booking_createSessionForm: EMPTY response from API
28.02.2016 15:06:04 +0100 10.10.50.24 error in acapiaccess_booking_choosePackage: Booking service not available (Provider API returned code 500)
28.02.2016 15:09:51 +0100 10.10.50.24 1975897603|||http://www.dubaiparks.local/booking/ticket-booking-confirmation|http://www.dubaiparks.local/booking/ticket-booking-confirmation|02|INTERNET|CC|4797461590877158|241|05|2022|VISA|ravi|saraf|address 1|address 2|city|state|12345|IT|ravisaraf2006@gmail.com||||+ 345528750350|||||||||||||||||||| |||||
28.02.2016 16:24:34 +0100 10.10.50.25 TOKEN ricevuto, cache creata
28.02.2016 16:24:34 +0100 10.10.50.25 ERROR! - TOKEN NON ricevuto, redirect to error page, API status=0
28.02.2016 16:29:35 +0100 10.10.50.25 error in acapiaccess_booking_changeRoom: 
28.02.2016 16:55:59 +0100 10.10.50.21 error in acapiaccess_booking_createSessionForm: EMPTY response from API
28.02.2016 16:56:25 +0100 10.10.50.21 error in acapiaccess_booking_createSessionForm: EMPTY response from API
28.02.2016 17:20:40 +0100 10.10.50.21 error in acapiaccess_booking_createSessionForm: EMPTY response from API
28.02.2016 17:53:24 +0100 10.10.50.21 TOKEN ricevuto, cache creata
28.02.2016 17:53:24 +0100 10.10.50.21 ERROR! - TOKEN NON ricevuto, redirect to error page, API status=0
28.02.2016 18:37:06 +0100 10.10.50.27 error in acapiaccess_booking_createSessionForm: EMPTY response from API
28.02.2016 18:48:00 +0100 10.10.50.27 error in acapiaccess_booking_createSessionForm: EMPTY response from API
28.02.2016 19:19:31 +0100 10.10.50.26 TOKEN ricevuto, cache creata
28.02.2016 19:19:31 +0100 10.10.50.26 ERROR! - TOKEN NON ricevuto, redirect to error page, API status=0