
08.09.2016 0:23:23 +0200 10.0.32.247 TOKEN ricevuto, cache creata
08.09.2016 1:20:07 +0200 10.0.32.247 TOKEN expired => RENEWING. Server response =>401
08.09.2016 1:20:07 +0200 10.0.32.247 RENEWING token
08.09.2016 1:20:32 +0200 10.0.32.247 RENEW TOKEN RESULT =>200 || 4986c124289791352b58b89e2b040f2
08.09.2016 1:20:33 +0200 10.0.32.247 error in acapiaccess_getProducts_annualPass: 
08.09.2016 2:14:00 +0200 10.0.32.247 error in acapiaccess_getProducts_annualPass: 
08.09.2016 2:23:44 +0200 10.0.32.247 TOKEN ricevuto, cache creata
08.09.2016 3:23:01 +0200 10.0.32.247 TOKEN expired => RENEWING. Server response =>401
08.09.2016 3:23:01 +0200 10.0.32.247 RENEWING token
08.09.2016 3:23:01 +0200 10.0.32.247 RENEW TOKEN RESULT =>200 || a2e65ac5f9eb6ee2b81e6cc378929c
08.09.2016 3:23:01 +0200 10.0.32.247 error in acapiaccess_getProducts_annualPass: 
08.09.2016 4:19:19 +0200 10.0.32.247 TOKEN expired => RENEWING. Server response =>401
08.09.2016 4:19:19 +0200 10.0.32.247 RENEWING token
08.09.2016 4:19:19 +0200 10.0.32.247 RENEW TOKEN RESULT =>200 || bbae5250f4796340a6b9664851fcfec
08.09.2016 4:19:20 +0200 10.0.32.247 error in acapiaccess_getProducts_annualPass: 
08.09.2016 5:22:22 +0200 10.0.32.247 TOKEN ricevuto, cache creata
08.09.2016 6:23:02 +0200 10.0.32.247 TOKEN ricevuto, cache creata
08.09.2016 7:18:31 +0200 10.0.32.247 Login req: {
            "languageId":"2",
            "transactionId": "14733119111017121719",
            "tenant":"1",
            "profileAttributeFlag":true,
            "externalIdList": {
                "externalIds": [
                    {
                    "externalId" : "amd_611@hotmail.com"
                    }
                ]
             }
            }
08.09.2016 7:18:31 +0200 10.0.32.247 Login token: ccd6996d81f3e62b58ea280832af660
08.09.2016 7:18:31 +0200 10.0.32.247 Login response: {"transactionId":"14733119111017121719","userRetrievedList":{"users":[{"id":3466,"description":"amd_611@hotmail.com","parentBusinessUserId":2,"statusId":1,"roleTypeId":2,"defaultLanguageId":2,"userExternalIdList":{"externalIds":[{"externalId":"amd_611@hotmail.com","defaultFlag":1,"type":"email","statusId":1}]},"userAttributeList":{"attributeValues":[{"attributeId":9,"attributeName":"name","attributeValue":"Mahdi","languageId":2,"languageName":"en","statusId":1,"statusName":"active"},{"attributeId":10,"attributeName":"surname","attributeValue":"Khalaf","languageId":2,"languageName":"en","statusId":1,"statusName":"active"},{"attributeId":14,"attributeName":"email","attributeValue":"amd_611@hotmail.com","languageId":2,"languageName":"en","statusId":1,"statusName":"active"},{"attributeId":100003,"attributeName":"customerNumber","attributeValue":"CON-20160908-0005","languageId":2,"languageName":"en","statusId":1,"statusName":"active"},{"attributeId":100004,"attributeName":"language","attributeValue":"EN","languageId":2,"languageName":"en","statusId":1,"statusName":"active"}]}}]},"resultCode":"0"}
08.09.2016 7:18:31 +0200 10.0.32.247 Login status: 200
08.09.2016 7:24:31 +0200 10.0.32.247 TOKEN ricevuto, cache creata
08.09.2016 7:24:36 +0200 10.0.32.247 TOKEN ricevuto, cache creata
08.09.2016 7:24:47 +0200 10.0.32.247 TOKEN ricevuto, cache creata
08.09.2016 7:27:03 +0200 10.0.32.247 Login req: {
            "languageId":"2",
            "transactionId": "147331242362509021",
            "tenant":"1",
            "profileAttributeFlag":true,
            "externalIdList": {
                "externalIds": [
                    {
                    "externalId" : "ninoangeloverdote@gmail.com"
                    }
                ]
             }
            }
08.09.2016 7:27:03 +0200 10.0.32.247 Login token: 13b948ecb456db164a4599ccde89117b
08.09.2016 7:27:03 +0200 10.0.32.247 Login response: {"transactionId":"147331242362509021","userRetrievedList":{"users":[{"id":3468,"description":"ninoangeloverdote@gmail.com","parentBusinessUserId":2,"statusId":1,"roleTypeId":2,"defaultLanguageId":2,"userExternalIdList":{"externalIds":[{"externalId":"ninoangeloverdote@gmail.com","defaultFlag":1,"type":"email","statusId":1}]},"userAttributeList":{"attributeValues":[{"attributeId":9,"attributeName":"name","attributeValue":"Nino Angelo","languageId":2,"languageName":"en","statusId":1,"statusName":"active"},{"attributeId":10,"attributeName":"surname","attributeValue":"Verdote","languageId":2,"languageName":"en","statusId":1,"statusName":"active"},{"attributeId":14,"attributeName":"email","attributeValue":"ninoangeloverdote@gmail.com","languageId":2,"languageName":"en","statusId":1,"statusName":"active"},{"attributeId":100003,"attributeName":"customerNumber","attributeValue":"CON-20160908-0008","languageId":2,"languageName":"en","statusId":1,"statusName":"active"},{"attributeId":100004,"attributeName":"language","attributeValue":"EN","languageId":2,"languageName":"en","statusId":1,"statusName":"active"},{"attributeId":100020,"attributeName":"NL_DUBAI_PARK_AND_RESORT","attributeValue":"true","languageId":2,"languageName":"en","statusId":1,"statusName":"active"}]}}]},"resultCode":"0"}
08.09.2016 7:27:03 +0200 10.0.32.247 Login status: 200
08.09.2016 7:34:06 +0200 10.0.32.247 Login req: {
            "languageId":"2",
            "transactionId": "14733128461840863648",
            "tenant":"1",
            "profileAttributeFlag":true,
            "externalIdList": {
                "externalIds": [
                    {
                    "externalId" : "hady35@yahoo.com"
                    }
                ]
             }
            }
08.09.2016 7:34:06 +0200 10.0.32.247 Login token: 1fdd8e2cbace3f7847db03c495982
08.09.2016 7:34:06 +0200 10.0.32.247 Login response: {"transactionId":"14733128461840863648","userRetrievedList":{"users":[{"id":3324,"description":"hady35@yahoo.com","parentBusinessUserId":2,"statusId":1,"roleTypeId":2,"defaultLanguageId":2,"userExternalIdList":{"externalIds":[{"externalId":"hady35@yahoo.com","defaultFlag":1,"type":"email","statusId":1}]},"userAttributeList":{"attributeValues":[{"attributeId":9,"attributeName":"name","attributeValue":"Abdelhady ","languageId":2,"languageName":"en","statusId":1,"statusName":"active"},{"attributeId":10,"attributeName":"surname","attributeValue":"Ali","languageId":2,"languageName":"en","statusId":1,"statusName":"active"},{"attributeId":14,"attributeName":"email","attributeValue":"hady35@yahoo.com","languageId":2,"languageName":"en","statusId":1,"statusName":"active"},{"attributeId":100004,"attributeName":"language","attributeValue":"AR","languageId":2,"languageName":"en","statusId":1,"statusName":"active"},{"attributeId":100020,"attributeName":"NL_DUBAI_PARK_AND_RESORT","attributeValue":"true","languageId":2,"languageName":"en","statusId":1,"statusName":"active"}]}}]},"resultCode":"0"}
08.09.2016 7:34:06 +0200 10.0.32.247 Login status: 200
08.09.2016 8:26:02 +0200 10.0.32.247 TOKEN ricevuto, cache creata
08.09.2016 9:04:32 +0200 10.0.32.247 Login req: {
            "languageId":"2",
            "transactionId": "1473318272612861438",
            "tenant":"1",
            "profileAttributeFlag":true,
            "externalIdList": {
                "externalIds": [
                    {
                    "externalId" : "jacob.f.pomperada@gmail.com"
                    }
                ]
             }
            }
08.09.2016 9:04:32 +0200 10.0.32.247 Login token: f7fa8ef69b52d2d68ada9aad4b4f3b20
08.09.2016 9:04:32 +0200 10.0.32.247 Login response: {"transactionId":"1473318272612861438","userRetrievedList":{"users":[{"id":2309,"description":"jacob.f.pomperada@gmail.com","parentBusinessUserId":2,"statusId":1,"roleTypeId":2,"defaultLanguageId":2,"userExternalIdList":{"externalIds":[{"externalId":"jacob.f.pomperada@gmail.com","defaultFlag":1,"type":"email","statusId":1}]},"userAttributeList":{"attributeValues":[{"attributeId":9,"attributeName":"name","attributeValue":"Jacob","languageId":2,"languageName":"en","statusId":1,"statusName":"active"},{"attributeId":10,"attributeName":"surname","attributeValue":"Pomperada","languageId":2,"languageName":"en","statusId":1,"statusName":"active"},{"attributeId":14,"attributeName":"email","attributeValue":"jacob.f.pomperada@gmail.com","languageId":2,"languageName":"en","statusId":1,"statusName":"active"},{"attributeId":100003,"attributeName":"customerNumber","attributeValue":"CON-20160725-0018","languageId":2,"languageName":"en","statusId":1,"statusName":"active"},{"attributeId":100004,"attributeName":"language","attributeValue":"EN","languageId":2,"languageName":"en","statusId":1,"statusName":"active"},{"attributeId":100013,"attributeName":"NL_LEGOLAND","attributeValue":"False","languageId":2,"languageName":"en","statusId":1,"statusName":"active"},{"attributeId":100014,"attributeName":"NL_RIVERLAND","attributeValue":"False","languageId":2,"languageName":"en","statusId":1,"statusName":"active"},{"attributeId":100015,"attributeName":"NL_GENERAL_COMMUNICATION","attributeValue":"False","languageId":2,"languageName":"en","statusId":1,"statusName":"active"},{"attributeId":100018,"attributeName":"NL_BOLLIWOOD_PARK","attributeValue":"False","languageId":2,"languageName":"en","statusId":1,"statusName":"active"},{"attributeId":100019,"attributeName":"NL_MOTIONGATE","attributeValue":"False","languageId":2,"languageName":"en","statusId":1,"statusName":"active"},{"attributeId":100020,"attributeName":"NL_DUBAI_PARK_AND_RESORT","attributeValue":"False","languageId":2,"languageName":"en","statusId":1,"statusName":"active"}]}}]},"resultCode":"0"}
08.09.2016 9:04:32 +0200 10.0.32.247 Login status: 200
08.09.2016 9:26:50 +0200 10.0.32.247 TOKEN ricevuto, cache creata
08.09.2016 9:27:46 +0200 10.0.32.247 Login req: {
            "languageId":"2",
            "transactionId": "14733196661972085369",
            "tenant":"1",
            "profileAttributeFlag":true,
            "externalIdList": {
                "externalIds": [
                    {
                    "externalId" : "jacob.f.pomperada@gmail.com"
                    }
                ]
             }
            }
08.09.2016 9:27:46 +0200 10.0.32.247 Login token: f7fa8ef69b52d2d68ada9aad4b4f3b20
08.09.2016 9:27:46 +0200 10.0.32.247 Login response: {"transactionId":"14733196661972085369","userRetrievedList":{"users":[{"id":2309,"description":"jacob.f.pomperada@gmail.com","parentBusinessUserId":2,"statusId":1,"roleTypeId":2,"defaultLanguageId":2,"userExternalIdList":{"externalIds":[{"externalId":"jacob.f.pomperada@gmail.com","defaultFlag":1,"type":"email","statusId":1}]},"userAttributeList":{"attributeValues":[{"attributeId":9,"attributeName":"name","attributeValue":"Jacob","languageId":2,"languageName":"en","statusId":1,"statusName":"active"},{"attributeId":10,"attributeName":"surname","attributeValue":"Pomperada","languageId":2,"languageName":"en","statusId":1,"statusName":"active"},{"attributeId":14,"attributeName":"email","attributeValue":"jacob.f.pomperada@gmail.com","languageId":2,"languageName":"en","statusId":1,"statusName":"active"},{"attributeId":100003,"attributeName":"customerNumber","attributeValue":"CON-20160725-0018","languageId":2,"languageName":"en","statusId":1,"statusName":"active"},{"attributeId":100004,"attributeName":"language","attributeValue":"EN","languageId":2,"languageName":"en","statusId":1,"statusName":"active"},{"attributeId":100013,"attributeName":"NL_LEGOLAND","attributeValue":"False","languageId":2,"languageName":"en","statusId":1,"statusName":"active"},{"attributeId":100014,"attributeName":"NL_RIVERLAND","attributeValue":"False","languageId":2,"languageName":"en","statusId":1,"statusName":"active"},{"attributeId":100015,"attributeName":"NL_GENERAL_COMMUNICATION","attributeValue":"False","languageId":2,"languageName":"en","statusId":1,"statusName":"active"},{"attributeId":100018,"attributeName":"NL_BOLLIWOOD_PARK","attributeValue":"False","languageId":2,"languageName":"en","statusId":1,"statusName":"active"},{"attributeId":100019,"attributeName":"NL_MOTIONGATE","attributeValue":"False","languageId":2,"languageName":"en","statusId":1,"statusName":"active"},{"attributeId":100020,"attributeName":"NL_DUBAI_PARK_AND_RESORT","attributeValue":"False","languageId":2,"languageName":"en","statusId":1,"statusName":"active"}]}}]},"resultCode":"0"}
08.09.2016 9:27:46 +0200 10.0.32.247 Login status: 200
08.09.2016 9:54:43 +0200 10.0.32.247 Login req: {
            "languageId":"2",
            "transactionId": "14733212831681823037",
            "tenant":"1",
            "profileAttributeFlag":true,
            "externalIdList": {
                "externalIds": [
                    {
                    "externalId" : "1108018615907574"
                    }
                ]
             }
            }
08.09.2016 9:54:43 +0200 10.0.32.247 Login token: e942909047f5577088b12f3e6bc46fa
08.09.2016 9:54:43 +0200 10.0.32.247 Login response: {"transactionId":"14733212831681823037","userRetrievedList":{"users":[{"id":512,"description":"1108018615907574","parentBusinessUserId":2,"statusId":1,"roleTypeId":2,"defaultLanguageId":2,"userExternalIdList":{"externalIds":[{"externalId":"1108018615907574","defaultFlag":1,"type":"socialID","statusId":1}]},"userAttributeList":{"attributeValues":[{"attributeId":9,"attributeName":"name","attributeValue":"Adam","languageId":2,"languageName":"en","statusId":1,"statusName":"active"},{"attributeId":10,"attributeName":"surname","attributeValue":"Nizar","languageId":2,"languageName":"en","statusId":1,"statusName":"active"},{"attributeId":14,"attributeName":"email","attributeValue":"adamnizar@gmail.com","languageId":2,"languageName":"en","statusId":1,"statusName":"active"},{"attributeId":100003,"attributeName":"customerNumber","attributeValue":"CON-20160511-0010","languageId":2,"languageName":"en","statusId":1,"statusName":"active"},{"attributeId":100004,"attributeName":"language","attributeValue":"en","languageId":2,"languageName":"en","statusId":1,"statusName":"active"}]}}]},"resultCode":"0"}
08.09.2016 9:54:43 +0200 10.0.32.247 Login status: 200
08.09.2016 9:58:20 +0200 10.0.32.247 Login req: {
            "languageId":"2",
            "transactionId": "1473321500482097198",
            "tenant":"1",
            "profileAttributeFlag":true,
            "externalIdList": {
                "externalIds": [
                    {
                    "externalId" : "1108018615907574"
                    }
                ]
             }
            }
08.09.2016 9:58:20 +0200 10.0.32.247 Login token: e942909047f5577088b12f3e6bc46fa
08.09.2016 9:58:20 +0200 10.0.32.247 Login response: {"transactionId":"1473321500482097198","userRetrievedList":{"users":[{"id":512,"description":"1108018615907574","parentBusinessUserId":2,"statusId":1,"roleTypeId":2,"defaultLanguageId":2,"userExternalIdList":{"externalIds":[{"externalId":"1108018615907574","defaultFlag":1,"type":"socialID","statusId":1}]},"userAttributeList":{"attributeValues":[{"attributeId":9,"attributeName":"name","attributeValue":"Adam","languageId":2,"languageName":"en","statusId":1,"statusName":"active"},{"attributeId":10,"attributeName":"surname","attributeValue":"Nizar","languageId":2,"languageName":"en","statusId":1,"statusName":"active"},{"attributeId":14,"attributeName":"email","attributeValue":"adamnizar@gmail.com","languageId":2,"languageName":"en","statusId":1,"statusName":"active"},{"attributeId":100003,"attributeName":"customerNumber","attributeValue":"CON-20160511-0010","languageId":2,"languageName":"en","statusId":1,"statusName":"active"},{"attributeId":100004,"attributeName":"language","attributeValue":"en","languageId":2,"languageName":"en","statusId":1,"statusName":"active"}]}}]},"resultCode":"0"}
08.09.2016 9:58:20 +0200 10.0.32.247 Login status: 200
08.09.2016 10:00:15 +0200 10.0.32.247 Login req: {
            "languageId":"2",
            "transactionId": "1473321614624480794",
            "tenant":"1",
            "profileAttributeFlag":true,
            "externalIdList": {
                "externalIds": [
                    {
                    "externalId" : "10206266301049939"
                    }
                ]
             }
            }
08.09.2016 10:00:15 +0200 10.0.32.247 Login token: 4913da3f65396253ff724cb58e04e8
08.09.2016 10:00:15 +0200 10.0.32.247 Login response: {"transactionId":"1473321614624480794","userRetrievedList":{"users":[{"id":3472,"description":"10206266301049939","parentBusinessUserId":2,"statusId":1,"roleTypeId":2,"defaultLanguageId":2,"userExternalIdList":{"externalIds":[{"externalId":"10206266301049939","defaultFlag":1,"type":"socialID","statusId":1}]},"userAttributeList":{"attributeValues":[{"attributeId":9,"attributeName":"name","attributeValue":"Angelovski","languageId":2,"languageName":"en","statusId":1,"statusName":"active"},{"attributeId":10,"attributeName":"surname","attributeValue":"'taccy","languageId":2,"languageName":"en","statusId":1,"statusName":"active"},{"attributeId":14,"attributeName":"email","attributeValue":"trajance_angelovski@hotmail.com","languageId":2,"languageName":"en","statusId":1,"statusName":"active"},{"attributeId":100004,"attributeName":"language","attributeValue":"en","languageId":2,"languageName":"en","statusId":1,"statusName":"active"}]}}]},"resultCode":"0"}
08.09.2016 10:00:15 +0200 10.0.32.247 Login status: 200
08.09.2016 10:15:47 +0200 10.0.32.247 TOKEN expired => RENEWING. Server response =>401
08.09.2016 10:15:47 +0200 10.0.32.247 RENEWING token
08.09.2016 10:15:47 +0200 10.0.32.247 RENEW TOKEN RESULT =>200 || b27d75e104ae5fa909f7b6d250aba4
08.09.2016 10:15:48 +0200 10.0.32.247 error in acapiaccess_getProducts_annualPass: 
08.09.2016 10:42:44 +0200 10.0.32.247 Login req: {
            "languageId":"2",
            "transactionId": "1473324164405527240",
            "tenant":"1",
            "profileAttributeFlag":true,
            "externalIdList": {
                "externalIds": [
                    {
                    "externalId" : "rubyruprai@yahoo.com"
                    }
                ]
             }
            }
08.09.2016 10:42:44 +0200 10.0.32.247 Login token: 324e25e098f6755c37bca2d58e7a97f9
08.09.2016 10:42:44 +0200 10.0.32.247 Login response: {"transactionId":"1473324164405527240","userRetrievedList":{"users":[{"id":3473,"description":"rubyruprai@yahoo.com","parentBusinessUserId":2,"statusId":1,"roleTypeId":2,"defaultLanguageId":2,"userExternalIdList":{"externalIds":[{"externalId":"rubyruprai@yahoo.com","defaultFlag":1,"type":"email","statusId":1}]},"userAttributeList":{"attributeValues":[{"attributeId":9,"attributeName":"name","attributeValue":"Rupinder","languageId":2,"languageName":"en","statusId":1,"statusName":"active"},{"attributeId":10,"attributeName":"surname","attributeValue":"Ruprai","languageId":2,"languageName":"en","statusId":1,"statusName":"active"},{"attributeId":14,"attributeName":"email","attributeValue":"rubyruprai@yahoo.com","languageId":2,"languageName":"en","statusId":1,"statusName":"active"},{"attributeId":100003,"attributeName":"customerNumber","attributeValue":"CON-20160908-0015","languageId":2,"languageName":"en","statusId":1,"statusName":"active"},{"attributeId":100004,"attributeName":"language","attributeValue":"EN","languageId":2,"languageName":"en","statusId":1,"statusName":"active"},{"attributeId":100020,"attributeName":"NL_DUBAI_PARK_AND_RESORT","attributeValue":"true","languageId":2,"languageName":"en","statusId":1,"statusName":"active"}]}}]},"resultCode":"0"}
08.09.2016 10:42:44 +0200 10.0.32.247 Login status: 200
08.09.2016 10:47:59 +0200 10.0.32.247 Login req: {
            "languageId":"2",
            "transactionId": "14733244791427672573",
            "tenant":"1",
            "profileAttributeFlag":true,
            "externalIdList": {
                "externalIds": [
                    {
                    "externalId" : "jacob.f.pomperada@gmail.com"
                    }
                ]
             }
            }
08.09.2016 10:47:59 +0200 10.0.32.247 Login token: 1b66f856a12c538993eb84311e1b8e7
08.09.2016 10:47:59 +0200 10.0.32.247 Login response: {"transactionId":"14733244791427672573","userRetrievedList":{"users":[{"id":2309,"description":"jacob.f.pomperada@gmail.com","parentBusinessUserId":2,"statusId":1,"roleTypeId":2,"defaultLanguageId":2,"userExternalIdList":{"externalIds":[{"externalId":"jacob.f.pomperada@gmail.com","defaultFlag":1,"type":"email","statusId":1}]},"userAttributeList":{"attributeValues":[{"attributeId":9,"attributeName":"name","attributeValue":"Jacob","languageId":2,"languageName":"en","statusId":1,"statusName":"active"},{"attributeId":10,"attributeName":"surname","attributeValue":"Pomperada","languageId":2,"languageName":"en","statusId":1,"statusName":"active"},{"attributeId":14,"attributeName":"email","attributeValue":"jacob.f.pomperada@gmail.com","languageId":2,"languageName":"en","statusId":1,"statusName":"active"},{"attributeId":100003,"attributeName":"customerNumber","attributeValue":"CON-20160725-0018","languageId":2,"languageName":"en","statusId":1,"statusName":"active"},{"attributeId":100004,"attributeName":"language","attributeValue":"EN","languageId":2,"languageName":"en","statusId":1,"statusName":"active"},{"attributeId":100013,"attributeName":"NL_LEGOLAND","attributeValue":"False","languageId":2,"languageName":"en","statusId":1,"statusName":"active"},{"attributeId":100014,"attributeName":"NL_RIVERLAND","attributeValue":"False","languageId":2,"languageName":"en","statusId":1,"statusName":"active"},{"attributeId":100015,"attributeName":"NL_GENERAL_COMMUNICATION","attributeValue":"False","languageId":2,"languageName":"en","statusId":1,"statusName":"active"},{"attributeId":100018,"attributeName":"NL_BOLLIWOOD_PARK","attributeValue":"False","languageId":2,"languageName":"en","statusId":1,"statusName":"active"},{"attributeId":100019,"attributeName":"NL_MOTIONGATE","attributeValue":"False","languageId":2,"languageName":"en","statusId":1,"statusName":"active"},{"attributeId":100020,"attributeName":"NL_DUBAI_PARK_AND_RESORT","attributeValue":"False","languageId":2,"languageName":"en","statusId":1,"statusName":"active"}]}}]},"resultCode":"0"}
08.09.2016 10:47:59 +0200 10.0.32.247 Login status: 200
08.09.2016 10:58:55 +0200 10.0.32.247 Login req: {
            "languageId":"2",
            "transactionId": "1473325135557342751",
            "tenant":"1",
            "profileAttributeFlag":true,
            "externalIdList": {
                "externalIds": [
                    {
                    "externalId" : "nady.hakim@minglepick.com"
                    }
                ]
             }
            }
08.09.2016 10:58:55 +0200 10.0.32.247 Login token: da87139750dd3511c57a158e34238a49
08.09.2016 10:58:55 +0200 10.0.32.247 Login response: {"transactionId":"1473325135557342751","userRetrievedList":{"users":[{"id":3275,"description":"nady.hakim@minglepick.com","parentBusinessUserId":2,"statusId":1,"roleTypeId":2,"defaultLanguageId":2,"userExternalIdList":{"externalIds":[{"externalId":"nady.hakim@minglepick.com","defaultFlag":1,"type":"email","statusId":1}]},"userAttributeList":{"attributeValues":[{"attributeId":9,"attributeName":"name","attributeValue":"Nady","languageId":2,"languageName":"en","statusId":1,"statusName":"active"},{"attributeId":10,"attributeName":"surname","attributeValue":"Hakim","languageId":2,"languageName":"en","statusId":1,"statusName":"active"},{"attributeId":14,"attributeName":"email","attributeValue":"nady.hakim@minglepick.com","languageId":2,"languageName":"en","statusId":1,"statusName":"active"},{"attributeId":100003,"attributeName":"customerNumber","attributeValue":"CON-20160901-0001","languageId":2,"languageName":"en","statusId":1,"statusName":"active"},{"attributeId":100004,"attributeName":"language","attributeValue":"EN","languageId":2,"languageName":"en","statusId":1,"statusName":"active"},{"attributeId":100020,"attributeName":"NL_DUBAI_PARK_AND_RESORT","attributeValue":"true","languageId":2,"languageName":"en","statusId":1,"statusName":"active"}]}}]},"resultCode":"0"}
08.09.2016 10:58:55 +0200 10.0.32.247 Login status: 200
08.09.2016 11:14:01 +0200 10.0.32.247 Login req: {
            "languageId":"2",
            "transactionId": "1473326041731005873",
            "tenant":"1",
            "profileAttributeFlag":true,
            "externalIdList": {
                "externalIds": [
                    {
                    "externalId" : "105029359940214"
                    }
                ]
             }
            }
08.09.2016 11:14:01 +0200 10.0.32.247 Login token: 864e77b1673193bc7c3087a386cd62a5
08.09.2016 11:14:01 +0200 10.0.32.247 Login response: {"transactionId":"1473326041731005873","userRetrievedList":{"users":[{"id":2072,"description":"105029359940214","parentBusinessUserId":2,"statusId":1,"roleTypeId":2,"defaultLanguageId":2,"userExternalIdList":{"externalIds":[{"externalId":"105029359940214","defaultFlag":1,"type":"socialID","statusId":1}]},"userAttributeList":{"attributeValues":[{"attributeId":9,"attributeName":"name","attributeValue":"Jacob","languageId":2,"languageName":"en","statusId":1,"statusName":"active"},{"attributeId":10,"attributeName":"surname","attributeValue":"Pomperada","languageId":2,"languageName":"en","statusId":1,"statusName":"active"},{"attributeId":14,"attributeName":"email","attributeValue":"jacob.f.pomperada@gmail.com","languageId":2,"languageName":"en","statusId":1,"statusName":"active"},{"attributeId":100003,"attributeName":"customerNumber","attributeValue":"CON-20160725-0018","languageId":2,"languageName":"en","statusId":1,"statusName":"active"},{"attributeId":100004,"attributeName":"language","attributeValue":"EN","languageId":2,"languageName":"en","statusId":1,"statusName":"active"}]}}]},"resultCode":"0"}
08.09.2016 11:14:01 +0200 10.0.32.247 Login status: 200
08.09.2016 11:16:28 +0200 10.0.32.247 TOKEN ricevuto, cache creata
08.09.2016 11:17:02 +0200 10.0.32.247 error in acapiaccess_getProducts_annualPass: 
08.09.2016 11:22:12 +0200 10.0.32.247 Login req: {
            "languageId":"2",
            "transactionId": "14733265321113757066",
            "tenant":"1",
            "profileAttributeFlag":true,
            "externalIdList": {
                "externalIds": [
                    {
                    "externalId" : "105029359940214"
                    }
                ]
             }
            }
08.09.2016 11:22:12 +0200 10.0.32.247 Login token: 864e77b1673193bc7c3087a386cd62a5
08.09.2016 11:22:12 +0200 10.0.32.247 Login response: {"transactionId":"14733265321113757066","userRetrievedList":{"users":[{"id":2072,"description":"105029359940214","parentBusinessUserId":2,"statusId":1,"roleTypeId":2,"defaultLanguageId":2,"userExternalIdList":{"externalIds":[{"externalId":"105029359940214","defaultFlag":1,"type":"socialID","statusId":1}]},"userAttributeList":{"attributeValues":[{"attributeId":9,"attributeName":"name","attributeValue":"Jacob","languageId":2,"languageName":"en","statusId":1,"statusName":"active"},{"attributeId":10,"attributeName":"surname","attributeValue":"Pomperada","languageId":2,"languageName":"en","statusId":1,"statusName":"active"},{"attributeId":14,"attributeName":"email","attributeValue":"jacob.f.pomperada@gmail.com","languageId":2,"languageName":"en","statusId":1,"statusName":"active"},{"attributeId":100003,"attributeName":"customerNumber","attributeValue":"CON-20160725-0018","languageId":2,"languageName":"en","statusId":1,"statusName":"active"},{"attributeId":100004,"attributeName":"language","attributeValue":"EN","languageId":2,"languageName":"en","statusId":1,"statusName":"active"}]}}]},"resultCode":"0"}
08.09.2016 11:22:12 +0200 10.0.32.247 Login status: 200
08.09.2016 11:23:18 +0200 10.0.32.247 Login req: {
            "languageId":"2",
            "transactionId": "14733265971584884670",
            "tenant":"1",
            "profileAttributeFlag":true,
            "externalIdList": {
                "externalIds": [
                    {
                    "externalId" : "jacob.f.pomperada@gmail.com"
                    }
                ]
             }
            }
08.09.2016 11:23:18 +0200 10.0.32.247 Login token: 5b7a717c7fd0a31e3fa21462d889606f
08.09.2016 11:23:18 +0200 10.0.32.247 Login response: null
08.09.2016 11:23:18 +0200 10.0.32.247 Login status: 401
08.09.2016 11:23:37 +0200 10.0.32.247 Login req: {
            "languageId":"2",
            "transactionId": "1473326617438654091",
            "tenant":"1",
            "profileAttributeFlag":true,
            "externalIdList": {
                "externalIds": [
                    {
                    "externalId" : "jacob.f.pomperada@gmail.com"
                    }
                ]
             }
            }
08.09.2016 11:23:37 +0200 10.0.32.247 Login token: 5b7a717c7fd0a31e3fa21462d889606f
08.09.2016 11:23:37 +0200 10.0.32.247 Login response: null
08.09.2016 11:23:37 +0200 10.0.32.247 Login status: 401
08.09.2016 11:23:57 +0200 10.0.32.247 Login req: {
            "languageId":"2",
            "transactionId": "14733266372107424878",
            "tenant":"1",
            "profileAttributeFlag":true,
            "externalIdList": {
                "externalIds": [
                    {
                    "externalId" : "jacob.f.pomperada@gmail.com"
                    }
                ]
             }
            }
08.09.2016 11:23:57 +0200 10.0.32.247 Login token: 5b7a717c7fd0a31e3fa21462d889606f
08.09.2016 11:23:57 +0200 10.0.32.247 Login response: null
08.09.2016 11:23:57 +0200 10.0.32.247 Login status: 401
08.09.2016 11:24:09 +0200 10.0.32.247 Login req: {
            "languageId":"2",
            "transactionId": "14733266481322172983",
            "tenant":"1",
            "profileAttributeFlag":true,
            "externalIdList": {
                "externalIds": [
                    {
                    "externalId" : "jacob.f.pomperada@gmail.com"
                    }
                ]
             }
            }
08.09.2016 11:24:09 +0200 10.0.32.247 Login token: 5b7a717c7fd0a31e3fa21462d889606f
08.09.2016 11:24:09 +0200 10.0.32.247 Login response: null
08.09.2016 11:24:09 +0200 10.0.32.247 Login status: 401
08.09.2016 11:25:31 +0200 10.0.32.247 Login req: {
            "languageId":"2",
            "transactionId": "14733267301259722255",
            "tenant":"1",
            "profileAttributeFlag":true,
            "externalIdList": {
                "externalIds": [
                    {
                    "externalId" : "jacob.f.pomperada@gmail.com"
                    }
                ]
             }
            }
08.09.2016 11:25:31 +0200 10.0.32.247 Login token: 5b7a717c7fd0a31e3fa21462d889606f
08.09.2016 11:25:31 +0200 10.0.32.247 Login response: null
08.09.2016 11:25:31 +0200 10.0.32.247 Login status: 401
08.09.2016 11:36:29 +0200 10.0.32.247 Login req: {
            "languageId":"2",
            "transactionId": "147332738985965366",
            "tenant":"1",
            "profileAttributeFlag":true,
            "externalIdList": {
                "externalIds": [
                    {
                    "externalId" : "jacob.f.pomperada@gmail.com"
                    }
                ]
             }
            }
08.09.2016 11:36:29 +0200 10.0.32.247 Login token: 5b7a717c7fd0a31e3fa21462d889606f
08.09.2016 11:36:29 +0200 10.0.32.247 Login response: {"transactionId":"147332738985965366","userRetrievedList":{"users":[{"id":2309,"description":"jacob.f.pomperada@gmail.com","parentBusinessUserId":2,"statusId":1,"roleTypeId":2,"defaultLanguageId":2,"userExternalIdList":{"externalIds":[{"externalId":"jacob.f.pomperada@gmail.com","defaultFlag":1,"type":"email","statusId":1}]},"userAttributeList":{"attributeValues":[{"attributeId":9,"attributeName":"name","attributeValue":"Jacob","languageId":2,"languageName":"en","statusId":1,"statusName":"active"},{"attributeId":10,"attributeName":"surname","attributeValue":"Pomperada","languageId":2,"languageName":"en","statusId":1,"statusName":"active"},{"attributeId":14,"attributeName":"email","attributeValue":"jacob.f.pomperada@gmail.com","languageId":2,"languageName":"en","statusId":1,"statusName":"active"},{"attributeId":100003,"attributeName":"customerNumber","attributeValue":"CON-20160725-0018","languageId":2,"languageName":"en","statusId":1,"statusName":"active"},{"attributeId":100004,"attributeName":"language","attributeValue":"EN","languageId":2,"languageName":"en","statusId":1,"statusName":"active"},{"attributeId":100013,"attributeName":"NL_LEGOLAND","attributeValue":"False","languageId":2,"languageName":"en","statusId":1,"statusName":"active"},{"attributeId":100014,"attributeName":"NL_RIVERLAND","attributeValue":"False","languageId":2,"languageName":"en","statusId":1,"statusName":"active"},{"attributeId":100015,"attributeName":"NL_GENERAL_COMMUNICATION","attributeValue":"False","languageId":2,"languageName":"en","statusId":1,"statusName":"active"},{"attributeId":100018,"attributeName":"NL_BOLLIWOOD_PARK","attributeValue":"False","languageId":2,"languageName":"en","statusId":1,"statusName":"active"},{"attributeId":100019,"attributeName":"NL_MOTIONGATE","attributeValue":"False","languageId":2,"languageName":"en","statusId":1,"statusName":"active"},{"attributeId":100020,"attributeName":"NL_DUBAI_PARK_AND_RESORT","attributeValue":"False","languageId":2,"languageName":"en","statusId":1,"statusName":"active"}]}}]},"resultCode":"0"}
08.09.2016 11:36:29 +0200 10.0.32.247 Login status: 200
08.09.2016 11:37:10 +0200 10.0.32.247 Login req: {
            "languageId":"2",
            "transactionId": "14733274301402900802",
            "tenant":"1",
            "profileAttributeFlag":true,
            "externalIdList": {
                "externalIds": [
                    {
                    "externalId" : "jacob.f.pomperada@gmail.com"
                    }
                ]
             }
            }
08.09.2016 11:37:10 +0200 10.0.32.247 Login token: 5b7a717c7fd0a31e3fa21462d889606f
08.09.2016 11:37:10 +0200 10.0.32.247 Login response: {"transactionId":"14733274301402900802","userRetrievedList":{"users":[{"id":2309,"description":"jacob.f.pomperada@gmail.com","parentBusinessUserId":2,"statusId":1,"roleTypeId":2,"defaultLanguageId":2,"userExternalIdList":{"externalIds":[{"externalId":"jacob.f.pomperada@gmail.com","defaultFlag":1,"type":"email","statusId":1}]},"userAttributeList":{"attributeValues":[{"attributeId":9,"attributeName":"name","attributeValue":"Jacob","languageId":2,"languageName":"en","statusId":1,"statusName":"active"},{"attributeId":10,"attributeName":"surname","attributeValue":"Pomperada","languageId":2,"languageName":"en","statusId":1,"statusName":"active"},{"attributeId":14,"attributeName":"email","attributeValue":"jacob.f.pomperada@gmail.com","languageId":2,"languageName":"en","statusId":1,"statusName":"active"},{"attributeId":100003,"attributeName":"customerNumber","attributeValue":"CON-20160725-0018","languageId":2,"languageName":"en","statusId":1,"statusName":"active"},{"attributeId":100004,"attributeName":"language","attributeValue":"EN","languageId":2,"languageName":"en","statusId":1,"statusName":"active"},{"attributeId":100013,"attributeName":"NL_LEGOLAND","attributeValue":"False","languageId":2,"languageName":"en","statusId":1,"statusName":"active"},{"attributeId":100014,"attributeName":"NL_RIVERLAND","attributeValue":"False","languageId":2,"languageName":"en","statusId":1,"statusName":"active"},{"attributeId":100015,"attributeName":"NL_GENERAL_COMMUNICATION","attributeValue":"False","languageId":2,"languageName":"en","statusId":1,"statusName":"active"},{"attributeId":100018,"attributeName":"NL_BOLLIWOOD_PARK","attributeValue":"False","languageId":2,"languageName":"en","statusId":1,"statusName":"active"},{"attributeId":100019,"attributeName":"NL_MOTIONGATE","attributeValue":"False","languageId":2,"languageName":"en","statusId":1,"statusName":"active"},{"attributeId":100020,"attributeName":"NL_DUBAI_PARK_AND_RESORT","attributeValue":"False","languageId":2,"languageName":"en","statusId":1,"statusName":"active"}]}}]},"resultCode":"0"}
08.09.2016 11:37:10 +0200 10.0.32.247 Login status: 200
08.09.2016 11:44:47 +0200 10.0.32.247 Login req: {
            "languageId":"2",
            "transactionId": "14733278875600580",
            "tenant":"1",
            "profileAttributeFlag":true,
            "externalIdList": {
                "externalIds": [
                    {
                    "externalId" : "agn.saba@gmail.com"
                    }
                ]
             }
            }
08.09.2016 11:44:47 +0200 10.0.32.247 Login token: 32a2693cae59aafe13bb2798248c8397
08.09.2016 11:44:47 +0200 10.0.32.247 Login response: {"transactionId":"14733278875600580","userRetrievedList":{"users":[{"id":3477,"description":"agn.saba@gmail.com","parentBusinessUserId":2,"statusId":1,"roleTypeId":2,"defaultLanguageId":2,"userExternalIdList":{"externalIds":[{"externalId":"agn.saba@gmail.com","defaultFlag":1,"type":"email","statusId":1}]},"userAttributeList":{"attributeValues":[{"attributeId":9,"attributeName":"name","attributeValue":"Arun","languageId":2,"languageName":"en","statusId":1,"statusName":"active"},{"attributeId":10,"attributeName":"surname","attributeValue":"Sabapathy","languageId":2,"languageName":"en","statusId":1,"statusName":"active"},{"attributeId":14,"attributeName":"email","attributeValue":"agn.saba@gmail.com","languageId":2,"languageName":"en","statusId":1,"statusName":"active"},{"attributeId":100003,"attributeName":"customerNumber","attributeValue":"CON-20160908-0017","languageId":2,"languageName":"en","statusId":1,"statusName":"active"},{"attributeId":100004,"attributeName":"language","attributeValue":"EN","languageId":2,"languageName":"en","statusId":1,"statusName":"active"},{"attributeId":100020,"attributeName":"NL_DUBAI_PARK_AND_RESORT","attributeValue":"true","languageId":2,"languageName":"en","statusId":1,"statusName":"active"}]}}]},"resultCode":"0"}
08.09.2016 11:44:47 +0200 10.0.32.247 Login status: 200
08.09.2016 12:17:27 +0200 10.0.32.247 TOKEN ricevuto, cache creata
08.09.2016 12:18:14 +0200 10.0.32.247 TOKEN ricevuto, cache creata
08.09.2016 12:18:23 +0200 10.0.32.247 TOKEN ricevuto, cache creata
08.09.2016 13:16:45 +0200 10.0.32.247 Login req: {
            "languageId":"2",
            "transactionId": "14733334051081290916",
            "tenant":"1",
            "profileAttributeFlag":true,
            "externalIdList": {
                "externalIds": [
                    {
                    "externalId" : "m.mk.m.k.a.s@gmail.com"
                    }
                ]
             }
            }
08.09.2016 13:16:45 +0200 10.0.32.247 Login token: 7414d6bbbf5ca0da276d85409cb9a1c9
08.09.2016 13:16:45 +0200 10.0.32.247 Login response: {"transactionId":"14733334051081290916","userRetrievedList":{"users":[{"id":3478,"description":"m.mk.m.k.a.s@gmail.com","parentBusinessUserId":2,"statusId":1,"roleTypeId":2,"defaultLanguageId":2,"userExternalIdList":{"externalIds":[{"externalId":"m.mk.m.k.a.s@gmail.com","defaultFlag":1,"type":"email","statusId":1}]},"userAttributeList":{"attributeValues":[{"attributeId":9,"attributeName":"name","attributeValue":"Mohamad","languageId":2,"languageName":"en","statusId":1,"statusName":"active"},{"attributeId":10,"attributeName":"surname","attributeValue":"Alkhatib","languageId":2,"languageName":"en","statusId":1,"statusName":"active"},{"attributeId":14,"attributeName":"email","attributeValue":"m.mk.m.k.a.s@gmail.com","languageId":2,"languageName":"en","statusId":1,"statusName":"active"},{"attributeId":49,"attributeName":"city","attributeValue":"Abu Dhabi","languageId":2,"languageName":"en","statusId":1,"statusName":"active"},{"attributeId":100003,"attributeName":"customerNumber","attributeValue":"CON-20160905-0340","languageId":2,"languageName":"en","statusId":1,"statusName":"active"},{"attributeId":100004,"attributeName":"language","attributeValue":"EN","languageId":2,"languageName":"en","statusId":1,"statusName":"active"},{"attributeId":100013,"attributeName":"NL_LEGOLAND","attributeValue":"False","languageId":2,"languageName":"en","statusId":1,"statusName":"active"},{"attributeId":100014,"attributeName":"NL_RIVERLAND","attributeValue":"False","languageId":2,"languageName":"en","statusId":1,"statusName":"active"},{"attributeId":100015,"attributeName":"NL_GENERAL_COMMUNICATION","attributeValue":"False","languageId":2,"languageName":"en","statusId":1,"statusName":"active"},{"attributeId":100018,"attributeName":"NL_BOLLIWOOD_PARK","attributeValue":"False","languageId":2,"languageName":"en","statusId":1,"statusName":"active"},{"attributeId":100019,"attributeName":"NL_MOTIONGATE","attributeValue":"False","languageId":2,"languageName":"en","statusId":1,"statusName":"active"},{"attributeId":100020,"attributeName":"NL_DUBAI_PARK_AND_RESORT","attributeValue":"True","languageId":2,"languageName":"en","statusId":1,"statusName":"active"}]}}]},"resultCode":"0"}
08.09.2016 13:16:45 +0200 10.0.32.247 Login status: 200
08.09.2016 13:18:24 +0200 10.0.32.247 TOKEN ricevuto, cache creata
08.09.2016 13:54:11 +0200 10.0.32.247 Login req: {
            "languageId":"2",
            "transactionId": "1473335650464775264",
            "tenant":"1",
            "profileAttributeFlag":true,
            "externalIdList": {
                "externalIds": [
                    {
                    "externalId" : "chriswebb@kenwoodtravel.com"
                    }
                ]
             }
            }
08.09.2016 13:54:11 +0200 10.0.32.247 Login token: de8b31df2a970581be1366cce773346
08.09.2016 13:54:11 +0200 10.0.32.247 Login response: {"transactionId":"1473335650464775264","userRetrievedList":{"users":[{"id":3480,"description":"chriswebb@kenwoodtravel.com","parentBusinessUserId":2,"statusId":1,"roleTypeId":2,"defaultLanguageId":2,"userExternalIdList":{"externalIds":[{"externalId":"chriswebb@kenwoodtravel.com","defaultFlag":1,"type":"email","statusId":1}]},"userAttributeList":{"attributeValues":[{"attributeId":9,"attributeName":"name","attributeValue":"Chris","languageId":2,"languageName":"en","statusId":1,"statusName":"active"},{"attributeId":10,"attributeName":"surname","attributeValue":"W","languageId":2,"languageName":"en","statusId":1,"statusName":"active"},{"attributeId":14,"attributeName":"email","attributeValue":"chriswebb@kenwoodtravel.com","languageId":2,"languageName":"en","statusId":1,"statusName":"active"},{"attributeId":100003,"attributeName":"customerNumber","attributeValue":"CON-20160908-0021","languageId":2,"languageName":"en","statusId":1,"statusName":"active"},{"attributeId":100004,"attributeName":"language","attributeValue":"EN","languageId":2,"languageName":"en","statusId":1,"statusName":"active"},{"attributeId":100020,"attributeName":"NL_DUBAI_PARK_AND_RESORT","attributeValue":"true","languageId":2,"languageName":"en","statusId":1,"statusName":"active"}]}}]},"resultCode":"0"}
08.09.2016 13:54:11 +0200 10.0.32.247 Login status: 200
08.09.2016 14:07:15 +0200 10.0.32.247 Login req: {
            "languageId":"2",
            "transactionId": "1473336435134153872",
            "tenant":"1",
            "profileAttributeFlag":true,
            "externalIdList": {
                "externalIds": [
                    {
                    "externalId" : "hisham.aboulela@gmail.com"
                    }
                ]
             }
            }
08.09.2016 14:07:15 +0200 10.0.32.247 Login token: 5fb9bfcf212cae105ff3c3e3c416f17
08.09.2016 14:07:15 +0200 10.0.32.247 Login response: {"transactionId":"1473336435134153872","userRetrievedList":{"users":[{"id":3481,"description":"hisham.aboulela@gmail.com","parentBusinessUserId":2,"statusId":1,"roleTypeId":2,"defaultLanguageId":2,"userExternalIdList":{"externalIds":[{"externalId":"hisham.aboulela@gmail.com","defaultFlag":1,"type":"email","statusId":1}]},"userAttributeList":{"attributeValues":[{"attributeId":9,"attributeName":"name","attributeValue":"Hisham","languageId":2,"languageName":"en","statusId":1,"statusName":"active"},{"attributeId":10,"attributeName":"surname","attributeValue":"Aboul Ela","languageId":2,"languageName":"en","statusId":1,"statusName":"active"},{"attributeId":14,"attributeName":"email","attributeValue":"hisham.aboulela@gmail.com","languageId":2,"languageName":"en","statusId":1,"statusName":"active"},{"attributeId":100003,"attributeName":"customerNumber","attributeValue":"CON-20160908-0022","languageId":2,"languageName":"en","statusId":1,"statusName":"active"},{"attributeId":100004,"attributeName":"language","attributeValue":"EN","languageId":2,"languageName":"en","statusId":1,"statusName":"active"},{"attributeId":100020,"attributeName":"NL_DUBAI_PARK_AND_RESORT","attributeValue":"true","languageId":2,"languageName":"en","statusId":1,"statusName":"active"}]}}]},"resultCode":"0"}
08.09.2016 14:07:15 +0200 10.0.32.247 Login status: 200
08.09.2016 14:18:29 +0200 10.0.32.247 TOKEN ricevuto, cache creata
08.09.2016 14:21:34 +0200 10.0.32.247 Login req: {
            "languageId":"2",
            "transactionId": "14733372941025392216",
            "tenant":"1",
            "profileAttributeFlag":true,
            "externalIdList": {
                "externalIds": [
                    {
                    "externalId" : "sandro.sossi@gmail.com"
                    }
                ]
             }
            }
08.09.2016 14:21:34 +0200 10.0.32.247 Login token: 66a8edce7849a8579e3bb98798e5baf
08.09.2016 14:21:34 +0200 10.0.32.247 Login response: {"transactionId":"14733372941025392216","userRetrievedList":{"users":[{"id":3482,"description":"sandro.sossi@gmail.com","parentBusinessUserId":2,"statusId":1,"roleTypeId":2,"defaultLanguageId":2,"userExternalIdList":{"externalIds":[{"externalId":"sandro.sossi@gmail.com","defaultFlag":1,"type":"email","statusId":1}]},"userAttributeList":{"attributeValues":[{"attributeId":5,"attributeName":"country","attributeValue":"United Arab Emirates","languageId":2,"languageName":"en","statusId":1,"statusName":"active"},{"attributeId":9,"attributeName":"name","attributeValue":"Sandro","languageId":2,"languageName":"en","statusId":1,"statusName":"active"},{"attributeId":10,"attributeName":"surname","attributeValue":"Sossi","languageId":2,"languageName":"en","statusId":1,"statusName":"active"},{"attributeId":14,"attributeName":"email","attributeValue":"sandro.sossi@gmail.com","languageId":2,"languageName":"en","statusId":1,"statusName":"active"},{"attributeId":49,"attributeName":"city","attributeValue":"Dubai","languageId":2,"languageName":"en","statusId":1,"statusName":"active"},{"attributeId":50,"attributeName":"zipCode","attributeValue":"00000","languageId":2,"languageName":"en","statusId":1,"statusName":"active"},{"attributeId":108,"attributeName":"address","attributeValue":"Elite 4 Residence Sports City","languageId":2,"languageName":"en","statusId":1,"statusName":"active"},{"attributeId":100001,"attributeName":"msisdn","attributeValue":"+971-508120461","languageId":2,"languageName":"en","statusId":1,"statusName":"active"},{"attributeId":100002,"attributeName":"birthday","attributeValue":"12\/24\/1974","languageId":2,"languageName":"en","statusId":1,"statusName":"active"},{"attributeId":100003,"attributeName":"customerNumber","attributeValue":"CON-20160425-0005","languageId":2,"languageName":"en","statusId":1,"statusName":"active"},{"attributeId":100004,"attributeName":"language","attributeValue":"EN","languageId":2,"languageName":"en","statusId":1,"statusName":"active"},{"attributeId":100013,"attributeName":"NL_LEGOLAND","attributeValue":"False","languageId":2,"languageName":"en","statusId":1,"statusName":"active"},{"attributeId":100014,"attributeName":"NL_RIVERLAND","attributeValue":"False","languageId":2,"languageName":"en","statusId":1,"statusName":"active"},{"attributeId":100015,"attributeName":"NL_GENERAL_COMMUNICATION","attributeValue":"False","languageId":2,"languageName":"en","statusId":1,"statusName":"active"},{"attributeId":100018,"attributeName":"NL_BOLLIWOOD_PARK","attributeValue":"False","languageId":2,"languageName":"en","statusId":1,"statusName":"active"},{"attributeId":100019,"attributeName":"NL_MOTIONGATE","attributeValue":"True","languageId":2,"languageName":"en","statusId":1,"statusName":"active"},{"attributeId":100020,"attributeName":"NL_DUBAI_PARK_AND_RESORT","attributeValue":"False","languageId":2,"languageName":"en","statusId":1,"statusName":"active"}]}}]},"resultCode":"0"}
08.09.2016 14:21:34 +0200 10.0.32.247 Login status: 200
08.09.2016 14:42:57 +0200 10.0.32.247 Login req: {
            "languageId":"2",
            "transactionId": "1473338577706583922",
            "tenant":"1",
            "profileAttributeFlag":true,
            "externalIdList": {
                "externalIds": [
                    {
                    "externalId" : "aroncm19@gmail.com"
                    }
                ]
             }
            }
08.09.2016 14:42:57 +0200 10.0.32.247 Login token: 72cf94b0e2a273b1e253e9d2cc2282c9
08.09.2016 14:42:57 +0200 10.0.32.247 Login response: {"transactionId":"1473338577706583922","userRetrievedList":{"users":[{"id":2831,"description":"aroncm19@gmail.com","parentBusinessUserId":2,"statusId":1,"roleTypeId":2,"defaultLanguageId":2,"userExternalIdList":{"externalIds":[{"externalId":"aroncm19@gmail.com","defaultFlag":1,"type":"email","statusId":1}]},"userAttributeList":{"attributeValues":[{"attributeId":9,"attributeName":"name","attributeValue":"ARON","languageId":2,"languageName":"en","statusId":1,"statusName":"active"},{"attributeId":10,"attributeName":"surname","attributeValue":"MANALILI","languageId":2,"languageName":"en","statusId":1,"statusName":"active"},{"attributeId":14,"attributeName":"email","attributeValue":"aroncm19@gmail.com","languageId":2,"languageName":"en","statusId":1,"statusName":"active"},{"attributeId":100003,"attributeName":"customerNumber","attributeValue":"CON-20160819-0022","languageId":2,"languageName":"en","statusId":1,"statusName":"active"},{"attributeId":100004,"attributeName":"language","attributeValue":"EN","languageId":2,"languageName":"en","statusId":1,"statusName":"active"},{"attributeId":100013,"attributeName":"NL_LEGOLAND","attributeValue":"False","languageId":2,"languageName":"en","statusId":1,"statusName":"active"},{"attributeId":100014,"attributeName":"NL_RIVERLAND","attributeValue":"False","languageId":2,"languageName":"en","statusId":1,"statusName":"active"},{"attributeId":100015,"attributeName":"NL_GENERAL_COMMUNICATION","attributeValue":"False","languageId":2,"languageName":"en","statusId":1,"statusName":"active"},{"attributeId":100018,"attributeName":"NL_BOLLIWOOD_PARK","attributeValue":"False","languageId":2,"languageName":"en","statusId":1,"statusName":"active"},{"attributeId":100019,"attributeName":"NL_MOTIONGATE","attributeValue":"False","languageId":2,"languageName":"en","statusId":1,"statusName":"active"},{"attributeId":100020,"attributeName":"NL_DUBAI_PARK_AND_RESORT","attributeValue":"False","languageId":2,"languageName":"en","statusId":1,"statusName":"active"}]}}]},"resultCode":"0"}
08.09.2016 14:42:57 +0200 10.0.32.247 Login status: 200
08.09.2016 15:02:37 +0200 10.0.32.247 Login req: {
            "languageId":"2",
            "transactionId": "14733397571083515672",
            "tenant":"1",
            "profileAttributeFlag":true,
            "externalIdList": {
                "externalIds": [
                    {
                    "externalId" : "nqumri@gmail.com"
                    }
                ]
             }
            }
08.09.2016 15:02:38 +0200 10.0.32.247 Login token: fb516af8bfd47f485a6231d8c99ce
08.09.2016 15:02:38 +0200 10.0.32.247 Login response: {"transactionId":"14733397571083515672","userRetrievedList":{"users":[{"id":3483,"description":"nqumri@gmail.com","parentBusinessUserId":2,"statusId":1,"roleTypeId":2,"defaultLanguageId":2,"userExternalIdList":{"externalIds":[{"externalId":"nqumri@gmail.com","defaultFlag":1,"type":"email","statusId":1}]},"userAttributeList":{"attributeValues":[{"attributeId":9,"attributeName":"name","attributeValue":"Nasri","languageId":2,"languageName":"en","statusId":1,"statusName":"active"},{"attributeId":10,"attributeName":"surname","attributeValue":"Qumri","languageId":2,"languageName":"en","statusId":1,"statusName":"active"},{"attributeId":14,"attributeName":"email","attributeValue":"nqumri@gmail.com","languageId":2,"languageName":"en","statusId":1,"statusName":"active"},{"attributeId":100003,"attributeName":"customerNumber","attributeValue":"CON-20160908-0024","languageId":2,"languageName":"en","statusId":1,"statusName":"active"},{"attributeId":100004,"attributeName":"language","attributeValue":"EN","languageId":2,"languageName":"en","statusId":1,"statusName":"active"},{"attributeId":100020,"attributeName":"NL_DUBAI_PARK_AND_RESORT","attributeValue":"true","languageId":2,"languageName":"en","statusId":1,"statusName":"active"}]}}]},"resultCode":"0"}
08.09.2016 15:02:38 +0200 10.0.32.247 Login status: 200
08.09.2016 15:18:49 +0200 10.0.32.247 TOKEN ricevuto, cache creata
08.09.2016 16:19:17 +0200 10.0.32.247 TOKEN ricevuto, cache creata
08.09.2016 16:56:11 +0200 10.0.32.247 Login req: {
            "languageId":"2",
            "transactionId": "1473346571914340667",
            "tenant":"1",
            "profileAttributeFlag":true,
            "externalIdList": {
                "externalIds": [
                    {
                    "externalId" : "Jasem7m@yahoo.com"
                    }
                ]
             }
            }
08.09.2016 16:56:11 +0200 10.0.32.247 Login token: ceee50f6f5bac5b8e649d3ddf428f
08.09.2016 16:56:11 +0200 10.0.32.247 Login response: {"transactionId":"1473346571914340667","userRetrievedList":{"users":[{"id":3485,"description":"Jasem7m@yahoo.com","parentBusinessUserId":2,"statusId":1,"roleTypeId":2,"defaultLanguageId":2,"userExternalIdList":{"externalIds":[{"externalId":"Jasem7m@yahoo.com","defaultFlag":1,"type":"email","statusId":1}]},"userAttributeList":{"attributeValues":[{"attributeId":9,"attributeName":"name","attributeValue":"Jasem","languageId":2,"languageName":"en","statusId":1,"statusName":"active"},{"attributeId":10,"attributeName":"surname","attributeValue":"Alshehhi ","languageId":2,"languageName":"en","statusId":1,"statusName":"active"},{"attributeId":14,"attributeName":"email","attributeValue":"Jasem7m@yahoo.com","languageId":2,"languageName":"en","statusId":1,"statusName":"active"},{"attributeId":100003,"attributeName":"customerNumber","attributeValue":"CON-20160908-0030","languageId":2,"languageName":"en","statusId":1,"statusName":"active"},{"attributeId":100004,"attributeName":"language","attributeValue":"EN","languageId":2,"languageName":"en","statusId":1,"statusName":"active"},{"attributeId":100020,"attributeName":"NL_DUBAI_PARK_AND_RESORT","attributeValue":"true","languageId":2,"languageName":"en","statusId":1,"statusName":"active"}]}}]},"resultCode":"0"}
08.09.2016 16:56:11 +0200 10.0.32.247 Login status: 200
08.09.2016 17:18:30 +0200 10.0.32.247 TOKEN expired => RENEWING. Server response =>401
08.09.2016 17:18:30 +0200 10.0.32.247 RENEWING token
08.09.2016 17:18:53 +0200 10.0.32.247 TOKEN expired => RENEWING. Server response =>401
08.09.2016 17:18:53 +0200 10.0.32.247 RENEWING token
08.09.2016 17:18:56 +0200 10.0.32.247 RENEW TOKEN RESULT =>200 || f8a857451a9a98e6f44ffe5fd7c34dd
08.09.2016 17:18:57 +0200 10.0.32.247 error in acapiaccess_getProducts_annualPass: 
08.09.2016 17:19:19 +0200 10.0.32.247 RENEW TOKEN RESULT =>200 || f8a857451a9a98e6f44ffe5fd7c34dd
08.09.2016 17:19:20 +0200 10.0.32.247 error in acapiaccess_getProducts_annualPass: 
08.09.2016 18:20:38 +0200 10.0.32.247 TOKEN ricevuto, cache creata
08.09.2016 18:21:27 +0200 10.0.32.247 TOKEN ricevuto, cache creata
08.09.2016 18:22:25 +0200 10.0.32.247 TOKEN ricevuto, cache creata
08.09.2016 19:01:16 +0200 10.0.32.247 Login req: {
            "languageId":"2",
            "transactionId": "1473354076710281033",
            "tenant":"1",
            "profileAttributeFlag":true,
            "externalIdList": {
                "externalIds": [
                    {
                    "externalId" : "reemsweet1@hotmail.com"
                    }
                ]
             }
            }
08.09.2016 19:01:16 +0200 10.0.32.247 Login token: de5c52bfbd8fbfc089b967f4359664b
08.09.2016 19:01:16 +0200 10.0.32.247 Login response: {"transactionId":"1473354076710281033","userRetrievedList":{"users":[{"id":3488,"description":"reemsweet1@hotmail.com","parentBusinessUserId":2,"statusId":1,"roleTypeId":2,"defaultLanguageId":2,"userExternalIdList":{"externalIds":[{"externalId":"reemsweet1@hotmail.com","defaultFlag":1,"type":"email","statusId":1}]},"userAttributeList":{"attributeValues":[{"attributeId":9,"attributeName":"name","attributeValue":"Reem","languageId":2,"languageName":"en","statusId":1,"statusName":"active"},{"attributeId":10,"attributeName":"surname","attributeValue":"Badrek","languageId":2,"languageName":"en","statusId":1,"statusName":"active"},{"attributeId":14,"attributeName":"email","attributeValue":"reemsweet1@hotmail.com","languageId":2,"languageName":"en","statusId":1,"statusName":"active"},{"attributeId":100003,"attributeName":"customerNumber","attributeValue":"CON-20160908-0033","languageId":2,"languageName":"en","statusId":1,"statusName":"active"},{"attributeId":100004,"attributeName":"language","attributeValue":"EN","languageId":2,"languageName":"en","statusId":1,"statusName":"active"},{"attributeId":100020,"attributeName":"NL_DUBAI_PARK_AND_RESORT","attributeValue":"true","languageId":2,"languageName":"en","statusId":1,"statusName":"active"}]}}]},"resultCode":"0"}
08.09.2016 19:01:16 +0200 10.0.32.247 Login status: 200
08.09.2016 19:04:47 +0200 10.0.32.247 Login req: {
            "languageId":"2",
            "transactionId": "1473354287932789096",
            "tenant":"1",
            "profileAttributeFlag":true,
            "externalIdList": {
                "externalIds": [
                    {
                    "externalId" : "jacob.f.pomperada@gmail.com"
                    }
                ]
             }
            }
08.09.2016 19:04:47 +0200 10.0.32.247 Login token: 786d49705acc1b9c13c142e5277701d
08.09.2016 19:04:47 +0200 10.0.32.247 Login response: {"transactionId":"1473354287932789096","userRetrievedList":{"users":[{"id":2309,"description":"jacob.f.pomperada@gmail.com","parentBusinessUserId":2,"statusId":1,"roleTypeId":2,"defaultLanguageId":2,"userExternalIdList":{"externalIds":[{"externalId":"jacob.f.pomperada@gmail.com","defaultFlag":1,"type":"email","statusId":1}]},"userAttributeList":{"attributeValues":[{"attributeId":9,"attributeName":"name","attributeValue":"Jacob","languageId":2,"languageName":"en","statusId":1,"statusName":"active"},{"attributeId":10,"attributeName":"surname","attributeValue":"Pomperada","languageId":2,"languageName":"en","statusId":1,"statusName":"active"},{"attributeId":14,"attributeName":"email","attributeValue":"jacob.f.pomperada@gmail.com","languageId":2,"languageName":"en","statusId":1,"statusName":"active"},{"attributeId":100003,"attributeName":"customerNumber","attributeValue":"CON-20160725-0018","languageId":2,"languageName":"en","statusId":1,"statusName":"active"},{"attributeId":100004,"attributeName":"language","attributeValue":"EN","languageId":2,"languageName":"en","statusId":1,"statusName":"active"},{"attributeId":100013,"attributeName":"NL_LEGOLAND","attributeValue":"False","languageId":2,"languageName":"en","statusId":1,"statusName":"active"},{"attributeId":100014,"attributeName":"NL_RIVERLAND","attributeValue":"False","languageId":2,"languageName":"en","statusId":1,"statusName":"active"},{"attributeId":100015,"attributeName":"NL_GENERAL_COMMUNICATION","attributeValue":"False","languageId":2,"languageName":"en","statusId":1,"statusName":"active"},{"attributeId":100018,"attributeName":"NL_BOLLIWOOD_PARK","attributeValue":"False","languageId":2,"languageName":"en","statusId":1,"statusName":"active"},{"attributeId":100019,"attributeName":"NL_MOTIONGATE","attributeValue":"False","languageId":2,"languageName":"en","statusId":1,"statusName":"active"},{"attributeId":100020,"attributeName":"NL_DUBAI_PARK_AND_RESORT","attributeValue":"False","languageId":2,"languageName":"en","statusId":1,"statusName":"active"}]}}]},"resultCode":"0"}
08.09.2016 19:04:47 +0200 10.0.32.247 Login status: 200
08.09.2016 19:23:25 +0200 10.0.32.247 TOKEN ricevuto, cache creata
08.09.2016 19:23:30 +0200 10.0.32.247 TOKEN ricevuto, cache creata
08.09.2016 19:23:56 +0200 10.0.32.247 TOKEN ricevuto, cache creata
08.09.2016 19:40:50 +0200 10.0.32.247 Login req: {
            "languageId":"2",
            "transactionId": "14733564501217943652",
            "tenant":"1",
            "profileAttributeFlag":true,
            "externalIdList": {
                "externalIds": [
                    {
                    "externalId" : "10207744703647730"
                    }
                ]
             }
            }
08.09.2016 19:40:50 +0200 10.0.32.247 Login token: db10b23d10188c23cced86e6549fcb3e
08.09.2016 19:40:50 +0200 10.0.32.247 Login response: {"transactionId":"14733564501217943652","userRetrievedList":{"users":[{"id":77,"description":"10207744703647730","parentBusinessUserId":2,"statusId":1,"roleTypeId":2,"defaultLanguageId":2,"userExternalIdList":{"externalIds":[{"externalId":"10207744703647730","defaultFlag":1,"type":"socialID","statusId":1}]},"userAttributeList":{"attributeValues":[{"attributeId":5,"attributeName":"country","attributeValue":"United Arab Emirates","languageId":2,"languageName":"en","statusId":1,"statusName":"active"},{"attributeId":9,"attributeName":"name","attributeValue":"Sandro","languageId":2,"languageName":"en","statusId":1,"statusName":"active"},{"attributeId":10,"attributeName":"surname","attributeValue":"Sossi","languageId":2,"languageName":"en","statusId":1,"statusName":"active"},{"attributeId":14,"attributeName":"email","attributeValue":"sandro.sossi@gmail.com","languageId":2,"languageName":"en","statusId":1,"statusName":"active"},{"attributeId":49,"attributeName":"city","attributeValue":"Dubai","languageId":2,"languageName":"en","statusId":1,"statusName":"active"},{"attributeId":50,"attributeName":"zipCode","attributeValue":"00000","languageId":2,"languageName":"en","statusId":1,"statusName":"active"},{"attributeId":108,"attributeName":"address","attributeValue":"Elite 4 Residence Sports City","languageId":2,"languageName":"en","statusId":1,"statusName":"active"},{"attributeId":100001,"attributeName":"msisdn","attributeValue":"+971-508120461","languageId":2,"languageName":"en","statusId":1,"statusName":"active"},{"attributeId":100002,"attributeName":"birthday","attributeValue":"12\/24\/1974","languageId":2,"languageName":"en","statusId":1,"statusName":"active"},{"attributeId":100003,"attributeName":"customerNumber","attributeValue":"CON-20160425-0005","languageId":2,"languageName":"en","statusId":1,"statusName":"active"},{"attributeId":100004,"attributeName":"language","attributeValue":"en","languageId":2,"languageName":"en","statusId":1,"statusName":"active"},{"attributeId":100013,"attributeName":"NL_LEGOLAND","attributeValue":"false","languageId":2,"languageName":"en","statusId":1,"statusName":"active"},{"attributeId":100014,"attributeName":"NL_RIVERLAND","attributeValue":"false","languageId":2,"languageName":"en","statusId":1,"statusName":"active"},{"attributeId":100017,"attributeName":"mascotteID","attributeValue":"mascotte7_b.fw","languageId":2,"languageName":"en","statusId":1,"statusName":"active"},{"attributeId":100018,"attributeName":"NL_BOLLIWOOD_PARK","attributeValue":"false","languageId":2,"languageName":"en","statusId":1,"statusName":"active"},{"attributeId":100019,"attributeName":"NL_MOTIONGATE","attributeValue":"true","languageId":2,"languageName":"en","statusId":1,"statusName":"active"},{"attributeId":100020,"attributeName":"NL_DUBAI_PARK_AND_RESORT","attributeValue":"false","languageId":2,"languageName":"en","statusId":1,"statusName":"active"}]}}]},"resultCode":"0"}
08.09.2016 19:40:50 +0200 10.0.32.247 Login status: 200
08.09.2016 20:23:03 +0200 10.0.32.247 TOKEN expired => RENEWING. Server response =>401
08.09.2016 20:23:03 +0200 10.0.32.247 RENEWING token
08.09.2016 20:23:03 +0200 10.0.32.247 RENEW TOKEN RESULT =>200 || dbe2cad9302c4c13ee9e30e52d2c1e6
08.09.2016 20:23:03 +0200 10.0.32.247 error in acapiaccess_getProducts_annualPass: 
08.09.2016 20:41:05 +0200 10.0.32.247 error in acapiaccess_getProducts_annualPass: 
08.09.2016 21:19:09 +0200 10.0.32.247 TOKEN expired => RENEWING. Server response =>401
08.09.2016 21:19:09 +0200 10.0.32.247 RENEWING token
08.09.2016 21:19:09 +0200 10.0.32.247 RENEW TOKEN RESULT =>200 || 460ed5b42834d68dfa299a443fff2f7
08.09.2016 21:19:10 +0200 10.0.32.247 error in acapiaccess_getProducts_annualPass: 
08.09.2016 21:39:16 +0200 10.0.32.247 Login req: {
            "languageId":"2",
            "transactionId": "1473363556122571407",
            "tenant":"1",
            "profileAttributeFlag":true,
            "externalIdList": {
                "externalIds": [
                    {
                    "externalId" : "10206006930126978"
                    }
                ]
             }
            }
08.09.2016 21:39:16 +0200 10.0.32.247 Login token: 9d4d6980288f94b963e1a13783f5f8a
08.09.2016 21:39:16 +0200 10.0.32.247 Login response: {"transactionId":"1473363556122571407","userRetrievedList":{"users":[{"id":3493,"description":"10206006930126978","parentBusinessUserId":2,"statusId":1,"roleTypeId":2,"defaultLanguageId":2,"userExternalIdList":{"externalIds":[{"externalId":"10206006930126978","defaultFlag":1,"type":"socialID","statusId":1}]},"userAttributeList":{"attributeValues":[{"attributeId":9,"attributeName":"name","attributeValue":"Thereza","languageId":2,"languageName":"en","statusId":1,"statusName":"active"},{"attributeId":10,"attributeName":"surname","attributeValue":"Lago","languageId":2,"languageName":"en","statusId":1,"statusName":"active"},{"attributeId":14,"attributeName":"email","attributeValue":"therezasilva@hotmail.com","languageId":2,"languageName":"en","statusId":1,"statusName":"active"},{"attributeId":100004,"attributeName":"language","attributeValue":"en","languageId":2,"languageName":"en","statusId":1,"statusName":"active"}]}}]},"resultCode":"0"}
08.09.2016 21:39:16 +0200 10.0.32.247 Login status: 200
08.09.2016 22:18:53 +0200 10.0.32.247 TOKEN expired => RENEWING. Server response =>401
08.09.2016 22:18:53 +0200 10.0.32.247 RENEWING token
08.09.2016 22:18:53 +0200 10.0.32.247 RENEW TOKEN RESULT =>200 || 5fdc8ae5915147969b16b243670ef81
08.09.2016 22:18:53 +0200 10.0.32.247 error in acapiaccess_getProducts_annualPass: 
08.09.2016 22:32:49 +0200 10.0.32.247 Login req: {
            "languageId":"2",
            "transactionId": "147336676951637588",
            "tenant":"1",
            "profileAttributeFlag":true,
            "externalIdList": {
                "externalIds": [
                    {
                    "externalId" : "jacob.f.pomperada@gmail.com"
                    }
                ]
             }
            }
08.09.2016 22:32:49 +0200 10.0.32.247 Login token: 1ac1c51cf8f5e191cc4e87d77cebd69
08.09.2016 22:32:49 +0200 10.0.32.247 Login response: {"transactionId":"147336676951637588","userRetrievedList":{"users":[{"id":2309,"description":"jacob.f.pomperada@gmail.com","parentBusinessUserId":2,"statusId":1,"roleTypeId":2,"defaultLanguageId":2,"userExternalIdList":{"externalIds":[{"externalId":"jacob.f.pomperada@gmail.com","defaultFlag":1,"type":"email","statusId":1}]},"userAttributeList":{"attributeValues":[{"attributeId":9,"attributeName":"name","attributeValue":"Jacob","languageId":2,"languageName":"en","statusId":1,"statusName":"active"},{"attributeId":10,"attributeName":"surname","attributeValue":"Pomperada","languageId":2,"languageName":"en","statusId":1,"statusName":"active"},{"attributeId":14,"attributeName":"email","attributeValue":"jacob.f.pomperada@gmail.com","languageId":2,"languageName":"en","statusId":1,"statusName":"active"},{"attributeId":100003,"attributeName":"customerNumber","attributeValue":"CON-20160725-0018","languageId":2,"languageName":"en","statusId":1,"statusName":"active"},{"attributeId":100004,"attributeName":"language","attributeValue":"EN","languageId":2,"languageName":"en","statusId":1,"statusName":"active"},{"attributeId":100013,"attributeName":"NL_LEGOLAND","attributeValue":"False","languageId":2,"languageName":"en","statusId":1,"statusName":"active"},{"attributeId":100014,"attributeName":"NL_RIVERLAND","attributeValue":"False","languageId":2,"languageName":"en","statusId":1,"statusName":"active"},{"attributeId":100015,"attributeName":"NL_GENERAL_COMMUNICATION","attributeValue":"False","languageId":2,"languageName":"en","statusId":1,"statusName":"active"},{"attributeId":100018,"attributeName":"NL_BOLLIWOOD_PARK","attributeValue":"False","languageId":2,"languageName":"en","statusId":1,"statusName":"active"},{"attributeId":100019,"attributeName":"NL_MOTIONGATE","attributeValue":"False","languageId":2,"languageName":"en","statusId":1,"statusName":"active"},{"attributeId":100020,"attributeName":"NL_DUBAI_PARK_AND_RESORT","attributeValue":"False","languageId":2,"languageName":"en","statusId":1,"statusName":"active"}]}}]},"resultCode":"0"}
08.09.2016 22:32:49 +0200 10.0.32.247 Login status: 200
08.09.2016 23:51:18 +0200 10.0.32.247 TOKEN ricevuto, cache creata