
09.04.2016 10:00:15 +0200 10.0.11.73 TOKEN ricevuto, cache creata
09.04.2016 11:14:41 +0200 10.0.11.73 TOKEN ricevuto, cache creata
09.04.2016 12:36:42 +0200 10.0.11.73 TOKEN ricevuto, cache creata
09.04.2016 12:36:54 +0200 10.0.11.73 Login req: {
            "languageId":"2",
            "transactionId": "14601982141310509003",
            "tenant":"1",
            "profileAttributeFlag":true,
            "externalIdList": {
                "externalIds": [
                    {
                    "externalId" : "mail2dpr@mailinator.com"
                    }
                ]
             }   
            }
09.04.2016 12:36:54 +0200 10.0.11.73 Login token: e8747e14b838ab59ee7248ca72b988
09.04.2016 12:36:54 +0200 10.0.11.73 Login response: {"transactionId":"14601982141310509003","userRetrievedList":{"users":[{"id":514,"description":"mail2dpr@mailinator.com","parentBusinessUserId":2,"statusId":1,"roleTypeId":2,"defaultLanguageId":2,"userExternalIdList":{"externalIds":[{"externalId":"mail2dpr@mailinator.com","defaultFlag":1,"type":"email","statusId":1}]},"userAttributeList":{"attributeValues":[{"attributeId":9,"attributeName":"name","attributeValue":"mbre","languageId":2,"languageName":"en","statusId":1,"statusName":"active"},{"attributeId":10,"attributeName":"surname","attributeValue":"ber","languageId":2,"languageName":"en","statusId":1,"statusName":"active"},{"attributeId":14,"attributeName":"email","attributeValue":"mail2dpr@mailinator.com","languageId":2,"languageName":"en","statusId":1,"statusName":"active"},{"attributeId":100003,"attributeName":"customerNumber","attributeValue":"CON-20160408-0005","languageId":2,"languageName":"en","statusId":1,"statusName":"active"},{"attributeId":100004,"attributeName":"language","attributeValue":"EN","languageId":2,"languageName":"en","statusId":1,"statusName":"active"},{"attributeId":100010,"attributeName":"NL_DUBAI_PARK_AND_RESORT","attributeValue":"true","languageId":2,"languageName":"en","statusId":1,"statusName":"active"},{"attributeId":100011,"attributeName":"NL_MOTIONGATE","attributeValue":"true","languageId":2,"languageName":"en","statusId":1,"statusName":"active"},{"attributeId":100012,"attributeName":"NL_BOLLIWOOD_PARK","attributeValue":"true","languageId":2,"languageName":"en","statusId":1,"statusName":"active"},{"attributeId":100019,"attributeName":"NL_GENERAL_COMMUNICATION","attributeValue":"true","languageId":2,"languageName":"en","statusId":1,"statusName":"active"},{"attributeId":100021,"attributeName":"NL_LEGOLAND","attributeValue":"true","languageId":2,"languageName":"en","statusId":1,"statusName":"active"},{"attributeId":100022,"attributeName":"NL_RIVERLAND","attributeValue":"true","languageId":2,"languageName":"en","statusId":1,"statusName":"active"}]}}]},"resultCode":"0"}
09.04.2016 12:36:54 +0200 10.0.11.73 Login status: 200
09.04.2016 13:05:01 +0200 10.0.11.73 TOKEN expired => RENEWING. Server response =>401
09.04.2016 13:05:01 +0200 10.0.11.73 RENEWING token
09.04.2016 13:05:01 +0200 10.0.11.73 RENEW TOKEN RESULT =>200 || 6f2cce5b767c27707b942550cb6a587
09.04.2016 13:05:02 +0200 10.0.11.73 error in acapiaccess_getProducts_annualPass: 
09.04.2016 13:58:59 +0200 10.0.11.73 Login req: {
            "languageId":"2",
            "transactionId": "14602031391613747817",
            "tenant":"1",
            "profileAttributeFlag":true,
            "externalIdList": {
                "externalIds": [
                    {
                    "externalId" : "Sanitybolly@mailinator.com"
                    }
                ]
             }   
            }
09.04.2016 13:58:59 +0200 10.0.11.73 Login token: 49859791c3b018174b5a924120f8ea70
09.04.2016 13:58:59 +0200 10.0.11.73 Login response: {"transactionId":"14602031391613747817","userRetrievedList":{"users":[{"id":254,"description":"sanityBOLLY@mailinator.com","parentBusinessUserId":2,"statusId":1,"roleTypeId":2,"defaultLanguageId":2,"userExternalIdList":{"externalIds":[{"externalId":"sanityBOLLY@mailinator.com","defaultFlag":1,"type":"email","statusId":1}]},"userAttributeList":{"attributeValues":[{"attributeId":5,"attributeName":"country","attributeValue":"Albania","languageId":2,"languageName":"en","statusId":1,"statusName":"active"},{"attributeId":9,"attributeName":"name","attributeValue":"Nshdhs","languageId":2,"languageName":"en","statusId":1,"statusName":"active"},{"attributeId":10,"attributeName":"surname","attributeValue":"Bshshs","languageId":2,"languageName":"en","statusId":1,"statusName":"active"},{"attributeId":14,"attributeName":"email","attributeValue":"sanitybolly@mailinator.com","languageId":2,"languageName":"en","statusId":1,"statusName":"active"},{"attributeId":49,"attributeName":"city","attributeValue":"Mediglia","languageId":2,"languageName":"en","statusId":1,"statusName":"active"},{"attributeId":50,"attributeName":"zipCode","attributeValue":"20060","languageId":2,"languageName":"en","statusId":1,"statusName":"active"},{"attributeId":108,"attributeName":"address","attributeValue":"Via Stella Del Sud 8","languageId":2,"languageName":"en","statusId":1,"statusName":"active"},{"attributeId":100001,"attributeName":"msisdn","attributeValue":"+1 787-474747","languageId":2,"languageName":"en","statusId":1,"statusName":"active"},{"attributeId":100002,"attributeName":"birthday","attributeValue":"3\/26\/2016","languageId":2,"languageName":"en","statusId":1,"statusName":"active"},{"attributeId":100003,"attributeName":"customerNumber","attributeValue":"CON-20160326-0007","languageId":2,"languageName":"en","statusId":1,"statusName":"active"},{"attributeId":100004,"attributeName":"language","attributeValue":"en","languageId":2,"languageName":"en","statusId":1,"statusName":"active"},{"attributeId":100010,"attributeName":"NL_DUBAI_PARK_AND_RESORT","attributeValue":"True","languageId":2,"languageName":"en","statusId":1,"statusName":"active"},{"attributeId":100011,"attributeName":"NL_MOTIONGATE","attributeValue":"False","languageId":2,"languageName":"en","statusId":1,"statusName":"active"},{"attributeId":100012,"attributeName":"NL_BOLLIWOOD_PARK","attributeValue":"False","languageId":2,"languageName":"en","statusId":1,"statusName":"active"},{"attributeId":100019,"attributeName":"NL_GENERAL_COMMUNICATION","attributeValue":"False","languageId":2,"languageName":"en","statusId":1,"statusName":"active"},{"attributeId":100021,"attributeName":"NL_LEGOLAND","attributeValue":"False","languageId":2,"languageName":"en","statusId":1,"statusName":"active"},{"attributeId":100022,"attributeName":"NL_RIVERLAND","attributeValue":"True","languageId":2,"languageName":"en","statusId":1,"statusName":"active"},{"attributeId":100023,"attributeName":"mascotteID","attributeValue":"mascotte6_b.fw","languageId":2,"languageName":"en","statusId":1,"statusName":"active"}]}}]},"resultCode":"0"}
09.04.2016 13:58:59 +0200 10.0.11.73 Login status: 200
09.04.2016 14:00:19 +0200 10.0.11.73 Login req: {
            "languageId":"2",
            "transactionId": "14602032191566541588",
            "tenant":"1",
            "profileAttributeFlag":true,
            "externalIdList": {
                "externalIds": [
                    {
                    "externalId" : "Sanitybolly@mailinator.com"
                    }
                ]
             }   
            }
09.04.2016 14:00:19 +0200 10.0.11.73 Login token: 49859791c3b018174b5a924120f8ea70
09.04.2016 14:00:19 +0200 10.0.11.73 Login response: {"transactionId":"14602032191566541588","userRetrievedList":{"users":[{"id":254,"description":"sanityBOLLY@mailinator.com","parentBusinessUserId":2,"statusId":1,"roleTypeId":2,"defaultLanguageId":2,"userExternalIdList":{"externalIds":[{"externalId":"sanityBOLLY@mailinator.com","defaultFlag":1,"type":"email","statusId":1}]},"userAttributeList":{"attributeValues":[{"attributeId":5,"attributeName":"country","attributeValue":"Albania","languageId":2,"languageName":"en","statusId":1,"statusName":"active"},{"attributeId":9,"attributeName":"name","attributeValue":"Nshdhs","languageId":2,"languageName":"en","statusId":1,"statusName":"active"},{"attributeId":10,"attributeName":"surname","attributeValue":"Bshshs","languageId":2,"languageName":"en","statusId":1,"statusName":"active"},{"attributeId":14,"attributeName":"email","attributeValue":"sanitybolly@mailinator.com","languageId":2,"languageName":"en","statusId":1,"statusName":"active"},{"attributeId":49,"attributeName":"city","attributeValue":"Mediglia","languageId":2,"languageName":"en","statusId":1,"statusName":"active"},{"attributeId":50,"attributeName":"zipCode","attributeValue":"20060","languageId":2,"languageName":"en","statusId":1,"statusName":"active"},{"attributeId":108,"attributeName":"address","attributeValue":"Via Stella Del Sud 8","languageId":2,"languageName":"en","statusId":1,"statusName":"active"},{"attributeId":100001,"attributeName":"msisdn","attributeValue":"+1 787-474747","languageId":2,"languageName":"en","statusId":1,"statusName":"active"},{"attributeId":100002,"attributeName":"birthday","attributeValue":"3\/26\/2016","languageId":2,"languageName":"en","statusId":1,"statusName":"active"},{"attributeId":100003,"attributeName":"customerNumber","attributeValue":"CON-20160326-0007","languageId":2,"languageName":"en","statusId":1,"statusName":"active"},{"attributeId":100004,"attributeName":"language","attributeValue":"en","languageId":2,"languageName":"en","statusId":1,"statusName":"active"},{"attributeId":100010,"attributeName":"NL_DUBAI_PARK_AND_RESORT","attributeValue":"True","languageId":2,"languageName":"en","statusId":1,"statusName":"active"},{"attributeId":100011,"attributeName":"NL_MOTIONGATE","attributeValue":"False","languageId":2,"languageName":"en","statusId":1,"statusName":"active"},{"attributeId":100012,"attributeName":"NL_BOLLIWOOD_PARK","attributeValue":"False","languageId":2,"languageName":"en","statusId":1,"statusName":"active"},{"attributeId":100019,"attributeName":"NL_GENERAL_COMMUNICATION","attributeValue":"False","languageId":2,"languageName":"en","statusId":1,"statusName":"active"},{"attributeId":100021,"attributeName":"NL_LEGOLAND","attributeValue":"False","languageId":2,"languageName":"en","statusId":1,"statusName":"active"},{"attributeId":100022,"attributeName":"NL_RIVERLAND","attributeValue":"True","languageId":2,"languageName":"en","statusId":1,"statusName":"active"},{"attributeId":100023,"attributeName":"mascotteID","attributeValue":"mascotte6_b.fw","languageId":2,"languageName":"en","statusId":1,"statusName":"active"}]}}]},"resultCode":"0"}
09.04.2016 14:00:19 +0200 10.0.11.73 Login status: 200
09.04.2016 14:00:52 +0200 10.0.11.73 Login req: {
            "languageId":"2",
            "transactionId": "14602032521630627024",
            "tenant":"1",
            "profileAttributeFlag":true,
            "externalIdList": {
                "externalIds": [
                    {
                    "externalId" : "sanityBOLLY@mailinator.com"
                    }
                ]
             }   
            }
09.04.2016 14:00:52 +0200 10.0.11.73 Login token: 49859791c3b018174b5a924120f8ea70
09.04.2016 14:00:52 +0200 10.0.11.73 Login response: {"transactionId":"14602032521630627024","userRetrievedList":{"users":[{"id":254,"description":"sanityBOLLY@mailinator.com","parentBusinessUserId":2,"statusId":1,"roleTypeId":2,"defaultLanguageId":2,"userExternalIdList":{"externalIds":[{"externalId":"sanityBOLLY@mailinator.com","defaultFlag":1,"type":"email","statusId":1}]},"userAttributeList":{"attributeValues":[{"attributeId":5,"attributeName":"country","attributeValue":"Albania","languageId":2,"languageName":"en","statusId":1,"statusName":"active"},{"attributeId":9,"attributeName":"name","attributeValue":"Nshdhs","languageId":2,"languageName":"en","statusId":1,"statusName":"active"},{"attributeId":10,"attributeName":"surname","attributeValue":"Bshshs","languageId":2,"languageName":"en","statusId":1,"statusName":"active"},{"attributeId":14,"attributeName":"email","attributeValue":"sanitybolly@mailinator.com","languageId":2,"languageName":"en","statusId":1,"statusName":"active"},{"attributeId":49,"attributeName":"city","attributeValue":"Mediglia","languageId":2,"languageName":"en","statusId":1,"statusName":"active"},{"attributeId":50,"attributeName":"zipCode","attributeValue":"20060","languageId":2,"languageName":"en","statusId":1,"statusName":"active"},{"attributeId":108,"attributeName":"address","attributeValue":"Via Stella Del Sud 8","languageId":2,"languageName":"en","statusId":1,"statusName":"active"},{"attributeId":100001,"attributeName":"msisdn","attributeValue":"+1 787-474747","languageId":2,"languageName":"en","statusId":1,"statusName":"active"},{"attributeId":100002,"attributeName":"birthday","attributeValue":"3\/26\/2016","languageId":2,"languageName":"en","statusId":1,"statusName":"active"},{"attributeId":100003,"attributeName":"customerNumber","attributeValue":"CON-20160326-0007","languageId":2,"languageName":"en","statusId":1,"statusName":"active"},{"attributeId":100004,"attributeName":"language","attributeValue":"en","languageId":2,"languageName":"en","statusId":1,"statusName":"active"},{"attributeId":100010,"attributeName":"NL_DUBAI_PARK_AND_RESORT","attributeValue":"True","languageId":2,"languageName":"en","statusId":1,"statusName":"active"},{"attributeId":100011,"attributeName":"NL_MOTIONGATE","attributeValue":"False","languageId":2,"languageName":"en","statusId":1,"statusName":"active"},{"attributeId":100012,"attributeName":"NL_BOLLIWOOD_PARK","attributeValue":"False","languageId":2,"languageName":"en","statusId":1,"statusName":"active"},{"attributeId":100019,"attributeName":"NL_GENERAL_COMMUNICATION","attributeValue":"False","languageId":2,"languageName":"en","statusId":1,"statusName":"active"},{"attributeId":100021,"attributeName":"NL_LEGOLAND","attributeValue":"False","languageId":2,"languageName":"en","statusId":1,"statusName":"active"},{"attributeId":100022,"attributeName":"NL_RIVERLAND","attributeValue":"True","languageId":2,"languageName":"en","statusId":1,"statusName":"active"},{"attributeId":100023,"attributeName":"mascotteID","attributeValue":"mascotte6_b.fw","languageId":2,"languageName":"en","statusId":1,"statusName":"active"}]}}]},"resultCode":"0"}
09.04.2016 14:00:52 +0200 10.0.11.73 Login status: 200
09.04.2016 14:18:43 +0200 10.0.11.73 Login req: {
            "languageId":"2",
            "transactionId": "14602043232123063774",
            "tenant":"1",
            "profileAttributeFlag":true,
            "externalIdList": {
                "externalIds": [
                    {
                    "externalId" : "Sanitybolly@mailinator.com"
                    }
                ]
             }   
            }
09.04.2016 14:18:43 +0200 10.0.11.73 Login token: 49859791c3b018174b5a924120f8ea70
09.04.2016 14:18:43 +0200 10.0.11.73 Login response: {"transactionId":"14602043232123063774","userRetrievedList":{"users":[{"id":254,"description":"sanityBOLLY@mailinator.com","parentBusinessUserId":2,"statusId":1,"roleTypeId":2,"defaultLanguageId":2,"userExternalIdList":{"externalIds":[{"externalId":"sanityBOLLY@mailinator.com","defaultFlag":1,"type":"email","statusId":1}]},"userAttributeList":{"attributeValues":[{"attributeId":5,"attributeName":"country","attributeValue":"Albania","languageId":2,"languageName":"en","statusId":1,"statusName":"active"},{"attributeId":9,"attributeName":"name","attributeValue":"Nshdhs","languageId":2,"languageName":"en","statusId":1,"statusName":"active"},{"attributeId":10,"attributeName":"surname","attributeValue":"Bshshs","languageId":2,"languageName":"en","statusId":1,"statusName":"active"},{"attributeId":14,"attributeName":"email","attributeValue":"sanitybolly@mailinator.com","languageId":2,"languageName":"en","statusId":1,"statusName":"active"},{"attributeId":49,"attributeName":"city","attributeValue":"Mediglia","languageId":2,"languageName":"en","statusId":1,"statusName":"active"},{"attributeId":50,"attributeName":"zipCode","attributeValue":"20060","languageId":2,"languageName":"en","statusId":1,"statusName":"active"},{"attributeId":108,"attributeName":"address","attributeValue":"Via Stella Del Sud 8","languageId":2,"languageName":"en","statusId":1,"statusName":"active"},{"attributeId":100001,"attributeName":"msisdn","attributeValue":"+1 787-474747","languageId":2,"languageName":"en","statusId":1,"statusName":"active"},{"attributeId":100002,"attributeName":"birthday","attributeValue":"3\/26\/2016","languageId":2,"languageName":"en","statusId":1,"statusName":"active"},{"attributeId":100003,"attributeName":"customerNumber","attributeValue":"CON-20160326-0007","languageId":2,"languageName":"en","statusId":1,"statusName":"active"},{"attributeId":100004,"attributeName":"language","attributeValue":"en","languageId":2,"languageName":"en","statusId":1,"statusName":"active"},{"attributeId":100010,"attributeName":"NL_DUBAI_PARK_AND_RESORT","attributeValue":"True","languageId":2,"languageName":"en","statusId":1,"statusName":"active"},{"attributeId":100011,"attributeName":"NL_MOTIONGATE","attributeValue":"False","languageId":2,"languageName":"en","statusId":1,"statusName":"active"},{"attributeId":100012,"attributeName":"NL_BOLLIWOOD_PARK","attributeValue":"False","languageId":2,"languageName":"en","statusId":1,"statusName":"active"},{"attributeId":100019,"attributeName":"NL_GENERAL_COMMUNICATION","attributeValue":"False","languageId":2,"languageName":"en","statusId":1,"statusName":"active"},{"attributeId":100021,"attributeName":"NL_LEGOLAND","attributeValue":"False","languageId":2,"languageName":"en","statusId":1,"statusName":"active"},{"attributeId":100022,"attributeName":"NL_RIVERLAND","attributeValue":"True","languageId":2,"languageName":"en","statusId":1,"statusName":"active"},{"attributeId":100023,"attributeName":"mascotteID","attributeValue":"mascotte6_b.fw","languageId":2,"languageName":"en","statusId":1,"statusName":"active"}]}}]},"resultCode":"0"}
09.04.2016 14:18:43 +0200 10.0.11.73 Login status: 200
09.04.2016 15:11:32 +0200 10.0.11.73 TOKEN ricevuto, cache creata
09.04.2016 15:46:42 +0200 10.0.11.73 Login req: {
            "languageId":"2",
            "transactionId": "14602096021215497495",
            "tenant":"1",
            "profileAttributeFlag":true,
            "externalIdList": {
                "externalIds": [
                    {
                    "externalId" : "Sanitybolly@mailinator.com"
                    }
                ]
             }   
            }
09.04.2016 15:46:42 +0200 10.0.11.73 Login token: 9a13f2c9df6028c5dea37fd16c982b5c
09.04.2016 15:46:42 +0200 10.0.11.73 Login response: {"transactionId":"14602096021215497495","userRetrievedList":{"users":[{"id":254,"description":"sanityBOLLY@mailinator.com","parentBusinessUserId":2,"statusId":1,"roleTypeId":2,"defaultLanguageId":2,"userExternalIdList":{"externalIds":[{"externalId":"sanityBOLLY@mailinator.com","defaultFlag":1,"type":"email","statusId":1}]},"userAttributeList":{"attributeValues":[{"attributeId":5,"attributeName":"country","attributeValue":"Albania","languageId":2,"languageName":"en","statusId":1,"statusName":"active"},{"attributeId":9,"attributeName":"name","attributeValue":"Nshdhs","languageId":2,"languageName":"en","statusId":1,"statusName":"active"},{"attributeId":10,"attributeName":"surname","attributeValue":"Bshshs","languageId":2,"languageName":"en","statusId":1,"statusName":"active"},{"attributeId":14,"attributeName":"email","attributeValue":"sanitybolly@mailinator.com","languageId":2,"languageName":"en","statusId":1,"statusName":"active"},{"attributeId":49,"attributeName":"city","attributeValue":"Mediglia","languageId":2,"languageName":"en","statusId":1,"statusName":"active"},{"attributeId":50,"attributeName":"zipCode","attributeValue":"20060","languageId":2,"languageName":"en","statusId":1,"statusName":"active"},{"attributeId":108,"attributeName":"address","attributeValue":"Via Stella Del Sud 8","languageId":2,"languageName":"en","statusId":1,"statusName":"active"},{"attributeId":100001,"attributeName":"msisdn","attributeValue":"+1 787-474747","languageId":2,"languageName":"en","statusId":1,"statusName":"active"},{"attributeId":100002,"attributeName":"birthday","attributeValue":"3\/26\/2016","languageId":2,"languageName":"en","statusId":1,"statusName":"active"},{"attributeId":100003,"attributeName":"customerNumber","attributeValue":"CON-20160326-0007","languageId":2,"languageName":"en","statusId":1,"statusName":"active"},{"attributeId":100004,"attributeName":"language","attributeValue":"en","languageId":2,"languageName":"en","statusId":1,"statusName":"active"},{"attributeId":100010,"attributeName":"NL_DUBAI_PARK_AND_RESORT","attributeValue":"True","languageId":2,"languageName":"en","statusId":1,"statusName":"active"},{"attributeId":100011,"attributeName":"NL_MOTIONGATE","attributeValue":"False","languageId":2,"languageName":"en","statusId":1,"statusName":"active"},{"attributeId":100012,"attributeName":"NL_BOLLIWOOD_PARK","attributeValue":"False","languageId":2,"languageName":"en","statusId":1,"statusName":"active"},{"attributeId":100019,"attributeName":"NL_GENERAL_COMMUNICATION","attributeValue":"False","languageId":2,"languageName":"en","statusId":1,"statusName":"active"},{"attributeId":100021,"attributeName":"NL_LEGOLAND","attributeValue":"False","languageId":2,"languageName":"en","statusId":1,"statusName":"active"},{"attributeId":100022,"attributeName":"NL_RIVERLAND","attributeValue":"True","languageId":2,"languageName":"en","statusId":1,"statusName":"active"},{"attributeId":100023,"attributeName":"mascotteID","attributeValue":"mascotte6_b.fw","languageId":2,"languageName":"en","statusId":1,"statusName":"active"}]}}]},"resultCode":"0"}
09.04.2016 15:46:42 +0200 10.0.11.73 Login status: 200
09.04.2016 15:49:27 +0200 10.0.11.73 Login req: {
            "languageId":"2",
            "transactionId": "14602097671542108231",
            "tenant":"1",
            "profileAttributeFlag":true,
            "externalIdList": {
                "externalIds": [
                    {
                    "externalId" : "Sanitybolly@mailinator.com"
                    }
                ]
             }   
            }
09.04.2016 15:49:27 +0200 10.0.11.73 Login token: 9a13f2c9df6028c5dea37fd16c982b5c
09.04.2016 15:49:27 +0200 10.0.11.73 Login response: {"transactionId":"14602097671542108231","userRetrievedList":{"users":[{"id":254,"description":"sanityBOLLY@mailinator.com","parentBusinessUserId":2,"statusId":1,"roleTypeId":2,"defaultLanguageId":2,"userExternalIdList":{"externalIds":[{"externalId":"sanityBOLLY@mailinator.com","defaultFlag":1,"type":"email","statusId":1}]},"userAttributeList":{"attributeValues":[{"attributeId":5,"attributeName":"country","attributeValue":"Albania","languageId":2,"languageName":"en","statusId":1,"statusName":"active"},{"attributeId":9,"attributeName":"name","attributeValue":"Nshdhs","languageId":2,"languageName":"en","statusId":1,"statusName":"active"},{"attributeId":10,"attributeName":"surname","attributeValue":"Bshshs","languageId":2,"languageName":"en","statusId":1,"statusName":"active"},{"attributeId":14,"attributeName":"email","attributeValue":"sanitybolly@mailinator.com","languageId":2,"languageName":"en","statusId":1,"statusName":"active"},{"attributeId":49,"attributeName":"city","attributeValue":"Mediglia","languageId":2,"languageName":"en","statusId":1,"statusName":"active"},{"attributeId":50,"attributeName":"zipCode","attributeValue":"20060","languageId":2,"languageName":"en","statusId":1,"statusName":"active"},{"attributeId":108,"attributeName":"address","attributeValue":"Via Stella Del Sud 8","languageId":2,"languageName":"en","statusId":1,"statusName":"active"},{"attributeId":100001,"attributeName":"msisdn","attributeValue":"+1 787-474747","languageId":2,"languageName":"en","statusId":1,"statusName":"active"},{"attributeId":100002,"attributeName":"birthday","attributeValue":"3\/26\/2016","languageId":2,"languageName":"en","statusId":1,"statusName":"active"},{"attributeId":100003,"attributeName":"customerNumber","attributeValue":"CON-20160326-0007","languageId":2,"languageName":"en","statusId":1,"statusName":"active"},{"attributeId":100004,"attributeName":"language","attributeValue":"EN","languageId":2,"languageName":"en","statusId":1,"statusName":"active"},{"attributeId":100010,"attributeName":"NL_DUBAI_PARK_AND_RESORT","attributeValue":"True","languageId":2,"languageName":"en","statusId":1,"statusName":"active"},{"attributeId":100011,"attributeName":"NL_MOTIONGATE","attributeValue":"False","languageId":2,"languageName":"en","statusId":1,"statusName":"active"},{"attributeId":100012,"attributeName":"NL_BOLLIWOOD_PARK","attributeValue":"False","languageId":2,"languageName":"en","statusId":1,"statusName":"active"},{"attributeId":100019,"attributeName":"NL_GENERAL_COMMUNICATION","attributeValue":"False","languageId":2,"languageName":"en","statusId":1,"statusName":"active"},{"attributeId":100021,"attributeName":"NL_LEGOLAND","attributeValue":"False","languageId":2,"languageName":"en","statusId":1,"statusName":"active"},{"attributeId":100022,"attributeName":"NL_RIVERLAND","attributeValue":"True","languageId":2,"languageName":"en","statusId":1,"statusName":"active"},{"attributeId":100023,"attributeName":"mascotteID","attributeValue":"mascotte7_b.fw","languageId":2,"languageName":"en","statusId":1,"statusName":"active"}]}}]},"resultCode":"0"}
09.04.2016 15:49:27 +0200 10.0.11.73 Login status: 200
09.04.2016 15:49:39 +0200 10.0.11.73 Login req: {
            "languageId":"2",
            "transactionId": "1460209779712298144",
            "tenant":"1",
            "profileAttributeFlag":true,
            "externalIdList": {
                "externalIds": [
                    {
                    "externalId" : "Sanitybolly@mailinator.com"
                    }
                ]
             }   
            }
09.04.2016 15:49:39 +0200 10.0.11.73 Login token: 9a13f2c9df6028c5dea37fd16c982b5c
09.04.2016 15:49:39 +0200 10.0.11.73 Login response: {"transactionId":"1460209779712298144","userRetrievedList":{"users":[{"id":254,"description":"sanityBOLLY@mailinator.com","parentBusinessUserId":2,"statusId":1,"roleTypeId":2,"defaultLanguageId":2,"userExternalIdList":{"externalIds":[{"externalId":"sanityBOLLY@mailinator.com","defaultFlag":1,"type":"email","statusId":1}]},"userAttributeList":{"attributeValues":[{"attributeId":5,"attributeName":"country","attributeValue":"Albania","languageId":2,"languageName":"en","statusId":1,"statusName":"active"},{"attributeId":9,"attributeName":"name","attributeValue":"Nshdhs","languageId":2,"languageName":"en","statusId":1,"statusName":"active"},{"attributeId":10,"attributeName":"surname","attributeValue":"Bshshs","languageId":2,"languageName":"en","statusId":1,"statusName":"active"},{"attributeId":14,"attributeName":"email","attributeValue":"sanitybolly@mailinator.com","languageId":2,"languageName":"en","statusId":1,"statusName":"active"},{"attributeId":49,"attributeName":"city","attributeValue":"Mediglia","languageId":2,"languageName":"en","statusId":1,"statusName":"active"},{"attributeId":50,"attributeName":"zipCode","attributeValue":"20060","languageId":2,"languageName":"en","statusId":1,"statusName":"active"},{"attributeId":108,"attributeName":"address","attributeValue":"Via Stella Del Sud 8","languageId":2,"languageName":"en","statusId":1,"statusName":"active"},{"attributeId":100001,"attributeName":"msisdn","attributeValue":"+1 787-474747","languageId":2,"languageName":"en","statusId":1,"statusName":"active"},{"attributeId":100002,"attributeName":"birthday","attributeValue":"3\/26\/2016","languageId":2,"languageName":"en","statusId":1,"statusName":"active"},{"attributeId":100003,"attributeName":"customerNumber","attributeValue":"CON-20160326-0007","languageId":2,"languageName":"en","statusId":1,"statusName":"active"},{"attributeId":100004,"attributeName":"language","attributeValue":"EN","languageId":2,"languageName":"en","statusId":1,"statusName":"active"},{"attributeId":100010,"attributeName":"NL_DUBAI_PARK_AND_RESORT","attributeValue":"True","languageId":2,"languageName":"en","statusId":1,"statusName":"active"},{"attributeId":100011,"attributeName":"NL_MOTIONGATE","attributeValue":"False","languageId":2,"languageName":"en","statusId":1,"statusName":"active"},{"attributeId":100012,"attributeName":"NL_BOLLIWOOD_PARK","attributeValue":"False","languageId":2,"languageName":"en","statusId":1,"statusName":"active"},{"attributeId":100019,"attributeName":"NL_GENERAL_COMMUNICATION","attributeValue":"False","languageId":2,"languageName":"en","statusId":1,"statusName":"active"},{"attributeId":100021,"attributeName":"NL_LEGOLAND","attributeValue":"False","languageId":2,"languageName":"en","statusId":1,"statusName":"active"},{"attributeId":100022,"attributeName":"NL_RIVERLAND","attributeValue":"True","languageId":2,"languageName":"en","statusId":1,"statusName":"active"},{"attributeId":100023,"attributeName":"mascotteID","attributeValue":"mascotte7_b.fw","languageId":2,"languageName":"en","statusId":1,"statusName":"active"}]}}]},"resultCode":"0"}
09.04.2016 15:49:39 +0200 10.0.11.73 Login status: 200
09.04.2016 16:20:24 +0200 10.0.11.73 TOKEN ricevuto, cache creata
09.04.2016 16:46:50 +0200 10.0.11.73 Login req: {
            "languageId":"2",
            "transactionId": "1460213210495061768",
            "tenant":"1",
            "profileAttributeFlag":true,
            "externalIdList": {
                "externalIds": [
                    {
                    "externalId" : "aymane.jabrane@accenture.com"
                    }
                ]
             }   
            }
09.04.2016 16:46:50 +0200 10.0.11.73 Login token: f0dcfb68c69e47f3fc14dcaffd308a49
09.04.2016 16:46:50 +0200 10.0.11.73 Login response: {"transactionId":"1460213210495061768","userRetrievedList":{"users":[{"id":72,"description":"aymane.jabrane@accenture.com","parentBusinessUserId":2,"statusId":1,"roleTypeId":2,"defaultLanguageId":2,"userExternalIdList":{"externalIds":[{"externalId":"aymane.jabrane@accenture.com","defaultFlag":1,"type":"email","statusId":1}]},"userAttributeList":{"attributeValues":[{"attributeId":5,"attributeName":"country","attributeValue":"United Arab Emirates","languageId":2,"languageName":"en","statusId":1,"statusName":"active"},{"attributeId":9,"attributeName":"name","attributeValue":"Aymane","languageId":2,"languageName":"en","statusId":1,"statusName":"active"},{"attributeId":10,"attributeName":"surname","attributeValue":"Jabrane","languageId":2,"languageName":"en","statusId":1,"statusName":"active"},{"attributeId":14,"attributeName":"email","attributeValue":"aymane.jabrane@accenture.com","languageId":2,"languageName":"en","statusId":1,"statusName":"active"},{"attributeId":49,"attributeName":"city","attributeValue":"LKSJDKLSDN","languageId":2,"languageName":"en","statusId":1,"statusName":"active"},{"attributeId":50,"attributeName":"zipCode","attributeValue":"435435","languageId":2,"languageName":"en","statusId":1,"statusName":"active"},{"attributeId":108,"attributeName":"address","attributeValue":"FKLDJSFLK","languageId":2,"languageName":"en","statusId":1,"statusName":"active"},{"attributeId":100001,"attributeName":"msisdn","attributeValue":"+971-506684279","languageId":2,"languageName":"en","statusId":1,"statusName":"active"},{"attributeId":100002,"attributeName":"birthday","attributeValue":"7\/15\/1980","languageId":2,"languageName":"en","statusId":1,"statusName":"active"},{"attributeId":100003,"attributeName":"customerNumber","attributeValue":"CON-20160316-0012","languageId":2,"languageName":"en","statusId":1,"statusName":"active"},{"attributeId":100004,"attributeName":"language","attributeValue":"EN","languageId":2,"languageName":"en","statusId":1,"statusName":"active"},{"attributeId":100010,"attributeName":"NL_DUBAI_PARK_AND_RESORT","attributeValue":"False","languageId":2,"languageName":"en","statusId":1,"statusName":"active"},{"attributeId":100011,"attributeName":"NL_MOTIONGATE","attributeValue":"True","languageId":2,"languageName":"en","statusId":1,"statusName":"active"},{"attributeId":100012,"attributeName":"NL_BOLLIWOOD_PARK","attributeValue":"False","languageId":2,"languageName":"en","statusId":1,"statusName":"active"},{"attributeId":100019,"attributeName":"NL_GENERAL_COMMUNICATION","attributeValue":"False","languageId":2,"languageName":"en","statusId":1,"statusName":"active"},{"attributeId":100021,"attributeName":"NL_LEGOLAND","attributeValue":"True","languageId":2,"languageName":"en","statusId":1,"statusName":"active"},{"attributeId":100022,"attributeName":"NL_RIVERLAND","attributeValue":"False","languageId":2,"languageName":"en","statusId":1,"statusName":"active"},{"attributeId":100023,"attributeName":"mascotteID","attributeValue":"mascotte1_b.fw","languageId":2,"languageName":"en","statusId":1,"statusName":"active"}]}}]},"resultCode":"0"}
09.04.2016 16:46:50 +0200 10.0.11.73 Login status: 200
09.04.2016 17:32:58 +0200 10.0.11.73 Login req: {
            "languageId":"2",
            "transactionId": "14602159781535590700",
            "tenant":"1",
            "profileAttributeFlag":true,
            "externalIdList": {
                "externalIds": [
                    {
                    "externalId" : "hesh007@mailinator.com"
                    }
                ]
             }   
            }
09.04.2016 17:32:58 +0200 10.0.11.73 Login token: f1a8886891bd49e198b334fa1bcb42b0
09.04.2016 17:32:58 +0200 10.0.11.73 Login response: {"transactionId":"14602159781535590700","userRetrievedList":{"users":[{"id":47,"description":"hesh007@mailinator.com","parentBusinessUserId":2,"statusId":1,"roleTypeId":2,"defaultLanguageId":2,"userExternalIdList":{"externalIds":[{"externalId":"hesh007@mailinator.com","defaultFlag":1,"type":"email","statusId":1}]},"userAttributeList":{"attributeValues":[{"attributeId":5,"attributeName":"country","attributeValue":"United Arab Emirates","languageId":2,"languageName":"en","statusId":1,"statusName":"active"},{"attributeId":9,"attributeName":"name","attributeValue":"Hesham","languageId":2,"languageName":"en","statusId":1,"statusName":"active"},{"attributeId":10,"attributeName":"surname","attributeValue":"Ghaleb","languageId":2,"languageName":"en","statusId":1,"statusName":"active"},{"attributeId":14,"attributeName":"email","attributeValue":"hesh007@mailinator.com","languageId":2,"languageName":"en","statusId":1,"statusName":"active"},{"attributeId":49,"attributeName":"city","attributeValue":"Dubai","languageId":2,"languageName":"en","statusId":1,"statusName":"active"},{"attributeId":50,"attributeName":"zipCode","attributeValue":"33283","languageId":2,"languageName":"en","statusId":1,"statusName":"active"},{"attributeId":108,"attributeName":"address","attributeValue":"Villa 435","languageId":2,"languageName":"en","statusId":1,"statusName":"active"},{"attributeId":100001,"attributeName":"msisdn","attributeValue":"+971-551098200","languageId":2,"languageName":"en","statusId":1,"statusName":"active"},{"attributeId":100002,"attributeName":"birthday","attributeValue":"07\/03\/1980","languageId":2,"languageName":"en","statusId":1,"statusName":"active"},{"attributeId":100003,"attributeName":"customerNumber","attributeValue":"CON-20160320-0007","languageId":2,"languageName":"en","statusId":1,"statusName":"active"},{"attributeId":100004,"attributeName":"language","attributeValue":"EN","languageId":2,"languageName":"en","statusId":1,"statusName":"active"},{"attributeId":100010,"attributeName":"NL_DUBAI_PARK_AND_RESORT","attributeValue":"false","languageId":2,"languageName":"en","statusId":1,"statusName":"active"},{"attributeId":100011,"attributeName":"NL_MOTIONGATE","attributeValue":"true","languageId":2,"languageName":"en","statusId":1,"statusName":"active"},{"attributeId":100012,"attributeName":"NL_BOLLIWOOD_PARK","attributeValue":"false","languageId":2,"languageName":"en","statusId":1,"statusName":"active"},{"attributeId":100019,"attributeName":"NL_GENERAL_COMMUNICATION","attributeValue":"false","languageId":2,"languageName":"en","statusId":1,"statusName":"active"},{"attributeId":100021,"attributeName":"NL_LEGOLAND","attributeValue":"false","languageId":2,"languageName":"en","statusId":1,"statusName":"active"},{"attributeId":100022,"attributeName":"NL_RIVERLAND","attributeValue":"false","languageId":2,"languageName":"en","statusId":1,"statusName":"active"},{"attributeId":100023,"attributeName":"mascotteID","attributeValue":"mascotte1_b.fw","languageId":2,"languageName":"en","statusId":1,"statusName":"active"}]}}]},"resultCode":"0"}
09.04.2016 17:32:58 +0200 10.0.11.73 Login status: 200
09.04.2016 17:37:18 +0200 10.0.11.73 Login req: {
            "languageId":"2",
            "transactionId": "1460216238562215127",
            "tenant":"1",
            "profileAttributeFlag":true,
            "externalIdList": {
                "externalIds": [
                    {
                    "externalId" : "sufs2@mailinator.com"
                    }
                ]
             }   
            }
09.04.2016 17:37:18 +0200 10.0.11.73 Login token: 21e034b7eb31356e4a2a8cbee2e55f6
09.04.2016 17:37:18 +0200 10.0.11.73 Login response: {"transactionId":"1460216238562215127","userRetrievedList":{"users":[{"id":482,"description":"sufs2@mailinator.com","parentBusinessUserId":2,"statusId":1,"roleTypeId":2,"defaultLanguageId":2,"userExternalIdList":{"externalIds":[{"externalId":"sufs2@mailinator.com","defaultFlag":1,"type":"email","statusId":1}]},"userAttributeList":{"attributeValues":[{"attributeId":5,"attributeName":"country","attributeValue":"Afghanistan","languageId":2,"languageName":"en","statusId":1,"statusName":"active"},{"attributeId":9,"attributeName":"name","attributeValue":"Sufyan","languageId":2,"languageName":"en","statusId":1,"statusName":"active"},{"attributeId":10,"attributeName":"surname","attributeValue":"patel","languageId":2,"languageName":"en","statusId":1,"statusName":"active"},{"attributeId":14,"attributeName":"email","attributeValue":"sufs2@mailinator.com","languageId":2,"languageName":"en","statusId":1,"statusName":"active"},{"attributeId":49,"attributeName":"city","attributeValue":"123","languageId":2,"languageName":"en","statusId":1,"statusName":"active"},{"attributeId":50,"attributeName":"zipCode","attributeValue":"1234","languageId":2,"languageName":"en","statusId":1,"statusName":"active"},{"attributeId":108,"attributeName":"address","attributeValue":"123","languageId":2,"languageName":"en","statusId":1,"statusName":"active"},{"attributeId":100001,"attributeName":"msisdn","attributeValue":"+971-123456","languageId":2,"languageName":"en","statusId":1,"statusName":"active"},{"attributeId":100002,"attributeName":"birthday","attributeValue":"3\/10\/2016","languageId":2,"languageName":"en","statusId":1,"statusName":"active"},{"attributeId":100003,"attributeName":"customerNumber","attributeValue":"CON-20160406-0005","languageId":2,"languageName":"en","statusId":1,"statusName":"active"},{"attributeId":100004,"attributeName":"language","attributeValue":"EN","languageId":2,"languageName":"en","statusId":1,"statusName":"active"},{"attributeId":100010,"attributeName":"NL_DUBAI_PARK_AND_RESORT","attributeValue":"False","languageId":2,"languageName":"en","statusId":1,"statusName":"active"},{"attributeId":100011,"attributeName":"NL_MOTIONGATE","attributeValue":"False","languageId":2,"languageName":"en","statusId":1,"statusName":"active"},{"attributeId":100012,"attributeName":"NL_BOLLIWOOD_PARK","attributeValue":"False","languageId":2,"languageName":"en","statusId":1,"statusName":"active"},{"attributeId":100019,"attributeName":"NL_GENERAL_COMMUNICATION","attributeValue":"False","languageId":2,"languageName":"en","statusId":1,"statusName":"active"},{"attributeId":100021,"attributeName":"NL_LEGOLAND","attributeValue":"False","languageId":2,"languageName":"en","statusId":1,"statusName":"active"},{"attributeId":100022,"attributeName":"NL_RIVERLAND","attributeValue":"False","languageId":2,"languageName":"en","statusId":1,"statusName":"active"},{"attributeId":100023,"attributeName":"mascotteID","attributeValue":"mascotte6_b.fw","languageId":2,"languageName":"en","statusId":1,"statusName":"active"}]}}]},"resultCode":"0"}
09.04.2016 17:37:18 +0200 10.0.11.73 Login status: 200
09.04.2016 17:37:34 +0200 10.0.11.73 Login req: {
            "languageId":"2",
            "transactionId": "1460216254565273907",
            "tenant":"1",
            "profileAttributeFlag":true,
            "externalIdList": {
                "externalIds": [
                    {
                    "externalId" : "sufs2@mailinator.com"
                    }
                ]
             }   
            }
09.04.2016 17:37:34 +0200 10.0.11.73 Login token: 21e034b7eb31356e4a2a8cbee2e55f6
09.04.2016 17:37:34 +0200 10.0.11.73 Login response: {"transactionId":"1460216254565273907","userRetrievedList":{"users":[{"id":482,"description":"sufs2@mailinator.com","parentBusinessUserId":2,"statusId":1,"roleTypeId":2,"defaultLanguageId":2,"userExternalIdList":{"externalIds":[{"externalId":"sufs2@mailinator.com","defaultFlag":1,"type":"email","statusId":1}]},"userAttributeList":{"attributeValues":[{"attributeId":5,"attributeName":"country","attributeValue":"Afghanistan","languageId":2,"languageName":"en","statusId":1,"statusName":"active"},{"attributeId":9,"attributeName":"name","attributeValue":"Sufyan","languageId":2,"languageName":"en","statusId":1,"statusName":"active"},{"attributeId":10,"attributeName":"surname","attributeValue":"patel","languageId":2,"languageName":"en","statusId":1,"statusName":"active"},{"attributeId":14,"attributeName":"email","attributeValue":"sufs2@mailinator.com","languageId":2,"languageName":"en","statusId":1,"statusName":"active"},{"attributeId":49,"attributeName":"city","attributeValue":"123","languageId":2,"languageName":"en","statusId":1,"statusName":"active"},{"attributeId":50,"attributeName":"zipCode","attributeValue":"1234","languageId":2,"languageName":"en","statusId":1,"statusName":"active"},{"attributeId":108,"attributeName":"address","attributeValue":"123","languageId":2,"languageName":"en","statusId":1,"statusName":"active"},{"attributeId":100001,"attributeName":"msisdn","attributeValue":"+971-123456","languageId":2,"languageName":"en","statusId":1,"statusName":"active"},{"attributeId":100002,"attributeName":"birthday","attributeValue":"3\/10\/2016","languageId":2,"languageName":"en","statusId":1,"statusName":"active"},{"attributeId":100003,"attributeName":"customerNumber","attributeValue":"CON-20160406-0005","languageId":2,"languageName":"en","statusId":1,"statusName":"active"},{"attributeId":100004,"attributeName":"language","attributeValue":"EN","languageId":2,"languageName":"en","statusId":1,"statusName":"active"},{"attributeId":100010,"attributeName":"NL_DUBAI_PARK_AND_RESORT","attributeValue":"False","languageId":2,"languageName":"en","statusId":1,"statusName":"active"},{"attributeId":100011,"attributeName":"NL_MOTIONGATE","attributeValue":"False","languageId":2,"languageName":"en","statusId":1,"statusName":"active"},{"attributeId":100012,"attributeName":"NL_BOLLIWOOD_PARK","attributeValue":"False","languageId":2,"languageName":"en","statusId":1,"statusName":"active"},{"attributeId":100019,"attributeName":"NL_GENERAL_COMMUNICATION","attributeValue":"False","languageId":2,"languageName":"en","statusId":1,"statusName":"active"},{"attributeId":100021,"attributeName":"NL_LEGOLAND","attributeValue":"False","languageId":2,"languageName":"en","statusId":1,"statusName":"active"},{"attributeId":100022,"attributeName":"NL_RIVERLAND","attributeValue":"False","languageId":2,"languageName":"en","statusId":1,"statusName":"active"},{"attributeId":100023,"attributeName":"mascotteID","attributeValue":"mascotte6_b.fw","languageId":2,"languageName":"en","statusId":1,"statusName":"active"}]}}]},"resultCode":"0"}
09.04.2016 17:37:34 +0200 10.0.11.73 Login status: 200
09.04.2016 17:49:25 +0200 10.0.11.73 TOKEN ricevuto, cache creata
09.04.2016 19:03:23 +0200 10.0.11.73 TOKEN ricevuto, cache creata
09.04.2016 19:33:56 +0200 10.0.11.73 TOKEN expired => RENEWING. Server response =>401
09.04.2016 19:33:56 +0200 10.0.11.73 RENEWING token
09.04.2016 19:33:56 +0200 10.0.11.73 RENEW TOKEN RESULT =>200 || c755dd794efe5ad4f37bce474ab497a
09.04.2016 19:33:57 +0200 10.0.11.73 error in acapiaccess_getProducts_annualPass: 
09.04.2016 19:57:25 +0200 10.0.11.73 Login req: {
            "languageId":"2",
            "transactionId": "14602246451900079445",
            "tenant":"1",
            "profileAttributeFlag":true,
            "externalIdList": {
                "externalIds": [
                    {
                    "externalId" : "Sanitybolly@mailinator.com"
                    }
                ]
             }   
            }
09.04.2016 19:57:25 +0200 10.0.11.73 Login token: 6937cf327a89cdba8c4f3b2ccd61
09.04.2016 19:57:25 +0200 10.0.11.73 Login response: {"transactionId":"14602246451900079445","userRetrievedList":{"users":[{"id":254,"description":"sanityBOLLY@mailinator.com","parentBusinessUserId":2,"statusId":1,"roleTypeId":2,"defaultLanguageId":2,"userExternalIdList":{"externalIds":[{"externalId":"sanityBOLLY@mailinator.com","defaultFlag":1,"type":"email","statusId":1}]},"userAttributeList":{"attributeValues":[{"attributeId":5,"attributeName":"country","attributeValue":"Albania","languageId":2,"languageName":"en","statusId":1,"statusName":"active"},{"attributeId":9,"attributeName":"name","attributeValue":"Nshdhs","languageId":2,"languageName":"en","statusId":1,"statusName":"active"},{"attributeId":10,"attributeName":"surname","attributeValue":"Bshshs","languageId":2,"languageName":"en","statusId":1,"statusName":"active"},{"attributeId":14,"attributeName":"email","attributeValue":"sanitybolly@mailinator.com","languageId":2,"languageName":"en","statusId":1,"statusName":"active"},{"attributeId":49,"attributeName":"city","attributeValue":"Mediglia","languageId":2,"languageName":"en","statusId":1,"statusName":"active"},{"attributeId":50,"attributeName":"zipCode","attributeValue":"20060","languageId":2,"languageName":"en","statusId":1,"statusName":"active"},{"attributeId":108,"attributeName":"address","attributeValue":"Via Stella Del Sud 8","languageId":2,"languageName":"en","statusId":1,"statusName":"active"},{"attributeId":100001,"attributeName":"msisdn","attributeValue":"+1 787-474747","languageId":2,"languageName":"en","statusId":1,"statusName":"active"},{"attributeId":100002,"attributeName":"birthday","attributeValue":"3\/26\/2016","languageId":2,"languageName":"en","statusId":1,"statusName":"active"},{"attributeId":100003,"attributeName":"customerNumber","attributeValue":"CON-20160326-0007","languageId":2,"languageName":"en","statusId":1,"statusName":"active"},{"attributeId":100004,"attributeName":"language","attributeValue":"EN","languageId":2,"languageName":"en","statusId":1,"statusName":"active"},{"attributeId":100010,"attributeName":"NL_DUBAI_PARK_AND_RESORT","attributeValue":"True","languageId":2,"languageName":"en","statusId":1,"statusName":"active"},{"attributeId":100011,"attributeName":"NL_MOTIONGATE","attributeValue":"False","languageId":2,"languageName":"en","statusId":1,"statusName":"active"},{"attributeId":100012,"attributeName":"NL_BOLLIWOOD_PARK","attributeValue":"False","languageId":2,"languageName":"en","statusId":1,"statusName":"active"},{"attributeId":100019,"attributeName":"NL_GENERAL_COMMUNICATION","attributeValue":"False","languageId":2,"languageName":"en","statusId":1,"statusName":"active"},{"attributeId":100021,"attributeName":"NL_LEGOLAND","attributeValue":"False","languageId":2,"languageName":"en","statusId":1,"statusName":"active"},{"attributeId":100022,"attributeName":"NL_RIVERLAND","attributeValue":"True","languageId":2,"languageName":"en","statusId":1,"statusName":"active"},{"attributeId":100023,"attributeName":"mascotteID","attributeValue":"mascotte7_b.fw","languageId":2,"languageName":"en","statusId":1,"statusName":"active"}]}}]},"resultCode":"0"}
09.04.2016 19:57:25 +0200 10.0.11.73 Login status: 200
09.04.2016 20:07:56 +0200 10.0.11.73 Login req: {
            "languageId":"2",
            "transactionId": "1460225276492471540",
            "tenant":"1",
            "profileAttributeFlag":true,
            "externalIdList": {
                "externalIds": [
                    {
                    "externalId" : "riz.ameer@gmail.com"
                    }
                ]
             }   
            }
09.04.2016 20:07:56 +0200 10.0.11.73 Login token: d454f994ee53dbdd27dfb0d0c04c668
09.04.2016 20:07:56 +0200 10.0.11.73 Login response: {"transactionId":"1460225276492471540","userRetrievedList":{"users":[{"id":342,"description":"riz.ameer@gmail.com","parentBusinessUserId":2,"statusId":1,"roleTypeId":2,"defaultLanguageId":2,"userExternalIdList":{"externalIds":[{"externalId":"riz.ameer@gmail.com","defaultFlag":1,"type":"email","statusId":1}]},"userAttributeList":{"attributeValues":[{"attributeId":5,"attributeName":"country","attributeValue":"United Arab Emirates","languageId":2,"languageName":"en","statusId":1,"statusName":"active"},{"attributeId":9,"attributeName":"name","attributeValue":"Rizwan","languageId":2,"languageName":"en","statusId":1,"statusName":"active"},{"attributeId":10,"attributeName":"surname","attributeValue":"Ameer","languageId":2,"languageName":"en","statusId":1,"statusName":"active"},{"attributeId":14,"attributeName":"email","attributeValue":"riz.ameer@gmail.com","languageId":2,"languageName":"en","statusId":1,"statusName":"active"},{"attributeId":49,"attributeName":"city","attributeValue":"Dubai","languageId":2,"languageName":"en","statusId":1,"statusName":"active"},{"attributeId":50,"attributeName":"zipCode","attributeValue":"564989","languageId":2,"languageName":"en","statusId":1,"statusName":"active"},{"attributeId":108,"attributeName":"address","attributeValue":"Villa 103","languageId":2,"languageName":"en","statusId":1,"statusName":"active"},{"attributeId":100001,"attributeName":"msisdn","attributeValue":"+971-565494689","languageId":2,"languageName":"en","statusId":1,"statusName":"active"},{"attributeId":100002,"attributeName":"birthday","attributeValue":"1\/7\/1975","languageId":2,"languageName":"en","statusId":1,"statusName":"active"},{"attributeId":100003,"attributeName":"customerNumber","attributeValue":"CON-20160402-0013","languageId":2,"languageName":"en","statusId":1,"statusName":"active"},{"attributeId":100004,"attributeName":"language","attributeValue":"EN","languageId":2,"languageName":"en","statusId":1,"statusName":"active"},{"attributeId":100010,"attributeName":"NL_DUBAI_PARK_AND_RESORT","attributeValue":"True","languageId":2,"languageName":"en","statusId":1,"statusName":"active"},{"attributeId":100011,"attributeName":"NL_MOTIONGATE","attributeValue":"True","languageId":2,"languageName":"en","statusId":1,"statusName":"active"},{"attributeId":100012,"attributeName":"NL_BOLLIWOOD_PARK","attributeValue":"True","languageId":2,"languageName":"en","statusId":1,"statusName":"active"},{"attributeId":100019,"attributeName":"NL_GENERAL_COMMUNICATION","attributeValue":"True","languageId":2,"languageName":"en","statusId":1,"statusName":"active"},{"attributeId":100021,"attributeName":"NL_LEGOLAND","attributeValue":"True","languageId":2,"languageName":"en","statusId":1,"statusName":"active"},{"attributeId":100022,"attributeName":"NL_RIVERLAND","attributeValue":"True","languageId":2,"languageName":"en","statusId":1,"statusName":"active"}]}}]},"resultCode":"0"}
09.04.2016 20:07:56 +0200 10.0.11.73 Login status: 200
09.04.2016 21:14:51 +0200 10.0.11.73 TOKEN ricevuto, cache creata