
01.07.2016 0:12:20 +0200 10.0.32.247 TOKEN ricevuto, cache creata
01.07.2016 0:50:17 +0200 10.0.32.247 Login req: {
            "languageId":"2",
            "transactionId": "14673270161088356608",
            "tenant":"1",
            "profileAttributeFlag":true,
            "externalIdList": {
                "externalIds": [
                    {
                    "externalId" : "10206295813089478"
                    }
                ]
             }
            }
01.07.2016 0:50:17 +0200 10.0.32.247 Login token: cee5717cbdf5bac2b40c23a7d86fc9a
01.07.2016 0:50:17 +0200 10.0.32.247 Login response: {"transactionId":"14673270161088356608","userRetrievedList":{"users":[{"id":1428,"description":"10206295813089478","parentBusinessUserId":2,"statusId":1,"roleTypeId":2,"defaultLanguageId":2,"userExternalIdList":{"externalIds":[{"externalId":"10206295813089478","defaultFlag":1,"type":"socialID","statusId":1}]},"userAttributeList":{"attributeValues":[{"attributeId":5,"attributeName":"country","attributeValue":"Qatar","languageId":2,"languageName":"en","statusId":1,"statusName":"active"},{"attributeId":9,"attributeName":"name","attributeValue":"Jassim","languageId":2,"languageName":"en","statusId":1,"statusName":"active"},{"attributeId":10,"attributeName":"surname","attributeValue":"Alsahouti","languageId":2,"languageName":"en","statusId":1,"statusName":"active"},{"attributeId":14,"attributeName":"email","attributeValue":"j55j@msn.com","languageId":2,"languageName":"en","statusId":1,"statusName":"active"},{"attributeId":49,"attributeName":"city","attributeValue":"Doha","languageId":2,"languageName":"en","statusId":1,"statusName":"active"},{"attributeId":50,"attributeName":"zipCode","attributeValue":"7666","languageId":2,"languageName":"en","statusId":1,"statusName":"active"},{"attributeId":108,"attributeName":"address","attributeValue":"Alnasria","languageId":2,"languageName":"en","statusId":1,"statusName":"active"},{"attributeId":100001,"attributeName":"msisdn","attributeValue":"+974-55878080","languageId":2,"languageName":"en","statusId":1,"statusName":"active"},{"attributeId":100002,"attributeName":"birthday","attributeValue":"07\/21\/1977","languageId":2,"languageName":"en","statusId":1,"statusName":"active"},{"attributeId":100003,"attributeName":"customerNumber","attributeValue":"CON-20160630-0014","languageId":2,"languageName":"en","statusId":1,"statusName":"active"},{"attributeId":100004,"attributeName":"language","attributeValue":"EN","languageId":2,"languageName":"en","statusId":1,"statusName":"active"}]}}]},"resultCode":"0"}
01.07.2016 0:50:17 +0200 10.0.32.247 Login status: 200
01.07.2016 1:14:36 +0200 10.0.32.247 TOKEN ricevuto, cache creata
01.07.2016 2:14:39 +0200 10.0.32.247 TOKEN ricevuto, cache creata
01.07.2016 2:15:30 +0200 10.0.32.247 TOKEN ricevuto, cache creata
01.07.2016 3:17:51 +0200 10.0.32.247 TOKEN ricevuto, cache creata
01.07.2016 4:12:07 +0200 10.0.32.247 Login req: {
            "languageId":"2",
            "transactionId": "1467339127670029154",
            "tenant":"1",
            "profileAttributeFlag":true,
            "externalIdList": {
                "externalIds": [
                    {
                    "externalId" : "hakoredecrude@gmail.com"
                    }
                ]
             }
            }
01.07.2016 4:12:07 +0200 10.0.32.247 Login token: a4b9d3378638bb5f4d2c6c761955d91
01.07.2016 4:12:07 +0200 10.0.32.247 Login response: {"transactionId":"1467339127670029154","userRetrievedList":{"users":[{"id":1317,"description":"hakoredecrude@gmail.com","parentBusinessUserId":2,"statusId":1,"roleTypeId":2,"defaultLanguageId":2,"userExternalIdList":{"externalIds":[{"externalId":"hakoredecrude@gmail.com","defaultFlag":1,"type":"email","statusId":1}]},"userAttributeList":{"attributeValues":[{"attributeId":9,"attributeName":"name","attributeValue":"Habeeb","languageId":2,"languageName":"en","statusId":1,"statusName":"active"},{"attributeId":10,"attributeName":"surname","attributeValue":"Akoredde","languageId":2,"languageName":"en","statusId":1,"statusName":"active"},{"attributeId":14,"attributeName":"email","attributeValue":"hakoredecrude@gmail.com","languageId":2,"languageName":"en","statusId":1,"statusName":"active"},{"attributeId":100003,"attributeName":"customerNumber","attributeValue":"CON-20160624-0006","languageId":2,"languageName":"en","statusId":1,"statusName":"active"},{"attributeId":100004,"attributeName":"language","attributeValue":"EN","languageId":2,"languageName":"en","statusId":1,"statusName":"active"},{"attributeId":100013,"attributeName":"NL_LEGOLAND","attributeValue":"False","languageId":2,"languageName":"en","statusId":1,"statusName":"active"},{"attributeId":100014,"attributeName":"NL_RIVERLAND","attributeValue":"False","languageId":2,"languageName":"en","statusId":1,"statusName":"active"},{"attributeId":100015,"attributeName":"NL_GENERAL_COMMUNICATION","attributeValue":"False","languageId":2,"languageName":"en","statusId":1,"statusName":"active"},{"attributeId":100018,"attributeName":"NL_BOLLIWOOD_PARK","attributeValue":"False","languageId":2,"languageName":"en","statusId":1,"statusName":"active"},{"attributeId":100019,"attributeName":"NL_MOTIONGATE","attributeValue":"False","languageId":2,"languageName":"en","statusId":1,"statusName":"active"},{"attributeId":100020,"attributeName":"NL_DUBAI_PARK_AND_RESORT","attributeValue":"True","languageId":2,"languageName":"en","statusId":1,"statusName":"active"}]}}]},"resultCode":"0"}
01.07.2016 4:12:07 +0200 10.0.32.247 Login status: 200
01.07.2016 4:18:48 +0200 10.0.32.247 TOKEN ricevuto, cache creata
01.07.2016 4:31:17 +0200 10.0.32.247 Login req: {
            "languageId":"2",
            "transactionId": "14673402761609305199",
            "tenant":"1",
            "profileAttributeFlag":true,
            "externalIdList": {
                "externalIds": [
                    {
                    "externalId" : "Hamamamansoori1@gmail.com"
                    }
                ]
             }
            }
01.07.2016 4:31:17 +0200 10.0.32.247 Login token: 4652d476d76c5a7c12a861e4adf5ae1
01.07.2016 4:31:17 +0200 10.0.32.247 Login response: {"transactionId":"14673402761609305199","userRetrievedList":{"users":[{"id":1433,"description":"hamamamansoori1@gmail.com","parentBusinessUserId":2,"statusId":1,"roleTypeId":2,"defaultLanguageId":2,"userExternalIdList":{"externalIds":[{"externalId":"hamamamansoori1@gmail.com","defaultFlag":1,"type":"email","statusId":1}]},"userAttributeList":{"attributeValues":[{"attributeId":9,"attributeName":"name","attributeValue":"Hamama","languageId":2,"languageName":"en","statusId":1,"statusName":"active"},{"attributeId":10,"attributeName":"surname","attributeValue":"Almansoori","languageId":2,"languageName":"en","statusId":1,"statusName":"active"},{"attributeId":14,"attributeName":"email","attributeValue":"hamamamansoori1@gmail.com","languageId":2,"languageName":"en","statusId":1,"statusName":"active"},{"attributeId":100003,"attributeName":"customerNumber","attributeValue":"CON-20160701-0002","languageId":2,"languageName":"en","statusId":1,"statusName":"active"},{"attributeId":100004,"attributeName":"language","attributeValue":"AR","languageId":2,"languageName":"en","statusId":1,"statusName":"active"},{"attributeId":100020,"attributeName":"NL_DUBAI_PARK_AND_RESORT","attributeValue":"true","languageId":2,"languageName":"en","statusId":1,"statusName":"active"}]}}]},"resultCode":"0"}
01.07.2016 4:31:17 +0200 10.0.32.247 Login status: 200
01.07.2016 4:31:17 +0200 10.0.32.247 Login req: {
            "languageId":"2",
            "transactionId": "1467340277583971417",
            "tenant":"1",
            "profileAttributeFlag":true,
            "externalIdList": {
                "externalIds": [
                    {
                    "externalId" : "alobaidly@hotmail.de"
                    }
                ]
             }
            }
01.07.2016 4:31:17 +0200 10.0.32.247 Login token: 51d133357e5674174ddaedd4b34b7440
01.07.2016 4:31:17 +0200 10.0.32.247 Login response: {"transactionId":"1467340277583971417","userRetrievedList":{"users":[{"id":1430,"description":"alobaidly@hotmail.de","parentBusinessUserId":2,"statusId":1,"roleTypeId":2,"defaultLanguageId":2,"userExternalIdList":{"externalIds":[{"externalId":"alobaidly@hotmail.de","defaultFlag":1,"type":"email","statusId":1}]},"userAttributeList":{"attributeValues":[{"attributeId":9,"attributeName":"name","attributeValue":"RASHID","languageId":2,"languageName":"en","statusId":1,"statusName":"active"},{"attributeId":10,"attributeName":"surname","attributeValue":"ALZEYARA","languageId":2,"languageName":"en","statusId":1,"statusName":"active"},{"attributeId":14,"attributeName":"email","attributeValue":"alobaidly@hotmail.de","languageId":2,"languageName":"en","statusId":1,"statusName":"active"},{"attributeId":100003,"attributeName":"customerNumber","attributeValue":"CON-20160630-0019","languageId":2,"languageName":"en","statusId":1,"statusName":"active"},{"attributeId":100004,"attributeName":"language","attributeValue":"EN","languageId":2,"languageName":"en","statusId":1,"statusName":"active"},{"attributeId":100020,"attributeName":"NL_DUBAI_PARK_AND_RESORT","attributeValue":"true","languageId":2,"languageName":"en","statusId":1,"statusName":"active"}]}}]},"resultCode":"0"}
01.07.2016 4:31:17 +0200 10.0.32.247 Login status: 200
01.07.2016 4:32:34 +0200 10.0.32.247 Login req: {
            "languageId":"2",
            "transactionId": "1467340354602022283",
            "tenant":"1",
            "profileAttributeFlag":true,
            "externalIdList": {
                "externalIds": [
                    {
                    "externalId" : "Hamamamansoori1@gmail.com"
                    }
                ]
             }
            }
01.07.2016 4:32:34 +0200 10.0.32.247 Login token: 4652d476d76c5a7c12a861e4adf5ae1
01.07.2016 4:32:34 +0200 10.0.32.247 Login response: {"transactionId":"1467340354602022283","userRetrievedList":{"users":[{"id":1433,"description":"hamamamansoori1@gmail.com","parentBusinessUserId":2,"statusId":1,"roleTypeId":2,"defaultLanguageId":2,"userExternalIdList":{"externalIds":[{"externalId":"hamamamansoori1@gmail.com","defaultFlag":1,"type":"email","statusId":1}]},"userAttributeList":{"attributeValues":[{"attributeId":9,"attributeName":"name","attributeValue":"Hamama","languageId":2,"languageName":"en","statusId":1,"statusName":"active"},{"attributeId":10,"attributeName":"surname","attributeValue":"Almansoori","languageId":2,"languageName":"en","statusId":1,"statusName":"active"},{"attributeId":14,"attributeName":"email","attributeValue":"hamamamansoori1@gmail.com","languageId":2,"languageName":"en","statusId":1,"statusName":"active"},{"attributeId":100003,"attributeName":"customerNumber","attributeValue":"CON-20160701-0002","languageId":2,"languageName":"en","statusId":1,"statusName":"active"},{"attributeId":100004,"attributeName":"language","attributeValue":"AR","languageId":2,"languageName":"en","statusId":1,"statusName":"active"},{"attributeId":100020,"attributeName":"NL_DUBAI_PARK_AND_RESORT","attributeValue":"true","languageId":2,"languageName":"en","statusId":1,"statusName":"active"}]}}]},"resultCode":"0"}
01.07.2016 4:32:34 +0200 10.0.32.247 Login status: 200
01.07.2016 4:54:37 +0200 10.0.32.247 Login req: {
            "languageId":"2",
            "transactionId": "146734167772200322",
            "tenant":"1",
            "profileAttributeFlag":true,
            "externalIdList": {
                "externalIds": [
                    {
                    "externalId" : "Ayoub_85@hotmail.com"
                    }
                ]
             }
            }
01.07.2016 4:54:37 +0200 10.0.32.247 Login token: 2a504d69eaee5f94345ee8b0e92a382
01.07.2016 4:54:37 +0200 10.0.32.247 Login response: {"transactionId":"146734167772200322","userRetrievedList":{"users":[{"id":1434,"description":"ayoub_85@hotmail.com","parentBusinessUserId":2,"statusId":1,"roleTypeId":2,"defaultLanguageId":2,"userExternalIdList":{"externalIds":[{"externalId":"ayoub_85@hotmail.com","defaultFlag":1,"type":"email","statusId":1}]},"userAttributeList":{"attributeValues":[{"attributeId":9,"attributeName":"name","attributeValue":"Ayoub","languageId":2,"languageName":"en","statusId":1,"statusName":"active"},{"attributeId":10,"attributeName":"surname","attributeValue":"Alsulaily","languageId":2,"languageName":"en","statusId":1,"statusName":"active"},{"attributeId":14,"attributeName":"email","attributeValue":"ayoub_85@hotmail.com","languageId":2,"languageName":"en","statusId":1,"statusName":"active"},{"attributeId":100003,"attributeName":"customerNumber","attributeValue":"CON-20160701-0003","languageId":2,"languageName":"en","statusId":1,"statusName":"active"},{"attributeId":100004,"attributeName":"language","attributeValue":"AR","languageId":2,"languageName":"en","statusId":1,"statusName":"active"},{"attributeId":100020,"attributeName":"NL_DUBAI_PARK_AND_RESORT","attributeValue":"true","languageId":2,"languageName":"en","statusId":1,"statusName":"active"}]}}]},"resultCode":"0"}
01.07.2016 4:54:37 +0200 10.0.32.247 Login status: 200
01.07.2016 5:16:49 +0200 10.0.32.247 Login req: {
            "languageId":"2",
            "transactionId": "1467343009764897977",
            "tenant":"1",
            "profileAttributeFlag":true,
            "externalIdList": {
                "externalIds": [
                    {
                    "externalId" : "1203970972997195"
                    }
                ]
             }
            }
01.07.2016 5:16:49 +0200 10.0.32.247 Login token: fd2dce115f471e5d9e6f2a61c0696ad5
01.07.2016 5:16:49 +0200 10.0.32.247 Login response: {"transactionId":"1467343009764897977","userRetrievedList":{"users":[{"id":1435,"description":"1203970972997195","parentBusinessUserId":2,"statusId":1,"roleTypeId":2,"defaultLanguageId":2,"userExternalIdList":{"externalIds":[{"externalId":"1203970972997195","defaultFlag":1,"type":"socialID","statusId":1}]},"userAttributeList":{"attributeValues":[{"attributeId":9,"attributeName":"name","attributeValue":"\u0648\u0627\u062d\u0634\u0646\u064a","languageId":2,"languageName":"en","statusId":1,"statusName":"active"},{"attributeId":10,"attributeName":"surname","attributeValue":"\u0632\u0645\u0627\u0646\u0643","languageId":2,"languageName":"en","statusId":1,"statusName":"active"},{"attributeId":14,"attributeName":"email","attributeValue":"justme-771@hotmail.com","languageId":2,"languageName":"en","statusId":1,"statusName":"active"},{"attributeId":100004,"attributeName":"language","attributeValue":"ar","languageId":2,"languageName":"en","statusId":1,"statusName":"active"}]}}]},"resultCode":"0"}
01.07.2016 5:16:49 +0200 10.0.32.247 Login status: 200
01.07.2016 5:20:54 +0200 10.0.32.247 TOKEN ricevuto, cache creata
01.07.2016 6:22:06 +0200 10.0.32.247 TOKEN ricevuto, cache creata
01.07.2016 7:23:02 +0200 10.0.32.247 TOKEN ricevuto, cache creata
01.07.2016 7:29:09 +0200 10.0.32.247 TOKEN expired => RENEWING. Server response =>401
01.07.2016 7:29:09 +0200 10.0.32.247 RENEWING token
01.07.2016 7:29:09 +0200 10.0.32.247 RENEW TOKEN RESULT =>200 || 81a632e8e9a1138868cc9238fd16fca
01.07.2016 7:29:09 +0200 10.0.32.247 error in acapiaccess_getProducts_annualPass: 
01.07.2016 8:29:40 +0200 10.0.32.247 TOKEN ricevuto, cache creata
01.07.2016 8:35:16 +0200 10.0.32.247 TOKEN expired => RENEWING. Server response =>401
01.07.2016 8:35:16 +0200 10.0.32.247 RENEWING token
01.07.2016 8:35:16 +0200 10.0.32.247 RENEW TOKEN RESULT =>200 || ced735e9b6adc06acbd5493d9742dff
01.07.2016 8:35:16 +0200 10.0.32.247 error in acapiaccess_getProducts_annualPass: 
01.07.2016 9:35:19 +0200 10.0.32.247 TOKEN ricevuto, cache creata
01.07.2016 9:46:26 +0200 10.0.32.247 TOKEN expired => RENEWING. Server response =>401
01.07.2016 9:46:26 +0200 10.0.32.247 RENEWING token
01.07.2016 9:46:26 +0200 10.0.32.247 RENEW TOKEN RESULT =>200 || 54da167912c9efcf88a517c7bac579d7
01.07.2016 9:46:26 +0200 10.0.32.247 error in acapiaccess_getProducts_annualPass: 
01.07.2016 9:51:26 +0200 10.0.32.247 Login req: {
            "languageId":"2",
            "transactionId": "1467359486142188335",
            "tenant":"1",
            "profileAttributeFlag":true,
            "externalIdList": {
                "externalIds": [
                    {
                    "externalId" : "deltrice_derrick@hotmail.com"
                    }
                ]
             }
            }
01.07.2016 9:51:26 +0200 10.0.32.247 Login token: 43da7ad198a596f6a63fe67c449b0a1
01.07.2016 9:51:26 +0200 10.0.32.247 Login response: {"transactionId":"1467359486142188335","userRetrievedList":{"users":[{"id":1437,"description":"deltrice_derrick@hotmail.com","parentBusinessUserId":2,"statusId":1,"roleTypeId":2,"defaultLanguageId":2,"userExternalIdList":{"externalIds":[{"externalId":"deltrice_derrick@hotmail.com","defaultFlag":1,"type":"email","statusId":1}]},"userAttributeList":{"attributeValues":[{"attributeId":9,"attributeName":"name","attributeValue":"Deltrice","languageId":2,"languageName":"en","statusId":1,"statusName":"active"},{"attributeId":10,"attributeName":"surname","attributeValue":"Derrick","languageId":2,"languageName":"en","statusId":1,"statusName":"active"},{"attributeId":14,"attributeName":"email","attributeValue":"deltrice_derrick@hotmail.com","languageId":2,"languageName":"en","statusId":1,"statusName":"active"},{"attributeId":100003,"attributeName":"customerNumber","attributeValue":"CON-20160701-0008","languageId":2,"languageName":"en","statusId":1,"statusName":"active"},{"attributeId":100004,"attributeName":"language","attributeValue":"EN","languageId":2,"languageName":"en","statusId":1,"statusName":"active"},{"attributeId":100020,"attributeName":"NL_DUBAI_PARK_AND_RESORT","attributeValue":"true","languageId":2,"languageName":"en","statusId":1,"statusName":"active"}]}}]},"resultCode":"0"}
01.07.2016 9:51:26 +0200 10.0.32.247 Login status: 200
01.07.2016 10:49:36 +0200 10.0.32.247 TOKEN ricevuto, cache creata
01.07.2016 10:59:13 +0200 10.0.32.247 Login req: {
            "languageId":"2",
            "transactionId": "14673635521861724588",
            "tenant":"1",
            "profileAttributeFlag":true,
            "externalIdList": {
                "externalIds": [
                    {
                    "externalId" : "princess.latoza1993@gmail.com"
                    }
                ]
             }
            }
01.07.2016 10:59:13 +0200 10.0.32.247 Login token: 59d93198434c36d6162a1f3af5e5eb1
01.07.2016 10:59:13 +0200 10.0.32.247 Login response: {"transactionId":"14673635521861724588","userRetrievedList":{"users":[{"id":1438,"description":"princess.latoza1993@gmail.com","parentBusinessUserId":2,"statusId":1,"roleTypeId":2,"defaultLanguageId":2,"userExternalIdList":{"externalIds":[{"externalId":"princess.latoza1993@gmail.com","defaultFlag":1,"type":"email","statusId":1}]},"userAttributeList":{"attributeValues":[{"attributeId":9,"attributeName":"name","attributeValue":"Princess","languageId":2,"languageName":"en","statusId":1,"statusName":"active"},{"attributeId":10,"attributeName":"surname","attributeValue":"Latoza","languageId":2,"languageName":"en","statusId":1,"statusName":"active"},{"attributeId":14,"attributeName":"email","attributeValue":"princess.latoza1993@gmail.com","languageId":2,"languageName":"en","statusId":1,"statusName":"active"},{"attributeId":100003,"attributeName":"customerNumber","attributeValue":"CON-20160701-0009","languageId":2,"languageName":"en","statusId":1,"statusName":"active"},{"attributeId":100004,"attributeName":"language","attributeValue":"EN","languageId":2,"languageName":"en","statusId":1,"statusName":"active"}]}}]},"resultCode":"0"}
01.07.2016 10:59:13 +0200 10.0.32.247 Login status: 200
01.07.2016 11:46:33 +0200 10.0.32.247 TOKEN expired => RENEWING. Server response =>401
01.07.2016 11:46:33 +0200 10.0.32.247 RENEWING token
01.07.2016 11:46:33 +0200 10.0.32.247 RENEW TOKEN RESULT =>200 || 604fe8672f2f9d931fe3c7469297f5c
01.07.2016 11:46:33 +0200 10.0.32.247 error in acapiaccess_getProducts_annualPass: 
01.07.2016 12:47:33 +0200 10.0.32.247 TOKEN ricevuto, cache creata
01.07.2016 13:36:06 +0200 10.0.32.247 Login req: {
            "languageId":"2",
            "transactionId": "14673729662061908364",
            "tenant":"1",
            "profileAttributeFlag":true,
            "externalIdList": {
                "externalIds": [
                    {
                    "externalId" : "10157147297445241"
                    }
                ]
             }
            }
01.07.2016 13:36:06 +0200 10.0.32.247 Login token: b224c9967c9fcb8eecd4deb55547a8d
01.07.2016 13:36:06 +0200 10.0.32.247 Login response: {"transactionId":"14673729662061908364","userRetrievedList":{"users":[{"id":1439,"description":"10157147297445241","parentBusinessUserId":2,"statusId":1,"roleTypeId":2,"defaultLanguageId":2,"userExternalIdList":{"externalIds":[{"externalId":"10157147297445241","defaultFlag":1,"type":"socialID","statusId":1}]},"userAttributeList":{"attributeValues":[{"attributeId":9,"attributeName":"name","attributeValue":"Golden","languageId":2,"languageName":"en","statusId":1,"statusName":"active"},{"attributeId":10,"attributeName":"surname","attributeValue":"Rose","languageId":2,"languageName":"en","statusId":1,"statusName":"active"},{"attributeId":14,"attributeName":"email","attributeValue":"sweet_rose_b@hotmail.com","languageId":2,"languageName":"en","statusId":1,"statusName":"active"},{"attributeId":100004,"attributeName":"language","attributeValue":"en","languageId":2,"languageName":"en","statusId":1,"statusName":"active"}]}}]},"resultCode":"0"}
01.07.2016 13:36:06 +0200 10.0.32.247 Login status: 200
01.07.2016 13:39:08 +0200 10.0.32.247 Login req: {
            "languageId":"2",
            "transactionId": "14673731481054491127",
            "tenant":"1",
            "profileAttributeFlag":true,
            "externalIdList": {
                "externalIds": [
                    {
                    "externalId" : "917434331715962"
                    }
                ]
             }
            }
01.07.2016 13:39:08 +0200 10.0.32.247 Login token: 93c88a198e5cd7e0bac447d556f28b36
01.07.2016 13:39:08 +0200 10.0.32.247 Login response: {"transactionId":"14673731481054491127","userRetrievedList":{"users":[{"id":1249,"description":"917434331715962","parentBusinessUserId":2,"statusId":1,"roleTypeId":2,"defaultLanguageId":2,"userExternalIdList":{"externalIds":[{"externalId":"917434331715962","defaultFlag":1,"type":"socialID","statusId":1}]},"userAttributeList":{"attributeValues":[{"attributeId":9,"attributeName":"name","attributeValue":"Gyanu","languageId":2,"languageName":"en","statusId":1,"statusName":"active"},{"attributeId":10,"attributeName":"surname","attributeValue":"Lama","languageId":2,"languageName":"en","statusId":1,"statusName":"active"},{"attributeId":14,"attributeName":"email","attributeValue":"gyanulama38@yahoo.com","languageId":2,"languageName":"en","statusId":1,"statusName":"active"},{"attributeId":100003,"attributeName":"customerNumber","attributeValue":"CON-20160618-0011","languageId":2,"languageName":"en","statusId":1,"statusName":"active"},{"attributeId":100004,"attributeName":"language","attributeValue":"en","languageId":2,"languageName":"en","statusId":1,"statusName":"active"}]}}]},"resultCode":"0"}
01.07.2016 13:39:08 +0200 10.0.32.247 Login status: 200
01.07.2016 13:48:43 +0200 10.0.32.247 TOKEN ricevuto, cache creata
01.07.2016 13:51:45 +0200 10.0.32.247 Login req: {
            "languageId":"2",
            "transactionId": "14673739051350523306",
            "tenant":"1",
            "profileAttributeFlag":true,
            "externalIdList": {
                "externalIds": [
                    {
                    "externalId" : "10208974820794559"
                    }
                ]
             }
            }
01.07.2016 13:51:45 +0200 10.0.32.247 Login token: b4785d2cfb561d8429c2b13c312860c4
01.07.2016 13:51:45 +0200 10.0.32.247 Login response: {"transactionId":"14673739051350523306","userRetrievedList":{"users":[{"id":372,"description":"10208974820794559","parentBusinessUserId":2,"statusId":1,"roleTypeId":2,"defaultLanguageId":2,"userExternalIdList":{"externalIds":[{"externalId":"10208974820794559","defaultFlag":1,"type":"socialID","statusId":1}]},"userAttributeList":{"attributeValues":[{"attributeId":9,"attributeName":"name","attributeValue":"Federico","languageId":2,"languageName":"en","statusId":1,"statusName":"active"},{"attributeId":10,"attributeName":"surname","attributeValue":"Gasperini","languageId":2,"languageName":"en","statusId":1,"statusName":"active"},{"attributeId":14,"attributeName":"email","attributeValue":"federico.gasperini@gmail.com","languageId":2,"languageName":"en","statusId":1,"statusName":"active"},{"attributeId":100003,"attributeName":"customerNumber","attributeValue":"CON-20160502-0020","languageId":2,"languageName":"en","statusId":1,"statusName":"active"},{"attributeId":100004,"attributeName":"language","attributeValue":"EN","languageId":2,"languageName":"en","statusId":1,"statusName":"active"},{"attributeId":100017,"attributeName":"mascotteID","attributeValue":"mascotte6_b.fw","languageId":2,"languageName":"en","statusId":1,"statusName":"active"}]}}]},"resultCode":"0"}
01.07.2016 13:51:45 +0200 10.0.32.247 Login status: 200
01.07.2016 14:49:53 +0200 10.0.32.247 TOKEN ricevuto, cache creata
01.07.2016 15:05:57 +0200 10.0.32.247 Login req: {
            "languageId":"2",
            "transactionId": "14673783571021641173",
            "tenant":"1",
            "profileAttributeFlag":true,
            "externalIdList": {
                "externalIds": [
                    {
                    "externalId" : "1034777793238397"
                    }
                ]
             }
            }
01.07.2016 15:05:57 +0200 10.0.32.247 Login token: aecf18f74c6e182780e3a8de5828ac3a
01.07.2016 15:05:57 +0200 10.0.32.247 Login response: {"transactionId":"14673783571021641173","userRetrievedList":{"users":[{"id":1442,"description":"1034777793238397","parentBusinessUserId":2,"statusId":1,"roleTypeId":2,"defaultLanguageId":2,"userExternalIdList":{"externalIds":[{"externalId":"1034777793238397","defaultFlag":1,"type":"socialID","statusId":1}]},"userAttributeList":{"attributeValues":[{"attributeId":9,"attributeName":"name","attributeValue":"Sandeep","languageId":2,"languageName":"en","statusId":1,"statusName":"active"},{"attributeId":10,"attributeName":"surname","attributeValue":"Lama","languageId":2,"languageName":"en","statusId":1,"statusName":"active"},{"attributeId":14,"attributeName":"email","attributeValue":"yosandyiou@gmail.com","languageId":2,"languageName":"en","statusId":1,"statusName":"active"},{"attributeId":100004,"attributeName":"language","attributeValue":"en","languageId":2,"languageName":"en","statusId":1,"statusName":"active"}]}}]},"resultCode":"0"}
01.07.2016 15:05:57 +0200 10.0.32.247 Login status: 200
01.07.2016 15:09:51 +0200 10.0.32.247 Login req: {
            "languageId":"2",
            "transactionId": "14673785911927919971",
            "tenant":"1",
            "profileAttributeFlag":true,
            "externalIdList": {
                "externalIds": [
                    {
                    "externalId" : "1034777793238397"
                    }
                ]
             }
            }
01.07.2016 15:09:51 +0200 10.0.32.247 Login token: aecf18f74c6e182780e3a8de5828ac3a
01.07.2016 15:09:51 +0200 10.0.32.247 Login response: {"transactionId":"14673785911927919971","userRetrievedList":{"users":[{"id":1442,"description":"1034777793238397","parentBusinessUserId":2,"statusId":1,"roleTypeId":2,"defaultLanguageId":2,"userExternalIdList":{"externalIds":[{"externalId":"1034777793238397","defaultFlag":1,"type":"socialID","statusId":1}]},"userAttributeList":{"attributeValues":[{"attributeId":9,"attributeName":"name","attributeValue":"Sandeep","languageId":2,"languageName":"en","statusId":1,"statusName":"active"},{"attributeId":10,"attributeName":"surname","attributeValue":"Lama","languageId":2,"languageName":"en","statusId":1,"statusName":"active"},{"attributeId":14,"attributeName":"email","attributeValue":"yosandyiou@gmail.com","languageId":2,"languageName":"en","statusId":1,"statusName":"active"},{"attributeId":100003,"attributeName":"customerNumber","attributeValue":"CON-20160623-0005","languageId":2,"languageName":"en","statusId":1,"statusName":"active"},{"attributeId":100004,"attributeName":"language","attributeValue":"en","languageId":2,"languageName":"en","statusId":1,"statusName":"active"}]}}]},"resultCode":"0"}
01.07.2016 15:09:52 +0200 10.0.32.247 Login status: 200
01.07.2016 15:50:17 +0200 10.0.32.247 TOKEN ricevuto, cache creata
01.07.2016 15:52:17 +0200 10.0.32.247 TOKEN expired => RENEWING. Server response =>401
01.07.2016 15:52:17 +0200 10.0.32.247 RENEWING token
01.07.2016 15:52:17 +0200 10.0.32.247 RENEW TOKEN RESULT =>200 || f7ee9313a09d68b21491c9a7eb8f5ca
01.07.2016 15:52:17 +0200 10.0.32.247 error in acapiaccess_getProducts_annualPass: 
01.07.2016 18:54:33 +0400 10.0.32.247 TOKEN ricevuto, cache creata
01.07.2016 17:55:22 +0200 10.0.32.247 TOKEN ricevuto, cache creata
01.07.2016 18:55:28 +0200 10.0.32.247 TOKEN ricevuto, cache creata
01.07.2016 19:33:58 +0200 10.0.32.247 Login req: {
            "languageId":"2",
            "transactionId": "1467394438197611199",
            "tenant":"1",
            "profileAttributeFlag":true,
            "externalIdList": {
                "externalIds": [
                    {
                    "externalId" : "abza_ben@hotmail.com"
                    }
                ]
             }
            }
01.07.2016 19:33:58 +0200 10.0.32.247 Login token: 5a1e5125d564cb742ec2e36bf6327f8b
01.07.2016 19:33:58 +0200 10.0.32.247 Login response: {"transactionId":"1467394438197611199","userRetrievedList":{"users":[{"id":1445,"description":"abza_ben@hotmail.com","parentBusinessUserId":2,"statusId":1,"roleTypeId":2,"defaultLanguageId":2,"userExternalIdList":{"externalIds":[{"externalId":"abza_ben@hotmail.com","defaultFlag":1,"type":"email","statusId":1}]},"userAttributeList":{"attributeValues":[{"attributeId":9,"attributeName":"name","attributeValue":"Abdulzahra","languageId":2,"languageName":"en","statusId":1,"statusName":"active"},{"attributeId":10,"attributeName":"surname","attributeValue":"Ben Nakhi","languageId":2,"languageName":"en","statusId":1,"statusName":"active"},{"attributeId":14,"attributeName":"email","attributeValue":"abza_ben@hotmail.com","languageId":2,"languageName":"en","statusId":1,"statusName":"active"},{"attributeId":100003,"attributeName":"customerNumber","attributeValue":"CON-20160701-0016","languageId":2,"languageName":"en","statusId":1,"statusName":"active"},{"attributeId":100004,"attributeName":"language","attributeValue":"EN","languageId":2,"languageName":"en","statusId":1,"statusName":"active"},{"attributeId":100020,"attributeName":"NL_DUBAI_PARK_AND_RESORT","attributeValue":"true","languageId":2,"languageName":"en","statusId":1,"statusName":"active"}]}}]},"resultCode":"0"}
01.07.2016 19:33:58 +0200 10.0.32.247 Login status: 200
01.07.2016 19:53:06 +0200 10.0.32.247 Login req: {
            "languageId":"2",
            "transactionId": "1467395586537028886",
            "tenant":"1",
            "profileAttributeFlag":true,
            "externalIdList": {
                "externalIds": [
                    {
                    "externalId" : "azza-gift@hotmail.com"
                    }
                ]
             }
            }
01.07.2016 19:53:06 +0200 10.0.32.247 Login token: 765781fcb67eee810ee37f3454a2d65
01.07.2016 19:53:06 +0200 10.0.32.247 Login response: {"transactionId":"1467395586537028886","userRetrievedList":{"users":[{"id":1244,"description":"azza-gift@hotmail.com","parentBusinessUserId":2,"statusId":1,"roleTypeId":2,"defaultLanguageId":2,"userExternalIdList":{"externalIds":[{"externalId":"azza-gift@hotmail.com","defaultFlag":1,"type":"email","statusId":1}]},"userAttributeList":{"attributeValues":[{"attributeId":9,"attributeName":"name","attributeValue":"Akram","languageId":2,"languageName":"en","statusId":1,"statusName":"active"},{"attributeId":10,"attributeName":"surname","attributeValue":"Abdulkhaliq","languageId":2,"languageName":"en","statusId":1,"statusName":"active"},{"attributeId":14,"attributeName":"email","attributeValue":"azza-gift@hotmail.com","languageId":2,"languageName":"en","statusId":1,"statusName":"active"},{"attributeId":100003,"attributeName":"customerNumber","attributeValue":"CON-20160618-0002","languageId":2,"languageName":"en","statusId":1,"statusName":"active"},{"attributeId":100004,"attributeName":"language","attributeValue":"AR","languageId":2,"languageName":"en","statusId":1,"statusName":"active"},{"attributeId":100013,"attributeName":"NL_LEGOLAND","attributeValue":"False","languageId":2,"languageName":"en","statusId":1,"statusName":"active"},{"attributeId":100014,"attributeName":"NL_RIVERLAND","attributeValue":"False","languageId":2,"languageName":"en","statusId":1,"statusName":"active"},{"attributeId":100015,"attributeName":"NL_GENERAL_COMMUNICATION","attributeValue":"False","languageId":2,"languageName":"en","statusId":1,"statusName":"active"},{"attributeId":100018,"attributeName":"NL_BOLLIWOOD_PARK","attributeValue":"False","languageId":2,"languageName":"en","statusId":1,"statusName":"active"},{"attributeId":100019,"attributeName":"NL_MOTIONGATE","attributeValue":"False","languageId":2,"languageName":"en","statusId":1,"statusName":"active"},{"attributeId":100020,"attributeName":"NL_DUBAI_PARK_AND_RESORT","attributeValue":"True","languageId":2,"languageName":"en","statusId":1,"statusName":"active"}]}}]},"resultCode":"0"}
01.07.2016 19:53:06 +0200 10.0.32.247 Login status: 200
01.07.2016 19:53:37 +0200 10.0.32.247 Login req: {
            "languageId":"2",
            "transactionId": "14673956172035782546",
            "tenant":"1",
            "profileAttributeFlag":true,
            "externalIdList": {
                "externalIds": [
                    {
                    "externalId" : "1437677596258390"
                    }
                ]
             }
            }
01.07.2016 19:53:37 +0200 10.0.32.247 Login token: 2ed61347cc95e0f31f7f5dff4dd8b
01.07.2016 19:53:37 +0200 10.0.32.247 Login response: {"transactionId":"14673956172035782546","userRetrievedList":{"users":[{"id":1447,"description":"1437677596258390","parentBusinessUserId":2,"statusId":1,"roleTypeId":2,"defaultLanguageId":2,"userExternalIdList":{"externalIds":[{"externalId":"1437677596258390","defaultFlag":1,"type":"socialID","statusId":1}]},"userAttributeList":{"attributeValues":[{"attributeId":9,"attributeName":"name","attributeValue":"\u063a\u0635\u0627\u0628","languageId":2,"languageName":"en","statusId":1,"statusName":"active"},{"attributeId":10,"attributeName":"surname","attributeValue":"\u0627\u0644\u0647\u0627\u062c\u0631\u064a","languageId":2,"languageName":"en","statusId":1,"statusName":"active"},{"attributeId":14,"attributeName":"email","attributeValue":"ghassab1977@hotmail.com","languageId":2,"languageName":"en","statusId":1,"statusName":"active"},{"attributeId":100004,"attributeName":"language","attributeValue":"ar","languageId":2,"languageName":"en","statusId":1,"statusName":"active"}]}}]},"resultCode":"0"}
01.07.2016 19:53:37 +0200 10.0.32.247 Login status: 200
01.07.2016 19:55:28 +0200 10.0.32.247 TOKEN ricevuto, cache creata
01.07.2016 19:55:29 +0200 10.0.32.247 Login req: {
            "languageId":"2",
            "transactionId": "14673957281789928251",
            "tenant":"1",
            "profileAttributeFlag":true,
            "externalIdList": {
                "externalIds": [
                    {
                    "externalId" : "hatimbadi2003@gmail.com"
                    }
                ]
             }
            }
01.07.2016 19:55:29 +0200 10.0.32.247 Login token: 96a4b46a0321fb94e329ca81a711ef
01.07.2016 19:55:29 +0200 10.0.32.247 Login response: {"transactionId":"14673957281789928251","userRetrievedList":{"users":[{"id":1446,"description":"hatimbadi2003@gmail.com","parentBusinessUserId":2,"statusId":1,"roleTypeId":2,"defaultLanguageId":2,"userExternalIdList":{"externalIds":[{"externalId":"hatimbadi2003@gmail.com","defaultFlag":1,"type":"email","statusId":1}]},"userAttributeList":{"attributeValues":[{"attributeId":9,"attributeName":"name","attributeValue":"Hatem","languageId":2,"languageName":"en","statusId":1,"statusName":"active"},{"attributeId":10,"attributeName":"surname","attributeValue":"Badi","languageId":2,"languageName":"en","statusId":1,"statusName":"active"},{"attributeId":14,"attributeName":"email","attributeValue":"hatimbadi2003@gmail.com","languageId":2,"languageName":"en","statusId":1,"statusName":"active"},{"attributeId":100003,"attributeName":"customerNumber","attributeValue":"CON-20160701-0018","languageId":2,"languageName":"en","statusId":1,"statusName":"active"},{"attributeId":100004,"attributeName":"language","attributeValue":"EN","languageId":2,"languageName":"en","statusId":1,"statusName":"active"},{"attributeId":100020,"attributeName":"NL_DUBAI_PARK_AND_RESORT","attributeValue":"true","languageId":2,"languageName":"en","statusId":1,"statusName":"active"}]}}]},"resultCode":"0"}
01.07.2016 19:55:29 +0200 10.0.32.247 Login status: 200
01.07.2016 19:57:00 +0200 10.0.32.247 TOKEN expired => RENEWING. Server response =>401
01.07.2016 19:57:00 +0200 10.0.32.247 RENEWING token
01.07.2016 19:57:00 +0200 10.0.32.247 RENEW TOKEN RESULT =>200 || bd36a48020632dd197f5bae9ab9d5b4
01.07.2016 19:57:00 +0200 10.0.32.247 error in acapiaccess_getProducts_annualPass: 
01.07.2016 20:03:33 +0200 10.0.32.247 Login req: {
            "languageId":"2",
            "transactionId": "1467396213837287625",
            "tenant":"1",
            "profileAttributeFlag":true,
            "externalIdList": {
                "externalIds": [
                    {
                    "externalId" : "Mazen.s@hotmail.com"
                    }
                ]
             }
            }
01.07.2016 20:03:33 +0200 10.0.32.247 Login token: d547899643b9f25c32e017dff929fe7e
01.07.2016 20:03:33 +0200 10.0.32.247 Login response: {"transactionId":"1467396213837287625","userRetrievedList":{"users":[{"id":1449,"description":"mazen.s@hotmail.com","parentBusinessUserId":2,"statusId":1,"roleTypeId":2,"defaultLanguageId":2,"userExternalIdList":{"externalIds":[{"externalId":"mazen.s@hotmail.com","defaultFlag":1,"type":"email","statusId":1}]},"userAttributeList":{"attributeValues":[{"attributeId":9,"attributeName":"name","attributeValue":"Mazen","languageId":2,"languageName":"en","statusId":1,"statusName":"active"},{"attributeId":10,"attributeName":"surname","attributeValue":"Alsihman","languageId":2,"languageName":"en","statusId":1,"statusName":"active"},{"attributeId":14,"attributeName":"email","attributeValue":"mazen.s@hotmail.com","languageId":2,"languageName":"en","statusId":1,"statusName":"active"},{"attributeId":100003,"attributeName":"customerNumber","attributeValue":"CON-20160701-0022","languageId":2,"languageName":"en","statusId":1,"statusName":"active"},{"attributeId":100004,"attributeName":"language","attributeValue":"EN","languageId":2,"languageName":"en","statusId":1,"statusName":"active"},{"attributeId":100020,"attributeName":"NL_DUBAI_PARK_AND_RESORT","attributeValue":"true","languageId":2,"languageName":"en","statusId":1,"statusName":"active"}]}}]},"resultCode":"0"}
01.07.2016 20:03:33 +0200 10.0.32.247 Login status: 200
01.07.2016 20:05:37 +0200 10.0.32.247 Login req: {
            "languageId":"2",
            "transactionId": "1467396337104883570",
            "tenant":"1",
            "profileAttributeFlag":true,
            "externalIdList": {
                "externalIds": [
                    {
                    "externalId" : "heroans8@gmail.com"
                    }
                ]
             }
            }
01.07.2016 20:05:37 +0200 10.0.32.247 Login token: b7822d12d514fa581ea6315eb1857ee2
01.07.2016 20:05:37 +0200 10.0.32.247 Login response: {"transactionId":"1467396337104883570","userRetrievedList":{"users":[{"id":1450,"description":"heroans8@gmail.com","parentBusinessUserId":2,"statusId":1,"roleTypeId":2,"defaultLanguageId":2,"userExternalIdList":{"externalIds":[{"externalId":"heroans8@gmail.com","defaultFlag":1,"type":"email","statusId":1}]},"userAttributeList":{"attributeValues":[{"attributeId":9,"attributeName":"name","attributeValue":"raeed","languageId":2,"languageName":"en","statusId":1,"statusName":"active"},{"attributeId":10,"attributeName":"surname","attributeValue":"alanari","languageId":2,"languageName":"en","statusId":1,"statusName":"active"},{"attributeId":14,"attributeName":"email","attributeValue":"heroans8@gmail.com","languageId":2,"languageName":"en","statusId":1,"statusName":"active"},{"attributeId":100003,"attributeName":"customerNumber","attributeValue":"CON-20160701-0023","languageId":2,"languageName":"en","statusId":1,"statusName":"active"},{"attributeId":100004,"attributeName":"language","attributeValue":"AR","languageId":2,"languageName":"en","statusId":1,"statusName":"active"},{"attributeId":100020,"attributeName":"NL_DUBAI_PARK_AND_RESORT","attributeValue":"true","languageId":2,"languageName":"en","statusId":1,"statusName":"active"}]}}]},"resultCode":"0"}
01.07.2016 20:05:37 +0200 10.0.32.247 Login status: 200
01.07.2016 20:06:07 +0200 10.0.32.247 Login req: {
            "languageId":"2",
            "transactionId": "14673963671103099583",
            "tenant":"1",
            "profileAttributeFlag":true,
            "externalIdList": {
                "externalIds": [
                    {
                    "externalId" : "1205010892845379"
                    }
                ]
             }
            }
01.07.2016 20:06:07 +0200 10.0.32.247 Login token: d653d338e6af5b804550ea8fb59034
01.07.2016 20:06:07 +0200 10.0.32.247 Login response: {"transactionId":"14673963671103099583","userRetrievedList":{"users":[{"id":1452,"description":"1205010892845379","parentBusinessUserId":2,"statusId":1,"roleTypeId":2,"defaultLanguageId":2,"userExternalIdList":{"externalIds":[{"externalId":"1205010892845379","defaultFlag":1,"type":"socialID","statusId":1}]},"userAttributeList":{"attributeValues":[{"attributeId":9,"attributeName":"name","attributeValue":"Nidhal","languageId":2,"languageName":"en","statusId":1,"statusName":"active"},{"attributeId":10,"attributeName":"surname","attributeValue":"Al Rahbi","languageId":2,"languageName":"en","statusId":1,"statusName":"active"},{"attributeId":14,"attributeName":"email","attributeValue":"nidhal.alrahbi@gmail.com","languageId":2,"languageName":"en","statusId":1,"statusName":"active"},{"attributeId":100004,"attributeName":"language","attributeValue":"en","languageId":2,"languageName":"en","statusId":1,"statusName":"active"}]}}]},"resultCode":"0"}
01.07.2016 20:06:07 +0200 10.0.32.247 Login status: 200
01.07.2016 20:13:15 +0200 10.0.32.247 Login req: {
            "languageId":"2",
            "transactionId": "1467396795712771222",
            "tenant":"1",
            "profileAttributeFlag":true,
            "externalIdList": {
                "externalIds": [
                    {
                    "externalId" : "haris@eesystem.ae"
                    }
                ]
             }
            }
01.07.2016 20:13:15 +0200 10.0.32.247 Login token: f10c758f67ea0b56ac36949d279e93
01.07.2016 20:13:15 +0200 10.0.32.247 Login response: {"transactionId":"1467396795712771222","userRetrievedList":{"users":[{"id":1453,"description":"haris@eesystem.ae","parentBusinessUserId":2,"statusId":1,"roleTypeId":2,"defaultLanguageId":2,"userExternalIdList":{"externalIds":[{"externalId":"haris@eesystem.ae","defaultFlag":1,"type":"email","statusId":1}]},"userAttributeList":{"attributeValues":[{"attributeId":9,"attributeName":"name","attributeValue":"Sayed Haris","languageId":2,"languageName":"en","statusId":1,"statusName":"active"},{"attributeId":10,"attributeName":"surname","attributeValue":"Kazmi","languageId":2,"languageName":"en","statusId":1,"statusName":"active"},{"attributeId":14,"attributeName":"email","attributeValue":"haris@eesystem.ae","languageId":2,"languageName":"en","statusId":1,"statusName":"active"},{"attributeId":100003,"attributeName":"customerNumber","attributeValue":"CON-20160701-0026","languageId":2,"languageName":"en","statusId":1,"statusName":"active"},{"attributeId":100004,"attributeName":"language","attributeValue":"EN","languageId":2,"languageName":"en","statusId":1,"statusName":"active"},{"attributeId":100020,"attributeName":"NL_DUBAI_PARK_AND_RESORT","attributeValue":"true","languageId":2,"languageName":"en","statusId":1,"statusName":"active"}]}}]},"resultCode":"0"}
01.07.2016 20:13:15 +0200 10.0.32.247 Login status: 200
01.07.2016 20:14:59 +0200 10.0.32.247 Login req: {
            "languageId":"2",
            "transactionId": "1467396899894665763",
            "tenant":"1",
            "profileAttributeFlag":true,
            "externalIdList": {
                "externalIds": [
                    {
                    "externalId" : "1205010892845379"
                    }
                ]
             }
            }
01.07.2016 20:14:59 +0200 10.0.32.247 Login token: d653d338e6af5b804550ea8fb59034
01.07.2016 20:14:59 +0200 10.0.32.247 Login response: {"transactionId":"1467396899894665763","userRetrievedList":{"users":[{"id":1452,"description":"1205010892845379","parentBusinessUserId":2,"statusId":1,"roleTypeId":2,"defaultLanguageId":2,"userExternalIdList":{"externalIds":[{"externalId":"1205010892845379","defaultFlag":1,"type":"socialID","statusId":1}]},"userAttributeList":{"attributeValues":[{"attributeId":9,"attributeName":"name","attributeValue":"Nidhal","languageId":2,"languageName":"en","statusId":1,"statusName":"active"},{"attributeId":10,"attributeName":"surname","attributeValue":"Al Rahbi","languageId":2,"languageName":"en","statusId":1,"statusName":"active"},{"attributeId":14,"attributeName":"email","attributeValue":"nidhal.alrahbi@gmail.com","languageId":2,"languageName":"en","statusId":1,"statusName":"active"},{"attributeId":100003,"attributeName":"customerNumber","attributeValue":"CON-20160701-0024","languageId":2,"languageName":"en","statusId":1,"statusName":"active"},{"attributeId":100004,"attributeName":"language","attributeValue":"en","languageId":2,"languageName":"en","statusId":1,"statusName":"active"}]}}]},"resultCode":"0"}
01.07.2016 20:14:59 +0200 10.0.32.247 Login status: 200
01.07.2016 20:26:05 +0200 10.0.32.247 Login req: {
            "languageId":"2",
            "transactionId": "1467397565865609699",
            "tenant":"1",
            "profileAttributeFlag":true,
            "externalIdList": {
                "externalIds": [
                    {
                    "externalId" : "549242678581589"
                    }
                ]
             }
            }
01.07.2016 20:26:05 +0200 10.0.32.247 Login token: e4614796b4c5ef5f9526176b581dbd8
01.07.2016 20:26:05 +0200 10.0.32.247 Login response: {"transactionId":"1467397565865609699","userRetrievedList":{"users":[{"id":1455,"description":"549242678581589","parentBusinessUserId":2,"statusId":1,"roleTypeId":2,"defaultLanguageId":2,"userExternalIdList":{"externalIds":[{"externalId":"549242678581589","defaultFlag":1,"type":"socialID","statusId":1}]},"userAttributeList":{"attributeValues":[{"attributeId":9,"attributeName":"name","attributeValue":"Muhannad","languageId":2,"languageName":"en","statusId":1,"statusName":"active"},{"attributeId":10,"attributeName":"surname","attributeValue":"Alshehhi","languageId":2,"languageName":"en","statusId":1,"statusName":"active"},{"attributeId":14,"attributeName":"email","attributeValue":"balbalouh1979@gmail.com","languageId":2,"languageName":"en","statusId":1,"statusName":"active"},{"attributeId":100004,"attributeName":"language","attributeValue":"ar","languageId":2,"languageName":"en","statusId":1,"statusName":"active"}]}}]},"resultCode":"0"}
01.07.2016 20:26:05 +0200 10.0.32.247 Login status: 200
01.07.2016 20:34:17 +0200 10.0.32.247 Login req: {
            "languageId":"2",
            "transactionId": "1467398057163443165",
            "tenant":"1",
            "profileAttributeFlag":true,
            "externalIdList": {
                "externalIds": [
                    {
                    "externalId" : "rajaaalfassi@gmail.com"
                    }
                ]
             }
            }
01.07.2016 20:34:17 +0200 10.0.32.247 Login token: b99d389ccbf4ca9bcdbe3b6c460e15d
01.07.2016 20:34:17 +0200 10.0.32.247 Login response: {"transactionId":"1467398057163443165","userRetrievedList":{"users":[{"id":1457,"description":"rajaaalfassi@gmail.com","parentBusinessUserId":2,"statusId":1,"roleTypeId":2,"defaultLanguageId":2,"userExternalIdList":{"externalIds":[{"externalId":"rajaaalfassi@gmail.com","defaultFlag":1,"type":"email","statusId":1}]},"userAttributeList":{"attributeValues":[{"attributeId":9,"attributeName":"name","attributeValue":"Rajaa","languageId":2,"languageName":"en","statusId":1,"statusName":"active"},{"attributeId":10,"attributeName":"surname","attributeValue":"Alfassi","languageId":2,"languageName":"en","statusId":1,"statusName":"active"},{"attributeId":14,"attributeName":"email","attributeValue":"rajaaalfassi@gmail.com","languageId":2,"languageName":"en","statusId":1,"statusName":"active"},{"attributeId":100003,"attributeName":"customerNumber","attributeValue":"CON-20160701-0029","languageId":2,"languageName":"en","statusId":1,"statusName":"active"},{"attributeId":100004,"attributeName":"language","attributeValue":"EN","languageId":2,"languageName":"en","statusId":1,"statusName":"active"},{"attributeId":100020,"attributeName":"NL_DUBAI_PARK_AND_RESORT","attributeValue":"true","languageId":2,"languageName":"en","statusId":1,"statusName":"active"}]}}]},"resultCode":"0"}
01.07.2016 20:34:17 +0200 10.0.32.247 Login status: 200
01.07.2016 20:38:46 +0200 10.0.32.247 Login req: {
            "languageId":"2",
            "transactionId": "14673983261960650652",
            "tenant":"1",
            "profileAttributeFlag":true,
            "externalIdList": {
                "externalIds": [
                    {
                    "externalId" : "dba.adu@gmail.com"
                    }
                ]
             }
            }
01.07.2016 20:38:46 +0200 10.0.32.247 Login token: 3aea55e34a049ec3d33e5af550c048
01.07.2016 20:38:46 +0200 10.0.32.247 Login response: {"transactionId":"14673983261960650652","userRetrievedList":{"users":[{"id":1456,"description":"dba.adu@gmail.com","parentBusinessUserId":2,"statusId":1,"roleTypeId":2,"defaultLanguageId":2,"userExternalIdList":{"externalIds":[{"externalId":"dba.adu@gmail.com","defaultFlag":1,"type":"email","statusId":1}]},"userAttributeList":{"attributeValues":[{"attributeId":9,"attributeName":"name","attributeValue":"Ahmed","languageId":2,"languageName":"en","statusId":1,"statusName":"active"},{"attributeId":10,"attributeName":"surname","attributeValue":"Al Sharaf","languageId":2,"languageName":"en","statusId":1,"statusName":"active"},{"attributeId":14,"attributeName":"email","attributeValue":"dba.adu@gmail.com","languageId":2,"languageName":"en","statusId":1,"statusName":"active"},{"attributeId":100003,"attributeName":"customerNumber","attributeValue":"CON-20160701-0028","languageId":2,"languageName":"en","statusId":1,"statusName":"active"},{"attributeId":100004,"attributeName":"language","attributeValue":"EN","languageId":2,"languageName":"en","statusId":1,"statusName":"active"},{"attributeId":100020,"attributeName":"NL_DUBAI_PARK_AND_RESORT","attributeValue":"true","languageId":2,"languageName":"en","statusId":1,"statusName":"active"}]}}]},"resultCode":"0"}
01.07.2016 20:38:46 +0200 10.0.32.247 Login status: 200
01.07.2016 20:48:17 +0200 10.0.32.247 Login req: {
            "languageId":"2",
            "transactionId": "14673988972011987820",
            "tenant":"1",
            "profileAttributeFlag":true,
            "externalIdList": {
                "externalIds": [
                    {
                    "externalId" : "tareq.sharifa@windowslive.com"
                    }
                ]
             }
            }
01.07.2016 20:48:17 +0200 10.0.32.247 Login token: 363ea8dee364325788e866ff7e7a27e
01.07.2016 20:48:17 +0200 10.0.32.247 Login response: {"transactionId":"14673988972011987820","userRetrievedList":{"users":[{"id":1311,"description":"tareq.sharifa@windowslive.com","parentBusinessUserId":2,"statusId":1,"roleTypeId":2,"defaultLanguageId":2,"userExternalIdList":{"externalIds":[{"externalId":"tareq.sharifa@windowslive.com","defaultFlag":1,"type":"email","statusId":1}]},"userAttributeList":{"attributeValues":[{"attributeId":9,"attributeName":"name","attributeValue":"Tareq","languageId":2,"languageName":"en","statusId":1,"statusName":"active"},{"attributeId":10,"attributeName":"surname","attributeValue":"Sharifa","languageId":2,"languageName":"en","statusId":1,"statusName":"active"},{"attributeId":14,"attributeName":"email","attributeValue":"tareq.sharifa@windowslive.com","languageId":2,"languageName":"en","statusId":1,"statusName":"active"},{"attributeId":100003,"attributeName":"customerNumber","attributeValue":"CON-20160623-0014","languageId":2,"languageName":"en","statusId":1,"statusName":"active"},{"attributeId":100004,"attributeName":"language","attributeValue":"EN","languageId":2,"languageName":"en","statusId":1,"statusName":"active"},{"attributeId":100013,"attributeName":"NL_LEGOLAND","attributeValue":"False","languageId":2,"languageName":"en","statusId":1,"statusName":"active"},{"attributeId":100014,"attributeName":"NL_RIVERLAND","attributeValue":"False","languageId":2,"languageName":"en","statusId":1,"statusName":"active"},{"attributeId":100015,"attributeName":"NL_GENERAL_COMMUNICATION","attributeValue":"False","languageId":2,"languageName":"en","statusId":1,"statusName":"active"},{"attributeId":100018,"attributeName":"NL_BOLLIWOOD_PARK","attributeValue":"False","languageId":2,"languageName":"en","statusId":1,"statusName":"active"},{"attributeId":100019,"attributeName":"NL_MOTIONGATE","attributeValue":"False","languageId":2,"languageName":"en","statusId":1,"statusName":"active"},{"attributeId":100020,"attributeName":"NL_DUBAI_PARK_AND_RESORT","attributeValue":"True","languageId":2,"languageName":"en","statusId":1,"statusName":"active"}]}}]},"resultCode":"0"}
01.07.2016 20:48:17 +0200 10.0.32.247 Login status: 200
01.07.2016 20:57:27 +0200 10.0.32.247 TOKEN ricevuto, cache creata
01.07.2016 20:59:58 +0200 10.0.32.247 TOKEN expired => RENEWING. Server response =>401
01.07.2016 20:59:58 +0200 10.0.32.247 RENEWING token
01.07.2016 20:59:58 +0200 10.0.32.247 RENEW TOKEN RESULT =>200 || c47de82e192cdae35e71a4a089494065
01.07.2016 20:59:58 +0200 10.0.32.247 error in acapiaccess_getProducts_annualPass: 
01.07.2016 21:55:59 +0200 10.0.32.247 Login req: {
            "languageId":"2",
            "transactionId": "14674029591904574794",
            "tenant":"1",
            "profileAttributeFlag":true,
            "externalIdList": {
                "externalIds": [
                    {
                    "externalId" : "Sasmartgirl@gmail.com"
                    }
                ]
             }
            }
01.07.2016 21:55:59 +0200 10.0.32.247 Login token: a744aab7affc495efd166464d4f4cc0
01.07.2016 21:55:59 +0200 10.0.32.247 Login response: {"transactionId":"14674029591904574794","userRetrievedList":{"users":[{"id":1458,"description":"sasmartgirl@gmail.com","parentBusinessUserId":2,"statusId":1,"roleTypeId":2,"defaultLanguageId":2,"userExternalIdList":{"externalIds":[{"externalId":"sasmartgirl@gmail.com","defaultFlag":1,"type":"email","statusId":1}]},"userAttributeList":{"attributeValues":[{"attributeId":9,"attributeName":"name","attributeValue":"Saja","languageId":2,"languageName":"en","statusId":1,"statusName":"active"},{"attributeId":10,"attributeName":"surname","attributeValue":"Othman","languageId":2,"languageName":"en","statusId":1,"statusName":"active"},{"attributeId":14,"attributeName":"email","attributeValue":"sasmartgirl@gmail.com","languageId":2,"languageName":"en","statusId":1,"statusName":"active"},{"attributeId":100003,"attributeName":"customerNumber","attributeValue":"CON-20160701-0030","languageId":2,"languageName":"en","statusId":1,"statusName":"active"},{"attributeId":100004,"attributeName":"language","attributeValue":"EN","languageId":2,"languageName":"en","statusId":1,"statusName":"active"},{"attributeId":100020,"attributeName":"NL_DUBAI_PARK_AND_RESORT","attributeValue":"true","languageId":2,"languageName":"en","statusId":1,"statusName":"active"}]}}]},"resultCode":"0"}
01.07.2016 21:55:59 +0200 10.0.32.247 Login status: 200
01.07.2016 22:00:06 +0200 10.0.32.247 TOKEN ricevuto, cache creata
01.07.2016 22:30:31 +0200 10.0.32.247 Login req: {
            "languageId":"2",
            "transactionId": "1467405031541383664",
            "tenant":"1",
            "profileAttributeFlag":true,
            "externalIdList": {
                "externalIds": [
                    {
                    "externalId" : "ksalghamdi@saudiairlines.com"
                    }
                ]
             }
            }
01.07.2016 22:30:31 +0200 10.0.32.247 Login token: 9d2eb9226b7feccaa9d7aa8cf1687d
01.07.2016 22:30:31 +0200 10.0.32.247 Login response: {"transactionId":"1467405031541383664","userRetrievedList":{"users":[{"id":1459,"description":"ksalghamdi@saudiairlines.com","parentBusinessUserId":2,"statusId":1,"roleTypeId":2,"defaultLanguageId":2,"userExternalIdList":{"externalIds":[{"externalId":"ksalghamdi@saudiairlines.com","defaultFlag":1,"type":"email","statusId":1}]},"userAttributeList":{"attributeValues":[{"attributeId":9,"attributeName":"name","attributeValue":"Khalid","languageId":2,"languageName":"en","statusId":1,"statusName":"active"},{"attributeId":10,"attributeName":"surname","attributeValue":"Alghamdi","languageId":2,"languageName":"en","statusId":1,"statusName":"active"},{"attributeId":14,"attributeName":"email","attributeValue":"ksalghamdi@saudiairlines.com","languageId":2,"languageName":"en","statusId":1,"statusName":"active"},{"attributeId":100003,"attributeName":"customerNumber","attributeValue":"CON-20160702-0002","languageId":2,"languageName":"en","statusId":1,"statusName":"active"},{"attributeId":100004,"attributeName":"language","attributeValue":"EN","languageId":2,"languageName":"en","statusId":1,"statusName":"active"},{"attributeId":100020,"attributeName":"NL_DUBAI_PARK_AND_RESORT","attributeValue":"true","languageId":2,"languageName":"en","statusId":1,"statusName":"active"}]}}]},"resultCode":"0"}
01.07.2016 22:30:31 +0200 10.0.32.247 Login status: 200
01.07.2016 22:46:55 +0200 10.0.32.247 Login req: {
            "languageId":"2",
            "transactionId": "1467406015332459591",
            "tenant":"1",
            "profileAttributeFlag":true,
            "externalIdList": {
                "externalIds": [
                    {
                    "externalId" : "Khalkhawari@gmail.com"
                    }
                ]
             }
            }
01.07.2016 22:46:55 +0200 10.0.32.247 Login token: afd231c99fd016b84281cd18a6ba36ac
01.07.2016 22:46:55 +0200 10.0.32.247 Login response: {"transactionId":"1467406015332459591","userRetrievedList":{"users":[{"id":1460,"description":"khalkhawari@gmail.com","parentBusinessUserId":2,"statusId":1,"roleTypeId":2,"defaultLanguageId":2,"userExternalIdList":{"externalIds":[{"externalId":"khalkhawari@gmail.com","defaultFlag":1,"type":"email","statusId":1}]},"userAttributeList":{"attributeValues":[{"attributeId":9,"attributeName":"name","attributeValue":"Khaled","languageId":2,"languageName":"en","statusId":1,"statusName":"active"},{"attributeId":10,"attributeName":"surname","attributeValue":"Alkhawari","languageId":2,"languageName":"en","statusId":1,"statusName":"active"},{"attributeId":14,"attributeName":"email","attributeValue":"khalkhawari@gmail.com","languageId":2,"languageName":"en","statusId":1,"statusName":"active"},{"attributeId":100003,"attributeName":"customerNumber","attributeValue":"CON-20160702-0004","languageId":2,"languageName":"en","statusId":1,"statusName":"active"},{"attributeId":100004,"attributeName":"language","attributeValue":"AR","languageId":2,"languageName":"en","statusId":1,"statusName":"active"},{"attributeId":100020,"attributeName":"NL_DUBAI_PARK_AND_RESORT","attributeValue":"true","languageId":2,"languageName":"en","statusId":1,"statusName":"active"}]}}]},"resultCode":"0"}
01.07.2016 22:46:55 +0200 10.0.32.247 Login status: 200
01.07.2016 23:00:20 +0200 10.0.32.247 TOKEN ricevuto, cache creata
01.07.2016 23:03:38 +0200 10.0.32.247 Login req: {
            "languageId":"2",
            "transactionId": "1467407018180900445",
            "tenant":"1",
            "profileAttributeFlag":true,
            "externalIdList": {
                "externalIds": [
                    {
                    "externalId" : "1763351763894483"
                    }
                ]
             }
            }
01.07.2016 23:03:38 +0200 10.0.32.247 Login token: 6e4c5145aa4b4b3afebd8f4a61c8a1a5
01.07.2016 23:03:38 +0200 10.0.32.247 Login response: {"transactionId":"1467407018180900445","userRetrievedList":{"users":[{"id":506,"description":"1763351763894483","parentBusinessUserId":2,"statusId":1,"roleTypeId":2,"defaultLanguageId":2,"userExternalIdList":{"externalIds":[{"externalId":"1763351763894483","defaultFlag":1,"type":"socialID","statusId":1}]},"userAttributeList":{"attributeValues":[{"attributeId":9,"attributeName":"name","attributeValue":"Koshala","languageId":2,"languageName":"en","statusId":1,"statusName":"active"},{"attributeId":10,"attributeName":"surname","attributeValue":"Malik","languageId":2,"languageName":"en","statusId":1,"statusName":"active"},{"attributeId":14,"attributeName":"email","attributeValue":"eventslions@gmail.com","languageId":2,"languageName":"en","statusId":1,"statusName":"active"},{"attributeId":100003,"attributeName":"customerNumber","attributeValue":"CON-20160511-0003","languageId":2,"languageName":"en","statusId":1,"statusName":"active"},{"attributeId":100004,"attributeName":"language","attributeValue":"en","languageId":2,"languageName":"en","statusId":1,"statusName":"active"}]}}]},"resultCode":"0"}
01.07.2016 23:03:39 +0200 10.0.32.247 Login status: 200
01.07.2016 23:48:46 +0200 10.0.32.247 Login req: {
            "languageId":"2",
            "transactionId": "14674097251589784072",
            "tenant":"1",
            "profileAttributeFlag":true,
            "externalIdList": {
                "externalIds": [
                    {
                    "externalId" : "Alshomy63@gmail.com"
                    }
                ]
             }
            }
01.07.2016 23:48:46 +0200 10.0.32.247 Login token: 301eb579bbc57f91203f5e34a094b
01.07.2016 23:48:46 +0200 10.0.32.247 Login response: {"transactionId":"14674097251589784072","userRetrievedList":{"users":[{"id":1462,"description":"alshomy63@gmail.com","parentBusinessUserId":2,"statusId":1,"roleTypeId":2,"defaultLanguageId":2,"userExternalIdList":{"externalIds":[{"externalId":"alshomy63@gmail.com","defaultFlag":1,"type":"email","statusId":1}]},"userAttributeList":{"attributeValues":[{"attributeId":9,"attributeName":"name","attributeValue":"Shaima","languageId":2,"languageName":"en","statusId":1,"statusName":"active"},{"attributeId":10,"attributeName":"surname","attributeValue":"Al BLOOSHI","languageId":2,"languageName":"en","statusId":1,"statusName":"active"},{"attributeId":14,"attributeName":"email","attributeValue":"alshomy63@gmail.com","languageId":2,"languageName":"en","statusId":1,"statusName":"active"},{"attributeId":100003,"attributeName":"customerNumber","attributeValue":"CON-20160702-0005","languageId":2,"languageName":"en","statusId":1,"statusName":"active"},{"attributeId":100004,"attributeName":"language","attributeValue":"AR","languageId":2,"languageName":"en","statusId":1,"statusName":"active"}]}}]},"resultCode":"0"}
01.07.2016 23:48:46 +0200 10.0.32.247 Login status: 200