
03.10.2016 0:23:10 +0200 10.0.32.247 TOKEN ricevuto, cache creata
03.10.2016 1:21:58 +0200 10.0.32.247 TOKEN expired => RENEWING. Server response =>401
03.10.2016 1:21:58 +0200 10.0.32.247 RENEWING token
03.10.2016 1:21:59 +0200 10.0.32.247 RENEW TOKEN RESULT =>200 || 8cc0fcce78e6228da6ae0429162f18b
03.10.2016 2:21:00 +0200 10.0.32.247 TOKEN expired => RENEWING. Server response =>401
03.10.2016 2:21:00 +0200 10.0.32.247 RENEWING token
03.10.2016 2:21:00 +0200 10.0.32.247 RENEW TOKEN RESULT =>200 || d444cb73ebff4d4d098a326dbf6b39
03.10.2016 3:20:33 +0200 10.0.32.247 TOKEN expired => RENEWING. Server response =>401
03.10.2016 3:20:33 +0200 10.0.32.247 RENEWING token
03.10.2016 3:20:33 +0200 10.0.32.247 RENEW TOKEN RESULT =>200 || ef97358a8f71b70b5cdc89fd95962
03.10.2016 4:19:41 +0200 10.0.32.247 TOKEN expired => RENEWING. Server response =>401
03.10.2016 4:19:41 +0200 10.0.32.247 RENEWING token
03.10.2016 4:19:41 +0200 10.0.32.247 RENEW TOKEN RESULT =>200 || 21da1433e352c705a2550a8f2b0a859
03.10.2016 5:19:32 +0200 10.0.32.247 TOKEN expired => RENEWING. Server response =>401
03.10.2016 5:19:32 +0200 10.0.32.247 RENEWING token
03.10.2016 5:19:32 +0200 10.0.32.247 RENEW TOKEN RESULT =>200 || 779efd347e5d57c7c154a6c2627c2fb1
03.10.2016 6:22:04 +0200 10.0.32.247 TOKEN ricevuto, cache creata
03.10.2016 6:36:49 +0200 10.0.32.247 Login req: {
            "languageId":"2",
            "transactionId": "14754694091029351616",
            "tenant":"1",
            "profileAttributeFlag":true,
            "externalIdList": {
                "externalIds": [
                    {
                    "externalId" : "1182767161761403"
                    }
                ]
             }
            }
03.10.2016 6:36:49 +0200 10.0.32.247 Login token: a890e1b96421cd8648a3e483d6b7734
03.10.2016 6:36:49 +0200 10.0.32.247 Login response: {"transactionId":"14754694091029351616","userRetrievedList":{"users":[{"id":4100,"description":"1182767161761403","parentBusinessUserId":2,"statusId":1,"roleTypeId":2,"defaultLanguageId":2,"userExternalIdList":{"externalIds":[{"externalId":"1182767161761403","defaultFlag":1,"type":"socialID","statusId":1}]},"userAttributeList":{"attributeValues":[{"attributeId":9,"attributeName":"name","attributeValue":"Ariah","languageId":2,"languageName":"en","statusId":1,"statusName":"active"},{"attributeId":10,"attributeName":"surname","attributeValue":"Cy","languageId":2,"languageName":"en","statusId":1,"statusName":"active"},{"attributeId":14,"attributeName":"email","attributeValue":"marinduque.mharlyn@yahoo.com","languageId":2,"languageName":"en","statusId":1,"statusName":"active"},{"attributeId":100004,"attributeName":"language","attributeValue":"en","languageId":2,"languageName":"en","statusId":1,"statusName":"active"}]}}]},"resultCode":"0"}
03.10.2016 6:36:49 +0200 10.0.32.247 Login status: 200
03.10.2016 6:40:12 +0200 10.0.32.247 Login req: {
            "languageId":"2",
            "transactionId": "1475469612409216963",
            "tenant":"1",
            "profileAttributeFlag":true,
            "externalIdList": {
                "externalIds": [
                    {
                    "externalId" : "ali_s_yousef@hotmail.com"
                    }
                ]
             }
            }
03.10.2016 6:40:12 +0200 10.0.32.247 Login token: e831b313b589b1581167fc4930563b
03.10.2016 6:40:12 +0200 10.0.32.247 Login response: {"transactionId":"1475469612409216963","userRetrievedList":{"users":[{"id":4086,"description":"ali_s_yousef@hotmail.com","parentBusinessUserId":2,"statusId":1,"roleTypeId":2,"defaultLanguageId":2,"userExternalIdList":{"externalIds":[{"externalId":"ali_s_yousef@hotmail.com","defaultFlag":1,"type":"email","statusId":1}]},"userAttributeList":{"attributeValues":[{"attributeId":9,"attributeName":"name","attributeValue":"ali","languageId":2,"languageName":"en","statusId":1,"statusName":"active"},{"attributeId":10,"attributeName":"surname","attributeValue":"alyousef","languageId":2,"languageName":"en","statusId":1,"statusName":"active"},{"attributeId":14,"attributeName":"email","attributeValue":"ali_s_yousef@hotmail.com","languageId":2,"languageName":"en","statusId":1,"statusName":"active"},{"attributeId":100003,"attributeName":"customerNumber","attributeValue":"CON-20161002-0006","languageId":2,"languageName":"en","statusId":1,"statusName":"active"},{"attributeId":100004,"attributeName":"language","attributeValue":"AR","languageId":2,"languageName":"en","statusId":1,"statusName":"active"}]}}]},"resultCode":"0"}
03.10.2016 6:40:12 +0200 10.0.32.247 Login status: 200
03.10.2016 7:21:35 +0200 10.0.32.247 TOKEN expired => RENEWING. Server response =>401
03.10.2016 7:21:35 +0200 10.0.32.247 RENEWING token
03.10.2016 7:21:35 +0200 10.0.32.247 RENEW TOKEN RESULT =>200 || ef63ce7350b3212537ab8978c6b2340
03.10.2016 8:19:46 +0200 10.0.32.247 TOKEN expired => RENEWING. Server response =>401
03.10.2016 8:19:46 +0200 10.0.32.247 RENEWING token
03.10.2016 8:19:46 +0200 10.0.32.247 RENEW TOKEN RESULT =>200 || b69c05d4cba16cef8edb188be16ae1
03.10.2016 8:37:19 +0200 10.0.32.247 Login req: {
            "languageId":"2",
            "transactionId": "14754766395434613",
            "tenant":"1",
            "profileAttributeFlag":true,
            "externalIdList": {
                "externalIds": [
                    {
                    "externalId" : "10154043208718576"
                    }
                ]
             }
            }
03.10.2016 8:37:19 +0200 10.0.32.247 Login token: 1c2718d2eeabfc99df45c67e012b8b8
03.10.2016 8:37:19 +0200 10.0.32.247 Login response: {"transactionId":"14754766395434613","userRetrievedList":{"users":[{"id":4102,"description":"10154043208718576","parentBusinessUserId":2,"statusId":1,"roleTypeId":2,"defaultLanguageId":2,"userExternalIdList":{"externalIds":[{"externalId":"10154043208718576","defaultFlag":1,"type":"socialID","statusId":1}]},"userAttributeList":{"attributeValues":[{"attributeId":9,"attributeName":"name","attributeValue":"Bandar","languageId":2,"languageName":"en","statusId":1,"statusName":"active"},{"attributeId":10,"attributeName":"surname","attributeValue":"Saeed","languageId":2,"languageName":"en","statusId":1,"statusName":"active"},{"attributeId":14,"attributeName":"email","attributeValue":"bandarsq@gmail.com","languageId":2,"languageName":"en","statusId":1,"statusName":"active"},{"attributeId":100004,"attributeName":"language","attributeValue":"en","languageId":2,"languageName":"en","statusId":1,"statusName":"active"}]}}]},"resultCode":"0"}
03.10.2016 8:37:19 +0200 10.0.32.247 Login status: 200
03.10.2016 9:07:42 +0200 10.0.32.247 Login req: {
            "languageId":"2",
            "transactionId": "14754784611765660126",
            "tenant":"1",
            "profileAttributeFlag":true,
            "externalIdList": {
                "externalIds": [
                    {
                    "externalId" : "10153694683605895"
                    }
                ]
             }
            }
03.10.2016 9:07:42 +0200 10.0.32.247 Login token: e3e7182e351db114f8b75c898536ded
03.10.2016 9:07:42 +0200 10.0.32.247 Login response: {"transactionId":"14754784611765660126","userRetrievedList":{"users":[{"id":1858,"description":"10153694683605895","parentBusinessUserId":2,"statusId":1,"roleTypeId":2,"defaultLanguageId":2,"userExternalIdList":{"externalIds":[{"externalId":"10153694683605895","defaultFlag":1,"type":"socialID","statusId":1}]},"userAttributeList":{"attributeValues":[{"attributeId":9,"attributeName":"name","attributeValue":"Evans","languageId":2,"languageName":"en","statusId":1,"statusName":"active"},{"attributeId":10,"attributeName":"surname","attributeValue":"Anthony","languageId":2,"languageName":"en","statusId":1,"statusName":"active"},{"attributeId":14,"attributeName":"email","attributeValue":"easyereal2@yahoo.com","languageId":2,"languageName":"en","statusId":1,"statusName":"active"},{"attributeId":100003,"attributeName":"customerNumber","attributeValue":"CON-20160719-0016","languageId":2,"languageName":"en","statusId":1,"statusName":"active"},{"attributeId":100004,"attributeName":"language","attributeValue":"en","languageId":2,"languageName":"en","statusId":1,"statusName":"active"}]}}]},"resultCode":"0"}
03.10.2016 9:07:42 +0200 10.0.32.247 Login status: 200
03.10.2016 9:11:01 +0200 10.0.32.247 Login req: {
            "languageId":"2",
            "transactionId": "1475478661740901582",
            "tenant":"1",
            "profileAttributeFlag":true,
            "externalIdList": {
                "externalIds": [
                    {
                    "externalId" : "pschanakira@yahoo.com"
                    }
                ]
             }
            }
03.10.2016 9:11:01 +0200 10.0.32.247 Login token: 8a24d854a1ccfcc09ada4290748374cf
03.10.2016 9:11:01 +0200 10.0.32.247 Login response: {"transactionId":"1475478661740901582","userRetrievedList":{"users":[{"id":4104,"description":"pschanakira@yahoo.com","parentBusinessUserId":2,"statusId":1,"roleTypeId":2,"defaultLanguageId":2,"userExternalIdList":{"externalIds":[{"externalId":"pschanakira@yahoo.com","defaultFlag":1,"type":"email","statusId":1}]},"userAttributeList":{"attributeValues":[{"attributeId":9,"attributeName":"name","attributeValue":"Peterson","languageId":2,"languageName":"en","statusId":1,"statusName":"active"},{"attributeId":10,"attributeName":"surname","attributeValue":"Chanakira","languageId":2,"languageName":"en","statusId":1,"statusName":"active"},{"attributeId":14,"attributeName":"email","attributeValue":"pschanakira@yahoo.com","languageId":2,"languageName":"en","statusId":1,"statusName":"active"},{"attributeId":100003,"attributeName":"customerNumber","attributeValue":"CON-20161003-0009","languageId":2,"languageName":"en","statusId":1,"statusName":"active"},{"attributeId":100004,"attributeName":"language","attributeValue":"EN","languageId":2,"languageName":"en","statusId":1,"statusName":"active"}]}}]},"resultCode":"0"}
03.10.2016 9:11:01 +0200 10.0.32.247 Login status: 200
03.10.2016 9:19:34 +0200 10.0.32.247 TOKEN expired => RENEWING. Server response =>401
03.10.2016 9:19:34 +0200 10.0.32.247 RENEWING token
03.10.2016 9:19:34 +0200 10.0.32.247 RENEW TOKEN RESULT =>200 || 4382eeee2ed9e74154d7e6f9b2614b94
03.10.2016 9:21:34 +0200 10.0.32.247 Login req: {
            "languageId":"2",
            "transactionId": "1475479294112001581",
            "tenant":"1",
            "profileAttributeFlag":true,
            "externalIdList": {
                "externalIds": [
                    {
                    "externalId" : "10210744362978760"
                    }
                ]
             }
            }
03.10.2016 9:21:34 +0200 10.0.32.247 Login token: 3752ab65a78f28568b38184e31f0ff91
03.10.2016 9:21:34 +0200 10.0.32.247 Login response: {"transactionId":"1475479294112001581","userRetrievedList":{"users":[{"id":4105,"description":"10210744362978760","parentBusinessUserId":2,"statusId":1,"roleTypeId":2,"defaultLanguageId":2,"userExternalIdList":{"externalIds":[{"externalId":"10210744362978760","defaultFlag":1,"type":"socialID","statusId":1}]},"userAttributeList":{"attributeValues":[{"attributeId":9,"attributeName":"name","attributeValue":"Heidi","languageId":2,"languageName":"en","statusId":1,"statusName":"active"},{"attributeId":10,"attributeName":"surname","attributeValue":"Abdu","languageId":2,"languageName":"en","statusId":1,"statusName":"active"},{"attributeId":14,"attributeName":"email","attributeValue":"hoda.heidi@gmail.com","languageId":2,"languageName":"en","statusId":1,"statusName":"active"},{"attributeId":100004,"attributeName":"language","attributeValue":"en","languageId":2,"languageName":"en","statusId":1,"statusName":"active"}]}}]},"resultCode":"0"}
03.10.2016 9:21:34 +0200 10.0.32.247 Login status: 200
03.10.2016 9:51:43 +0200 10.0.32.247 Login req: {
            "languageId":"2",
            "transactionId": "1475481103298050968",
            "tenant":"1",
            "profileAttributeFlag":true,
            "externalIdList": {
                "externalIds": [
                    {
                    "externalId" : "10208379903129262"
                    }
                ]
             }
            }
03.10.2016 9:51:43 +0200 10.0.32.247 Login token: 0695fcbf037cf40cd393c2ba3e9bd
03.10.2016 9:51:43 +0200 10.0.32.247 Login response: {"transactionId":"1475481103298050968","userRetrievedList":{"users":[{"id":1624,"description":"10208379903129262","parentBusinessUserId":2,"statusId":1,"roleTypeId":2,"defaultLanguageId":2,"userExternalIdList":{"externalIds":[{"externalId":"10208379903129262","defaultFlag":1,"type":"socialID","statusId":1}]},"userAttributeList":{"attributeValues":[{"attributeId":9,"attributeName":"name","attributeValue":"Miriam","languageId":2,"languageName":"en","statusId":1,"statusName":"active"},{"attributeId":10,"attributeName":"surname","attributeValue":"Bacenetti","languageId":2,"languageName":"en","statusId":1,"statusName":"active"},{"attributeId":14,"attributeName":"email","attributeValue":"miriam.bacenetti@gmail.com","languageId":2,"languageName":"en","statusId":1,"statusName":"active"},{"attributeId":100003,"attributeName":"customerNumber","attributeValue":"CON-20160708-0020","languageId":2,"languageName":"en","statusId":1,"statusName":"active"},{"attributeId":100004,"attributeName":"language","attributeValue":"EN","languageId":2,"languageName":"en","statusId":1,"statusName":"active"},{"attributeId":100017,"attributeName":"mascotteID","attributeValue":"mascotte4_b.fw","languageId":2,"languageName":"en","statusId":1,"statusName":"active"}]}}]},"resultCode":"0"}
03.10.2016 9:51:43 +0200 10.0.32.247 Login status: 200
03.10.2016 9:54:38 +0200 10.0.32.247 Login req: {
            "languageId":"2",
            "transactionId": "14754812781402489693",
            "tenant":"1",
            "profileAttributeFlag":true,
            "externalIdList": {
                "externalIds": [
                    {
                    "externalId" : "10208483746903750"
                    }
                ]
             }
            }
03.10.2016 9:54:38 +0200 10.0.32.247 Login token: c893b3d08be1d11cf1557cf74a4abfd5
03.10.2016 9:54:38 +0200 10.0.32.247 Login response: {"transactionId":"14754812781402489693","userRetrievedList":{"users":[{"id":4108,"description":"10208483746903750","parentBusinessUserId":2,"statusId":1,"roleTypeId":2,"defaultLanguageId":2,"userExternalIdList":{"externalIds":[{"externalId":"10208483746903750","defaultFlag":1,"type":"socialID","statusId":1}]},"userAttributeList":{"attributeValues":[{"attributeId":9,"attributeName":"name","attributeValue":"Atani","languageId":2,"languageName":"en","statusId":1,"statusName":"active"},{"attributeId":10,"attributeName":"surname","attributeValue":"Sahera","languageId":2,"languageName":"en","statusId":1,"statusName":"active"},{"attributeId":14,"attributeName":"email","attributeValue":"atanisahera@hotmail.com","languageId":2,"languageName":"en","statusId":1,"statusName":"active"},{"attributeId":100004,"attributeName":"language","attributeValue":"en","languageId":2,"languageName":"en","statusId":1,"statusName":"active"}]}}]},"resultCode":"0"}
03.10.2016 9:54:38 +0200 10.0.32.247 Login status: 200
03.10.2016 10:00:27 +0200 10.0.32.247 Login req: {
            "languageId":"2",
            "transactionId": "14754816271612831924",
            "tenant":"1",
            "profileAttributeFlag":true,
            "externalIdList": {
                "externalIds": [
                    {
                    "externalId" : "jacob.f.pomperada@gmail.com"
                    }
                ]
             }
            }
03.10.2016 10:00:27 +0200 10.0.32.247 Login token: a3a9931bffaa9fe9eda3887ba1cec42
03.10.2016 10:00:27 +0200 10.0.32.247 Login response: {"transactionId":"14754816271612831924","userRetrievedList":{"users":[{"id":2309,"description":"jacob.f.pomperada@gmail.com","parentBusinessUserId":2,"statusId":1,"roleTypeId":2,"defaultLanguageId":2,"userExternalIdList":{"externalIds":[{"externalId":"jacob.f.pomperada@gmail.com","defaultFlag":1,"type":"email","statusId":1}]},"userAttributeList":{"attributeValues":[{"attributeId":9,"attributeName":"name","attributeValue":"Jacob","languageId":2,"languageName":"en","statusId":1,"statusName":"active"},{"attributeId":10,"attributeName":"surname","attributeValue":"Pomperada","languageId":2,"languageName":"en","statusId":1,"statusName":"active"},{"attributeId":14,"attributeName":"email","attributeValue":"jacob.f.pomperada@gmail.com","languageId":2,"languageName":"en","statusId":1,"statusName":"active"},{"attributeId":100003,"attributeName":"customerNumber","attributeValue":"CON-20160725-0018","languageId":2,"languageName":"en","statusId":1,"statusName":"active"},{"attributeId":100004,"attributeName":"language","attributeValue":"EN","languageId":2,"languageName":"en","statusId":1,"statusName":"active"},{"attributeId":100013,"attributeName":"NL_LEGOLAND","attributeValue":"False","languageId":2,"languageName":"en","statusId":1,"statusName":"active"},{"attributeId":100014,"attributeName":"NL_RIVERLAND","attributeValue":"False","languageId":2,"languageName":"en","statusId":1,"statusName":"active"},{"attributeId":100015,"attributeName":"NL_GENERAL_COMMUNICATION","attributeValue":"False","languageId":2,"languageName":"en","statusId":1,"statusName":"active"},{"attributeId":100018,"attributeName":"NL_BOLLIWOOD_PARK","attributeValue":"False","languageId":2,"languageName":"en","statusId":1,"statusName":"active"},{"attributeId":100019,"attributeName":"NL_MOTIONGATE","attributeValue":"False","languageId":2,"languageName":"en","statusId":1,"statusName":"active"},{"attributeId":100020,"attributeName":"NL_DUBAI_PARK_AND_RESORT","attributeValue":"False","languageId":2,"languageName":"en","statusId":1,"statusName":"active"}]}}]},"resultCode":"0"}
03.10.2016 10:00:27 +0200 10.0.32.247 Login status: 200
03.10.2016 10:13:58 +0200 10.0.32.247 Login req: {
            "languageId":"2",
            "transactionId": "1475482438364829940",
            "tenant":"1",
            "profileAttributeFlag":true,
            "externalIdList": {
                "externalIds": [
                    {
                    "externalId" : "1141723712569856"
                    }
                ]
             }
            }
03.10.2016 10:13:58 +0200 10.0.32.247 Login token: a470ac91494b53ec7732e822d886d
03.10.2016 10:13:58 +0200 10.0.32.247 Login response: {"transactionId":"1475482438364829940","userRetrievedList":{"users":[{"id":4109,"description":"1141723712569856","parentBusinessUserId":2,"statusId":1,"roleTypeId":2,"defaultLanguageId":2,"userExternalIdList":{"externalIds":[{"externalId":"1141723712569856","defaultFlag":1,"type":"socialID","statusId":1}]},"userAttributeList":{"attributeValues":[{"attributeId":9,"attributeName":"name","attributeValue":"Sam","languageId":2,"languageName":"en","statusId":1,"statusName":"active"},{"attributeId":10,"attributeName":"surname","attributeValue":"JW","languageId":2,"languageName":"en","statusId":1,"statusName":"active"},{"attributeId":14,"attributeName":"email","attributeValue":"prakash.cool91@gmail.com","languageId":2,"languageName":"en","statusId":1,"statusName":"active"},{"attributeId":100004,"attributeName":"language","attributeValue":"en","languageId":2,"languageName":"en","statusId":1,"statusName":"active"}]}}]},"resultCode":"0"}
03.10.2016 10:13:58 +0200 10.0.32.247 Login status: 200
03.10.2016 10:19:20 +0200 10.0.32.247 TOKEN expired => RENEWING. Server response =>401
03.10.2016 10:19:20 +0200 10.0.32.247 RENEWING token
03.10.2016 10:19:20 +0200 10.0.32.247 RENEW TOKEN RESULT =>200 || 6e74e642e97caa2ad29d378a0d6c8f0
03.10.2016 10:28:26 +0200 10.0.32.247 Login req: {
            "languageId":"2",
            "transactionId": "14754833061180095502",
            "tenant":"1",
            "profileAttributeFlag":true,
            "externalIdList": {
                "externalIds": [
                    {
                    "externalId" : "10157467583695287"
                    }
                ]
             }
            }
03.10.2016 10:28:26 +0200 10.0.32.247 Login token: f93580c6fe99dacca49c425f9e7d30e0
03.10.2016 10:28:26 +0200 10.0.32.247 Login response: {"transactionId":"14754833061180095502","userRetrievedList":{"users":[{"id":3737,"description":"10157467583695287","parentBusinessUserId":2,"statusId":1,"roleTypeId":2,"defaultLanguageId":2,"userExternalIdList":{"externalIds":[{"externalId":"10157467583695287","defaultFlag":1,"type":"socialID","statusId":1}]},"userAttributeList":{"attributeValues":[{"attributeId":9,"attributeName":"name","attributeValue":"Prash","languageId":2,"languageName":"en","statusId":1,"statusName":"active"},{"attributeId":10,"attributeName":"surname","attributeValue":"Thurairatnam","languageId":2,"languageName":"en","statusId":1,"statusName":"active"},{"attributeId":14,"attributeName":"email","attributeValue":"prash10@aol.com","languageId":2,"languageName":"en","statusId":1,"statusName":"active"},{"attributeId":100003,"attributeName":"customerNumber","attributeValue":"CON-20160919-0030","languageId":2,"languageName":"en","statusId":1,"statusName":"active"},{"attributeId":100004,"attributeName":"language","attributeValue":"en","languageId":2,"languageName":"en","statusId":1,"statusName":"active"}]}}]},"resultCode":"0"}
03.10.2016 10:28:26 +0200 10.0.32.247 Login status: 200
03.10.2016 10:31:03 +0200 10.0.32.247 Login req: {
            "languageId":"2",
            "transactionId": "14754834631027372596",
            "tenant":"1",
            "profileAttributeFlag":true,
            "externalIdList": {
                "externalIds": [
                    {
                    "externalId" : "jacob.f.pomperada@gmail.com"
                    }
                ]
             }
            }
03.10.2016 10:31:03 +0200 10.0.32.247 Login token: a3a9931bffaa9fe9eda3887ba1cec42
03.10.2016 10:31:03 +0200 10.0.32.247 Login response: {"transactionId":"14754834631027372596","userRetrievedList":{"users":[{"id":2309,"description":"jacob.f.pomperada@gmail.com","parentBusinessUserId":2,"statusId":1,"roleTypeId":2,"defaultLanguageId":2,"userExternalIdList":{"externalIds":[{"externalId":"jacob.f.pomperada@gmail.com","defaultFlag":1,"type":"email","statusId":1}]},"userAttributeList":{"attributeValues":[{"attributeId":9,"attributeName":"name","attributeValue":"Jacob","languageId":2,"languageName":"en","statusId":1,"statusName":"active"},{"attributeId":10,"attributeName":"surname","attributeValue":"Pomperada","languageId":2,"languageName":"en","statusId":1,"statusName":"active"},{"attributeId":14,"attributeName":"email","attributeValue":"jacob.f.pomperada@gmail.com","languageId":2,"languageName":"en","statusId":1,"statusName":"active"},{"attributeId":100003,"attributeName":"customerNumber","attributeValue":"CON-20160725-0018","languageId":2,"languageName":"en","statusId":1,"statusName":"active"},{"attributeId":100004,"attributeName":"language","attributeValue":"EN","languageId":2,"languageName":"en","statusId":1,"statusName":"active"},{"attributeId":100013,"attributeName":"NL_LEGOLAND","attributeValue":"False","languageId":2,"languageName":"en","statusId":1,"statusName":"active"},{"attributeId":100014,"attributeName":"NL_RIVERLAND","attributeValue":"False","languageId":2,"languageName":"en","statusId":1,"statusName":"active"},{"attributeId":100015,"attributeName":"NL_GENERAL_COMMUNICATION","attributeValue":"False","languageId":2,"languageName":"en","statusId":1,"statusName":"active"},{"attributeId":100018,"attributeName":"NL_BOLLIWOOD_PARK","attributeValue":"False","languageId":2,"languageName":"en","statusId":1,"statusName":"active"},{"attributeId":100019,"attributeName":"NL_MOTIONGATE","attributeValue":"False","languageId":2,"languageName":"en","statusId":1,"statusName":"active"},{"attributeId":100020,"attributeName":"NL_DUBAI_PARK_AND_RESORT","attributeValue":"False","languageId":2,"languageName":"en","statusId":1,"statusName":"active"}]}}]},"resultCode":"0"}
03.10.2016 10:31:03 +0200 10.0.32.247 Login status: 200
03.10.2016 11:08:13 +0200 10.0.32.247 Login req: {
            "languageId":"2",
            "transactionId": "14754856931876176902",
            "tenant":"1",
            "profileAttributeFlag":true,
            "externalIdList": {
                "externalIds": [
                    {
                    "externalId" : "arif313@yahoo.com"
                    }
                ]
             }
            }
03.10.2016 11:08:13 +0200 10.0.32.247 Login token: d68a49c7d9d1ddbb8f798c635916b
03.10.2016 11:08:13 +0200 10.0.32.247 Login response: {"transactionId":"14754856931876176902","userRetrievedList":{"users":[{"id":4113,"description":"arif313@yahoo.com","parentBusinessUserId":2,"statusId":1,"roleTypeId":2,"defaultLanguageId":2,"userExternalIdList":{"externalIds":[{"externalId":"arif313@yahoo.com","defaultFlag":1,"type":"email","statusId":1}]},"userAttributeList":{"attributeValues":[{"attributeId":9,"attributeName":"name","attributeValue":"Md Arif","languageId":2,"languageName":"en","statusId":1,"statusName":"active"},{"attributeId":10,"attributeName":"surname","attributeValue":"Mahmood","languageId":2,"languageName":"en","statusId":1,"statusName":"active"},{"attributeId":14,"attributeName":"email","attributeValue":"arif313@yahoo.com","languageId":2,"languageName":"en","statusId":1,"statusName":"active"},{"attributeId":100003,"attributeName":"customerNumber","attributeValue":"CON-20161003-0016","languageId":2,"languageName":"en","statusId":1,"statusName":"active"},{"attributeId":100004,"attributeName":"language","attributeValue":"EN","languageId":2,"languageName":"en","statusId":1,"statusName":"active"},{"attributeId":100020,"attributeName":"NL_DUBAI_PARK_AND_RESORT","attributeValue":"true","languageId":2,"languageName":"en","statusId":1,"statusName":"active"}]}}]},"resultCode":"0"}
03.10.2016 11:08:13 +0200 10.0.32.247 Login status: 200
03.10.2016 11:19:43 +0200 10.0.32.247 TOKEN ricevuto, cache creata
03.10.2016 11:19:48 +0200 10.0.32.247 Login req: {
            "languageId":"2",
            "transactionId": "1475486388902719728",
            "tenant":"1",
            "profileAttributeFlag":true,
            "externalIdList": {
                "externalIds": [
                    {
                    "externalId" : "10208483746903750"
                    }
                ]
             }
            }
03.10.2016 11:19:48 +0200 10.0.32.247 Login token: 6afe44a36394cebc3121c8f446f48064
03.10.2016 11:19:48 +0200 10.0.32.247 Login response: {"transactionId":"1475486388902719728","userRetrievedList":{"users":[{"id":4108,"description":"10208483746903750","parentBusinessUserId":2,"statusId":1,"roleTypeId":2,"defaultLanguageId":2,"userExternalIdList":{"externalIds":[{"externalId":"10208483746903750","defaultFlag":1,"type":"socialID","statusId":1}]},"userAttributeList":{"attributeValues":[{"attributeId":9,"attributeName":"name","attributeValue":"Atani","languageId":2,"languageName":"en","statusId":1,"statusName":"active"},{"attributeId":10,"attributeName":"surname","attributeValue":"Sahera","languageId":2,"languageName":"en","statusId":1,"statusName":"active"},{"attributeId":14,"attributeName":"email","attributeValue":"atanisahera@hotmail.com","languageId":2,"languageName":"en","statusId":1,"statusName":"active"},{"attributeId":100003,"attributeName":"customerNumber","attributeValue":"CON-20161003-0013","languageId":2,"languageName":"en","statusId":1,"statusName":"active"},{"attributeId":100004,"attributeName":"language","attributeValue":"en","languageId":2,"languageName":"en","statusId":1,"statusName":"active"}]}}]},"resultCode":"0"}
03.10.2016 11:19:48 +0200 10.0.32.247 Login status: 200
03.10.2016 12:21:46 +0200 10.0.32.247 TOKEN ricevuto, cache creata
03.10.2016 12:57:33 +0200 10.0.32.247 Login req: {
            "languageId":"2",
            "transactionId": "1475492253278632317",
            "tenant":"1",
            "profileAttributeFlag":true,
            "externalIdList": {
                "externalIds": [
                    {
                    "externalId" : "karencballes@gmail.com"
                    }
                ]
             }
            }
03.10.2016 12:57:33 +0200 10.0.32.247 Login token: 954e6ea9a6db6574c2b799a4de229dd6
03.10.2016 12:57:33 +0200 10.0.32.247 Login response: {"transactionId":"1475492253278632317","userRetrievedList":{"users":[{"id":4116,"description":"karencballes@gmail.com","parentBusinessUserId":2,"statusId":1,"roleTypeId":2,"defaultLanguageId":2,"userExternalIdList":{"externalIds":[{"externalId":"karencballes@gmail.com","defaultFlag":1,"type":"email","statusId":1}]},"userAttributeList":{"attributeValues":[{"attributeId":9,"attributeName":"name","attributeValue":"Karen","languageId":2,"languageName":"en","statusId":1,"statusName":"active"},{"attributeId":10,"attributeName":"surname","attributeValue":"Balles","languageId":2,"languageName":"en","statusId":1,"statusName":"active"},{"attributeId":14,"attributeName":"email","attributeValue":"karencballes@gmail.com","languageId":2,"languageName":"en","statusId":1,"statusName":"active"},{"attributeId":100003,"attributeName":"customerNumber","attributeValue":"CON-20161003-0019","languageId":2,"languageName":"en","statusId":1,"statusName":"active"},{"attributeId":100004,"attributeName":"language","attributeValue":"EN","languageId":2,"languageName":"en","statusId":1,"statusName":"active"},{"attributeId":100020,"attributeName":"NL_DUBAI_PARK_AND_RESORT","attributeValue":"true","languageId":2,"languageName":"en","statusId":1,"statusName":"active"}]}}]},"resultCode":"0"}
03.10.2016 12:57:33 +0200 10.0.32.247 Login status: 200
03.10.2016 13:02:00 +0200 10.0.32.247 Login req: {
            "languageId":"2",
            "transactionId": "14754925201126314790",
            "tenant":"1",
            "profileAttributeFlag":true,
            "externalIdList": {
                "externalIds": [
                    {
                    "externalId" : "ahmed_sakr001@hotmail.com"
                    }
                ]
             }
            }
03.10.2016 13:02:00 +0200 10.0.32.247 Login token: 55a12a7e238b8472ed929272963ff5
03.10.2016 13:02:00 +0200 10.0.32.247 Login response: {"transactionId":"14754925201126314790","userRetrievedList":{"users":[{"id":4115,"description":"ahmed_sakr001@hotmail.com","parentBusinessUserId":2,"statusId":1,"roleTypeId":2,"defaultLanguageId":2,"userExternalIdList":{"externalIds":[{"externalId":"ahmed_sakr001@hotmail.com","defaultFlag":1,"type":"email","statusId":1}]},"userAttributeList":{"attributeValues":[{"attributeId":9,"attributeName":"name","attributeValue":"Ahmed","languageId":2,"languageName":"en","statusId":1,"statusName":"active"},{"attributeId":10,"attributeName":"surname","attributeValue":"Sakr","languageId":2,"languageName":"en","statusId":1,"statusName":"active"},{"attributeId":14,"attributeName":"email","attributeValue":"ahmed_sakr001@hotmail.com","languageId":2,"languageName":"en","statusId":1,"statusName":"active"},{"attributeId":100003,"attributeName":"customerNumber","attributeValue":"CON-20161003-0018","languageId":2,"languageName":"en","statusId":1,"statusName":"active"},{"attributeId":100004,"attributeName":"language","attributeValue":"EN","languageId":2,"languageName":"en","statusId":1,"statusName":"active"},{"attributeId":100020,"attributeName":"NL_DUBAI_PARK_AND_RESORT","attributeValue":"true","languageId":2,"languageName":"en","statusId":1,"statusName":"active"}]}}]},"resultCode":"0"}
03.10.2016 13:02:00 +0200 10.0.32.247 Login status: 200
03.10.2016 13:19:52 +0200 10.0.32.247 TOKEN expired => RENEWING. Server response =>401
03.10.2016 13:19:52 +0200 10.0.32.247 RENEWING token
03.10.2016 13:19:52 +0200 10.0.32.247 RENEW TOKEN RESULT =>200 || 9a3e75da6fd61636a7dfb6b41a1a9912
03.10.2016 13:53:09 +0200 10.0.32.247 Login req: {
            "languageId":"2",
            "transactionId": "14754955892034665217",
            "tenant":"1",
            "profileAttributeFlag":true,
            "externalIdList": {
                "externalIds": [
                    {
                    "externalId" : "10210963661270282"
                    }
                ]
             }
            }
03.10.2016 13:53:09 +0200 10.0.32.247 Login token: 2f717747acf386127914b15285458a
03.10.2016 13:53:09 +0200 10.0.32.247 Login response: {"transactionId":"14754955892034665217","userRetrievedList":{"users":[{"id":4117,"description":"10210963661270282","parentBusinessUserId":2,"statusId":1,"roleTypeId":2,"defaultLanguageId":2,"userExternalIdList":{"externalIds":[{"externalId":"10210963661270282","defaultFlag":1,"type":"socialID","statusId":1}]},"userAttributeList":{"attributeValues":[{"attributeId":9,"attributeName":"name","attributeValue":"Roberta","languageId":2,"languageName":"en","statusId":1,"statusName":"active"},{"attributeId":10,"attributeName":"surname","attributeValue":"Burk\u0161ait\u0117","languageId":2,"languageName":"en","statusId":1,"statusName":"active"},{"attributeId":14,"attributeName":"email","attributeValue":"burksaite.roberta@gmail.com","languageId":2,"languageName":"en","statusId":1,"statusName":"active"},{"attributeId":100004,"attributeName":"language","attributeValue":"en","languageId":2,"languageName":"en","statusId":1,"statusName":"active"}]}}]},"resultCode":"0"}
03.10.2016 13:53:09 +0200 10.0.32.247 Login status: 200
03.10.2016 14:20:00 +0200 10.0.32.247 TOKEN ricevuto, cache creata
03.10.2016 14:23:16 +0200 10.0.32.247 Login req: {
            "languageId":"2",
            "transactionId": "14754973961863697520",
            "tenant":"1",
            "profileAttributeFlag":true,
            "externalIdList": {
                "externalIds": [
                    {
                    "externalId" : "belal@pearlinoyster.com"
                    }
                ]
             }
            }
03.10.2016 14:23:16 +0200 10.0.32.247 Login token: d219e565456d8201ebed199ebf0cc2a
03.10.2016 14:23:16 +0200 10.0.32.247 Login response: {"transactionId":"14754973961863697520","userRetrievedList":{"users":[{"id":4118,"description":"belal@pearlinoyster.com","parentBusinessUserId":2,"statusId":1,"roleTypeId":2,"defaultLanguageId":2,"userExternalIdList":{"externalIds":[{"externalId":"belal@pearlinoyster.com","defaultFlag":1,"type":"email","statusId":1}]},"userAttributeList":{"attributeValues":[{"attributeId":9,"attributeName":"name","attributeValue":"Belal","languageId":2,"languageName":"en","statusId":1,"statusName":"active"},{"attributeId":10,"attributeName":"surname","attributeValue":"El Ghassein","languageId":2,"languageName":"en","statusId":1,"statusName":"active"},{"attributeId":14,"attributeName":"email","attributeValue":"belal@pearlinoyster.com","languageId":2,"languageName":"en","statusId":1,"statusName":"active"},{"attributeId":100003,"attributeName":"customerNumber","attributeValue":"CON-20161003-0023","languageId":2,"languageName":"en","statusId":1,"statusName":"active"},{"attributeId":100004,"attributeName":"language","attributeValue":"EN","languageId":2,"languageName":"en","statusId":1,"statusName":"active"}]}}]},"resultCode":"0"}
03.10.2016 14:23:16 +0200 10.0.32.247 Login status: 200
03.10.2016 15:20:06 +0200 10.0.32.247 TOKEN ricevuto, cache creata
03.10.2016 15:34:18 +0200 10.0.32.247 Login req: {
            "languageId":"2",
            "transactionId": "14755016581096739167",
            "tenant":"1",
            "profileAttributeFlag":true,
            "externalIdList": {
                "externalIds": [
                    {
                    "externalId" : "sabahgtr@gmail.com"
                    }
                ]
             }
            }
03.10.2016 15:34:18 +0200 10.0.32.247 Login token: 36c535c4c72552982bcdaf30ac1dc63b
03.10.2016 15:34:18 +0200 10.0.32.247 Login response: {"transactionId":"14755016581096739167","userRetrievedList":{"users":[{"id":4054,"description":"sabahgtr@gmail.com","parentBusinessUserId":2,"statusId":1,"roleTypeId":2,"defaultLanguageId":2,"userExternalIdList":{"externalIds":[{"externalId":"sabahgtr@gmail.com","defaultFlag":1,"type":"email","statusId":1}]},"userAttributeList":{"attributeValues":[{"attributeId":9,"attributeName":"name","attributeValue":"Sabah","languageId":2,"languageName":"en","statusId":1,"statusName":"active"},{"attributeId":10,"attributeName":"surname","attributeValue":"Gtr","languageId":2,"languageName":"en","statusId":1,"statusName":"active"},{"attributeId":14,"attributeName":"email","attributeValue":"sabahgtr@gmail.com","languageId":2,"languageName":"en","statusId":1,"statusName":"active"},{"attributeId":100001,"attributeName":"msisdn","attributeValue":"+971-502777222","languageId":2,"languageName":"en","statusId":1,"statusName":"active"},{"attributeId":100002,"attributeName":"birthday","attributeValue":"1\/17\/1977","languageId":2,"languageName":"en","statusId":1,"statusName":"active"},{"attributeId":100003,"attributeName":"customerNumber","attributeValue":"CON-20160930-0028","languageId":2,"languageName":"en","statusId":1,"statusName":"active"},{"attributeId":100004,"attributeName":"language","attributeValue":"EN","languageId":2,"languageName":"en","statusId":1,"statusName":"active"},{"attributeId":100005,"attributeName":"type","attributeValue":"customer","languageId":2,"languageName":"en","statusId":1,"statusName":"active"},{"attributeId":100013,"attributeName":"NL_LEGOLAND","attributeValue":"True","languageId":2,"languageName":"en","statusId":1,"statusName":"active"},{"attributeId":100014,"attributeName":"NL_RIVERLAND","attributeValue":"True","languageId":2,"languageName":"en","statusId":1,"statusName":"active"},{"attributeId":100015,"attributeName":"NL_GENERAL_COMMUNICATION","attributeValue":"False","languageId":2,"languageName":"en","statusId":1,"statusName":"active"},{"attributeId":100017,"attributeName":"mascotteID","attributeValue":"mascotte5_b.fw","languageId":2,"languageName":"en","statusId":1,"statusName":"active"},{"attributeId":100018,"attributeName":"NL_BOLLIWOOD_PARK","attributeValue":"True","languageId":2,"languageName":"en","statusId":1,"statusName":"active"},{"attributeId":100019,"attributeName":"NL_MOTIONGATE","attributeValue":"True","languageId":2,"languageName":"en","statusId":1,"statusName":"active"},{"attributeId":100020,"attributeName":"NL_DUBAI_PARK_AND_RESORT","attributeValue":"True","languageId":2,"languageName":"en","statusId":1,"statusName":"active"}]}}]},"resultCode":"0"}
03.10.2016 15:34:18 +0200 10.0.32.247 Login status: 200
03.10.2016 16:20:05 +0200 10.0.32.247 TOKEN expired => RENEWING. Server response =>401
03.10.2016 16:20:05 +0200 10.0.32.247 RENEWING token
03.10.2016 16:20:05 +0200 10.0.32.247 RENEW TOKEN RESULT =>200 || b42d22bb18e53f2ad9f38163e5f682e
03.10.2016 17:20:09 +0200 10.0.32.247 TOKEN ricevuto, cache creata
03.10.2016 17:32:35 +0200 10.0.32.247 Login req: {
            "languageId":"2",
            "transactionId": "1475508755350729140",
            "tenant":"1",
            "profileAttributeFlag":true,
            "externalIdList": {
                "externalIds": [
                    {
                    "externalId" : "tomascath@gmail.com"
                    }
                ]
             }
            }
03.10.2016 17:32:35 +0200 10.0.32.247 Login token: 4c42df72565d9b057dd85d4f8597bb2
03.10.2016 17:32:35 +0200 10.0.32.247 Login response: {"transactionId":"1475508755350729140","userRetrievedList":{"users":[{"id":4120,"description":"tomascath@gmail.com","parentBusinessUserId":2,"statusId":1,"roleTypeId":2,"defaultLanguageId":2,"userExternalIdList":{"externalIds":[{"externalId":"tomascath@gmail.com","defaultFlag":1,"type":"email","statusId":1}]},"userAttributeList":{"attributeValues":[{"attributeId":9,"attributeName":"name","attributeValue":"Cath","languageId":2,"languageName":"en","statusId":1,"statusName":"active"},{"attributeId":10,"attributeName":"surname","attributeValue":"Tomas","languageId":2,"languageName":"en","statusId":1,"statusName":"active"},{"attributeId":14,"attributeName":"email","attributeValue":"tomascath@gmail.com","languageId":2,"languageName":"en","statusId":1,"statusName":"active"},{"attributeId":100003,"attributeName":"customerNumber","attributeValue":"CON-20161003-0031","languageId":2,"languageName":"en","statusId":1,"statusName":"active"},{"attributeId":100004,"attributeName":"language","attributeValue":"EN","languageId":2,"languageName":"en","statusId":1,"statusName":"active"},{"attributeId":100020,"attributeName":"NL_DUBAI_PARK_AND_RESORT","attributeValue":"true","languageId":2,"languageName":"en","statusId":1,"statusName":"active"}]}}]},"resultCode":"0"}
03.10.2016 17:32:35 +0200 10.0.32.247 Login status: 200
03.10.2016 17:37:56 +0200 10.0.32.247 Login req: {
            "languageId":"2",
            "transactionId": "14755090761967874227",
            "tenant":"1",
            "profileAttributeFlag":true,
            "externalIdList": {
                "externalIds": [
                    {
                    "externalId" : "tomascath@gmail.com"
                    }
                ]
             }
            }
03.10.2016 17:37:56 +0200 10.0.32.247 Login token: 4c42df72565d9b057dd85d4f8597bb2
03.10.2016 17:37:56 +0200 10.0.32.247 Login response: {"transactionId":"14755090761967874227","userRetrievedList":{"users":[{"id":4120,"description":"tomascath@gmail.com","parentBusinessUserId":2,"statusId":1,"roleTypeId":2,"defaultLanguageId":2,"userExternalIdList":{"externalIds":[{"externalId":"tomascath@gmail.com","defaultFlag":1,"type":"email","statusId":1}]},"userAttributeList":{"attributeValues":[{"attributeId":5,"attributeName":"country","attributeValue":"Philippines","languageId":2,"languageName":"en","statusId":1,"statusName":"active"},{"attributeId":9,"attributeName":"name","attributeValue":"Cath","languageId":2,"languageName":"en","statusId":1,"statusName":"active"},{"attributeId":10,"attributeName":"surname","attributeValue":"Tomas","languageId":2,"languageName":"en","statusId":1,"statusName":"active"},{"attributeId":14,"attributeName":"email","attributeValue":"tomascath@gmail.com","languageId":2,"languageName":"en","statusId":1,"statusName":"active"},{"attributeId":49,"attributeName":"city","attributeValue":"Manila","languageId":2,"languageName":"en","statusId":1,"statusName":"active"},{"attributeId":50,"attributeName":"zipCode","attributeValue":"1200","languageId":2,"languageName":"en","statusId":1,"statusName":"active"},{"attributeId":108,"attributeName":"address","attributeValue":"Manila","languageId":2,"languageName":"en","statusId":1,"statusName":"active"},{"attributeId":100001,"attributeName":"msisdn","attributeValue":"+63-92920777171","languageId":2,"languageName":"en","statusId":1,"statusName":"active"},{"attributeId":100002,"attributeName":"birthday","attributeValue":"3\/29\/2013","languageId":2,"languageName":"en","statusId":1,"statusName":"active"},{"attributeId":100003,"attributeName":"customerNumber","attributeValue":"CON-20161003-0031","languageId":2,"languageName":"en","statusId":1,"statusName":"active"},{"attributeId":100004,"attributeName":"language","attributeValue":"EN","languageId":2,"languageName":"en","statusId":1,"statusName":"active"},{"attributeId":100013,"attributeName":"NL_LEGOLAND","attributeValue":"True","languageId":2,"languageName":"en","statusId":1,"statusName":"active"},{"attributeId":100014,"attributeName":"NL_RIVERLAND","attributeValue":"True","languageId":2,"languageName":"en","statusId":1,"statusName":"active"},{"attributeId":100015,"attributeName":"NL_GENERAL_COMMUNICATION","attributeValue":"False","languageId":2,"languageName":"en","statusId":1,"statusName":"active"},{"attributeId":100017,"attributeName":"mascotteID","attributeValue":"mascotte3_b.fw","languageId":2,"languageName":"en","statusId":1,"statusName":"active"},{"attributeId":100018,"attributeName":"NL_BOLLIWOOD_PARK","attributeValue":"True","languageId":2,"languageName":"en","statusId":1,"statusName":"active"},{"attributeId":100019,"attributeName":"NL_MOTIONGATE","attributeValue":"True","languageId":2,"languageName":"en","statusId":1,"statusName":"active"},{"attributeId":100020,"attributeName":"NL_DUBAI_PARK_AND_RESORT","attributeValue":"True","languageId":2,"languageName":"en","statusId":1,"statusName":"active"}]}}]},"resultCode":"0"}
03.10.2016 17:37:56 +0200 10.0.32.247 Login status: 200
03.10.2016 17:47:37 +0200 10.0.32.247 TOKEN expired => RENEWING. Server response =>401
03.10.2016 17:47:37 +0200 10.0.32.247 RENEWING token
03.10.2016 17:47:37 +0200 10.0.32.247 RENEW TOKEN RESULT =>200 || da34b2a897d7eb9db7ce8b2872a5d9
03.10.2016 17:49:01 +0200 10.0.32.247 Login req: {
            "languageId":"2",
            "transactionId": "1475509740580641927",
            "tenant":"1",
            "profileAttributeFlag":true,
            "externalIdList": {
                "externalIds": [
                    {
                    "externalId" : "10153705690051895"
                    }
                ]
             }
            }
03.10.2016 17:49:01 +0200 10.0.32.247 Login token: 9e8c2219309ee5d6e1b37eebf128f6e8
03.10.2016 17:49:01 +0200 10.0.32.247 Login response: {"transactionId":"1475509740580641927","userRetrievedList":{"users":[{"id":4121,"description":"10153705690051895","parentBusinessUserId":2,"statusId":1,"roleTypeId":2,"defaultLanguageId":2,"userExternalIdList":{"externalIds":[{"externalId":"10153705690051895","defaultFlag":1,"type":"socialID","statusId":1}]},"userAttributeList":{"attributeValues":[{"attributeId":9,"attributeName":"name","attributeValue":"Ramy","languageId":2,"languageName":"en","statusId":1,"statusName":"active"},{"attributeId":10,"attributeName":"surname","attributeValue":"Elshabrawy","languageId":2,"languageName":"en","statusId":1,"statusName":"active"},{"attributeId":14,"attributeName":"email","attributeValue":"r_elwnsh@yahoo.com","languageId":2,"languageName":"en","statusId":1,"statusName":"active"},{"attributeId":100004,"attributeName":"language","attributeValue":"en","languageId":2,"languageName":"en","statusId":1,"statusName":"active"}]}}]},"resultCode":"0"}
03.10.2016 17:49:01 +0200 10.0.32.247 Login status: 200
03.10.2016 17:49:38 +0200 10.0.32.247 Login req: {
            "languageId":"2",
            "transactionId": "14755097782124124889",
            "tenant":"1",
            "profileAttributeFlag":true,
            "externalIdList": {
                "externalIds": [
                    {
                    "externalId" : "tomascath@gmail.com"
                    }
                ]
             }
            }
03.10.2016 17:49:38 +0200 10.0.32.247 Login token: 4c42df72565d9b057dd85d4f8597bb2
03.10.2016 17:49:38 +0200 10.0.32.247 Login response: {"transactionId":"14755097782124124889","userRetrievedList":{"users":[{"id":4120,"description":"tomascath@gmail.com","parentBusinessUserId":2,"statusId":1,"roleTypeId":2,"defaultLanguageId":2,"userExternalIdList":{"externalIds":[{"externalId":"tomascath@gmail.com","defaultFlag":1,"type":"email","statusId":1}]},"userAttributeList":{"attributeValues":[{"attributeId":5,"attributeName":"country","attributeValue":"Philippines","languageId":2,"languageName":"en","statusId":1,"statusName":"active"},{"attributeId":9,"attributeName":"name","attributeValue":"Cath","languageId":2,"languageName":"en","statusId":1,"statusName":"active"},{"attributeId":10,"attributeName":"surname","attributeValue":"Tomas","languageId":2,"languageName":"en","statusId":1,"statusName":"active"},{"attributeId":14,"attributeName":"email","attributeValue":"tomascath@gmail.com","languageId":2,"languageName":"en","statusId":1,"statusName":"active"},{"attributeId":49,"attributeName":"city","attributeValue":"Manila","languageId":2,"languageName":"en","statusId":1,"statusName":"active"},{"attributeId":50,"attributeName":"zipCode","attributeValue":"1200","languageId":2,"languageName":"en","statusId":1,"statusName":"active"},{"attributeId":108,"attributeName":"address","attributeValue":"Manila","languageId":2,"languageName":"en","statusId":1,"statusName":"active"},{"attributeId":100001,"attributeName":"msisdn","attributeValue":"+63-92920777171","languageId":2,"languageName":"en","statusId":1,"statusName":"active"},{"attributeId":100002,"attributeName":"birthday","attributeValue":"3\/29\/2013","languageId":2,"languageName":"en","statusId":1,"statusName":"active"},{"attributeId":100003,"attributeName":"customerNumber","attributeValue":"CON-20161003-0031","languageId":2,"languageName":"en","statusId":1,"statusName":"active"},{"attributeId":100004,"attributeName":"language","attributeValue":"EN","languageId":2,"languageName":"en","statusId":1,"statusName":"active"},{"attributeId":100013,"attributeName":"NL_LEGOLAND","attributeValue":"True","languageId":2,"languageName":"en","statusId":1,"statusName":"active"},{"attributeId":100014,"attributeName":"NL_RIVERLAND","attributeValue":"True","languageId":2,"languageName":"en","statusId":1,"statusName":"active"},{"attributeId":100015,"attributeName":"NL_GENERAL_COMMUNICATION","attributeValue":"False","languageId":2,"languageName":"en","statusId":1,"statusName":"active"},{"attributeId":100017,"attributeName":"mascotteID","attributeValue":"mascotte3_b.fw","languageId":2,"languageName":"en","statusId":1,"statusName":"active"},{"attributeId":100018,"attributeName":"NL_BOLLIWOOD_PARK","attributeValue":"True","languageId":2,"languageName":"en","statusId":1,"statusName":"active"},{"attributeId":100019,"attributeName":"NL_MOTIONGATE","attributeValue":"True","languageId":2,"languageName":"en","statusId":1,"statusName":"active"},{"attributeId":100020,"attributeName":"NL_DUBAI_PARK_AND_RESORT","attributeValue":"True","languageId":2,"languageName":"en","statusId":1,"statusName":"active"}]}}]},"resultCode":"0"}
03.10.2016 17:49:38 +0200 10.0.32.247 Login status: 200
03.10.2016 17:54:47 +0200 10.0.32.247 TOKEN expired => RENEWING. Server response =>401
03.10.2016 17:54:47 +0200 10.0.32.247 RENEWING token
03.10.2016 17:54:47 +0200 10.0.32.247 RENEW TOKEN RESULT =>200 || 55e371b6be98889a8a9f83d290f65e82
03.10.2016 18:01:19 +0200 10.0.32.247 Login req: {
            "languageId":"2",
            "transactionId": "14755104791716126628",
            "tenant":"1",
            "profileAttributeFlag":true,
            "externalIdList": {
                "externalIds": [
                    {
                    "externalId" : "jacob.f.pomperada@gmail.com"
                    }
                ]
             }
            }
03.10.2016 18:01:19 +0200 10.0.32.247 Login token: 6153c88b461c1d7e11aceb454d1bad7
03.10.2016 18:01:19 +0200 10.0.32.247 Login response: {"transactionId":"14755104791716126628","userRetrievedList":{"users":[{"id":2309,"description":"jacob.f.pomperada@gmail.com","parentBusinessUserId":2,"statusId":1,"roleTypeId":2,"defaultLanguageId":2,"userExternalIdList":{"externalIds":[{"externalId":"jacob.f.pomperada@gmail.com","defaultFlag":1,"type":"email","statusId":1}]},"userAttributeList":{"attributeValues":[{"attributeId":9,"attributeName":"name","attributeValue":"Jacob","languageId":2,"languageName":"en","statusId":1,"statusName":"active"},{"attributeId":10,"attributeName":"surname","attributeValue":"Pomperada","languageId":2,"languageName":"en","statusId":1,"statusName":"active"},{"attributeId":14,"attributeName":"email","attributeValue":"jacob.f.pomperada@gmail.com","languageId":2,"languageName":"en","statusId":1,"statusName":"active"},{"attributeId":100003,"attributeName":"customerNumber","attributeValue":"CON-20160725-0018","languageId":2,"languageName":"en","statusId":1,"statusName":"active"},{"attributeId":100004,"attributeName":"language","attributeValue":"EN","languageId":2,"languageName":"en","statusId":1,"statusName":"active"},{"attributeId":100013,"attributeName":"NL_LEGOLAND","attributeValue":"False","languageId":2,"languageName":"en","statusId":1,"statusName":"active"},{"attributeId":100014,"attributeName":"NL_RIVERLAND","attributeValue":"False","languageId":2,"languageName":"en","statusId":1,"statusName":"active"},{"attributeId":100015,"attributeName":"NL_GENERAL_COMMUNICATION","attributeValue":"False","languageId":2,"languageName":"en","statusId":1,"statusName":"active"},{"attributeId":100018,"attributeName":"NL_BOLLIWOOD_PARK","attributeValue":"False","languageId":2,"languageName":"en","statusId":1,"statusName":"active"},{"attributeId":100019,"attributeName":"NL_MOTIONGATE","attributeValue":"False","languageId":2,"languageName":"en","statusId":1,"statusName":"active"},{"attributeId":100020,"attributeName":"NL_DUBAI_PARK_AND_RESORT","attributeValue":"False","languageId":2,"languageName":"en","statusId":1,"statusName":"active"}]}}]},"resultCode":"0"}
03.10.2016 18:01:19 +0200 10.0.32.247 Login status: 200
03.10.2016 18:07:31 +0200 10.0.32.247 TOKEN expired => RENEWING. Server response =>401
03.10.2016 18:07:31 +0200 10.0.32.247 RENEWING token
03.10.2016 18:07:31 +0200 10.0.32.247 RENEW TOKEN RESULT =>200 || 89d49de48ca53fec9fd77ef3c18764
03.10.2016 18:17:52 +0200 10.0.32.247 TOKEN expired => RENEWING. Server response =>401
03.10.2016 18:17:52 +0200 10.0.32.247 RENEWING token
03.10.2016 18:17:52 +0200 10.0.32.247 RENEW TOKEN RESULT =>200 || c14d8c9821c32b3322d34f6b753418
03.10.2016 18:21:22 +0200 10.0.32.247 TOKEN expired => RENEWING. Server response =>401
03.10.2016 18:21:22 +0200 10.0.32.247 RENEWING token
03.10.2016 18:21:23 +0200 10.0.32.247 RENEW TOKEN RESULT =>200 || 7fdc71f8deedfdc07be5e236607bdaa5
03.10.2016 18:34:04 +0200 10.0.32.247 TOKEN expired => RENEWING. Server response =>401
03.10.2016 18:34:04 +0200 10.0.32.247 RENEWING token
03.10.2016 18:34:04 +0200 10.0.32.247 RENEW TOKEN RESULT =>200 || 9dcd87b01ed915edb253571338956fbc
03.10.2016 18:44:22 +0200 10.0.32.247 Login req: {
            "languageId":"2",
            "transactionId": "14755130621947575209",
            "tenant":"1",
            "profileAttributeFlag":true,
            "externalIdList": {
                "externalIds": [
                    {
                    "externalId" : "christoffcronje81@gmail.com"
                    }
                ]
             }
            }
03.10.2016 18:44:22 +0200 10.0.32.247 Login token: cb129784ecc7476895dd61038ffb743
03.10.2016 18:44:22 +0200 10.0.32.247 Login response: {"transactionId":"14755130621947575209","userRetrievedList":{"users":[{"id":3429,"description":"christoffcronje81@gmail.com","parentBusinessUserId":2,"statusId":1,"roleTypeId":2,"defaultLanguageId":2,"userExternalIdList":{"externalIds":[{"externalId":"christoffcronje81@gmail.com","defaultFlag":1,"type":"email","statusId":1}]},"userAttributeList":{"attributeValues":[{"attributeId":9,"attributeName":"name","attributeValue":"Christof","languageId":2,"languageName":"en","statusId":1,"statusName":"active"},{"attributeId":10,"attributeName":"surname","attributeValue":"Cronje","languageId":2,"languageName":"en","statusId":1,"statusName":"active"},{"attributeId":14,"attributeName":"email","attributeValue":"christoffcronje81@gmail.com","languageId":2,"languageName":"en","statusId":1,"statusName":"active"},{"attributeId":100003,"attributeName":"customerNumber","attributeValue":"CON-20160906-0029","languageId":2,"languageName":"en","statusId":1,"statusName":"active"},{"attributeId":100004,"attributeName":"language","attributeValue":"EN","languageId":2,"languageName":"en","statusId":1,"statusName":"active"},{"attributeId":100013,"attributeName":"NL_LEGOLAND","attributeValue":"False","languageId":2,"languageName":"en","statusId":1,"statusName":"active"},{"attributeId":100014,"attributeName":"NL_RIVERLAND","attributeValue":"False","languageId":2,"languageName":"en","statusId":1,"statusName":"active"},{"attributeId":100015,"attributeName":"NL_GENERAL_COMMUNICATION","attributeValue":"False","languageId":2,"languageName":"en","statusId":1,"statusName":"active"},{"attributeId":100018,"attributeName":"NL_BOLLIWOOD_PARK","attributeValue":"False","languageId":2,"languageName":"en","statusId":1,"statusName":"active"},{"attributeId":100019,"attributeName":"NL_MOTIONGATE","attributeValue":"False","languageId":2,"languageName":"en","statusId":1,"statusName":"active"},{"attributeId":100020,"attributeName":"NL_DUBAI_PARK_AND_RESORT","attributeValue":"True","languageId":2,"languageName":"en","statusId":1,"statusName":"active"}]}}]},"resultCode":"0"}
03.10.2016 18:44:22 +0200 10.0.32.247 Login status: 200
03.10.2016 19:34:18 +0200 10.0.32.247 TOKEN ricevuto, cache creata
03.10.2016 20:36:16 +0200 10.0.32.247 TOKEN ricevuto, cache creata
03.10.2016 21:31:34 +0200 10.0.32.247 Login req: {
            "languageId":"2",
            "transactionId": "14755230941060041057",
            "tenant":"1",
            "profileAttributeFlag":true,
            "externalIdList": {
                "externalIds": [
                    {
                    "externalId" : "10154317379025020"
                    }
                ]
             }
            }
03.10.2016 21:31:34 +0200 10.0.32.247 Login token: b646e556e7dda572bb241d362ea07d7a
03.10.2016 21:31:34 +0200 10.0.32.247 Login response: {"transactionId":"14755230941060041057","userRetrievedList":{"users":[{"id":4012,"description":"10154317379025020","parentBusinessUserId":2,"statusId":1,"roleTypeId":2,"defaultLanguageId":2,"userExternalIdList":{"externalIds":[{"externalId":"10154317379025020","defaultFlag":1,"type":"socialID","statusId":1}]},"userAttributeList":{"attributeValues":[{"attributeId":9,"attributeName":"name","attributeValue":"Bashir","languageId":2,"languageName":"en","statusId":1,"statusName":"active"},{"attributeId":10,"attributeName":"surname","attributeValue":"Mohamed","languageId":2,"languageName":"en","statusId":1,"statusName":"active"},{"attributeId":14,"attributeName":"email","attributeValue":"balmujib2013@outlook.com","languageId":2,"languageName":"en","statusId":1,"statusName":"active"},{"attributeId":100003,"attributeName":"customerNumber","attributeValue":"CON-20160928-0028","languageId":2,"languageName":"en","statusId":1,"statusName":"active"},{"attributeId":100004,"attributeName":"language","attributeValue":"en","languageId":2,"languageName":"en","statusId":1,"statusName":"active"}]}}]},"resultCode":"0"}
03.10.2016 21:31:34 +0200 10.0.32.247 Login status: 200
03.10.2016 21:37:03 +0200 10.0.32.247 TOKEN ricevuto, cache creata
03.10.2016 22:36:00 +0200 10.0.32.247 TOKEN expired => RENEWING. Server response =>401
03.10.2016 22:36:00 +0200 10.0.32.247 RENEWING token
03.10.2016 22:36:00 +0200 10.0.32.247 RENEW TOKEN RESULT =>200 || 288e7e20a826ead58ed7b37b2948bc
03.10.2016 23:36:02 +0200 10.0.32.247 TOKEN ricevuto, cache creata