
01.06.2016 0:03:09 +0200 10.0.32.247 Login req: {
            "languageId":"2",
            "transactionId": "14647321891060843055",
            "tenant":"1",
            "profileAttributeFlag":true,
            "externalIdList": {
                "externalIds": [
                    {
                    "externalId" : "1258097614202138"
                    }
                ]
             }   
            }
01.06.2016 0:03:09 +0200 10.0.32.247 Login token: 8edd147119d53b242158fab832656e7
01.06.2016 0:03:09 +0200 10.0.32.247 Login response: {"transactionId":"14647321891060843055","userRetrievedList":{"users":[{"id":916,"description":"1258097614202138","parentBusinessUserId":2,"statusId":1,"roleTypeId":2,"defaultLanguageId":2,"userExternalIdList":{"externalIds":[{"externalId":"1258097614202138","defaultFlag":1,"type":"socialID","statusId":1}]},"userAttributeList":{"attributeValues":[{"attributeId":9,"attributeName":"name","attributeValue":"James","languageId":2,"languageName":"en","statusId":1,"statusName":"active"},{"attributeId":10,"attributeName":"surname","attributeValue":"Tavaris","languageId":2,"languageName":"en","statusId":1,"statusName":"active"},{"attributeId":14,"attributeName":"email","attributeValue":"james_tavaris@yahoo.com","languageId":2,"languageName":"en","statusId":1,"statusName":"active"},{"attributeId":100004,"attributeName":"language","attributeValue":"en","languageId":2,"languageName":"en","statusId":1,"statusName":"active"}]}}]},"resultCode":"0"}
01.06.2016 0:03:09 +0200 10.0.32.247 Login status: 200
01.06.2016 0:49:35 +0200 10.0.32.247 TOKEN ricevuto, cache creata
01.06.2016 1:54:01 +0200 10.0.32.247 TOKEN ricevuto, cache creata
01.06.2016 2:57:00 +0200 10.0.32.247 TOKEN ricevuto, cache creata
01.06.2016 4:03:48 +0200 10.0.32.247 TOKEN ricevuto, cache creata
01.06.2016 5:04:26 +0200 10.0.32.247 TOKEN ricevuto, cache creata
01.06.2016 6:04:29 +0200 10.0.32.247 TOKEN ricevuto, cache creata
01.06.2016 7:05:50 +0200 10.0.32.247 TOKEN ricevuto, cache creata
01.06.2016 7:26:37 +0200 10.0.32.247 Login req: {
            "languageId":"2",
            "transactionId": "14647587971930608964",
            "tenant":"1",
            "profileAttributeFlag":true,
            "externalIdList": {
                "externalIds": [
                    {
                    "externalId" : "honeykoi_0117@yahoo.com"
                    }
                ]
             }   
            }
01.06.2016 7:26:37 +0200 10.0.32.247 Login token: 9cbf4d6ffb267a2c5bdf9a6fc7b6fc
01.06.2016 7:26:37 +0200 10.0.32.247 Login response: {"transactionId":"14647587971930608964","userRetrievedList":{"users":[{"id":918,"description":"honeykoi_0117@yahoo.com","parentBusinessUserId":2,"statusId":1,"roleTypeId":2,"defaultLanguageId":2,"userExternalIdList":{"externalIds":[{"externalId":"honeykoi_0117@yahoo.com","defaultFlag":1,"type":"email","statusId":1}]},"userAttributeList":{"attributeValues":[{"attributeId":9,"attributeName":"name","attributeValue":"Emifer","languageId":2,"languageName":"en","statusId":1,"statusName":"active"},{"attributeId":10,"attributeName":"surname","attributeValue":"Tizon","languageId":2,"languageName":"en","statusId":1,"statusName":"active"},{"attributeId":14,"attributeName":"email","attributeValue":"honeykoi_0117@yahoo.com","languageId":2,"languageName":"en","statusId":1,"statusName":"active"},{"attributeId":100003,"attributeName":"customerNumber","attributeValue":"CON-20160601-0005","languageId":2,"languageName":"en","statusId":1,"statusName":"active"},{"attributeId":100004,"attributeName":"language","attributeValue":"EN","languageId":2,"languageName":"en","statusId":1,"statusName":"active"},{"attributeId":100020,"attributeName":"NL_DUBAI_PARK_AND_RESORT","attributeValue":"true","languageId":2,"languageName":"en","statusId":1,"statusName":"active"}]}}]},"resultCode":"0"}
01.06.2016 7:26:37 +0200 10.0.32.247 Login status: 200
01.06.2016 8:05:19 +0200 10.0.32.247 Login req: {
            "languageId":"2",
            "transactionId": "14647611191974428501",
            "tenant":"1",
            "profileAttributeFlag":true,
            "externalIdList": {
                "externalIds": [
                    {
                    "externalId" : "4myexperiment@gmail.com"
                    }
                ]
             }   
            }
01.06.2016 8:05:19 +0200 10.0.32.247 Login token: 35555b65d24cca6ee2f24eea5e7693be
01.06.2016 8:05:19 +0200 10.0.32.247 Login response: {"transactionId":"14647611191974428501","userRetrievedList":{"users":[{"id":247,"description":"4myexperiment@gmail.com","parentBusinessUserId":2,"statusId":1,"roleTypeId":2,"defaultLanguageId":2,"userExternalIdList":{"externalIds":[{"externalId":"4myexperiment@gmail.com","defaultFlag":1,"type":"email","statusId":1}]},"userAttributeList":{"attributeValues":[{"attributeId":9,"attributeName":"name","attributeValue":"my","languageId":2,"languageName":"en","statusId":1,"statusName":"active"},{"attributeId":10,"attributeName":"surname","attributeValue":"experiment","languageId":2,"languageName":"en","statusId":1,"statusName":"active"},{"attributeId":14,"attributeName":"email","attributeValue":"4myexperiment@gmail.com","languageId":2,"languageName":"en","statusId":1,"statusName":"active"},{"attributeId":100003,"attributeName":"customerNumber","attributeValue":"CON-20160427-0018","languageId":2,"languageName":"en","statusId":1,"statusName":"active"},{"attributeId":100004,"attributeName":"language","attributeValue":"EN","languageId":2,"languageName":"en","statusId":1,"statusName":"active"}]}}]},"resultCode":"0"}
01.06.2016 8:05:19 +0200 10.0.32.247 Login status: 200
01.06.2016 8:06:23 +0200 10.0.32.247 Login req: {
            "languageId":"2",
            "transactionId": "1464761183852817016",
            "tenant":"1",
            "profileAttributeFlag":true,
            "externalIdList": {
                "externalIds": [
                    {
                    "externalId" : "4myexperiment@gmail.com"
                    }
                ]
             }   
            }
01.06.2016 8:06:23 +0200 10.0.32.247 Login token: 35555b65d24cca6ee2f24eea5e7693be
01.06.2016 8:06:23 +0200 10.0.32.247 Login response: {"transactionId":"1464761183852817016","userRetrievedList":{"users":[{"id":247,"description":"4myexperiment@gmail.com","parentBusinessUserId":2,"statusId":1,"roleTypeId":2,"defaultLanguageId":2,"userExternalIdList":{"externalIds":[{"externalId":"4myexperiment@gmail.com","defaultFlag":1,"type":"email","statusId":1}]},"userAttributeList":{"attributeValues":[{"attributeId":9,"attributeName":"name","attributeValue":"my","languageId":2,"languageName":"en","statusId":1,"statusName":"active"},{"attributeId":10,"attributeName":"surname","attributeValue":"experiment","languageId":2,"languageName":"en","statusId":1,"statusName":"active"},{"attributeId":14,"attributeName":"email","attributeValue":"4myexperiment@gmail.com","languageId":2,"languageName":"en","statusId":1,"statusName":"active"},{"attributeId":100003,"attributeName":"customerNumber","attributeValue":"CON-20160427-0018","languageId":2,"languageName":"en","statusId":1,"statusName":"active"},{"attributeId":100004,"attributeName":"language","attributeValue":"EN","languageId":2,"languageName":"en","statusId":1,"statusName":"active"}]}}]},"resultCode":"0"}
01.06.2016 8:06:23 +0200 10.0.32.247 Login status: 200
01.06.2016 8:07:50 +0200 10.0.32.247 TOKEN ricevuto, cache creata
01.06.2016 8:55:04 +0200 10.0.32.247 Login req: {
            "languageId":"2",
            "transactionId": "14647641041089130928",
            "tenant":"1",
            "profileAttributeFlag":true,
            "externalIdList": {
                "externalIds": [
                    {
                    "externalId" : "mr.eslam.farouk@gmail.com"
                    }
                ]
             }   
            }
01.06.2016 8:55:04 +0200 10.0.32.247 Login token: dc632be0ef7ec5db794f63e3427b350
01.06.2016 8:55:04 +0200 10.0.32.247 Login response: {"transactionId":"14647641041089130928","userRetrievedList":{"users":[{"id":919,"description":"mr.eslam.farouk@gmail.com","parentBusinessUserId":2,"statusId":1,"roleTypeId":2,"defaultLanguageId":2,"userExternalIdList":{"externalIds":[{"externalId":"mr.eslam.farouk@gmail.com","defaultFlag":1,"type":"email","statusId":1}]},"userAttributeList":{"attributeValues":[{"attributeId":9,"attributeName":"name","attributeValue":"eslam","languageId":2,"languageName":"en","statusId":1,"statusName":"active"},{"attributeId":10,"attributeName":"surname","attributeValue":"farouk","languageId":2,"languageName":"en","statusId":1,"statusName":"active"},{"attributeId":14,"attributeName":"email","attributeValue":"mr.eslam.farouk@gmail.com","languageId":2,"languageName":"en","statusId":1,"statusName":"active"},{"attributeId":100003,"attributeName":"customerNumber","attributeValue":"CON-20160601-0008","languageId":2,"languageName":"en","statusId":1,"statusName":"active"},{"attributeId":100004,"attributeName":"language","attributeValue":"EN","languageId":2,"languageName":"en","statusId":1,"statusName":"active"},{"attributeId":100020,"attributeName":"NL_DUBAI_PARK_AND_RESORT","attributeValue":"true","languageId":2,"languageName":"en","statusId":1,"statusName":"active"}]}}]},"resultCode":"0"}
01.06.2016 8:55:04 +0200 10.0.32.247 Login status: 200
01.06.2016 9:08:01 +0200 10.0.32.247 TOKEN ricevuto, cache creata
01.06.2016 9:14:27 +0200 10.0.32.247 TOKEN expired => RENEWING. Server response =>401
01.06.2016 9:14:27 +0200 10.0.32.247 RENEWING token
01.06.2016 9:14:27 +0200 10.0.32.247 RENEW TOKEN RESULT =>200 || 9a1859767c4566b1a5322c4ae0a7ec6a
01.06.2016 9:14:27 +0200 10.0.32.247 error in acapiaccess_getProducts_annualPass: 
01.06.2016 9:58:49 +0200 10.0.32.247 Login req: {
            "languageId":"2",
            "transactionId": "1464767928817443779",
            "tenant":"1",
            "profileAttributeFlag":true,
            "externalIdList": {
                "externalIds": [
                    {
                    "externalId" : "Dixie.caris@outlook.com"
                    }
                ]
             }   
            }
01.06.2016 9:58:49 +0200 10.0.32.247 Login token: 70a425369585eaebda672e9f7c6cba
01.06.2016 9:58:49 +0200 10.0.32.247 Login response: {"transactionId":"1464767928817443779","userRetrievedList":{"users":[{"id":125,"description":"Dixie.caris@outlook.com","parentBusinessUserId":2,"statusId":1,"roleTypeId":2,"defaultLanguageId":2,"userExternalIdList":{"externalIds":[{"externalId":"Dixie.caris@outlook.com","defaultFlag":1,"type":"email","statusId":1}]},"userAttributeList":{"attributeValues":[{"attributeId":9,"attributeName":"name","attributeValue":"Dixie","languageId":2,"languageName":"en","statusId":1,"statusName":"active"},{"attributeId":10,"attributeName":"surname","attributeValue":"Caries","languageId":2,"languageName":"en","statusId":1,"statusName":"active"},{"attributeId":14,"attributeName":"email","attributeValue":"Dixie.caris@outlook.com","languageId":2,"languageName":"en","statusId":1,"statusName":"active"},{"attributeId":100003,"attributeName":"customerNumber","attributeValue":"CON-20160425-0039","languageId":2,"languageName":"en","statusId":1,"statusName":"active"},{"attributeId":100004,"attributeName":"language","attributeValue":"EN","languageId":2,"languageName":"en","statusId":1,"statusName":"active"}]}}]},"resultCode":"0"}
01.06.2016 9:58:49 +0200 10.0.32.247 Login status: 200
01.06.2016 10:15:19 +0200 10.0.32.247 TOKEN ricevuto, cache creata
01.06.2016 10:28:57 +0200 10.0.32.247 Login req: {
            "languageId":"2",
            "transactionId": "14647697371225562899",
            "tenant":"1",
            "profileAttributeFlag":true,
            "externalIdList": {
                "externalIds": [
                    {
                    "externalId" : "zainmust@yahoo.com"
                    }
                ]
             }   
            }
01.06.2016 10:28:57 +0200 10.0.32.247 Login token: f5fd2608f7c5989e611c9e2edc2ad48
01.06.2016 10:28:57 +0200 10.0.32.247 Login response: {"transactionId":"14647697371225562899","userRetrievedList":{"users":[{"id":920,"description":"zainmust@yahoo.com","parentBusinessUserId":2,"statusId":1,"roleTypeId":2,"defaultLanguageId":2,"userExternalIdList":{"externalIds":[{"externalId":"zainmust@yahoo.com","defaultFlag":1,"type":"email","statusId":1}]},"userAttributeList":{"attributeValues":[{"attributeId":9,"attributeName":"name","attributeValue":"Mustufa","languageId":2,"languageName":"en","statusId":1,"statusName":"active"},{"attributeId":10,"attributeName":"surname","attributeValue":"Gopalpurwala","languageId":2,"languageName":"en","statusId":1,"statusName":"active"},{"attributeId":14,"attributeName":"email","attributeValue":"zainmust@yahoo.com","languageId":2,"languageName":"en","statusId":1,"statusName":"active"},{"attributeId":100004,"attributeName":"language","attributeValue":"EN","languageId":2,"languageName":"en","statusId":1,"statusName":"active"},{"attributeId":100020,"attributeName":"NL_DUBAI_PARK_AND_RESORT","attributeValue":"true","languageId":2,"languageName":"en","statusId":1,"statusName":"active"}]}}]},"resultCode":"0"}
01.06.2016 10:28:57 +0200 10.0.32.247 Login status: 200
01.06.2016 10:30:40 +0200 10.0.32.247 error in acapiaccess_getProducts_annualPass: 
01.06.2016 11:18:26 +0200 10.0.32.247 TOKEN ricevuto, cache creata
01.06.2016 11:36:18 +0200 10.0.32.247 Login req: {
            "languageId":"2",
            "transactionId": "1464773778217598739",
            "tenant":"1",
            "profileAttributeFlag":true,
            "externalIdList": {
                "externalIds": [
                    {
                    "externalId" : "Marwa-moussa2016@outlook.com"
                    }
                ]
             }   
            }
01.06.2016 11:36:18 +0200 10.0.32.247 Login token: 12dcd6faf51d494fa128df99b2ecf7
01.06.2016 11:36:18 +0200 10.0.32.247 Login response: {"transactionId":"1464773778217598739","userRetrievedList":{"users":[{"id":921,"description":"Marwa-moussa2016@outlook.com","parentBusinessUserId":2,"statusId":1,"roleTypeId":2,"defaultLanguageId":2,"userExternalIdList":{"externalIds":[{"externalId":"Marwa-moussa2016@outlook.com","defaultFlag":1,"type":"email","statusId":1}]},"userAttributeList":{"attributeValues":[{"attributeId":9,"attributeName":"name","attributeValue":"Marwa","languageId":2,"languageName":"en","statusId":1,"statusName":"active"},{"attributeId":10,"attributeName":"surname","attributeValue":"Moussa","languageId":2,"languageName":"en","statusId":1,"statusName":"active"},{"attributeId":14,"attributeName":"email","attributeValue":"Marwa-moussa2016@outlook.com","languageId":2,"languageName":"en","statusId":1,"statusName":"active"},{"attributeId":100003,"attributeName":"customerNumber","attributeValue":"CON-20160601-0012","languageId":2,"languageName":"en","statusId":1,"statusName":"active"},{"attributeId":100004,"attributeName":"language","attributeValue":"EN","languageId":2,"languageName":"en","statusId":1,"statusName":"active"},{"attributeId":100020,"attributeName":"NL_DUBAI_PARK_AND_RESORT","attributeValue":"true","languageId":2,"languageName":"en","statusId":1,"statusName":"active"}]}}]},"resultCode":"0"}
01.06.2016 11:36:18 +0200 10.0.32.247 Login status: 200
01.06.2016 12:21:44 +0200 10.0.32.247 TOKEN ricevuto, cache creata
01.06.2016 12:33:02 +0200 10.0.32.247 error in acapiaccess_getProducts_annualPass: 
01.06.2016 12:55:29 +0200 10.0.32.247 Login req: {
            "languageId":"2",
            "transactionId": "1464778529123234165",
            "tenant":"1",
            "profileAttributeFlag":true,
            "externalIdList": {
                "externalIds": [
                    {
                    "externalId" : "ravi.saraf@accenture.com"
                    }
                ]
             }   
            }
01.06.2016 12:55:29 +0200 10.0.32.247 Login token: 66e14cf0a86fd9774ca566d88e2f5d6
01.06.2016 12:55:29 +0200 10.0.32.247 Login response: {"transactionId":"1464778529123234165","userRetrievedList":{"users":[{"id":87,"description":"ravi.saraf@accenture.com","parentBusinessUserId":2,"statusId":1,"roleTypeId":2,"defaultLanguageId":2,"userExternalIdList":{"externalIds":[{"externalId":"ravi.saraf@accenture.com","defaultFlag":1,"type":"email","statusId":1}]},"userAttributeList":{"attributeValues":[{"attributeId":5,"attributeName":"country","attributeValue":"United Arab Emirates","languageId":2,"languageName":"en","statusId":1,"statusName":"active"},{"attributeId":9,"attributeName":"name","attributeValue":"ravi","languageId":2,"languageName":"en","statusId":1,"statusName":"active"},{"attributeId":10,"attributeName":"surname","attributeValue":"saraf","languageId":2,"languageName":"en","statusId":1,"statusName":"active"},{"attributeId":14,"attributeName":"email","attributeValue":"ravi.saraf@accenture.com","languageId":2,"languageName":"en","statusId":1,"statusName":"active"},{"attributeId":49,"attributeName":"city","attributeValue":"dubai","languageId":2,"languageName":"en","statusId":1,"statusName":"active"},{"attributeId":50,"attributeName":"zipCode","attributeValue":"33283","languageId":2,"languageName":"en","statusId":1,"statusName":"active"},{"attributeId":108,"attributeName":"address","attributeValue":"discovery","languageId":2,"languageName":"en","statusId":1,"statusName":"active"},{"attributeId":100001,"attributeName":"msisdn","attributeValue":"-","languageId":2,"languageName":"en","statusId":1,"statusName":"active"},{"attributeId":100002,"attributeName":"birthday","attributeValue":"04\/07\/2016","languageId":2,"languageName":"en","statusId":1,"statusName":"active"},{"attributeId":100003,"attributeName":"customerNumber","attributeValue":"CON-20160425-0012","languageId":2,"languageName":"en","statusId":1,"statusName":"active"},{"attributeId":100004,"attributeName":"language","attributeValue":"EN","languageId":2,"languageName":"en","statusId":1,"statusName":"active"}]}}]},"resultCode":"0"}
01.06.2016 12:55:29 +0200 10.0.32.247 Login status: 200
01.06.2016 13:19:15 +0200 10.0.32.247 Login req: {
            "languageId":"2",
            "transactionId": "14647799541408504839",
            "tenant":"1",
            "profileAttributeFlag":true,
            "externalIdList": {
                "externalIds": [
                    {
                    "externalId" : "Dixie.caris@outlook.com"
                    }
                ]
             }   
            }
01.06.2016 13:19:15 +0200 10.0.32.247 Login token: 44aed44582bfdfa21c149579bd174c6
01.06.2016 13:19:15 +0200 10.0.32.247 Login response: {"transactionId":"14647799541408504839","userRetrievedList":{"users":[{"id":125,"description":"Dixie.caris@outlook.com","parentBusinessUserId":2,"statusId":1,"roleTypeId":2,"defaultLanguageId":2,"userExternalIdList":{"externalIds":[{"externalId":"Dixie.caris@outlook.com","defaultFlag":1,"type":"email","statusId":1}]},"userAttributeList":{"attributeValues":[{"attributeId":9,"attributeName":"name","attributeValue":"Dixie","languageId":2,"languageName":"en","statusId":1,"statusName":"active"},{"attributeId":10,"attributeName":"surname","attributeValue":"Caries","languageId":2,"languageName":"en","statusId":1,"statusName":"active"},{"attributeId":14,"attributeName":"email","attributeValue":"Dixie.caris@outlook.com","languageId":2,"languageName":"en","statusId":1,"statusName":"active"},{"attributeId":100003,"attributeName":"customerNumber","attributeValue":"CON-20160425-0039","languageId":2,"languageName":"en","statusId":1,"statusName":"active"},{"attributeId":100004,"attributeName":"language","attributeValue":"EN","languageId":2,"languageName":"en","statusId":1,"statusName":"active"}]}}]},"resultCode":"0"}
01.06.2016 13:19:15 +0200 10.0.32.247 Login status: 200
01.06.2016 13:22:12 +0200 10.0.32.247 TOKEN ricevuto, cache creata
01.06.2016 14:04:20 +0200 10.0.32.247 Login req: {
            "languageId":"2",
            "transactionId": "1464782660367461900",
            "tenant":"1",
            "profileAttributeFlag":true,
            "externalIdList": {
                "externalIds": [
                    {
                    "externalId" : "abhi.vernekar@gmail.com"
                    }
                ]
             }   
            }
01.06.2016 14:04:20 +0200 10.0.32.247 Login token: 871bbfc281461e3b572ae30a26698ff
01.06.2016 14:04:20 +0200 10.0.32.247 Login response: {"transactionId":"1464782660367461900","userRetrievedList":{"users":[{"id":922,"description":"abhi.vernekar@gmail.com","parentBusinessUserId":2,"statusId":1,"roleTypeId":2,"defaultLanguageId":2,"userExternalIdList":{"externalIds":[{"externalId":"abhi.vernekar@gmail.com","defaultFlag":1,"type":"email","statusId":1}]},"userAttributeList":{"attributeValues":[{"attributeId":9,"attributeName":"name","attributeValue":"abhijeet","languageId":2,"languageName":"en","statusId":1,"statusName":"active"},{"attributeId":10,"attributeName":"surname","attributeValue":"vernekar","languageId":2,"languageName":"en","statusId":1,"statusName":"active"},{"attributeId":14,"attributeName":"email","attributeValue":"abhi.vernekar@gmail.com","languageId":2,"languageName":"en","statusId":1,"statusName":"active"},{"attributeId":100004,"attributeName":"language","attributeValue":"EN","languageId":2,"languageName":"en","statusId":1,"statusName":"active"}]}}]},"resultCode":"0"}
01.06.2016 14:04:20 +0200 10.0.32.247 Login status: 200
01.06.2016 14:15:09 +0200 10.0.32.247 Login req: {
            "languageId":"2",
            "transactionId": "14647833091256889029",
            "tenant":"1",
            "profileAttributeFlag":true,
            "externalIdList": {
                "externalIds": [
                    {
                    "externalId" : "1099330533443612"
                    }
                ]
             }   
            }
01.06.2016 14:15:09 +0200 10.0.32.247 Login token: a5b87eb3e84a595cf61553a7fb64cb0
01.06.2016 14:15:09 +0200 10.0.32.247 Login response: {"transactionId":"14647833091256889029","userRetrievedList":{"users":[{"id":923,"description":"1099330533443612","parentBusinessUserId":2,"statusId":1,"roleTypeId":2,"defaultLanguageId":2,"userExternalIdList":{"externalIds":[{"externalId":"1099330533443612","defaultFlag":1,"type":"socialID","statusId":1}]},"userAttributeList":{"attributeValues":[{"attributeId":9,"attributeName":"name","attributeValue":"Mohammed","languageId":2,"languageName":"en","statusId":1,"statusName":"active"},{"attributeId":10,"attributeName":"surname","attributeValue":"Nabeel","languageId":2,"languageName":"en","statusId":1,"statusName":"active"},{"attributeId":14,"attributeName":"email","attributeValue":"nabeelmangalore@gmail.com","languageId":2,"languageName":"en","statusId":1,"statusName":"active"},{"attributeId":100004,"attributeName":"language","attributeValue":"en","languageId":2,"languageName":"en","statusId":1,"statusName":"active"}]}}]},"resultCode":"0"}
01.06.2016 14:15:09 +0200 10.0.32.247 Login status: 200
01.06.2016 14:19:09 +0200 10.0.32.247 Login req: {
            "languageId":"2",
            "transactionId": "14647835491323954575",
            "tenant":"1",
            "profileAttributeFlag":true,
            "externalIdList": {
                "externalIds": [
                    {
                    "externalId" : "cristinarobles024@yahoo.com"
                    }
                ]
             }   
            }
01.06.2016 14:19:09 +0200 10.0.32.247 Login token: 1aeea86ea5b54a90cc7eca9ee3c0ac8
01.06.2016 14:19:09 +0200 10.0.32.247 Login response: {"transactionId":"14647835491323954575","userRetrievedList":{"users":[{"id":924,"description":"cristinarobles024@yahoo.com","parentBusinessUserId":2,"statusId":1,"roleTypeId":2,"defaultLanguageId":2,"userExternalIdList":{"externalIds":[{"externalId":"cristinarobles024@yahoo.com","defaultFlag":1,"type":"email","statusId":1}]},"userAttributeList":{"attributeValues":[{"attributeId":9,"attributeName":"name","attributeValue":"Cristina","languageId":2,"languageName":"en","statusId":1,"statusName":"active"},{"attributeId":10,"attributeName":"surname","attributeValue":"Delmar","languageId":2,"languageName":"en","statusId":1,"statusName":"active"},{"attributeId":14,"attributeName":"email","attributeValue":"cristinarobles024@yahoo.com","languageId":2,"languageName":"en","statusId":1,"statusName":"active"},{"attributeId":100003,"attributeName":"customerNumber","attributeValue":"CON-20160601-0015","languageId":2,"languageName":"en","statusId":1,"statusName":"active"},{"attributeId":100004,"attributeName":"language","attributeValue":"EN","languageId":2,"languageName":"en","statusId":1,"statusName":"active"},{"attributeId":100020,"attributeName":"NL_DUBAI_PARK_AND_RESORT","attributeValue":"true","languageId":2,"languageName":"en","statusId":1,"statusName":"active"}]}}]},"resultCode":"0"}
01.06.2016 14:19:09 +0200 10.0.32.247 Login status: 200
01.06.2016 14:25:29 +0200 10.0.32.247 TOKEN ricevuto, cache creata
01.06.2016 14:46:19 +0200 10.0.32.247 Login req: {
            "languageId":"2",
            "transactionId": "14647851791011587874",
            "tenant":"1",
            "profileAttributeFlag":true,
            "externalIdList": {
                "externalIds": [
                    {
                    "externalId" : "daryl_dhey_20@yahoo.com"
                    }
                ]
             }   
            }
01.06.2016 14:46:19 +0200 10.0.32.247 Login token: 3b3077a6afc35af08178193228e191
01.06.2016 14:46:19 +0200 10.0.32.247 Login response: {"transactionId":"14647851791011587874","userRetrievedList":{"users":[{"id":926,"description":"daryl_dhey_20@yahoo.com","parentBusinessUserId":2,"statusId":1,"roleTypeId":2,"defaultLanguageId":2,"userExternalIdList":{"externalIds":[{"externalId":"daryl_dhey_20@yahoo.com","defaultFlag":1,"type":"email","statusId":1}]},"userAttributeList":{"attributeValues":[{"attributeId":9,"attributeName":"name","attributeValue":"Daryl","languageId":2,"languageName":"en","statusId":1,"statusName":"active"},{"attributeId":10,"attributeName":"surname","attributeValue":"Bondoc","languageId":2,"languageName":"en","statusId":1,"statusName":"active"},{"attributeId":14,"attributeName":"email","attributeValue":"daryl_dhey_20@yahoo.com","languageId":2,"languageName":"en","statusId":1,"statusName":"active"},{"attributeId":100003,"attributeName":"customerNumber","attributeValue":"CON-20160601-0017","languageId":2,"languageName":"en","statusId":1,"statusName":"active"},{"attributeId":100004,"attributeName":"language","attributeValue":"EN","languageId":2,"languageName":"en","statusId":1,"statusName":"active"},{"attributeId":100020,"attributeName":"NL_DUBAI_PARK_AND_RESORT","attributeValue":"true","languageId":2,"languageName":"en","statusId":1,"statusName":"active"}]}}]},"resultCode":"0"}
01.06.2016 14:46:19 +0200 10.0.32.247 Login status: 200
01.06.2016 14:53:21 +0200 10.0.32.247 Login req: {
            "languageId":"2",
            "transactionId": "14647856012056812520",
            "tenant":"1",
            "profileAttributeFlag":true,
            "externalIdList": {
                "externalIds": [
                    {
                    "externalId" : "marlene_lynz_21@yahoo.com"
                    }
                ]
             }   
            }
01.06.2016 14:53:21 +0200 10.0.32.247 Login token: d7aed5c257d5317c54a8d3ba6e9e799a
01.06.2016 14:53:21 +0200 10.0.32.247 Login response: {"transactionId":"14647856012056812520","userRetrievedList":{"users":[{"id":927,"description":"marlene_lynz_21@yahoo.com","parentBusinessUserId":2,"statusId":1,"roleTypeId":2,"defaultLanguageId":2,"userExternalIdList":{"externalIds":[{"externalId":"marlene_lynz_21@yahoo.com","defaultFlag":1,"type":"email","statusId":1}]},"userAttributeList":{"attributeValues":[{"attributeId":9,"attributeName":"name","attributeValue":"Marlene","languageId":2,"languageName":"en","statusId":1,"statusName":"active"},{"attributeId":10,"attributeName":"surname","attributeValue":"Alesna","languageId":2,"languageName":"en","statusId":1,"statusName":"active"},{"attributeId":14,"attributeName":"email","attributeValue":"marlene_lynz_21@yahoo.com","languageId":2,"languageName":"en","statusId":1,"statusName":"active"},{"attributeId":100003,"attributeName":"customerNumber","attributeValue":"CON-20160601-0018","languageId":2,"languageName":"en","statusId":1,"statusName":"active"},{"attributeId":100004,"attributeName":"language","attributeValue":"EN","languageId":2,"languageName":"en","statusId":1,"statusName":"active"},{"attributeId":100020,"attributeName":"NL_DUBAI_PARK_AND_RESORT","attributeValue":"true","languageId":2,"languageName":"en","statusId":1,"statusName":"active"}]}}]},"resultCode":"0"}
01.06.2016 14:53:21 +0200 10.0.32.247 Login status: 200
01.06.2016 15:28:42 +0200 10.0.32.247 TOKEN ricevuto, cache creata
01.06.2016 15:48:14 +0200 10.0.32.247 Login req: {
            "languageId":"2",
            "transactionId": "14647888941960968256",
            "tenant":"1",
            "profileAttributeFlag":true,
            "externalIdList": {
                "externalIds": [
                    {
                    "externalId" : "mr.eslam.farouk@gmail.com"
                    }
                ]
             }   
            }
01.06.2016 15:48:14 +0200 10.0.32.247 Login token: a55c13f6b6e9d576cba9c829e4d3142e
01.06.2016 15:48:14 +0200 10.0.32.247 Login response: {"transactionId":"14647888941960968256","userRetrievedList":{"users":[{"id":919,"description":"mr.eslam.farouk@gmail.com","parentBusinessUserId":2,"statusId":1,"roleTypeId":2,"defaultLanguageId":2,"userExternalIdList":{"externalIds":[{"externalId":"mr.eslam.farouk@gmail.com","defaultFlag":1,"type":"email","statusId":1}]},"userAttributeList":{"attributeValues":[{"attributeId":9,"attributeName":"name","attributeValue":"eslam","languageId":2,"languageName":"en","statusId":1,"statusName":"active"},{"attributeId":10,"attributeName":"surname","attributeValue":"farouk","languageId":2,"languageName":"en","statusId":1,"statusName":"active"},{"attributeId":14,"attributeName":"email","attributeValue":"mr.eslam.farouk@gmail.com","languageId":2,"languageName":"en","statusId":1,"statusName":"active"},{"attributeId":100003,"attributeName":"customerNumber","attributeValue":"CON-20160601-0008","languageId":2,"languageName":"en","statusId":1,"statusName":"active"},{"attributeId":100004,"attributeName":"language","attributeValue":"EN","languageId":2,"languageName":"en","statusId":1,"statusName":"active"},{"attributeId":100020,"attributeName":"NL_DUBAI_PARK_AND_RESORT","attributeValue":"true","languageId":2,"languageName":"en","statusId":1,"statusName":"active"}]}}]},"resultCode":"0"}
01.06.2016 15:48:14 +0200 10.0.32.247 Login status: 200
01.06.2016 16:32:54 +0200 10.0.32.247 TOKEN ricevuto, cache creata
01.06.2016 17:32:46 +0200 10.0.32.247 TOKEN expired => RENEWING. Server response =>401
01.06.2016 17:32:46 +0200 10.0.32.247 RENEWING token
01.06.2016 17:32:46 +0200 10.0.32.247 RENEW TOKEN RESULT =>200 || 7b28a9a18061b0c6564e8335a894c1b6
01.06.2016 17:32:47 +0200 10.0.32.247 error in acapiaccess_getProducts_annualPass: 
01.06.2016 18:33:16 +0200 10.0.32.247 TOKEN ricevuto, cache creata
01.06.2016 19:22:42 +0200 10.0.32.247 Login req: {
            "languageId":"2",
            "transactionId": "14648017622132752916",
            "tenant":"1",
            "profileAttributeFlag":true,
            "externalIdList": {
                "externalIds": [
                    {
                    "externalId" : "Janiabbas@gmail.com"
                    }
                ]
             }   
            }
01.06.2016 19:22:42 +0200 10.0.32.247 Login token: 3dad986dfa977b63facefa543a7c0f
01.06.2016 19:22:42 +0200 10.0.32.247 Login response: {"transactionId":"14648017622132752916","userRetrievedList":{"users":[{"id":928,"description":"janiabbas@gmail.com","parentBusinessUserId":2,"statusId":1,"roleTypeId":2,"defaultLanguageId":2,"userExternalIdList":{"externalIds":[{"externalId":"janiabbas@gmail.com","defaultFlag":1,"type":"email","statusId":1}]},"userAttributeList":{"attributeValues":[{"attributeId":9,"attributeName":"name","attributeValue":"Abbas ","languageId":2,"languageName":"en","statusId":1,"statusName":"active"},{"attributeId":10,"attributeName":"surname","attributeValue":"Jani","languageId":2,"languageName":"en","statusId":1,"statusName":"active"},{"attributeId":14,"attributeName":"email","attributeValue":"janiabbas@gmail.com","languageId":2,"languageName":"en","statusId":1,"statusName":"active"},{"attributeId":100003,"attributeName":"customerNumber","attributeValue":"CON-20160601-0020","languageId":2,"languageName":"en","statusId":1,"statusName":"active"},{"attributeId":100004,"attributeName":"language","attributeValue":"EN","languageId":2,"languageName":"en","statusId":1,"statusName":"active"},{"attributeId":100020,"attributeName":"NL_DUBAI_PARK_AND_RESORT","attributeValue":"true","languageId":2,"languageName":"en","statusId":1,"statusName":"active"}]}}]},"resultCode":"0"}
01.06.2016 19:22:42 +0200 10.0.32.247 Login status: 200
01.06.2016 19:34:44 +0200 10.0.32.247 TOKEN ricevuto, cache creata
01.06.2016 19:59:58 +0200 10.0.32.247 Login req: {
            "languageId":"2",
            "transactionId": "14648039981611226265",
            "tenant":"1",
            "profileAttributeFlag":true,
            "externalIdList": {
                "externalIds": [
                    {
                    "externalId" : "moudy_e@yahoo.com"
                    }
                ]
             }   
            }
01.06.2016 19:59:58 +0200 10.0.32.247 Login token: 184ef22ec7da0d2559bfc12d42aa659
01.06.2016 19:59:58 +0200 10.0.32.247 Login response: {"transactionId":"14648039981611226265","userRetrievedList":{"users":[{"id":130,"description":"moudy_e@yahoo.com","parentBusinessUserId":2,"statusId":1,"roleTypeId":2,"defaultLanguageId":2,"userExternalIdList":{"externalIds":[{"externalId":"moudy_e@yahoo.com","defaultFlag":1,"type":"email","statusId":1}]},"userAttributeList":{"attributeValues":[{"attributeId":9,"attributeName":"name","attributeValue":"Mahmoud","languageId":2,"languageName":"en","statusId":1,"statusName":"active"},{"attributeId":10,"attributeName":"surname","attributeValue":"El Etreby","languageId":2,"languageName":"en","statusId":1,"statusName":"active"},{"attributeId":14,"attributeName":"email","attributeValue":"moudy_e@yahoo.com","languageId":2,"languageName":"en","statusId":1,"statusName":"active"},{"attributeId":100003,"attributeName":"customerNumber","attributeValue":"CON-20160425-0049","languageId":2,"languageName":"en","statusId":1,"statusName":"active"},{"attributeId":100004,"attributeName":"language","attributeValue":"EN","languageId":2,"languageName":"en","statusId":1,"statusName":"active"},{"attributeId":100020,"attributeName":"NL_DUBAI_PARK_AND_RESORT","attributeValue":"true","languageId":2,"languageName":"en","statusId":1,"statusName":"active"}]}}]},"resultCode":"0"}
01.06.2016 19:59:58 +0200 10.0.32.247 Login status: 200
01.06.2016 20:45:35 +0200 10.0.32.247 TOKEN ricevuto, cache creata
01.06.2016 21:47:22 +0200 10.0.32.247 TOKEN ricevuto, cache creata
01.06.2016 22:43:41 +0200 10.0.32.247 TOKEN expired => RENEWING. Server response =>401
01.06.2016 22:43:41 +0200 10.0.32.247 RENEWING token
01.06.2016 22:43:41 +0200 10.0.32.247 RENEW TOKEN RESULT =>200 || 88baa1ba6677cf877f561aeecefbe0cc
01.06.2016 22:44:54 +0200 10.0.32.247 Login req: {
            "languageId":"2",
            "transactionId": "1464813894295897534",
            "tenant":"1",
            "profileAttributeFlag":true,
            "externalIdList": {
                "externalIds": [
                    {
                    "externalId" : "fabio.garcia@orion.inf.br"
                    }
                ]
             }   
            }
01.06.2016 22:44:54 +0200 10.0.32.247 Login token: 4f5f9bb0955e88ee7a6c933bc58448
01.06.2016 22:44:54 +0200 10.0.32.247 Login response: {"transactionId":"1464813894295897534","userRetrievedList":{"users":[{"id":929,"description":"fabio.garcia@orion.inf.br","parentBusinessUserId":2,"statusId":1,"roleTypeId":2,"defaultLanguageId":2,"userExternalIdList":{"externalIds":[{"externalId":"fabio.garcia@orion.inf.br","defaultFlag":1,"type":"email","statusId":1}]},"userAttributeList":{"attributeValues":[{"attributeId":9,"attributeName":"name","attributeValue":"Fabio","languageId":2,"languageName":"en","statusId":1,"statusName":"active"},{"attributeId":10,"attributeName":"surname","attributeValue":"Garcia","languageId":2,"languageName":"en","statusId":1,"statusName":"active"},{"attributeId":14,"attributeName":"email","attributeValue":"fabio.garcia@orion.inf.br","languageId":2,"languageName":"en","statusId":1,"statusName":"active"},{"attributeId":100003,"attributeName":"customerNumber","attributeValue":"CON-20160602-0001","languageId":2,"languageName":"en","statusId":1,"statusName":"active"},{"attributeId":100004,"attributeName":"language","attributeValue":"EN","languageId":2,"languageName":"en","statusId":1,"statusName":"active"},{"attributeId":100020,"attributeName":"NL_DUBAI_PARK_AND_RESORT","attributeValue":"true","languageId":2,"languageName":"en","statusId":1,"statusName":"active"}]}}]},"resultCode":"0"}
01.06.2016 22:44:54 +0200 10.0.32.247 Login status: 200
01.06.2016 23:48:35 +0200 10.0.32.247 TOKEN ricevuto, cache creata