
06.12.2016 7:25:15 +0100 10.0.32.247 ERROR! - TOKEN NON ricevuto, redirect to error page, API status=500
06.12.2016 7:26:07 +0100 10.0.32.247 ERROR! - TOKEN NON ricevuto, redirect to error page, API status=500
06.12.2016 9:45:51 +0100 10.0.32.247 TOKEN ricevuto, cache creata
06.12.2016 9:45:51 +0100 10.0.32.247 TOKEN ricevuto, cache creata
06.12.2016 15:50:50 +0100 10.0.32.247 TOKEN ricevuto, cache creata
06.12.2016 17:06:02 +0100 10.0.32.247 TOKEN ricevuto, cache creata
06.12.2016 17:08:24 +0100 10.0.32.247 ERROR! - TOKEN NON ricevuto, redirect to error page, API status=0
06.12.2016 19:04:40 +0100 10.0.32.247 Login req: {
            "languageId":"2",
            "transactionId": "14810474802105578451",
            "tenant":"1",
            "profileAttributeFlag":true,
            "externalIdList": {
                "externalIds": [
                    {
                    "externalId" : "4myexperiment@gmail.com"
                    }
                ]
             }
            }
06.12.2016 19:04:40 +0100 10.0.32.247 Login token: 1d438570c47c689f9b6b2952f782ec9d
06.12.2016 19:04:40 +0100 10.0.32.247 Login response: {"transactionId":"14810474802105578451","userRetrievedList":{"users":[{"id":247,"description":"4myexperiment@gmail.com","parentBusinessUserId":2,"statusId":1,"roleTypeId":2,"defaultLanguageId":2,"userExternalIdList":{"externalIds":[{"externalId":"4myexperiment@gmail.com","defaultFlag":1,"type":"email","statusId":1}]},"userAttributeList":{"attributeValues":[{"attributeId":9,"attributeName":"name","attributeValue":"my","languageId":2,"languageName":"en","statusId":1,"statusName":"active"},{"attributeId":10,"attributeName":"surname","attributeValue":"experiment","languageId":2,"languageName":"en","statusId":1,"statusName":"active"},{"attributeId":14,"attributeName":"email","attributeValue":"4myexperiment@gmail.com","languageId":2,"languageName":"en","statusId":1,"statusName":"active"},{"attributeId":100003,"attributeName":"customerNumber","attributeValue":"CON-20160427-0018","languageId":2,"languageName":"en","statusId":1,"statusName":"active"},{"attributeId":100004,"attributeName":"language","attributeValue":"EN","languageId":2,"languageName":"en","statusId":1,"statusName":"active"}]}}]},"resultCode":"0"}
06.12.2016 19:04:40 +0100 10.0.32.247 Login status: 200
06.12.2016 19:06:42 +0100 10.0.32.247 Login req: {
            "languageId":"2",
            "transactionId": "1481047602524939007",
            "tenant":"1",
            "profileAttributeFlag":true,
            "externalIdList": {
                "externalIds": [
                    {
                    "externalId" : "4myexperiment@gmail.com"
                    }
                ]
             }
            }
06.12.2016 19:06:42 +0100 10.0.32.247 Login token: 1d438570c47c689f9b6b2952f782ec9d
06.12.2016 19:06:42 +0100 10.0.32.247 Login response: {"transactionId":"1481047602524939007","userRetrievedList":{"users":[{"id":247,"description":"4myexperiment@gmail.com","parentBusinessUserId":2,"statusId":1,"roleTypeId":2,"defaultLanguageId":2,"userExternalIdList":{"externalIds":[{"externalId":"4myexperiment@gmail.com","defaultFlag":1,"type":"email","statusId":1}]},"userAttributeList":{"attributeValues":[{"attributeId":9,"attributeName":"name","attributeValue":"my","languageId":2,"languageName":"en","statusId":1,"statusName":"active"},{"attributeId":10,"attributeName":"surname","attributeValue":"experiment","languageId":2,"languageName":"en","statusId":1,"statusName":"active"},{"attributeId":14,"attributeName":"email","attributeValue":"4myexperiment@gmail.com","languageId":2,"languageName":"en","statusId":1,"statusName":"active"},{"attributeId":100003,"attributeName":"customerNumber","attributeValue":"CON-20160427-0018","languageId":2,"languageName":"en","statusId":1,"statusName":"active"},{"attributeId":100004,"attributeName":"language","attributeValue":"EN","languageId":2,"languageName":"en","statusId":1,"statusName":"active"}]}}]},"resultCode":"0"}
06.12.2016 19:06:42 +0100 10.0.32.247 Login status: 200
06.12.2016 19:07:54 +0100 10.0.32.247 Login req: {
            "languageId":"2",
            "transactionId": "1481047674476864018",
            "tenant":"1",
            "profileAttributeFlag":true,
            "externalIdList": {
                "externalIds": [
                    {
                    "externalId" : "4myexperiment@gmail.com"
                    }
                ]
             }
            }
06.12.2016 19:07:54 +0100 10.0.32.247 Login token: 1d438570c47c689f9b6b2952f782ec9d
06.12.2016 19:07:54 +0100 10.0.32.247 Login response: {"transactionId":"1481047674476864018","userRetrievedList":{"users":[{"id":247,"description":"4myexperiment@gmail.com","parentBusinessUserId":2,"statusId":1,"roleTypeId":2,"defaultLanguageId":2,"userExternalIdList":{"externalIds":[{"externalId":"4myexperiment@gmail.com","defaultFlag":1,"type":"email","statusId":1}]},"userAttributeList":{"attributeValues":[{"attributeId":9,"attributeName":"name","attributeValue":"my","languageId":2,"languageName":"en","statusId":1,"statusName":"active"},{"attributeId":10,"attributeName":"surname","attributeValue":"experiment","languageId":2,"languageName":"en","statusId":1,"statusName":"active"},{"attributeId":14,"attributeName":"email","attributeValue":"4myexperiment@gmail.com","languageId":2,"languageName":"en","statusId":1,"statusName":"active"},{"attributeId":100003,"attributeName":"customerNumber","attributeValue":"CON-20160427-0018","languageId":2,"languageName":"en","statusId":1,"statusName":"active"},{"attributeId":100004,"attributeName":"language","attributeValue":"EN","languageId":2,"languageName":"en","statusId":1,"statusName":"active"}]}}]},"resultCode":"0"}
06.12.2016 19:07:54 +0100 10.0.32.247 Login status: 200
06.12.2016 23:50:51 +0000 10.0.32.247 Login req: {
            "languageId":"2",
            "transactionId": "14810682511575297049",
            "tenant":"1",
            "profileAttributeFlag":true,
            "externalIdList": {
                "externalIds": [
                    {
                    "externalId" : "hesham.ghaleb@accenture.com"
                    }
                ]
             }
            }
06.12.2016 23:50:51 +0000 10.0.32.247 Login token: ceb7d3d30d937b077dcb20d4d8f6a6
06.12.2016 23:50:51 +0000 10.0.32.247 Login response: {"transactionId":"14810682511575297049","userRetrievedList":{"users":[{"id":36,"description":"hesham.ghaleb@accenture.com","parentBusinessUserId":2,"statusId":1,"roleTypeId":2,"defaultLanguageId":2,"userExternalIdList":{"externalIds":[{"externalId":"hesham.ghaleb@accenture.com","defaultFlag":1,"type":"email","statusId":1}]},"userAttributeList":{"attributeValues":[{"attributeId":100003,"attributeName":"customerNumber","attributeValue":"CON-20160423-0007","languageId":2,"languageName":"en","statusId":1,"statusName":"active"},{"attributeId":100219,"attributeName":"WI_BW0042","attributeValue":"true","languageId":2,"languageName":"en","statusId":1,"statusName":"active"},{"attributeId":100013,"attributeName":"NL_LEGOLAND","attributeValue":"True","languageId":2,"languageName":"en","statusId":2,"statusName":"deleted"},{"attributeId":100004,"attributeName":"language","attributeValue":"AR","languageId":2,"languageName":"en","statusId":2,"statusName":"deleted"},{"attributeId":100020,"attributeName":"NL_DUBAI_PARK_AND_RESORT","attributeValue":"False","languageId":2,"languageName":"en","statusId":2,"statusName":"deleted"},{"attributeId":9,"attributeName":"name","attributeValue":"Hesham","languageId":2,"languageName":"en","statusId":2,"statusName":"deleted"},{"attributeId":10,"attributeName":"surname","attributeValue":"Ghaleb","languageId":2,"languageName":"en","statusId":2,"statusName":"deleted"},{"attributeId":14,"attributeName":"email","attributeValue":"hesham.ghaleb@accenture.com","languageId":2,"languageName":"en","statusId":2,"statusName":"deleted"},{"attributeId":100017,"attributeName":"mascotteID","attributeValue":"mascotte8_b.fw","languageId":2,"languageName":"en","statusId":2,"statusName":"deleted"},{"attributeId":100019,"attributeName":"NL_MOTIONGATE","attributeValue":"True","languageId":2,"languageName":"en","statusId":2,"statusName":"deleted"},{"attributeId":100018,"attributeName":"NL_BOLLIWOOD_PARK","attributeValue":"False","languageId":2,"languageName":"en","statusId":2,"statusName":"deleted"},{"attributeId":100014,"attributeName":"NL_RIVERLAND","attributeValue":"False","languageId":2,"languageName":"en","statusId":2,"statusName":"deleted"},{"attributeId":100015,"attributeName":"NL_GENERAL_COMMUNICATION","attributeValue":"False","languageId":2,"languageName":"en","statusId":2,"statusName":"deleted"},{"attributeId":5,"attributeName":"country","attributeValue":"United Arab Emirates","languageId":2,"languageName":"en","statusId":2,"statusName":"deleted"},{"attributeId":100002,"attributeName":"birthday","attributeValue":"3\/7\/1980","languageId":2,"languageName":"en","statusId":2,"statusName":"deleted"},{"attributeId":49,"attributeName":"city","attributeValue":"Dubai","languageId":2,"languageName":"en","statusId":2,"statusName":"deleted"},{"attributeId":108,"attributeName":"address","attributeValue":"Villa 435, Zone P, Al Furjan","languageId":2,"languageName":"en","statusId":2,"statusName":"deleted"},{"attributeId":50,"attributeName":"zipCode","attributeValue":"33283","languageId":2,"languageName":"en","statusId":2,"statusName":"deleted"},{"attributeId":100001,"attributeName":"msisdn","attributeValue":"+971-551098200","languageId":2,"languageName":"en","statusId":2,"statusName":"deleted"},{"attributeId":100005,"attributeName":"type","attributeValue":"customer","languageId":2,"languageName":"en","statusId":2,"statusName":"deleted"}]}}]},"resultCode":"0"}
06.12.2016 23:50:51 +0000 10.0.32.247 Login status: 200