
05.11.2016 0:52:14 +0100 10.0.32.247 TOKEN ricevuto, cache creata
05.11.2016 1:59:41 +0100 10.0.32.247 TOKEN ricevuto, cache creata
05.11.2016 1:59:41 +0100 10.0.32.247 TOKEN ricevuto, cache creata
05.11.2016 1:59:41 +0100 10.0.32.247 TOKEN ricevuto, cache creata
05.11.2016 1:59:41 +0100 10.0.32.247 TOKEN ricevuto, cache creata
05.11.2016 2:54:40 +0100 10.0.32.247 TOKEN expired => RENEWING. Server response =>401
05.11.2016 2:54:40 +0100 10.0.32.247 RENEWING token
05.11.2016 2:54:40 +0100 10.0.32.247 RENEW TOKEN RESULT =>200 || 8d95809dd050ad866939fe42398b33e
05.11.2016 3:54:07 +0100 10.0.32.247 TOKEN expired => RENEWING. Server response =>401
05.11.2016 3:54:07 +0100 10.0.32.247 RENEWING token
05.11.2016 3:54:07 +0100 10.0.32.247 RENEW TOKEN RESULT =>200 || 7f2fa72844ab881da9122999a8f6b4
05.11.2016 4:23:50 +0100 10.0.32.247 Login req: {
            "languageId":"2",
            "transactionId": "1478316230842525972",
            "tenant":"1",
            "profileAttributeFlag":true,
            "externalIdList": {
                "externalIds": [
                    {
                    "externalId" : "Biso_3131@hotmail.com"
                    }
                ]
             }
            }
05.11.2016 4:23:50 +0100 10.0.32.247 Login token: eb99d20fd3a28adf25de6a627cb2b5
05.11.2016 4:23:50 +0100 10.0.32.247 Login response: {"transactionId":"1478316230842525972","userRetrievedList":{"users":[{"id":4999,"description":"biso_3131@hotmail.com","parentBusinessUserId":2,"statusId":1,"roleTypeId":2,"defaultLanguageId":2,"userExternalIdList":{"externalIds":[{"externalId":"biso_3131@hotmail.com","defaultFlag":1,"type":"email","statusId":1}]},"userAttributeList":{"attributeValues":[{"attributeId":9,"attributeName":"name","attributeValue":"Balsam","languageId":2,"languageName":"en","statusId":1,"statusName":"active"},{"attributeId":10,"attributeName":"surname","attributeValue":"Alkhalifah","languageId":2,"languageName":"en","statusId":1,"statusName":"active"},{"attributeId":14,"attributeName":"email","attributeValue":"biso_3131@hotmail.com","languageId":2,"languageName":"en","statusId":1,"statusName":"active"},{"attributeId":100003,"attributeName":"customerNumber","attributeValue":"CON-20161103-0095","languageId":2,"languageName":"en","statusId":1,"statusName":"active"},{"attributeId":100004,"attributeName":"language","attributeValue":"EN","languageId":2,"languageName":"en","statusId":1,"statusName":"active"},{"attributeId":100013,"attributeName":"NL_LEGOLAND","attributeValue":"False","languageId":2,"languageName":"en","statusId":1,"statusName":"active"},{"attributeId":100014,"attributeName":"NL_RIVERLAND","attributeValue":"False","languageId":2,"languageName":"en","statusId":1,"statusName":"active"},{"attributeId":100015,"attributeName":"NL_GENERAL_COMMUNICATION","attributeValue":"False","languageId":2,"languageName":"en","statusId":1,"statusName":"active"},{"attributeId":100018,"attributeName":"NL_BOLLIWOOD_PARK","attributeValue":"False","languageId":2,"languageName":"en","statusId":1,"statusName":"active"},{"attributeId":100019,"attributeName":"NL_MOTIONGATE","attributeValue":"False","languageId":2,"languageName":"en","statusId":1,"statusName":"active"},{"attributeId":100020,"attributeName":"NL_DUBAI_PARK_AND_RESORT","attributeValue":"True","languageId":2,"languageName":"en","statusId":1,"statusName":"active"}]}}]},"resultCode":"0"}
05.11.2016 4:23:50 +0100 10.0.32.247 Login status: 200
05.11.2016 4:54:35 +0100 10.0.32.247 TOKEN ricevuto, cache creata
05.11.2016 4:54:35 +0100 10.0.32.247 TOKEN ricevuto, cache creata
05.11.2016 4:54:35 +0100 10.0.32.247 TOKEN ricevuto, cache creata
05.11.2016 4:54:35 +0100 10.0.32.247 TOKEN ricevuto, cache creata
05.11.2016 5:54:04 +0100 10.0.32.247 TOKEN expired => RENEWING. Server response =>401
05.11.2016 5:54:04 +0100 10.0.32.247 RENEWING token
05.11.2016 5:54:04 +0100 10.0.32.247 RENEW TOKEN RESULT =>200 || 28eb952cd506086884366719fb89e3
05.11.2016 6:48:54 +0100 10.0.32.247 Login req: {
            "languageId":"2",
            "transactionId": "1478324934642708838",
            "tenant":"1",
            "profileAttributeFlag":true,
            "externalIdList": {
                "externalIds": [
                    {
                    "externalId" : "10154525251139704"
                    }
                ]
             }
            }
05.11.2016 6:48:54 +0100 10.0.32.247 Login token: d3d1cf894f44cb48bec5062aed69146
05.11.2016 6:48:54 +0100 10.0.32.247 Login response: {"transactionId":"1478324934642708838","userRetrievedList":{"users":[{"id":3435,"description":"10154525251139704","parentBusinessUserId":2,"statusId":1,"roleTypeId":2,"defaultLanguageId":2,"userExternalIdList":{"externalIds":[{"externalId":"10154525251139704","defaultFlag":1,"type":"socialID","statusId":1}]},"userAttributeList":{"attributeValues":[{"attributeId":9,"attributeName":"name","attributeValue":"Neil","languageId":2,"languageName":"en","statusId":1,"statusName":"active"},{"attributeId":10,"attributeName":"surname","attributeValue":"Mac","languageId":2,"languageName":"en","statusId":1,"statusName":"active"},{"attributeId":14,"attributeName":"email","attributeValue":"addychris78@yahoo.com","languageId":2,"languageName":"en","statusId":1,"statusName":"active"},{"attributeId":100003,"attributeName":"customerNumber","attributeValue":"CON-20160906-0040","languageId":2,"languageName":"en","statusId":1,"statusName":"active"},{"attributeId":100004,"attributeName":"language","attributeValue":"EN","languageId":2,"languageName":"en","statusId":1,"statusName":"active"}]}}]},"resultCode":"0"}
05.11.2016 6:48:54 +0100 10.0.32.247 Login status: 200
05.11.2016 6:54:07 +0100 10.0.32.247 TOKEN ricevuto, cache creata
05.11.2016 6:54:07 +0100 10.0.32.247 TOKEN ricevuto, cache creata
05.11.2016 6:54:07 +0100 10.0.32.247 TOKEN ricevuto, cache creata
05.11.2016 6:54:07 +0100 10.0.32.247 TOKEN ricevuto, cache creata
05.11.2016 7:54:12 +0100 10.0.32.247 TOKEN ricevuto, cache creata
05.11.2016 7:54:12 +0100 10.0.32.247 TOKEN ricevuto, cache creata
05.11.2016 7:54:12 +0100 10.0.32.247 TOKEN ricevuto, cache creata
05.11.2016 7:54:12 +0100 10.0.32.247 TOKEN ricevuto, cache creata
05.11.2016 7:54:23 +0100 10.0.32.247 TOKEN ricevuto, cache creata
05.11.2016 8:54:29 +0100 10.0.32.247 TOKEN ricevuto, cache creata
05.11.2016 8:54:29 +0100 10.0.32.247 TOKEN ricevuto, cache creata
05.11.2016 8:54:29 +0100 10.0.32.247 TOKEN ricevuto, cache creata
05.11.2016 8:54:30 +0100 10.0.32.247 TOKEN ricevuto, cache creata
05.11.2016 8:54:46 +0100 10.0.32.247 TOKEN ricevuto, cache creata
05.11.2016 9:10:02 +0100 10.0.32.247 Login req: {
            "languageId":"2",
            "transactionId": "1478333401650428319",
            "tenant":"1",
            "profileAttributeFlag":true,
            "externalIdList": {
                "externalIds": [
                    {
                    "externalId" : "hofuf@hotmail.com"
                    }
                ]
             }
            }
05.11.2016 9:10:02 +0100 10.0.32.247 Login token: f09516162f7774e013f3d3e5a3444021
05.11.2016 9:10:02 +0100 10.0.32.247 Login response: {"transactionId":"1478333401650428319","userRetrievedList":{"users":[{"id":5063,"description":"hofuf@hotmail.com","parentBusinessUserId":2,"statusId":1,"roleTypeId":2,"defaultLanguageId":2,"userExternalIdList":{"externalIds":[{"externalId":"hofuf@hotmail.com","defaultFlag":1,"type":"email","statusId":1}]},"userAttributeList":{"attributeValues":[{"attributeId":9,"attributeName":"name","attributeValue":"Sami","languageId":2,"languageName":"en","statusId":1,"statusName":"active"},{"attributeId":10,"attributeName":"surname","attributeValue":"Alyemni","languageId":2,"languageName":"en","statusId":1,"statusName":"active"},{"attributeId":14,"attributeName":"email","attributeValue":"hofuf@hotmail.com","languageId":2,"languageName":"en","statusId":1,"statusName":"active"},{"attributeId":100003,"attributeName":"customerNumber","attributeValue":"CON-20161105-0033","languageId":2,"languageName":"en","statusId":1,"statusName":"active"},{"attributeId":100004,"attributeName":"language","attributeValue":"EN","languageId":2,"languageName":"en","statusId":1,"statusName":"active"},{"attributeId":100013,"attributeName":"NL_LEGOLAND","attributeValue":"False","languageId":2,"languageName":"en","statusId":1,"statusName":"active"},{"attributeId":100014,"attributeName":"NL_RIVERLAND","attributeValue":"False","languageId":2,"languageName":"en","statusId":1,"statusName":"active"},{"attributeId":100015,"attributeName":"NL_GENERAL_COMMUNICATION","attributeValue":"False","languageId":2,"languageName":"en","statusId":1,"statusName":"active"},{"attributeId":100018,"attributeName":"NL_BOLLIWOOD_PARK","attributeValue":"False","languageId":2,"languageName":"en","statusId":1,"statusName":"active"},{"attributeId":100019,"attributeName":"NL_MOTIONGATE","attributeValue":"False","languageId":2,"languageName":"en","statusId":1,"statusName":"active"},{"attributeId":100020,"attributeName":"NL_DUBAI_PARK_AND_RESORT","attributeValue":"True","languageId":2,"languageName":"en","statusId":1,"statusName":"active"}]}}]},"resultCode":"0"}
05.11.2016 9:10:02 +0100 10.0.32.247 Login status: 200
05.11.2016 9:15:25 +0100 10.0.32.247 Login req: {
            "languageId":"2",
            "transactionId": "1478333725889877306",
            "tenant":"1",
            "profileAttributeFlag":true,
            "externalIdList": {
                "externalIds": [
                    {
                    "externalId" : "abbaassa@gmail.com"
                    }
                ]
             }
            }
05.11.2016 9:15:25 +0100 10.0.32.247 Login token: 7af5703c2ee0c85aa09f5df8f9b064cf
05.11.2016 9:15:25 +0100 10.0.32.247 Login response: {"transactionId":"1478333725889877306","userRetrievedList":{"users":[{"id":5062,"description":"abbaassa@gmail.com","parentBusinessUserId":2,"statusId":1,"roleTypeId":2,"defaultLanguageId":2,"userExternalIdList":{"externalIds":[{"externalId":"abbaassa@gmail.com","defaultFlag":1,"type":"email","statusId":1}]},"userAttributeList":{"attributeValues":[{"attributeId":9,"attributeName":"name","attributeValue":"abbas","languageId":2,"languageName":"en","statusId":1,"statusName":"active"},{"attributeId":10,"attributeName":"surname","attributeValue":"alshomri","languageId":2,"languageName":"en","statusId":1,"statusName":"active"},{"attributeId":14,"attributeName":"email","attributeValue":"abbaassa@gmail.com","languageId":2,"languageName":"en","statusId":1,"statusName":"active"},{"attributeId":100003,"attributeName":"customerNumber","attributeValue":"CON-20161105-0032","languageId":2,"languageName":"en","statusId":1,"statusName":"active"},{"attributeId":100004,"attributeName":"language","attributeValue":"AR","languageId":2,"languageName":"en","statusId":1,"statusName":"active"},{"attributeId":100013,"attributeName":"NL_LEGOLAND","attributeValue":"False","languageId":2,"languageName":"en","statusId":1,"statusName":"active"},{"attributeId":100014,"attributeName":"NL_RIVERLAND","attributeValue":"False","languageId":2,"languageName":"en","statusId":1,"statusName":"active"},{"attributeId":100015,"attributeName":"NL_GENERAL_COMMUNICATION","attributeValue":"False","languageId":2,"languageName":"en","statusId":1,"statusName":"active"},{"attributeId":100018,"attributeName":"NL_BOLLIWOOD_PARK","attributeValue":"False","languageId":2,"languageName":"en","statusId":1,"statusName":"active"},{"attributeId":100019,"attributeName":"NL_MOTIONGATE","attributeValue":"False","languageId":2,"languageName":"en","statusId":1,"statusName":"active"},{"attributeId":100020,"attributeName":"NL_DUBAI_PARK_AND_RESORT","attributeValue":"True","languageId":2,"languageName":"en","statusId":1,"statusName":"active"}]}}]},"resultCode":"0"}
05.11.2016 9:15:25 +0100 10.0.32.247 Login status: 200
05.11.2016 9:18:06 +0100 10.0.32.247 Login req: {
            "languageId":"2",
            "transactionId": "14783338861520444494",
            "tenant":"1",
            "profileAttributeFlag":true,
            "externalIdList": {
                "externalIds": [
                    {
                    "externalId" : "me_legoland@wennerby.com"
                    }
                ]
             }
            }
05.11.2016 9:18:06 +0100 10.0.32.247 Login token: 3f29448b194c4ea4f2b86885739314
05.11.2016 9:18:06 +0100 10.0.32.247 Login response: {"transactionId":"14783338861520444494","userRetrievedList":{"users":[{"id":4716,"description":"me_legoland@wennerby.com","parentBusinessUserId":2,"statusId":1,"roleTypeId":2,"defaultLanguageId":2,"userExternalIdList":{"externalIds":[{"externalId":"me_legoland@wennerby.com","defaultFlag":1,"type":"email","statusId":1}]},"userAttributeList":{"attributeValues":[{"attributeId":5,"attributeName":"country","attributeValue":"United Arab Emirates","languageId":2,"languageName":"en","statusId":1,"statusName":"active"},{"attributeId":9,"attributeName":"name","attributeValue":"Martin","languageId":2,"languageName":"en","statusId":1,"statusName":"active"},{"attributeId":10,"attributeName":"surname","attributeValue":"Wennerby","languageId":2,"languageName":"en","statusId":1,"statusName":"active"},{"attributeId":14,"attributeName":"email","attributeValue":"me_legoland@wennerby.com","languageId":2,"languageName":"en","statusId":1,"statusName":"active"},{"attributeId":100001,"attributeName":"msisdn","attributeValue":"+97156-6558683","languageId":2,"languageName":"en","statusId":1,"statusName":"active"},{"attributeId":100003,"attributeName":"customerNumber","attributeValue":"CON-20161028-0001","languageId":2,"languageName":"en","statusId":1,"statusName":"active"},{"attributeId":100004,"attributeName":"language","attributeValue":"EN","languageId":2,"languageName":"en","statusId":1,"statusName":"active"},{"attributeId":100013,"attributeName":"NL_LEGOLAND","attributeValue":"True","languageId":2,"languageName":"en","statusId":1,"statusName":"active"},{"attributeId":100014,"attributeName":"NL_RIVERLAND","attributeValue":"True","languageId":2,"languageName":"en","statusId":1,"statusName":"active"},{"attributeId":100015,"attributeName":"NL_GENERAL_COMMUNICATION","attributeValue":"False","languageId":2,"languageName":"en","statusId":1,"statusName":"active"},{"attributeId":100018,"attributeName":"NL_BOLLIWOOD_PARK","attributeValue":"True","languageId":2,"languageName":"en","statusId":1,"statusName":"active"},{"attributeId":100019,"attributeName":"NL_MOTIONGATE","attributeValue":"True","languageId":2,"languageName":"en","statusId":1,"statusName":"active"},{"attributeId":100020,"attributeName":"NL_DUBAI_PARK_AND_RESORT","attributeValue":"True","languageId":2,"languageName":"en","statusId":1,"statusName":"active"}]}}]},"resultCode":"0"}
05.11.2016 9:18:06 +0100 10.0.32.247 Login status: 200
05.11.2016 9:55:01 +0100 10.0.32.247 TOKEN ricevuto, cache creata
05.11.2016 10:00:20 +0100 10.0.32.247 Login req: {
            "languageId":"2",
            "transactionId": "14783364191545409916",
            "tenant":"1",
            "profileAttributeFlag":true,
            "externalIdList": {
                "externalIds": [
                    {
                    "externalId" : "luckyahmedktc@gmail.com"
                    }
                ]
             }
            }
05.11.2016 10:00:20 +0100 10.0.32.247 Login token: a72e3e552681916e4522d59891f83093
05.11.2016 10:00:20 +0100 10.0.32.247 Login response: {"transactionId":"14783364191545409916","userRetrievedList":{"users":[{"id":5066,"description":"luckyahmedktc@gmail.com","parentBusinessUserId":2,"statusId":1,"roleTypeId":2,"defaultLanguageId":2,"userExternalIdList":{"externalIds":[{"externalId":"luckyahmedktc@gmail.com","defaultFlag":1,"type":"email","statusId":1}]},"userAttributeList":{"attributeValues":[{"attributeId":9,"attributeName":"name","attributeValue":"MUHAMMAD","languageId":2,"languageName":"en","statusId":1,"statusName":"active"},{"attributeId":10,"attributeName":"surname","attributeValue":"AHMED","languageId":2,"languageName":"en","statusId":1,"statusName":"active"},{"attributeId":14,"attributeName":"email","attributeValue":"luckyahmedktc@gmail.com","languageId":2,"languageName":"en","statusId":1,"statusName":"active"},{"attributeId":100003,"attributeName":"customerNumber","attributeValue":"CON-20161105-0040","languageId":2,"languageName":"en","statusId":1,"statusName":"active"},{"attributeId":100004,"attributeName":"language","attributeValue":"EN","languageId":2,"languageName":"en","statusId":1,"statusName":"active"},{"attributeId":100020,"attributeName":"NL_DUBAI_PARK_AND_RESORT","attributeValue":"true","languageId":2,"languageName":"en","statusId":1,"statusName":"active"}]}}]},"resultCode":"0"}
05.11.2016 10:00:20 +0100 10.0.32.247 Login status: 200
05.11.2016 10:01:32 +0100 10.0.32.247 Login req: {
            "languageId":"2",
            "transactionId": "1478336492169390664",
            "tenant":"1",
            "profileAttributeFlag":true,
            "externalIdList": {
                "externalIds": [
                    {
                    "externalId" : "10207528688078479"
                    }
                ]
             }
            }
05.11.2016 10:01:32 +0100 10.0.32.247 Login token: 8b4576c76ec877d4647c3323bf2339d6
05.11.2016 10:01:32 +0100 10.0.32.247 Login response: {"transactionId":"1478336492169390664","userRetrievedList":{"users":[{"id":5067,"description":"10207528688078479","parentBusinessUserId":2,"statusId":1,"roleTypeId":2,"defaultLanguageId":2,"userExternalIdList":{"externalIds":[{"externalId":"10207528688078479","defaultFlag":1,"type":"socialID","statusId":1}]},"userAttributeList":{"attributeValues":[{"attributeId":9,"attributeName":"name","attributeValue":"Ateeq","languageId":2,"languageName":"en","statusId":1,"statusName":"active"},{"attributeId":10,"attributeName":"surname","attributeValue":"Rehaman","languageId":2,"languageName":"en","statusId":1,"statusName":"active"},{"attributeId":14,"attributeName":"email","attributeValue":"ateeq0202@yahoo.com","languageId":2,"languageName":"en","statusId":1,"statusName":"active"},{"attributeId":100004,"attributeName":"language","attributeValue":"en","languageId":2,"languageName":"en","statusId":1,"statusName":"active"}]}}]},"resultCode":"0"}
05.11.2016 10:01:32 +0100 10.0.32.247 Login status: 200
05.11.2016 10:14:57 +0100 10.0.32.247 Login req: {
            "languageId":"2",
            "transactionId": "14783372971379256316",
            "tenant":"1",
            "profileAttributeFlag":true,
            "externalIdList": {
                "externalIds": [
                    {
                    "externalId" : "1443185909044526"
                    }
                ]
             }
            }
05.11.2016 10:14:57 +0100 10.0.32.247 Login token: 8fa38ea1b7831015e4d7dab1b46559f
05.11.2016 10:14:57 +0100 10.0.32.247 Login response: {"transactionId":"14783372971379256316","userRetrievedList":{"users":[{"id":5068,"description":"1443185909044526","parentBusinessUserId":2,"statusId":1,"roleTypeId":2,"defaultLanguageId":2,"userExternalIdList":{"externalIds":[{"externalId":"1443185909044526","defaultFlag":1,"type":"socialID","statusId":1}]},"userAttributeList":{"attributeValues":[{"attributeId":9,"attributeName":"name","attributeValue":"Mohammed","languageId":2,"languageName":"en","statusId":1,"statusName":"active"},{"attributeId":10,"attributeName":"surname","attributeValue":"Al Mohsen","languageId":2,"languageName":"en","statusId":1,"statusName":"active"},{"attributeId":14,"attributeName":"email","attributeValue":"maam3003@hotmail.com","languageId":2,"languageName":"en","statusId":1,"statusName":"active"},{"attributeId":100004,"attributeName":"language","attributeValue":"en","languageId":2,"languageName":"en","statusId":1,"statusName":"active"}]}}]},"resultCode":"0"}
05.11.2016 10:14:57 +0100 10.0.32.247 Login status: 200
05.11.2016 10:55:05 +0100 10.0.32.247 TOKEN ricevuto, cache creata
05.11.2016 11:55:12 +0100 10.0.32.247 TOKEN ricevuto, cache creata
05.11.2016 11:57:17 +0100 10.0.32.247 TOKEN expired => RENEWING. Server response =>401
05.11.2016 11:57:17 +0100 10.0.32.247 RENEWING token
05.11.2016 11:57:17 +0100 10.0.32.247 RENEW TOKEN RESULT =>200 || b477541cdce1fa8f14cf8fe34fc1f244
05.11.2016 12:31:49 +0100 10.0.32.247 Login req: {
            "languageId":"2",
            "transactionId": "14783455091079912001",
            "tenant":"1",
            "profileAttributeFlag":true,
            "externalIdList": {
                "externalIds": [
                    {
                    "externalId" : "alruqum@hotmail.com"
                    }
                ]
             }
            }
05.11.2016 12:31:49 +0100 10.0.32.247 Login token: ef5d1d8e7c2ea9e112cc93b8475dab2c
05.11.2016 12:31:49 +0100 10.0.32.247 Login response: {"transactionId":"14783455091079912001","userRetrievedList":{"users":[{"id":5072,"description":"alruqum@hotmail.com","parentBusinessUserId":2,"statusId":1,"roleTypeId":2,"defaultLanguageId":2,"userExternalIdList":{"externalIds":[{"externalId":"alruqum@hotmail.com","defaultFlag":1,"type":"email","statusId":1}]},"userAttributeList":{"attributeValues":[{"attributeId":9,"attributeName":"name","attributeValue":"abdullah","languageId":2,"languageName":"en","statusId":1,"statusName":"active"},{"attributeId":10,"attributeName":"surname","attributeValue":"alruqum","languageId":2,"languageName":"en","statusId":1,"statusName":"active"},{"attributeId":14,"attributeName":"email","attributeValue":"alruqum@hotmail.com","languageId":2,"languageName":"en","statusId":1,"statusName":"active"},{"attributeId":100003,"attributeName":"customerNumber","attributeValue":"CON-20161105-0051","languageId":2,"languageName":"en","statusId":1,"statusName":"active"},{"attributeId":100004,"attributeName":"language","attributeValue":"EN","languageId":2,"languageName":"en","statusId":1,"statusName":"active"},{"attributeId":100013,"attributeName":"NL_LEGOLAND","attributeValue":"False","languageId":2,"languageName":"en","statusId":1,"statusName":"active"},{"attributeId":100014,"attributeName":"NL_RIVERLAND","attributeValue":"False","languageId":2,"languageName":"en","statusId":1,"statusName":"active"},{"attributeId":100015,"attributeName":"NL_GENERAL_COMMUNICATION","attributeValue":"False","languageId":2,"languageName":"en","statusId":1,"statusName":"active"},{"attributeId":100018,"attributeName":"NL_BOLLIWOOD_PARK","attributeValue":"False","languageId":2,"languageName":"en","statusId":1,"statusName":"active"},{"attributeId":100019,"attributeName":"NL_MOTIONGATE","attributeValue":"False","languageId":2,"languageName":"en","statusId":1,"statusName":"active"},{"attributeId":100020,"attributeName":"NL_DUBAI_PARK_AND_RESORT","attributeValue":"True","languageId":2,"languageName":"en","statusId":1,"statusName":"active"}]}}]},"resultCode":"0"}
05.11.2016 12:31:49 +0100 10.0.32.247 Login status: 200
05.11.2016 12:57:34 +0100 10.0.32.247 TOKEN ricevuto, cache creata
05.11.2016 12:57:41 +0100 10.0.32.247 TOKEN ricevuto, cache creata
05.11.2016 13:57:46 +0100 10.0.32.247 TOKEN ricevuto, cache creata
05.11.2016 13:58:02 +0100 10.0.32.247 TOKEN ricevuto, cache creata
05.11.2016 14:58:07 +0100 10.0.32.247 TOKEN ricevuto, cache creata
05.11.2016 15:58:28 +0100 10.0.32.247 TOKEN ricevuto, cache creata
05.11.2016 16:58:30 +0100 10.0.32.247 TOKEN ricevuto, cache creata
05.11.2016 16:58:39 +0100 10.0.32.247 TOKEN ricevuto, cache creata
05.11.2016 16:58:39 +0100 10.0.32.247 TOKEN ricevuto, cache creata
05.11.2016 16:58:40 +0100 10.0.32.247 TOKEN ricevuto, cache creata
05.11.2016 16:58:40 +0100 10.0.32.247 TOKEN ricevuto, cache creata
05.11.2016 17:58:52 +0100 10.0.32.247 TOKEN ricevuto, cache creata
05.11.2016 18:00:58 +0100 10.0.32.247 TOKEN expired => RENEWING. Server response =>401
05.11.2016 18:00:58 +0100 10.0.32.247 RENEWING token
05.11.2016 18:00:58 +0100 10.0.32.247 RENEW TOKEN RESULT =>200 || 89685fa61f86d8fd2b83bbefc8832fd8
05.11.2016 19:00:38 +0100 10.0.32.247 TOKEN expired => RENEWING. Server response =>401
05.11.2016 19:00:38 +0100 10.0.32.247 RENEWING token
05.11.2016 19:00:38 +0100 10.0.32.247 RENEW TOKEN RESULT =>200 || c9fbae8102b8527d0c4aa35ef1621b
05.11.2016 19:29:57 +0100 10.0.32.247 Login req: {
            "languageId":"2",
            "transactionId": "14783705971525822147",
            "tenant":"1",
            "profileAttributeFlag":true,
            "externalIdList": {
                "externalIds": [
                    {
                    "externalId" : "dudumela@yahoo.com"
                    }
                ]
             }
            }
05.11.2016 19:29:57 +0100 10.0.32.247 Login token: 42c6989e3314cca6525d91f1b1caacb7
05.11.2016 19:29:57 +0100 10.0.32.247 Login response: {"transactionId":"14783705971525822147","userRetrievedList":{"users":[{"id":5075,"description":"dudumela@yahoo.com","parentBusinessUserId":2,"statusId":1,"roleTypeId":2,"defaultLanguageId":2,"userExternalIdList":{"externalIds":[{"externalId":"dudumela@yahoo.com","defaultFlag":1,"type":"email","statusId":1}]},"userAttributeList":{"attributeValues":[{"attributeId":9,"attributeName":"name","attributeValue":"Olufunso ","languageId":2,"languageName":"en","statusId":1,"statusName":"active"},{"attributeId":10,"attributeName":"surname","attributeValue":"Sogbanmu ","languageId":2,"languageName":"en","statusId":1,"statusName":"active"},{"attributeId":14,"attributeName":"email","attributeValue":"dudumela@yahoo.com","languageId":2,"languageName":"en","statusId":1,"statusName":"active"},{"attributeId":100003,"attributeName":"customerNumber","attributeValue":"CON-20161105-0084","languageId":2,"languageName":"en","statusId":1,"statusName":"active"},{"attributeId":100004,"attributeName":"language","attributeValue":"EN","languageId":2,"languageName":"en","statusId":1,"statusName":"active"},{"attributeId":100013,"attributeName":"NL_LEGOLAND","attributeValue":"False","languageId":2,"languageName":"en","statusId":1,"statusName":"active"},{"attributeId":100014,"attributeName":"NL_RIVERLAND","attributeValue":"False","languageId":2,"languageName":"en","statusId":1,"statusName":"active"},{"attributeId":100015,"attributeName":"NL_GENERAL_COMMUNICATION","attributeValue":"False","languageId":2,"languageName":"en","statusId":1,"statusName":"active"},{"attributeId":100018,"attributeName":"NL_BOLLIWOOD_PARK","attributeValue":"False","languageId":2,"languageName":"en","statusId":1,"statusName":"active"},{"attributeId":100019,"attributeName":"NL_MOTIONGATE","attributeValue":"False","languageId":2,"languageName":"en","statusId":1,"statusName":"active"},{"attributeId":100020,"attributeName":"NL_DUBAI_PARK_AND_RESORT","attributeValue":"True","languageId":2,"languageName":"en","statusId":1,"statusName":"active"}]}}]},"resultCode":"0"}
05.11.2016 19:29:57 +0100 10.0.32.247 Login status: 200
05.11.2016 19:49:58 +0100 10.0.32.247 Login req: {
            "languageId":"2",
            "transactionId": "14783717981832046333",
            "tenant":"1",
            "profileAttributeFlag":true,
            "externalIdList": {
                "externalIds": [
                    {
                    "externalId" : "f555777f@hotmail.com"
                    }
                ]
             }
            }
05.11.2016 19:49:58 +0100 10.0.32.247 Login token: cc76c2aac2137ba9d0c479e0f084525e
05.11.2016 19:49:58 +0100 10.0.32.247 Login response: {"transactionId":"14783717981832046333","userRetrievedList":{"users":[{"id":5076,"description":"f555777f@hotmail.com","parentBusinessUserId":2,"statusId":1,"roleTypeId":2,"defaultLanguageId":2,"userExternalIdList":{"externalIds":[{"externalId":"f555777f@hotmail.com","defaultFlag":1,"type":"email","statusId":1}]},"userAttributeList":{"attributeValues":[{"attributeId":9,"attributeName":"name","attributeValue":"Faisal","languageId":2,"languageName":"en","statusId":1,"statusName":"active"},{"attributeId":10,"attributeName":"surname","attributeValue":"Almutairi","languageId":2,"languageName":"en","statusId":1,"statusName":"active"},{"attributeId":14,"attributeName":"email","attributeValue":"f555777f@hotmail.com","languageId":2,"languageName":"en","statusId":1,"statusName":"active"},{"attributeId":100003,"attributeName":"customerNumber","attributeValue":"CON-20161105-0085","languageId":2,"languageName":"en","statusId":1,"statusName":"active"},{"attributeId":100004,"attributeName":"language","attributeValue":"AR","languageId":2,"languageName":"en","statusId":1,"statusName":"active"},{"attributeId":100013,"attributeName":"NL_LEGOLAND","attributeValue":"False","languageId":2,"languageName":"en","statusId":1,"statusName":"active"},{"attributeId":100014,"attributeName":"NL_RIVERLAND","attributeValue":"False","languageId":2,"languageName":"en","statusId":1,"statusName":"active"},{"attributeId":100015,"attributeName":"NL_GENERAL_COMMUNICATION","attributeValue":"False","languageId":2,"languageName":"en","statusId":1,"statusName":"active"},{"attributeId":100018,"attributeName":"NL_BOLLIWOOD_PARK","attributeValue":"False","languageId":2,"languageName":"en","statusId":1,"statusName":"active"},{"attributeId":100019,"attributeName":"NL_MOTIONGATE","attributeValue":"False","languageId":2,"languageName":"en","statusId":1,"statusName":"active"},{"attributeId":100020,"attributeName":"NL_DUBAI_PARK_AND_RESORT","attributeValue":"False","languageId":2,"languageName":"en","statusId":1,"statusName":"active"}]}}]},"resultCode":"0"}
05.11.2016 19:49:58 +0100 10.0.32.247 Login status: 200
05.11.2016 20:00:46 +0100 10.0.32.247 TOKEN ricevuto, cache creata
05.11.2016 20:00:47 +0100 10.0.32.247 TOKEN ricevuto, cache creata
05.11.2016 20:17:45 +0100 10.0.32.247 Login req: {
            "languageId":"2",
            "transactionId": "14783734651237278330",
            "tenant":"1",
            "profileAttributeFlag":true,
            "externalIdList": {
                "externalIds": [
                    {
                    "externalId" : "10209656634673292"
                    }
                ]
             }
            }
05.11.2016 20:17:45 +0100 10.0.32.247 Login token: 71e5543bf83467f1c4b56bd9ada6e27c
05.11.2016 20:17:45 +0100 10.0.32.247 Login response: {"transactionId":"14783734651237278330","userRetrievedList":{"users":[{"id":3664,"description":"10209656634673292","parentBusinessUserId":2,"statusId":1,"roleTypeId":2,"defaultLanguageId":2,"userExternalIdList":{"externalIds":[{"externalId":"10209656634673292","defaultFlag":1,"type":"socialID","statusId":1}]},"userAttributeList":{"attributeValues":[{"attributeId":9,"attributeName":"name","attributeValue":"Faten","languageId":2,"languageName":"en","statusId":1,"statusName":"active"},{"attributeId":10,"attributeName":"surname","attributeValue":"Helail","languageId":2,"languageName":"en","statusId":1,"statusName":"active"},{"attributeId":14,"attributeName":"email","attributeValue":"faten_m_h@yahoo.com","languageId":2,"languageName":"en","statusId":1,"statusName":"active"},{"attributeId":100003,"attributeName":"customerNumber","attributeValue":"CON-20160915-0018","languageId":2,"languageName":"en","statusId":1,"statusName":"active"},{"attributeId":100004,"attributeName":"language","attributeValue":"en","languageId":2,"languageName":"en","statusId":1,"statusName":"active"}]}}]},"resultCode":"0"}
05.11.2016 20:17:45 +0100 10.0.32.247 Login status: 200
05.11.2016 20:44:16 +0100 10.0.32.247 Login req: {
            "languageId":"2",
            "transactionId": "14783750561979376984",
            "tenant":"1",
            "profileAttributeFlag":true,
            "externalIdList": {
                "externalIds": [
                    {
                    "externalId" : "10211093519274760"
                    }
                ]
             }
            }
05.11.2016 20:44:16 +0100 10.0.32.247 Login token: 4e5a9d9e8f9cfb86269aa7442364f087
05.11.2016 20:44:16 +0100 10.0.32.247 Login response: {"transactionId":"14783750561979376984","userRetrievedList":{"users":[{"id":5078,"description":"10211093519274760","parentBusinessUserId":2,"statusId":1,"roleTypeId":2,"defaultLanguageId":2,"userExternalIdList":{"externalIds":[{"externalId":"10211093519274760","defaultFlag":1,"type":"socialID","statusId":1}]},"userAttributeList":{"attributeValues":[{"attributeId":9,"attributeName":"name","attributeValue":"\u0641\u0647\u062f","languageId":2,"languageName":"en","statusId":1,"statusName":"active"},{"attributeId":10,"attributeName":"surname","attributeValue":"\u0627\u0644\u0628\u0631\u0627\u0643","languageId":2,"languageName":"en","statusId":1,"statusName":"active"},{"attributeId":14,"attributeName":"email","attributeValue":"fo_11@hotmail.com","languageId":2,"languageName":"en","statusId":1,"statusName":"active"},{"attributeId":100004,"attributeName":"language","attributeValue":"ar","languageId":2,"languageName":"en","statusId":1,"statusName":"active"}]}}]},"resultCode":"0"}
05.11.2016 20:44:16 +0100 10.0.32.247 Login status: 200
05.11.2016 21:00:48 +0100 10.0.32.247 TOKEN ricevuto, cache creata
05.11.2016 21:22:13 +0100 10.0.32.247 Login req: {
            "languageId":"2",
            "transactionId": "1478377333628996065",
            "tenant":"1",
            "profileAttributeFlag":true,
            "externalIdList": {
                "externalIds": [
                    {
                    "externalId" : "Ibn_jahwar1404@hotmail.com"
                    }
                ]
             }
            }
05.11.2016 21:22:13 +0100 10.0.32.247 Login token: f9cadebeb46678adbd5f429c5cf8d90
05.11.2016 21:22:13 +0100 10.0.32.247 Login response: {"transactionId":"1478377333628996065","userRetrievedList":{"users":[{"id":5079,"description":"ibn_jahwar1404@hotmail.com","parentBusinessUserId":2,"statusId":1,"roleTypeId":2,"defaultLanguageId":2,"userExternalIdList":{"externalIds":[{"externalId":"ibn_jahwar1404@hotmail.com","defaultFlag":1,"type":"email","statusId":1}]},"userAttributeList":{"attributeValues":[{"attributeId":9,"attributeName":"name","attributeValue":"Abdullah","languageId":2,"languageName":"en","statusId":1,"statusName":"active"},{"attributeId":10,"attributeName":"surname","attributeValue":"Aljahwary","languageId":2,"languageName":"en","statusId":1,"statusName":"active"},{"attributeId":14,"attributeName":"email","attributeValue":"ibn_jahwar1404@hotmail.com","languageId":2,"languageName":"en","statusId":1,"statusName":"active"},{"attributeId":100003,"attributeName":"customerNumber","attributeValue":"CON-20161106-0002","languageId":2,"languageName":"en","statusId":1,"statusName":"active"},{"attributeId":100004,"attributeName":"language","attributeValue":"AR","languageId":2,"languageName":"en","statusId":1,"statusName":"active"},{"attributeId":100013,"attributeName":"NL_LEGOLAND","attributeValue":"False","languageId":2,"languageName":"en","statusId":1,"statusName":"active"},{"attributeId":100014,"attributeName":"NL_RIVERLAND","attributeValue":"False","languageId":2,"languageName":"en","statusId":1,"statusName":"active"},{"attributeId":100015,"attributeName":"NL_GENERAL_COMMUNICATION","attributeValue":"False","languageId":2,"languageName":"en","statusId":1,"statusName":"active"},{"attributeId":100018,"attributeName":"NL_BOLLIWOOD_PARK","attributeValue":"False","languageId":2,"languageName":"en","statusId":1,"statusName":"active"},{"attributeId":100019,"attributeName":"NL_MOTIONGATE","attributeValue":"False","languageId":2,"languageName":"en","statusId":1,"statusName":"active"},{"attributeId":100020,"attributeName":"NL_DUBAI_PARK_AND_RESORT","attributeValue":"True","languageId":2,"languageName":"en","statusId":1,"statusName":"active"}]}}]},"resultCode":"0"}
05.11.2016 21:22:13 +0100 10.0.32.247 Login status: 200
05.11.2016 22:00:56 +0100 10.0.32.247 TOKEN ricevuto, cache creata
05.11.2016 23:01:37 +0100 10.0.32.247 TOKEN ricevuto, cache creata