
13.05.2016 0:16:28 +0200 10.0.32.247 TOKEN ricevuto, cache creata
13.05.2016 0:43:52 +0200 10.0.32.247 Login req: {
            "languageId":"2",
            "transactionId": "14630930321731723770",
            "tenant":"1",
            "profileAttributeFlag":true,
            "externalIdList": {
                "externalIds": [
                    {
                    "externalId" : "1399482700077310"
                    }
                ]
             }   
            }
13.05.2016 0:43:52 +0200 10.0.32.247 Login token: cd3edd1236dff9b91cee455cadcf4ca
13.05.2016 0:43:52 +0200 10.0.32.247 Login response: {"transactionId":"14630930321731723770","userRetrievedList":{"users":[{"id":545,"description":"1399482700077310","parentBusinessUserId":2,"statusId":1,"roleTypeId":2,"defaultLanguageId":2,"userExternalIdList":{"externalIds":[{"externalId":"1399482700077310","defaultFlag":1,"type":"socialID","statusId":1}]},"userAttributeList":{"attributeValues":[{"attributeId":9,"attributeName":"name","attributeValue":"Robert","languageId":2,"languageName":"en","statusId":1,"statusName":"active"},{"attributeId":10,"attributeName":"surname","attributeValue":"Rodriguez","languageId":2,"languageName":"en","statusId":1,"statusName":"active"},{"attributeId":14,"attributeName":"email","attributeValue":"demonos20@yahoo.com","languageId":2,"languageName":"en","statusId":1,"statusName":"active"},{"attributeId":100004,"attributeName":"language","attributeValue":"en","languageId":2,"languageName":"en","statusId":1,"statusName":"active"}]}}]},"resultCode":"0"}
13.05.2016 0:43:52 +0200 10.0.32.247 Login status: 200
13.05.2016 1:25:00 +0200 10.0.32.247 TOKEN ricevuto, cache creata
13.05.2016 2:48:31 +0200 10.0.32.247 TOKEN ricevuto, cache creata
13.05.2016 4:05:40 +0200 10.0.32.247 TOKEN ricevuto, cache creata
13.05.2016 4:51:04 +0200 10.0.32.247 TOKEN expired => RENEWING. Server response =>401
13.05.2016 4:51:04 +0200 10.0.32.247 RENEWING token
13.05.2016 4:51:04 +0200 10.0.32.247 RENEW TOKEN RESULT =>200 || 59bb7961b5bbec141e8475236eeea0f6
13.05.2016 4:51:04 +0200 10.0.32.247 error in acapiaccess_getProducts_annualPass: 
13.05.2016 6:01:48 +0200 10.0.32.247 TOKEN ricevuto, cache creata
13.05.2016 6:58:29 +0200 10.0.32.247 TOKEN expired => RENEWING. Server response =>401
13.05.2016 6:58:29 +0200 10.0.32.247 RENEWING token
13.05.2016 6:58:29 +0200 10.0.32.247 RENEW TOKEN RESULT =>200 || ce8e1642a5b8ff673313f9c1f659f8
13.05.2016 6:58:29 +0200 10.0.32.247 error in acapiaccess_getProducts_annualPass: 
13.05.2016 7:58:48 +0200 10.0.32.247 error in acapiaccess_getProducts_annualPass: 
13.05.2016 7:58:56 +0200 10.0.32.247 TOKEN ricevuto, cache creata
13.05.2016 8:20:49 +0200 10.0.32.247 Login req: {
            "languageId":"2",
            "transactionId": "14631204491721941988",
            "tenant":"1",
            "profileAttributeFlag":true,
            "externalIdList": {
                "externalIds": [
                    {
                    "externalId" : "1258115657562281"
                    }
                ]
             }   
            }
13.05.2016 8:20:49 +0200 10.0.32.247 Login token: 28fd91397faa6c85dedfa724f2307dcc
13.05.2016 8:20:49 +0200 10.0.32.247 Login response: {"transactionId":"14631204491721941988","userRetrievedList":{"users":[{"id":546,"description":"1258115657562281","parentBusinessUserId":2,"statusId":1,"roleTypeId":2,"defaultLanguageId":2,"userExternalIdList":{"externalIds":[{"externalId":"1258115657562281","defaultFlag":1,"type":"socialID","statusId":1}]},"userAttributeList":{"attributeValues":[{"attributeId":9,"attributeName":"name","attributeValue":"Shane","languageId":2,"languageName":"en","statusId":1,"statusName":"active"},{"attributeId":10,"attributeName":"surname","attributeValue":"Claudius","languageId":2,"languageName":"en","statusId":1,"statusName":"active"},{"attributeId":14,"attributeName":"email","attributeValue":"coolguyshane@rediffmail.com","languageId":2,"languageName":"en","statusId":1,"statusName":"active"},{"attributeId":100004,"attributeName":"language","attributeValue":"en","languageId":2,"languageName":"en","statusId":1,"statusName":"active"}]}}]},"resultCode":"0"}
13.05.2016 8:20:49 +0200 10.0.32.247 Login status: 200
13.05.2016 9:00:35 +0200 10.0.32.247 TOKEN ricevuto, cache creata
13.05.2016 9:45:18 +0200 10.0.32.247 error in acapiaccess_getProducts_annualPass: 
13.05.2016 9:52:01 +0200 10.0.32.247 Login req: {
            "languageId":"2",
            "transactionId": "1463125920450700885",
            "tenant":"1",
            "profileAttributeFlag":true,
            "externalIdList": {
                "externalIds": [
                    {
                    "externalId" : "10156856189840142"
                    }
                ]
             }   
            }
13.05.2016 9:52:01 +0200 10.0.32.247 Login token: 2d865bff44b8c5f494a591d113ec486
13.05.2016 9:52:01 +0200 10.0.32.247 Login response: {"transactionId":"1463125920450700885","userRetrievedList":{"users":[{"id":547,"description":"10156856189840142","parentBusinessUserId":2,"statusId":1,"roleTypeId":2,"defaultLanguageId":2,"userExternalIdList":{"externalIds":[{"externalId":"10156856189840142","defaultFlag":1,"type":"socialID","statusId":1}]},"userAttributeList":{"attributeValues":[{"attributeId":9,"attributeName":"name","attributeValue":"Theresa Anne","languageId":2,"languageName":"en","statusId":1,"statusName":"active"},{"attributeId":10,"attributeName":"surname","attributeValue":"Samson","languageId":2,"languageName":"en","statusId":1,"statusName":"active"},{"attributeId":14,"attributeName":"email","attributeValue":"yabataki11@yahoo.com","languageId":2,"languageName":"en","statusId":1,"statusName":"active"},{"attributeId":100004,"attributeName":"language","attributeValue":"en","languageId":2,"languageName":"en","statusId":1,"statusName":"active"}]}}]},"resultCode":"0"}
13.05.2016 9:52:01 +0200 10.0.32.247 Login status: 200
13.05.2016 10:04:38 +0200 10.0.32.247 TOKEN ricevuto, cache creata
13.05.2016 11:05:02 +0200 10.0.32.247 TOKEN ricevuto, cache creata
13.05.2016 11:54:52 +0200 10.0.32.247 Login req: {
            "languageId":"2",
            "transactionId": "14631332921297997556",
            "tenant":"1",
            "profileAttributeFlag":true,
            "externalIdList": {
                "externalIds": [
                    {
                    "externalId" : "1181417321908297"
                    }
                ]
             }   
            }
13.05.2016 11:54:52 +0200 10.0.32.247 Login token: 2dc48c6186389f7aecbb9496c09880e
13.05.2016 11:54:52 +0200 10.0.32.247 Login response: {"transactionId":"14631332921297997556","userRetrievedList":{"users":[{"id":548,"description":"1181417321908297","parentBusinessUserId":2,"statusId":1,"roleTypeId":2,"defaultLanguageId":2,"userExternalIdList":{"externalIds":[{"externalId":"1181417321908297","defaultFlag":1,"type":"socialID","statusId":1}]},"userAttributeList":{"attributeValues":[{"attributeId":9,"attributeName":"name","attributeValue":"Syed","languageId":2,"languageName":"en","statusId":1,"statusName":"active"},{"attributeId":10,"attributeName":"surname","attributeValue":"Sajjad","languageId":2,"languageName":"en","statusId":1,"statusName":"active"},{"attributeId":14,"attributeName":"email","attributeValue":"susman_sajjad@yahoo.com","languageId":2,"languageName":"en","statusId":1,"statusName":"active"},{"attributeId":100004,"attributeName":"language","attributeValue":"en","languageId":2,"languageName":"en","statusId":1,"statusName":"active"}]}}]},"resultCode":"0"}
13.05.2016 11:54:52 +0200 10.0.32.247 Login status: 200
13.05.2016 12:05:20 +0200 10.0.32.247 TOKEN ricevuto, cache creata
13.05.2016 12:12:40 +0200 10.0.32.247 Login req: {
            "languageId":"2",
            "transactionId": "146313436025833226",
            "tenant":"1",
            "profileAttributeFlag":true,
            "externalIdList": {
                "externalIds": [
                    {
                    "externalId" : "10208974820794559"
                    }
                ]
             }   
            }
13.05.2016 12:12:40 +0200 10.0.32.247 Login token: a6d214cfb027ff777f56acb5f1e2fbb
13.05.2016 12:12:40 +0200 10.0.32.247 Login response: {"transactionId":"146313436025833226","userRetrievedList":{"users":[{"id":372,"description":"10208974820794559","parentBusinessUserId":2,"statusId":1,"roleTypeId":2,"defaultLanguageId":2,"userExternalIdList":{"externalIds":[{"externalId":"10208974820794559","defaultFlag":1,"type":"socialID","statusId":1}]},"userAttributeList":{"attributeValues":[{"attributeId":9,"attributeName":"name","attributeValue":"Federico","languageId":2,"languageName":"en","statusId":1,"statusName":"active"},{"attributeId":10,"attributeName":"surname","attributeValue":"Gasperini","languageId":2,"languageName":"en","statusId":1,"statusName":"active"},{"attributeId":14,"attributeName":"email","attributeValue":"federico.gasperini@gmail.com","languageId":2,"languageName":"en","statusId":1,"statusName":"active"},{"attributeId":100003,"attributeName":"customerNumber","attributeValue":"CON-20160502-0020","languageId":2,"languageName":"en","statusId":1,"statusName":"active"},{"attributeId":100004,"attributeName":"language","attributeValue":"en","languageId":2,"languageName":"en","statusId":1,"statusName":"active"}]}}]},"resultCode":"0"}
13.05.2016 12:12:40 +0200 10.0.32.247 Login status: 200
13.05.2016 12:13:19 +0200 10.0.32.247 Login req: {
            "languageId":"2",
            "transactionId": "1463134399511552291",
            "tenant":"1",
            "profileAttributeFlag":true,
            "externalIdList": {
                "externalIds": [
                    {
                    "externalId" : "10208974820794559"
                    }
                ]
             }   
            }
13.05.2016 12:13:19 +0200 10.0.32.247 Login token: a6d214cfb027ff777f56acb5f1e2fbb
13.05.2016 12:13:19 +0200 10.0.32.247 Login response: {"transactionId":"1463134399511552291","userRetrievedList":{"users":[{"id":372,"description":"10208974820794559","parentBusinessUserId":2,"statusId":1,"roleTypeId":2,"defaultLanguageId":2,"userExternalIdList":{"externalIds":[{"externalId":"10208974820794559","defaultFlag":1,"type":"socialID","statusId":1}]},"userAttributeList":{"attributeValues":[{"attributeId":9,"attributeName":"name","attributeValue":"Federico","languageId":2,"languageName":"en","statusId":1,"statusName":"active"},{"attributeId":10,"attributeName":"surname","attributeValue":"Gasperini","languageId":2,"languageName":"en","statusId":1,"statusName":"active"},{"attributeId":14,"attributeName":"email","attributeValue":"federico.gasperini@gmail.com","languageId":2,"languageName":"en","statusId":1,"statusName":"active"},{"attributeId":100003,"attributeName":"customerNumber","attributeValue":"CON-20160502-0020","languageId":2,"languageName":"en","statusId":1,"statusName":"active"},{"attributeId":100004,"attributeName":"language","attributeValue":"en","languageId":2,"languageName":"en","statusId":1,"statusName":"active"}]}}]},"resultCode":"0"}
13.05.2016 12:13:19 +0200 10.0.32.247 Login status: 200
13.05.2016 12:36:26 +0200 10.0.32.247 Login req: {
            "languageId":"2",
            "transactionId": "1463135786862424796",
            "tenant":"1",
            "profileAttributeFlag":true,
            "externalIdList": {
                "externalIds": [
                    {
                    "externalId" : "10207535436197746"
                    }
                ]
             }   
            }
13.05.2016 12:36:26 +0200 10.0.32.247 Login token: 90f0b524ee6d271acd7e2eeff6ac2d71
13.05.2016 12:36:26 +0200 10.0.32.247 Login response: {"transactionId":"1463135786862424796","userRetrievedList":{"users":[{"id":551,"description":"10207535436197746","parentBusinessUserId":2,"statusId":1,"roleTypeId":2,"defaultLanguageId":2,"userExternalIdList":{"externalIds":[{"externalId":"10207535436197746","defaultFlag":1,"type":"socialID","statusId":1}]},"userAttributeList":{"attributeValues":[{"attributeId":9,"attributeName":"name","attributeValue":"Murat","languageId":2,"languageName":"en","statusId":1,"statusName":"active"},{"attributeId":10,"attributeName":"surname","attributeValue":"Toktosunov","languageId":2,"languageName":"en","statusId":1,"statusName":"active"},{"attributeId":14,"attributeName":"email","attributeValue":"murat@bk.ru","languageId":2,"languageName":"en","statusId":1,"statusName":"active"},{"attributeId":100004,"attributeName":"language","attributeValue":"en","languageId":2,"languageName":"en","statusId":1,"statusName":"active"}]}}]},"resultCode":"0"}
13.05.2016 12:36:26 +0200 10.0.32.247 Login status: 200
13.05.2016 13:05:38 +0200 10.0.32.247 TOKEN ricevuto, cache creata
13.05.2016 13:12:16 +0200 10.0.32.247 Login req: {
            "languageId":"2",
            "transactionId": "14631379361487380303",
            "tenant":"1",
            "profileAttributeFlag":true,
            "externalIdList": {
                "externalIds": [
                    {
                    "externalId" : "1181417321908297"
                    }
                ]
             }   
            }
13.05.2016 13:12:16 +0200 10.0.32.247 Login token: 72e581ef4448df557fa6a1d4b7e7f9b
13.05.2016 13:12:16 +0200 10.0.32.247 Login response: {"transactionId":"14631379361487380303","userRetrievedList":{"users":[{"id":548,"description":"1181417321908297","parentBusinessUserId":2,"statusId":1,"roleTypeId":2,"defaultLanguageId":2,"userExternalIdList":{"externalIds":[{"externalId":"1181417321908297","defaultFlag":1,"type":"socialID","statusId":1}]},"userAttributeList":{"attributeValues":[{"attributeId":9,"attributeName":"name","attributeValue":"Syed","languageId":2,"languageName":"en","statusId":1,"statusName":"active"},{"attributeId":10,"attributeName":"surname","attributeValue":"Sajjad","languageId":2,"languageName":"en","statusId":1,"statusName":"active"},{"attributeId":14,"attributeName":"email","attributeValue":"susman_sajjad@yahoo.com","languageId":2,"languageName":"en","statusId":1,"statusName":"active"},{"attributeId":100003,"attributeName":"customerNumber","attributeValue":"CON-20160513-0007","languageId":2,"languageName":"en","statusId":1,"statusName":"active"},{"attributeId":100004,"attributeName":"language","attributeValue":"en","languageId":2,"languageName":"en","statusId":1,"statusName":"active"}]}}]},"resultCode":"0"}
13.05.2016 13:12:16 +0200 10.0.32.247 Login status: 200
13.05.2016 14:08:20 +0200 10.0.32.247 TOKEN ricevuto, cache creata
13.05.2016 15:12:55 +0200 10.0.32.247 TOKEN ricevuto, cache creata
13.05.2016 16:14:21 +0200 10.0.32.247 TOKEN ricevuto, cache creata
13.05.2016 17:14:22 +0200 10.0.32.247 TOKEN ricevuto, cache creata
13.05.2016 17:23:06 +0200 10.0.32.247 TOKEN expired => RENEWING. Server response =>401
13.05.2016 17:23:06 +0200 10.0.32.247 RENEWING token
13.05.2016 17:23:06 +0200 10.0.32.247 RENEW TOKEN RESULT =>200 || d4733eb13477fcdcd3bdaca2b098ff9
13.05.2016 17:23:06 +0200 10.0.32.247 error in acapiaccess_getProducts_annualPass: 
13.05.2016 18:23:10 +0200 10.0.32.247 TOKEN ricevuto, cache creata
13.05.2016 19:23:52 +0200 10.0.32.247 TOKEN ricevuto, cache creata
13.05.2016 20:23:52 +0200 10.0.32.247 TOKEN ricevuto, cache creata
13.05.2016 21:19:07 +0200 10.0.32.247 Login req: {
            "languageId":"2",
            "transactionId": "1463167147381497849",
            "tenant":"1",
            "profileAttributeFlag":true,
            "externalIdList": {
                "externalIds": [
                    {
                    "externalId" : "10206147588593306"
                    }
                ]
             }   
            }
13.05.2016 21:19:07 +0200 10.0.32.247 Login token: ba6c425fc7f991aaaf8d4b7ea669f
13.05.2016 21:19:07 +0200 10.0.32.247 Login response: {"transactionId":"1463167147381497849","userRetrievedList":{"users":[{"id":555,"description":"10206147588593306","parentBusinessUserId":2,"statusId":1,"roleTypeId":2,"defaultLanguageId":2,"userExternalIdList":{"externalIds":[{"externalId":"10206147588593306","defaultFlag":1,"type":"socialID","statusId":1}]},"userAttributeList":{"attributeValues":[{"attributeId":9,"attributeName":"name","attributeValue":"James Joy","languageId":2,"languageName":"en","statusId":1,"statusName":"active"},{"attributeId":10,"attributeName":"surname","attributeValue":"Amar","languageId":2,"languageName":"en","statusId":1,"statusName":"active"},{"attributeId":14,"attributeName":"email","attributeValue":"ogincorp007@yahoo.com","languageId":2,"languageName":"en","statusId":1,"statusName":"active"},{"attributeId":100004,"attributeName":"language","attributeValue":"en","languageId":2,"languageName":"en","statusId":1,"statusName":"active"}]}}]},"resultCode":"0"}
13.05.2016 21:19:07 +0200 10.0.32.247 Login status: 200
13.05.2016 21:26:53 +0200 10.0.32.247 TOKEN ricevuto, cache creata
13.05.2016 22:34:24 +0200 10.0.32.247 TOKEN ricevuto, cache creata
13.05.2016 23:01:03 +0200 10.0.32.247 Login req: {
            "languageId":"2",
            "transactionId": "1463173263577324646",
            "tenant":"1",
            "profileAttributeFlag":true,
            "externalIdList": {
                "externalIds": [
                    {
                    "externalId" : "srijinsreekantan@gmail.com"
                    }
                ]
             }   
            }
13.05.2016 23:01:03 +0200 10.0.32.247 Login token: 2bafba8b61d26a2f7ab6f712bfd9af
13.05.2016 23:01:03 +0200 10.0.32.247 Login response: {"transactionId":"1463173263577324646","userRetrievedList":{"users":[{"id":556,"description":"SRIJINSREEKANTAN@GMAIL.COM","parentBusinessUserId":2,"statusId":1,"roleTypeId":2,"defaultLanguageId":2,"userExternalIdList":{"externalIds":[{"externalId":"SRIJINSREEKANTAN@GMAIL.COM","defaultFlag":1,"type":"email","statusId":1}]},"userAttributeList":{"attributeValues":[{"attributeId":9,"attributeName":"name","attributeValue":"SRIJIN","languageId":2,"languageName":"en","statusId":1,"statusName":"active"},{"attributeId":10,"attributeName":"surname","attributeValue":"SREEKANTAN","languageId":2,"languageName":"en","statusId":1,"statusName":"active"},{"attributeId":14,"attributeName":"email","attributeValue":"SRIJINSREEKANTAN@GMAIL.COM","languageId":2,"languageName":"en","statusId":1,"statusName":"active"},{"attributeId":100003,"attributeName":"customerNumber","attributeValue":"CON-20160514-0001","languageId":2,"languageName":"en","statusId":1,"statusName":"active"},{"attributeId":100004,"attributeName":"language","attributeValue":"EN","languageId":2,"languageName":"en","statusId":1,"statusName":"active"}]}}]},"resultCode":"0"}
13.05.2016 23:01:03 +0200 10.0.32.247 Login status: 200
13.05.2016 23:40:00 +0200 10.0.32.247 TOKEN ricevuto, cache creata