
24.10.2016 0:01:51 +0200 10.0.32.247 TOKEN expired => RENEWING. Server response =>401
24.10.2016 0:01:51 +0200 10.0.32.247 RENEWING token
24.10.2016 0:01:51 +0200 10.0.32.247 RENEW TOKEN RESULT =>200 || 90e7fee3fa9e9eb6471cc06f57605c
24.10.2016 1:04:56 +0200 10.0.32.247 TOKEN ricevuto, cache creata
24.10.2016 2:04:23 +0200 10.0.32.247 TOKEN expired => RENEWING. Server response =>401
24.10.2016 2:04:23 +0200 10.0.32.247 RENEWING token
24.10.2016 2:04:23 +0200 10.0.32.247 RENEW TOKEN RESULT =>200 || ac7e556327baa46e12a2619259ef217a
24.10.2016 3:05:50 +0200 10.0.32.247 TOKEN ricevuto, cache creata
24.10.2016 3:05:50 +0200 10.0.32.247 TOKEN ricevuto, cache creata
24.10.2016 3:05:50 +0200 10.0.32.247 TOKEN ricevuto, cache creata
24.10.2016 3:05:50 +0200 10.0.32.247 TOKEN ricevuto, cache creata
24.10.2016 4:04:32 +0200 10.0.32.247 TOKEN expired => RENEWING. Server response =>401
24.10.2016 4:04:32 +0200 10.0.32.247 RENEWING token
24.10.2016 4:04:32 +0200 10.0.32.247 RENEW TOKEN RESULT =>200 || 30e4eb3bbf454cfd94b01f62dc1517bf
24.10.2016 5:03:46 +0200 10.0.32.247 TOKEN expired => RENEWING. Server response =>401
24.10.2016 5:03:46 +0200 10.0.32.247 RENEWING token
24.10.2016 5:03:46 +0200 10.0.32.247 RENEW TOKEN RESULT =>200 || f9acba9d32afe75f3644eb3944491
24.10.2016 6:03:44 +0200 10.0.32.247 Login req: {
            "languageId":"2",
            "transactionId": "1477281824323979916",
            "tenant":"1",
            "profileAttributeFlag":true,
            "externalIdList": {
                "externalIds": [
                    {
                    "externalId" : "uae_4x4@hotmail.com"
                    }
                ]
             }
            }
24.10.2016 6:03:44 +0200 10.0.32.247 Login token: 3d675eb6a41d3898b311f5933556f08d
24.10.2016 6:03:44 +0200 10.0.32.247 Login response: {"transactionId":"1477281824323979916","userRetrievedList":{"users":[{"id":4518,"description":"uae_4x4@hotmail.com","parentBusinessUserId":2,"statusId":1,"roleTypeId":2,"defaultLanguageId":2,"userExternalIdList":{"externalIds":[{"externalId":"uae_4x4@hotmail.com","defaultFlag":1,"type":"email","statusId":1}]},"userAttributeList":{"attributeValues":[{"attributeId":9,"attributeName":"name","attributeValue":"RASHID ","languageId":2,"languageName":"en","statusId":1,"statusName":"active"},{"attributeId":10,"attributeName":"surname","attributeValue":"Alsuwaidi","languageId":2,"languageName":"en","statusId":1,"statusName":"active"},{"attributeId":14,"attributeName":"email","attributeValue":"uae_4x4@hotmail.com","languageId":2,"languageName":"en","statusId":1,"statusName":"active"},{"attributeId":100003,"attributeName":"customerNumber","attributeValue":"CON-20161024-0003","languageId":2,"languageName":"en","statusId":1,"statusName":"active"},{"attributeId":100004,"attributeName":"language","attributeValue":"EN","languageId":2,"languageName":"en","statusId":1,"statusName":"active"},{"attributeId":100013,"attributeName":"NL_LEGOLAND","attributeValue":"False","languageId":2,"languageName":"en","statusId":1,"statusName":"active"},{"attributeId":100014,"attributeName":"NL_RIVERLAND","attributeValue":"False","languageId":2,"languageName":"en","statusId":1,"statusName":"active"},{"attributeId":100015,"attributeName":"NL_GENERAL_COMMUNICATION","attributeValue":"False","languageId":2,"languageName":"en","statusId":1,"statusName":"active"},{"attributeId":100018,"attributeName":"NL_BOLLIWOOD_PARK","attributeValue":"False","languageId":2,"languageName":"en","statusId":1,"statusName":"active"},{"attributeId":100019,"attributeName":"NL_MOTIONGATE","attributeValue":"False","languageId":2,"languageName":"en","statusId":1,"statusName":"active"},{"attributeId":100020,"attributeName":"NL_DUBAI_PARK_AND_RESORT","attributeValue":"True","languageId":2,"languageName":"en","statusId":1,"statusName":"active"}]}}]},"resultCode":"0"}
24.10.2016 6:03:44 +0200 10.0.32.247 Login status: 200
24.10.2016 6:03:48 +0200 10.0.32.247 TOKEN ricevuto, cache creata
24.10.2016 6:29:07 +0200 10.0.32.247 Login req: {
            "languageId":"2",
            "transactionId": "14772833471387560575",
            "tenant":"1",
            "profileAttributeFlag":true,
            "externalIdList": {
                "externalIds": [
                    {
                    "externalId" : "uae_4x4@hotmail.com"
                    }
                ]
             }
            }
24.10.2016 6:29:07 +0200 10.0.32.247 Login token: 3d675eb6a41d3898b311f5933556f08d
24.10.2016 6:29:07 +0200 10.0.32.247 Login response: {"transactionId":"14772833471387560575","userRetrievedList":{"users":[{"id":4518,"description":"uae_4x4@hotmail.com","parentBusinessUserId":2,"statusId":1,"roleTypeId":2,"defaultLanguageId":2,"userExternalIdList":{"externalIds":[{"externalId":"uae_4x4@hotmail.com","defaultFlag":1,"type":"email","statusId":1}]},"userAttributeList":{"attributeValues":[{"attributeId":9,"attributeName":"name","attributeValue":"RASHID ","languageId":2,"languageName":"en","statusId":1,"statusName":"active"},{"attributeId":10,"attributeName":"surname","attributeValue":"Alsuwaidi","languageId":2,"languageName":"en","statusId":1,"statusName":"active"},{"attributeId":14,"attributeName":"email","attributeValue":"uae_4x4@hotmail.com","languageId":2,"languageName":"en","statusId":1,"statusName":"active"},{"attributeId":100003,"attributeName":"customerNumber","attributeValue":"CON-20161024-0003","languageId":2,"languageName":"en","statusId":1,"statusName":"active"},{"attributeId":100004,"attributeName":"language","attributeValue":"EN","languageId":2,"languageName":"en","statusId":1,"statusName":"active"},{"attributeId":100013,"attributeName":"NL_LEGOLAND","attributeValue":"False","languageId":2,"languageName":"en","statusId":1,"statusName":"active"},{"attributeId":100014,"attributeName":"NL_RIVERLAND","attributeValue":"False","languageId":2,"languageName":"en","statusId":1,"statusName":"active"},{"attributeId":100015,"attributeName":"NL_GENERAL_COMMUNICATION","attributeValue":"False","languageId":2,"languageName":"en","statusId":1,"statusName":"active"},{"attributeId":100017,"attributeName":"mascotteID","attributeValue":"mascotte8_b.fw","languageId":2,"languageName":"en","statusId":1,"statusName":"active"},{"attributeId":100018,"attributeName":"NL_BOLLIWOOD_PARK","attributeValue":"False","languageId":2,"languageName":"en","statusId":1,"statusName":"active"},{"attributeId":100019,"attributeName":"NL_MOTIONGATE","attributeValue":"False","languageId":2,"languageName":"en","statusId":1,"statusName":"active"},{"attributeId":100020,"attributeName":"NL_DUBAI_PARK_AND_RESORT","attributeValue":"True","languageId":2,"languageName":"en","statusId":1,"statusName":"active"}]}}]},"resultCode":"0"}
24.10.2016 6:29:07 +0200 10.0.32.247 Login status: 200
24.10.2016 6:31:11 +0200 10.0.32.247 Login req: {
            "languageId":"2",
            "transactionId": "14772834711484586784",
            "tenant":"1",
            "profileAttributeFlag":true,
            "externalIdList": {
                "externalIds": [
                    {
                    "externalId" : "samaresh.tarkhad@gmail.com"
                    }
                ]
             }
            }
24.10.2016 6:31:11 +0200 10.0.32.247 Login token: 872f28cec1c1fc55614ce585def8497
24.10.2016 6:31:11 +0200 10.0.32.247 Login response: {"transactionId":"14772834711484586784","userRetrievedList":{"users":[{"id":4345,"description":"samaresh.tarkhad@gmail.com","parentBusinessUserId":2,"statusId":1,"roleTypeId":2,"defaultLanguageId":2,"userExternalIdList":{"externalIds":[{"externalId":"samaresh.tarkhad@gmail.com","defaultFlag":1,"type":"email","statusId":1}]},"userAttributeList":{"attributeValues":[{"attributeId":5,"attributeName":"country","attributeValue":"India","languageId":2,"languageName":"en","statusId":1,"statusName":"active"},{"attributeId":9,"attributeName":"name","attributeValue":"Samaresh","languageId":2,"languageName":"en","statusId":1,"statusName":"active"},{"attributeId":10,"attributeName":"surname","attributeValue":"Tarkhad","languageId":2,"languageName":"en","statusId":1,"statusName":"active"},{"attributeId":14,"attributeName":"email","attributeValue":"samaresh.tarkhad@gmail.com","languageId":2,"languageName":"en","statusId":1,"statusName":"active"},{"attributeId":100001,"attributeName":"msisdn","attributeValue":"+91-9769362873","languageId":2,"languageName":"en","statusId":1,"statusName":"active"},{"attributeId":100003,"attributeName":"customerNumber","attributeValue":"CON-20161016-0029","languageId":2,"languageName":"en","statusId":1,"statusName":"active"},{"attributeId":100004,"attributeName":"language","attributeValue":"en","languageId":2,"languageName":"en","statusId":1,"statusName":"active"},{"attributeId":100013,"attributeName":"NL_LEGOLAND","attributeValue":"True","languageId":2,"languageName":"en","statusId":1,"statusName":"active"},{"attributeId":100014,"attributeName":"NL_RIVERLAND","attributeValue":"False","languageId":2,"languageName":"en","statusId":1,"statusName":"active"},{"attributeId":100015,"attributeName":"NL_GENERAL_COMMUNICATION","attributeValue":"False","languageId":2,"languageName":"en","statusId":1,"statusName":"active"},{"attributeId":100018,"attributeName":"NL_BOLLIWOOD_PARK","attributeValue":"False","languageId":2,"languageName":"en","statusId":1,"statusName":"active"},{"attributeId":100019,"attributeName":"NL_MOTIONGATE","attributeValue":"False","languageId":2,"languageName":"en","statusId":1,"statusName":"active"},{"attributeId":100020,"attributeName":"NL_DUBAI_PARK_AND_RESORT","attributeValue":"True","languageId":2,"languageName":"en","statusId":1,"statusName":"active"}]}}]},"resultCode":"0"}
24.10.2016 6:31:11 +0200 10.0.32.247 Login status: 200
24.10.2016 6:34:38 +0200 10.0.32.247 Login req: {
            "languageId":"2",
            "transactionId": "14772836781176521611",
            "tenant":"1",
            "profileAttributeFlag":true,
            "externalIdList": {
                "externalIds": [
                    {
                    "externalId" : "salbsaidi@gmail.com"
                    }
                ]
             }
            }
24.10.2016 6:34:38 +0200 10.0.32.247 Login token: d953a024a26daaa98cc844742a65096
24.10.2016 6:34:38 +0200 10.0.32.247 Login response: {"transactionId":"14772836781176521611","userRetrievedList":{"users":[{"id":4521,"description":"salbsaidi@gmail.com","parentBusinessUserId":2,"statusId":1,"roleTypeId":2,"defaultLanguageId":2,"userExternalIdList":{"externalIds":[{"externalId":"salbsaidi@gmail.com","defaultFlag":1,"type":"email","statusId":1}]},"userAttributeList":{"attributeValues":[{"attributeId":9,"attributeName":"name","attributeValue":"Saif","languageId":2,"languageName":"en","statusId":1,"statusName":"active"},{"attributeId":10,"attributeName":"surname","attributeValue":"Al Busaidi","languageId":2,"languageName":"en","statusId":1,"statusName":"active"},{"attributeId":14,"attributeName":"email","attributeValue":"salbsaidi@gmail.com","languageId":2,"languageName":"en","statusId":1,"statusName":"active"},{"attributeId":100003,"attributeName":"customerNumber","attributeValue":"CON-20161024-0008","languageId":2,"languageName":"en","statusId":1,"statusName":"active"},{"attributeId":100004,"attributeName":"language","attributeValue":"EN","languageId":2,"languageName":"en","statusId":1,"statusName":"active"},{"attributeId":100013,"attributeName":"NL_LEGOLAND","attributeValue":"False","languageId":2,"languageName":"en","statusId":1,"statusName":"active"},{"attributeId":100014,"attributeName":"NL_RIVERLAND","attributeValue":"False","languageId":2,"languageName":"en","statusId":1,"statusName":"active"},{"attributeId":100015,"attributeName":"NL_GENERAL_COMMUNICATION","attributeValue":"False","languageId":2,"languageName":"en","statusId":1,"statusName":"active"},{"attributeId":100018,"attributeName":"NL_BOLLIWOOD_PARK","attributeValue":"False","languageId":2,"languageName":"en","statusId":1,"statusName":"active"},{"attributeId":100019,"attributeName":"NL_MOTIONGATE","attributeValue":"False","languageId":2,"languageName":"en","statusId":1,"statusName":"active"},{"attributeId":100020,"attributeName":"NL_DUBAI_PARK_AND_RESORT","attributeValue":"True","languageId":2,"languageName":"en","statusId":1,"statusName":"active"}]}}]},"resultCode":"0"}
24.10.2016 6:34:38 +0200 10.0.32.247 Login status: 200
24.10.2016 6:35:24 +0200 10.0.32.247 Login req: {
            "languageId":"2",
            "transactionId": "14772837241847657945",
            "tenant":"1",
            "profileAttributeFlag":true,
            "externalIdList": {
                "externalIds": [
                    {
                    "externalId" : "uae_4x4@hotmail.com"
                    }
                ]
             }
            }
24.10.2016 6:35:24 +0200 10.0.32.247 Login token: 3d675eb6a41d3898b311f5933556f08d
24.10.2016 6:35:24 +0200 10.0.32.247 Login response: {"transactionId":"14772837241847657945","userRetrievedList":{"users":[{"id":4518,"description":"uae_4x4@hotmail.com","parentBusinessUserId":2,"statusId":1,"roleTypeId":2,"defaultLanguageId":2,"userExternalIdList":{"externalIds":[{"externalId":"uae_4x4@hotmail.com","defaultFlag":1,"type":"email","statusId":1}]},"userAttributeList":{"attributeValues":[{"attributeId":9,"attributeName":"name","attributeValue":"RASHID ","languageId":2,"languageName":"en","statusId":1,"statusName":"active"},{"attributeId":10,"attributeName":"surname","attributeValue":"Alsuwaidi","languageId":2,"languageName":"en","statusId":1,"statusName":"active"},{"attributeId":14,"attributeName":"email","attributeValue":"uae_4x4@hotmail.com","languageId":2,"languageName":"en","statusId":1,"statusName":"active"},{"attributeId":100003,"attributeName":"customerNumber","attributeValue":"CON-20161024-0003","languageId":2,"languageName":"en","statusId":1,"statusName":"active"},{"attributeId":100004,"attributeName":"language","attributeValue":"EN","languageId":2,"languageName":"en","statusId":1,"statusName":"active"},{"attributeId":100013,"attributeName":"NL_LEGOLAND","attributeValue":"False","languageId":2,"languageName":"en","statusId":1,"statusName":"active"},{"attributeId":100014,"attributeName":"NL_RIVERLAND","attributeValue":"False","languageId":2,"languageName":"en","statusId":1,"statusName":"active"},{"attributeId":100015,"attributeName":"NL_GENERAL_COMMUNICATION","attributeValue":"False","languageId":2,"languageName":"en","statusId":1,"statusName":"active"},{"attributeId":100017,"attributeName":"mascotteID","attributeValue":"mascotte8_b.fw","languageId":2,"languageName":"en","statusId":1,"statusName":"active"},{"attributeId":100018,"attributeName":"NL_BOLLIWOOD_PARK","attributeValue":"False","languageId":2,"languageName":"en","statusId":1,"statusName":"active"},{"attributeId":100019,"attributeName":"NL_MOTIONGATE","attributeValue":"False","languageId":2,"languageName":"en","statusId":1,"statusName":"active"},{"attributeId":100020,"attributeName":"NL_DUBAI_PARK_AND_RESORT","attributeValue":"True","languageId":2,"languageName":"en","statusId":1,"statusName":"active"}]}}]},"resultCode":"0"}
24.10.2016 6:35:24 +0200 10.0.32.247 Login status: 200
24.10.2016 6:58:39 +0200 10.0.32.247 Login req: {
            "languageId":"2",
            "transactionId": "1477285119764006055",
            "tenant":"1",
            "profileAttributeFlag":true,
            "externalIdList": {
                "externalIds": [
                    {
                    "externalId" : "tj_plastico@yahoo.com"
                    }
                ]
             }
            }
24.10.2016 6:58:39 +0200 10.0.32.247 Login token: 1a334cd28dc3704929acae88a71038
24.10.2016 6:58:39 +0200 10.0.32.247 Login response: {"transactionId":"1477285119764006055","userRetrievedList":{"users":[{"id":4523,"description":"tj_plastico@yahoo.com","parentBusinessUserId":2,"statusId":1,"roleTypeId":2,"defaultLanguageId":2,"userExternalIdList":{"externalIds":[{"externalId":"tj_plastico@yahoo.com","defaultFlag":1,"type":"email","statusId":1}]},"userAttributeList":{"attributeValues":[{"attributeId":9,"attributeName":"name","attributeValue":"Tee Jay","languageId":2,"languageName":"en","statusId":1,"statusName":"active"},{"attributeId":10,"attributeName":"surname","attributeValue":"Plastico","languageId":2,"languageName":"en","statusId":1,"statusName":"active"},{"attributeId":14,"attributeName":"email","attributeValue":"tj_plastico@yahoo.com","languageId":2,"languageName":"en","statusId":1,"statusName":"active"},{"attributeId":100003,"attributeName":"customerNumber","attributeValue":"CON-20161024-0013","languageId":2,"languageName":"en","statusId":1,"statusName":"active"},{"attributeId":100004,"attributeName":"language","attributeValue":"EN","languageId":2,"languageName":"en","statusId":1,"statusName":"active"},{"attributeId":100013,"attributeName":"NL_LEGOLAND","attributeValue":"False","languageId":2,"languageName":"en","statusId":1,"statusName":"active"},{"attributeId":100014,"attributeName":"NL_RIVERLAND","attributeValue":"False","languageId":2,"languageName":"en","statusId":1,"statusName":"active"},{"attributeId":100015,"attributeName":"NL_GENERAL_COMMUNICATION","attributeValue":"False","languageId":2,"languageName":"en","statusId":1,"statusName":"active"},{"attributeId":100018,"attributeName":"NL_BOLLIWOOD_PARK","attributeValue":"False","languageId":2,"languageName":"en","statusId":1,"statusName":"active"},{"attributeId":100019,"attributeName":"NL_MOTIONGATE","attributeValue":"False","languageId":2,"languageName":"en","statusId":1,"statusName":"active"},{"attributeId":100020,"attributeName":"NL_DUBAI_PARK_AND_RESORT","attributeValue":"False","languageId":2,"languageName":"en","statusId":1,"statusName":"active"}]}}]},"resultCode":"0"}
24.10.2016 6:58:39 +0200 10.0.32.247 Login status: 200
24.10.2016 7:04:02 +0200 10.0.32.247 TOKEN ricevuto, cache creata
24.10.2016 8:01:06 +0200 10.0.32.247 Login req: {
            "languageId":"2",
            "transactionId": "14772888661656729147",
            "tenant":"1",
            "profileAttributeFlag":true,
            "externalIdList": {
                "externalIds": [
                    {
                    "externalId" : "sufyan.patel@accenture.com"
                    }
                ]
             }
            }
24.10.2016 8:01:06 +0200 10.0.32.247 Login token: 266554a151b0177e2adebaac201b0
24.10.2016 8:01:06 +0200 10.0.32.247 Login response: {"transactionId":"14772888661656729147","userRetrievedList":{"users":[{"id":30,"description":"sufyan.patel@accenture.com","parentBusinessUserId":2,"statusId":1,"roleTypeId":2,"defaultLanguageId":2,"userExternalIdList":{"externalIds":[{"externalId":"sufyan.patel@accenture.com","defaultFlag":1,"type":"email","statusId":1}]},"userAttributeList":{"attributeValues":[{"attributeId":5,"attributeName":"country","attributeValue":"United Arab Emirates","languageId":2,"languageName":"en","statusId":1,"statusName":"active"},{"attributeId":9,"attributeName":"name","attributeValue":"Sufyan","languageId":2,"languageName":"en","statusId":1,"statusName":"active"},{"attributeId":10,"attributeName":"surname","attributeValue":"Patel","languageId":2,"languageName":"en","statusId":1,"statusName":"active"},{"attributeId":14,"attributeName":"email","attributeValue":"sufyan.patel@accenture.com","languageId":2,"languageName":"en","statusId":1,"statusName":"active"},{"attributeId":49,"attributeName":"city","attributeValue":"Dubai","languageId":2,"languageName":"en","statusId":1,"statusName":"active"},{"attributeId":50,"attributeName":"zipCode","attributeValue":"A12345","languageId":2,"languageName":"en","statusId":1,"statusName":"active"},{"attributeId":108,"attributeName":"address","attributeValue":"Jummeriah Park","languageId":2,"languageName":"en","statusId":1,"statusName":"active"},{"attributeId":100001,"attributeName":"msisdn","attributeValue":"+971-5467222","languageId":2,"languageName":"en","statusId":1,"statusName":"active"},{"attributeId":100002,"attributeName":"birthday","attributeValue":"4\/6\/1971","languageId":2,"languageName":"en","statusId":1,"statusName":"active"},{"attributeId":100003,"attributeName":"customerNumber","attributeValue":"CON-20160422-0013","languageId":2,"languageName":"en","statusId":1,"statusName":"active"},{"attributeId":100004,"attributeName":"language","attributeValue":"EN","languageId":2,"languageName":"en","statusId":1,"statusName":"active"},{"attributeId":100005,"attributeName":"type","attributeValue":"customer","languageId":2,"languageName":"en","statusId":1,"statusName":"active"},{"attributeId":100013,"attributeName":"NL_LEGOLAND","attributeValue":"True","languageId":2,"languageName":"en","statusId":1,"statusName":"active"},{"attributeId":100014,"attributeName":"NL_RIVERLAND","attributeValue":"True","languageId":2,"languageName":"en","statusId":1,"statusName":"active"},{"attributeId":100015,"attributeName":"NL_GENERAL_COMMUNICATION","attributeValue":"False","languageId":2,"languageName":"en","statusId":1,"statusName":"active"},{"attributeId":100017,"attributeName":"mascotteID","attributeValue":"mascotte8_b.fw","languageId":2,"languageName":"en","statusId":1,"statusName":"active"},{"attributeId":100018,"attributeName":"NL_BOLLIWOOD_PARK","attributeValue":"True","languageId":2,"languageName":"en","statusId":1,"statusName":"active"},{"attributeId":100019,"attributeName":"NL_MOTIONGATE","attributeValue":"True","languageId":2,"languageName":"en","statusId":1,"statusName":"active"},{"attributeId":100020,"attributeName":"NL_DUBAI_PARK_AND_RESORT","attributeValue":"True","languageId":2,"languageName":"en","statusId":1,"statusName":"active"}]}}]},"resultCode":"0"}
24.10.2016 8:01:06 +0200 10.0.32.247 Login status: 200
24.10.2016 8:04:38 +0200 10.0.32.247 TOKEN ricevuto, cache creata
24.10.2016 8:20:51 +0200 10.0.32.247 Login req: {
            "languageId":"2",
            "transactionId": "1477290051444854485",
            "tenant":"1",
            "profileAttributeFlag":true,
            "externalIdList": {
                "externalIds": [
                    {
                    "externalId" : "jacob.f.pomperada@gmail.com"
                    }
                ]
             }
            }
24.10.2016 8:20:51 +0200 10.0.32.247 Login token: 51fd7750fd44d2ebc86ed9952ebc63c
24.10.2016 8:20:51 +0200 10.0.32.247 Login response: {"transactionId":"1477290051444854485","userRetrievedList":{"users":[{"id":2309,"description":"jacob.f.pomperada@gmail.com","parentBusinessUserId":2,"statusId":1,"roleTypeId":2,"defaultLanguageId":2,"userExternalIdList":{"externalIds":[{"externalId":"jacob.f.pomperada@gmail.com","defaultFlag":1,"type":"email","statusId":1}]},"userAttributeList":{"attributeValues":[{"attributeId":9,"attributeName":"name","attributeValue":"Jacob","languageId":2,"languageName":"en","statusId":1,"statusName":"active"},{"attributeId":10,"attributeName":"surname","attributeValue":"Pomperada","languageId":2,"languageName":"en","statusId":1,"statusName":"active"},{"attributeId":14,"attributeName":"email","attributeValue":"jacob.f.pomperada@gmail.com","languageId":2,"languageName":"en","statusId":1,"statusName":"active"},{"attributeId":100003,"attributeName":"customerNumber","attributeValue":"CON-20160725-0018","languageId":2,"languageName":"en","statusId":1,"statusName":"active"},{"attributeId":100004,"attributeName":"language","attributeValue":"EN","languageId":2,"languageName":"en","statusId":1,"statusName":"active"},{"attributeId":100013,"attributeName":"NL_LEGOLAND","attributeValue":"False","languageId":2,"languageName":"en","statusId":1,"statusName":"active"},{"attributeId":100014,"attributeName":"NL_RIVERLAND","attributeValue":"False","languageId":2,"languageName":"en","statusId":1,"statusName":"active"},{"attributeId":100015,"attributeName":"NL_GENERAL_COMMUNICATION","attributeValue":"False","languageId":2,"languageName":"en","statusId":1,"statusName":"active"},{"attributeId":100018,"attributeName":"NL_BOLLIWOOD_PARK","attributeValue":"False","languageId":2,"languageName":"en","statusId":1,"statusName":"active"},{"attributeId":100019,"attributeName":"NL_MOTIONGATE","attributeValue":"False","languageId":2,"languageName":"en","statusId":1,"statusName":"active"},{"attributeId":100020,"attributeName":"NL_DUBAI_PARK_AND_RESORT","attributeValue":"False","languageId":2,"languageName":"en","statusId":1,"statusName":"active"}]}}]},"resultCode":"0"}
24.10.2016 8:20:51 +0200 10.0.32.247 Login status: 200
24.10.2016 8:37:42 +0200 10.0.32.247 Login req: {
            "languageId":"2",
            "transactionId": "14772910621452293308",
            "tenant":"1",
            "profileAttributeFlag":true,
            "externalIdList": {
                "externalIds": [
                    {
                    "externalId" : "hesham_g@hotmail.com"
                    }
                ]
             }
            }
24.10.2016 8:37:42 +0200 10.0.32.247 Login token: b059f3cfa1c53c33444b8179b1ce316
24.10.2016 8:37:42 +0200 10.0.32.247 Login response: {"transactionId":"14772910621452293308","userRetrievedList":{"users":[{"id":1192,"description":"hesham_g@hotmail.com","parentBusinessUserId":2,"statusId":1,"roleTypeId":2,"defaultLanguageId":2,"userExternalIdList":{"externalIds":[{"externalId":"hesham_g@hotmail.com","defaultFlag":1,"type":"email","statusId":1}]},"userAttributeList":{"attributeValues":[{"attributeId":5,"attributeName":"country","attributeValue":"United Arab Emirates","languageId":2,"languageName":"en","statusId":1,"statusName":"active"},{"attributeId":9,"attributeName":"name","attributeValue":"Hesham","languageId":2,"languageName":"en","statusId":1,"statusName":"active"},{"attributeId":10,"attributeName":"surname","attributeValue":"Ghaleb","languageId":2,"languageName":"en","statusId":1,"statusName":"active"},{"attributeId":14,"attributeName":"email","attributeValue":"hesham_g@hotmail.com","languageId":2,"languageName":"en","statusId":1,"statusName":"active"},{"attributeId":49,"attributeName":"city","attributeValue":"Dubai","languageId":2,"languageName":"en","statusId":1,"statusName":"active"},{"attributeId":50,"attributeName":"zipCode","attributeValue":"33283","languageId":2,"languageName":"en","statusId":1,"statusName":"active"},{"attributeId":108,"attributeName":"address","attributeValue":"Villa 435","languageId":2,"languageName":"en","statusId":1,"statusName":"active"},{"attributeId":100001,"attributeName":"msisdn","attributeValue":"+971-551098200","languageId":2,"languageName":"en","statusId":1,"statusName":"active"},{"attributeId":100002,"attributeName":"birthday","attributeValue":"3\/15\/1980","languageId":2,"languageName":"en","statusId":1,"statusName":"active"},{"attributeId":100003,"attributeName":"customerNumber","attributeValue":"CON-20160422-0001","languageId":2,"languageName":"en","statusId":1,"statusName":"active"},{"attributeId":100004,"attributeName":"language","attributeValue":"AR","languageId":2,"languageName":"en","statusId":1,"statusName":"active"},{"attributeId":100013,"attributeName":"NL_LEGOLAND","attributeValue":"True","languageId":2,"languageName":"en","statusId":1,"statusName":"active"},{"attributeId":100014,"attributeName":"NL_RIVERLAND","attributeValue":"True","languageId":2,"languageName":"en","statusId":1,"statusName":"active"},{"attributeId":100015,"attributeName":"NL_GENERAL_COMMUNICATION","attributeValue":"False","languageId":2,"languageName":"en","statusId":1,"statusName":"active"},{"attributeId":100018,"attributeName":"NL_BOLLIWOOD_PARK","attributeValue":"True","languageId":2,"languageName":"en","statusId":1,"statusName":"active"},{"attributeId":100019,"attributeName":"NL_MOTIONGATE","attributeValue":"True","languageId":2,"languageName":"en","statusId":1,"statusName":"active"},{"attributeId":100020,"attributeName":"NL_DUBAI_PARK_AND_RESORT","attributeValue":"True","languageId":2,"languageName":"en","statusId":1,"statusName":"active"}]}}]},"resultCode":"0"}
24.10.2016 8:37:42 +0200 10.0.32.247 Login status: 200
24.10.2016 8:40:39 +0200 10.0.32.247 Login req: {
            "languageId":"2",
            "transactionId": "1477291239313663588",
            "tenant":"1",
            "profileAttributeFlag":true,
            "externalIdList": {
                "externalIds": [
                    {
                    "externalId" : "jacob.f.pomperada@gmail.com"
                    }
                ]
             }
            }
24.10.2016 8:40:39 +0200 10.0.32.247 Login token: 51fd7750fd44d2ebc86ed9952ebc63c
24.10.2016 8:40:39 +0200 10.0.32.247 Login response: {"transactionId":"1477291239313663588","userRetrievedList":{"users":[{"id":2309,"description":"jacob.f.pomperada@gmail.com","parentBusinessUserId":2,"statusId":1,"roleTypeId":2,"defaultLanguageId":2,"userExternalIdList":{"externalIds":[{"externalId":"jacob.f.pomperada@gmail.com","defaultFlag":1,"type":"email","statusId":1}]},"userAttributeList":{"attributeValues":[{"attributeId":9,"attributeName":"name","attributeValue":"Jacob","languageId":2,"languageName":"en","statusId":1,"statusName":"active"},{"attributeId":10,"attributeName":"surname","attributeValue":"Pomperada","languageId":2,"languageName":"en","statusId":1,"statusName":"active"},{"attributeId":14,"attributeName":"email","attributeValue":"jacob.f.pomperada@gmail.com","languageId":2,"languageName":"en","statusId":1,"statusName":"active"},{"attributeId":100003,"attributeName":"customerNumber","attributeValue":"CON-20160725-0018","languageId":2,"languageName":"en","statusId":1,"statusName":"active"},{"attributeId":100004,"attributeName":"language","attributeValue":"EN","languageId":2,"languageName":"en","statusId":1,"statusName":"active"},{"attributeId":100013,"attributeName":"NL_LEGOLAND","attributeValue":"False","languageId":2,"languageName":"en","statusId":1,"statusName":"active"},{"attributeId":100014,"attributeName":"NL_RIVERLAND","attributeValue":"False","languageId":2,"languageName":"en","statusId":1,"statusName":"active"},{"attributeId":100015,"attributeName":"NL_GENERAL_COMMUNICATION","attributeValue":"False","languageId":2,"languageName":"en","statusId":1,"statusName":"active"},{"attributeId":100018,"attributeName":"NL_BOLLIWOOD_PARK","attributeValue":"False","languageId":2,"languageName":"en","statusId":1,"statusName":"active"},{"attributeId":100019,"attributeName":"NL_MOTIONGATE","attributeValue":"False","languageId":2,"languageName":"en","statusId":1,"statusName":"active"},{"attributeId":100020,"attributeName":"NL_DUBAI_PARK_AND_RESORT","attributeValue":"False","languageId":2,"languageName":"en","statusId":1,"statusName":"active"}]}}]},"resultCode":"0"}
24.10.2016 8:40:39 +0200 10.0.32.247 Login status: 200
24.10.2016 8:40:51 +0200 10.0.32.247 Login req: {
            "languageId":"2",
            "transactionId": "1477291251364205606",
            "tenant":"1",
            "profileAttributeFlag":true,
            "externalIdList": {
                "externalIds": [
                    {
                    "externalId" : "10153641426414272"
                    }
                ]
             }
            }
24.10.2016 8:40:51 +0200 10.0.32.247 Login token: 1226452f8325a96d865794d9464c317a
24.10.2016 8:40:51 +0200 10.0.32.247 Login response: {"transactionId":"1477291251364205606","userRetrievedList":{"users":[{"id":32,"description":"10153641426414272","parentBusinessUserId":2,"statusId":1,"roleTypeId":2,"defaultLanguageId":2,"userExternalIdList":{"externalIds":[{"externalId":"10153641426414272","defaultFlag":1,"type":"socialID","statusId":1}]},"userAttributeList":{"attributeValues":[{"attributeId":5,"attributeName":"country","attributeValue":"United Arab Emirates","languageId":2,"languageName":"en","statusId":1,"statusName":"active"},{"attributeId":9,"attributeName":"name","attributeValue":"Hesham","languageId":2,"languageName":"en","statusId":1,"statusName":"active"},{"attributeId":10,"attributeName":"surname","attributeValue":"Ghaleb","languageId":2,"languageName":"en","statusId":1,"statusName":"active"},{"attributeId":14,"attributeName":"email","attributeValue":"hesham_g@hotmail.com","languageId":2,"languageName":"en","statusId":1,"statusName":"active"},{"attributeId":49,"attributeName":"city","attributeValue":"Dubai","languageId":2,"languageName":"en","statusId":1,"statusName":"active"},{"attributeId":50,"attributeName":"zipCode","attributeValue":"33283","languageId":2,"languageName":"en","statusId":1,"statusName":"active"},{"attributeId":108,"attributeName":"address","attributeValue":"Villa 435","languageId":2,"languageName":"en","statusId":1,"statusName":"active"},{"attributeId":100001,"attributeName":"msisdn","attributeValue":"+971-551098200","languageId":2,"languageName":"en","statusId":1,"statusName":"active"},{"attributeId":100002,"attributeName":"birthday","attributeValue":"03\/07\/1980","languageId":2,"languageName":"en","statusId":1,"statusName":"active"},{"attributeId":100003,"attributeName":"customerNumber","attributeValue":"CON-20160422-0001","languageId":2,"languageName":"en","statusId":1,"statusName":"active"},{"attributeId":100004,"attributeName":"language","attributeValue":"EN","languageId":2,"languageName":"en","statusId":1,"statusName":"active"},{"attributeId":100005,"attributeName":"type","attributeValue":"customer","languageId":2,"languageName":"en","statusId":1,"statusName":"active"}]}}]},"resultCode":"0"}
24.10.2016 8:40:51 +0200 10.0.32.247 Login status: 200
24.10.2016 8:46:27 +0200 10.0.32.247 Login req: {
            "languageId":"2",
            "transactionId": "1477291587291492261",
            "tenant":"1",
            "profileAttributeFlag":true,
            "externalIdList": {
                "externalIds": [
                    {
                    "externalId" : "10153641426414272"
                    }
                ]
             }
            }
24.10.2016 8:46:27 +0200 10.0.32.247 Login token: 1226452f8325a96d865794d9464c317a
24.10.2016 8:46:27 +0200 10.0.32.247 Login response: {"transactionId":"1477291587291492261","userRetrievedList":{"users":[{"id":32,"description":"10153641426414272","parentBusinessUserId":2,"statusId":1,"roleTypeId":2,"defaultLanguageId":2,"userExternalIdList":{"externalIds":[{"externalId":"10153641426414272","defaultFlag":1,"type":"socialID","statusId":1}]},"userAttributeList":{"attributeValues":[{"attributeId":5,"attributeName":"country","attributeValue":"United Arab Emirates","languageId":2,"languageName":"en","statusId":1,"statusName":"active"},{"attributeId":9,"attributeName":"name","attributeValue":"Hesham","languageId":2,"languageName":"en","statusId":1,"statusName":"active"},{"attributeId":10,"attributeName":"surname","attributeValue":"Ghaleb","languageId":2,"languageName":"en","statusId":1,"statusName":"active"},{"attributeId":14,"attributeName":"email","attributeValue":"hesham_g@hotmail.com","languageId":2,"languageName":"en","statusId":1,"statusName":"active"},{"attributeId":49,"attributeName":"city","attributeValue":"Dubai","languageId":2,"languageName":"en","statusId":1,"statusName":"active"},{"attributeId":50,"attributeName":"zipCode","attributeValue":"33283","languageId":2,"languageName":"en","statusId":1,"statusName":"active"},{"attributeId":108,"attributeName":"address","attributeValue":"Villa 435","languageId":2,"languageName":"en","statusId":1,"statusName":"active"},{"attributeId":100001,"attributeName":"msisdn","attributeValue":"+971-551098200","languageId":2,"languageName":"en","statusId":1,"statusName":"active"},{"attributeId":100002,"attributeName":"birthday","attributeValue":"03\/07\/1980","languageId":2,"languageName":"en","statusId":1,"statusName":"active"},{"attributeId":100003,"attributeName":"customerNumber","attributeValue":"CON-20160422-0001","languageId":2,"languageName":"en","statusId":1,"statusName":"active"},{"attributeId":100004,"attributeName":"language","attributeValue":"EN","languageId":2,"languageName":"en","statusId":1,"statusName":"active"},{"attributeId":100005,"attributeName":"type","attributeValue":"customer","languageId":2,"languageName":"en","statusId":1,"statusName":"active"}]}}]},"resultCode":"0"}
24.10.2016 8:46:27 +0200 10.0.32.247 Login status: 200
24.10.2016 9:04:20 +0200 10.0.32.247 Login req: {
            "languageId":"2",
            "transactionId": "14772926601119396269",
            "tenant":"1",
            "profileAttributeFlag":true,
            "externalIdList": {
                "externalIds": [
                    {
                    "externalId" : "jacob.f.pomperada@gmail.com"
                    }
                ]
             }
            }
24.10.2016 9:04:20 +0200 10.0.32.247 Login token: 51fd7750fd44d2ebc86ed9952ebc63c
24.10.2016 9:04:20 +0200 10.0.32.247 Login response: {"transactionId":"14772926601119396269","userRetrievedList":{"users":[{"id":2309,"description":"jacob.f.pomperada@gmail.com","parentBusinessUserId":2,"statusId":1,"roleTypeId":2,"defaultLanguageId":2,"userExternalIdList":{"externalIds":[{"externalId":"jacob.f.pomperada@gmail.com","defaultFlag":1,"type":"email","statusId":1}]},"userAttributeList":{"attributeValues":[{"attributeId":9,"attributeName":"name","attributeValue":"Jacob","languageId":2,"languageName":"en","statusId":1,"statusName":"active"},{"attributeId":10,"attributeName":"surname","attributeValue":"Pomperada","languageId":2,"languageName":"en","statusId":1,"statusName":"active"},{"attributeId":14,"attributeName":"email","attributeValue":"jacob.f.pomperada@gmail.com","languageId":2,"languageName":"en","statusId":1,"statusName":"active"},{"attributeId":100003,"attributeName":"customerNumber","attributeValue":"CON-20160725-0018","languageId":2,"languageName":"en","statusId":1,"statusName":"active"},{"attributeId":100004,"attributeName":"language","attributeValue":"EN","languageId":2,"languageName":"en","statusId":1,"statusName":"active"},{"attributeId":100013,"attributeName":"NL_LEGOLAND","attributeValue":"False","languageId":2,"languageName":"en","statusId":1,"statusName":"active"},{"attributeId":100014,"attributeName":"NL_RIVERLAND","attributeValue":"False","languageId":2,"languageName":"en","statusId":1,"statusName":"active"},{"attributeId":100015,"attributeName":"NL_GENERAL_COMMUNICATION","attributeValue":"False","languageId":2,"languageName":"en","statusId":1,"statusName":"active"},{"attributeId":100018,"attributeName":"NL_BOLLIWOOD_PARK","attributeValue":"False","languageId":2,"languageName":"en","statusId":1,"statusName":"active"},{"attributeId":100019,"attributeName":"NL_MOTIONGATE","attributeValue":"False","languageId":2,"languageName":"en","statusId":1,"statusName":"active"},{"attributeId":100020,"attributeName":"NL_DUBAI_PARK_AND_RESORT","attributeValue":"False","languageId":2,"languageName":"en","statusId":1,"statusName":"active"}]}}]},"resultCode":"0"}
24.10.2016 9:04:20 +0200 10.0.32.247 Login status: 200
24.10.2016 9:05:39 +0200 10.0.32.247 TOKEN ricevuto, cache creata
24.10.2016 9:25:15 +0200 10.0.32.247 Login req: {
            "languageId":"2",
            "transactionId": "14772939151365700841",
            "tenant":"1",
            "profileAttributeFlag":true,
            "externalIdList": {
                "externalIds": [
                    {
                    "externalId" : "10154667401992269"
                    }
                ]
             }
            }
24.10.2016 9:25:15 +0200 10.0.32.247 Login token: cc63ed413f8923992ccd43dc69d9bb53
24.10.2016 9:25:15 +0200 10.0.32.247 Login response: {"transactionId":"14772939151365700841","userRetrievedList":{"users":[{"id":4528,"description":"10154667401992269","parentBusinessUserId":2,"statusId":1,"roleTypeId":2,"defaultLanguageId":2,"userExternalIdList":{"externalIds":[{"externalId":"10154667401992269","defaultFlag":1,"type":"socialID","statusId":1}]},"userAttributeList":{"attributeValues":[{"attributeId":9,"attributeName":"name","attributeValue":"Brijesh","languageId":2,"languageName":"en","statusId":1,"statusName":"active"},{"attributeId":10,"attributeName":"surname","attributeValue":"Munyal","languageId":2,"languageName":"en","statusId":1,"statusName":"active"},{"attributeId":14,"attributeName":"email","attributeValue":"brijeshmunyal@gmail.com","languageId":2,"languageName":"en","statusId":1,"statusName":"active"},{"attributeId":100004,"attributeName":"language","attributeValue":"en","languageId":2,"languageName":"en","statusId":1,"statusName":"active"}]}}]},"resultCode":"0"}
24.10.2016 9:25:15 +0200 10.0.32.247 Login status: 200
24.10.2016 9:54:04 +0200 10.0.32.247 Login req: {
            "languageId":"2",
            "transactionId": "1477295644818387694",
            "tenant":"1",
            "profileAttributeFlag":true,
            "externalIdList": {
                "externalIds": [
                    {
                    "externalId" : "jacob.f.pomperada@gmail.com"
                    }
                ]
             }
            }
24.10.2016 9:54:04 +0200 10.0.32.247 Login token: e258d05e30beefadf9fbf7a238615f
24.10.2016 9:54:04 +0200 10.0.32.247 Login response: {"transactionId":"1477295644818387694","userRetrievedList":{"users":[{"id":2309,"description":"jacob.f.pomperada@gmail.com","parentBusinessUserId":2,"statusId":1,"roleTypeId":2,"defaultLanguageId":2,"userExternalIdList":{"externalIds":[{"externalId":"jacob.f.pomperada@gmail.com","defaultFlag":1,"type":"email","statusId":1}]},"userAttributeList":{"attributeValues":[{"attributeId":9,"attributeName":"name","attributeValue":"Jacob","languageId":2,"languageName":"en","statusId":1,"statusName":"active"},{"attributeId":10,"attributeName":"surname","attributeValue":"Pomperada","languageId":2,"languageName":"en","statusId":1,"statusName":"active"},{"attributeId":14,"attributeName":"email","attributeValue":"jacob.f.pomperada@gmail.com","languageId":2,"languageName":"en","statusId":1,"statusName":"active"},{"attributeId":100003,"attributeName":"customerNumber","attributeValue":"CON-20160725-0018","languageId":2,"languageName":"en","statusId":1,"statusName":"active"},{"attributeId":100004,"attributeName":"language","attributeValue":"EN","languageId":2,"languageName":"en","statusId":1,"statusName":"active"},{"attributeId":100013,"attributeName":"NL_LEGOLAND","attributeValue":"False","languageId":2,"languageName":"en","statusId":1,"statusName":"active"},{"attributeId":100014,"attributeName":"NL_RIVERLAND","attributeValue":"False","languageId":2,"languageName":"en","statusId":1,"statusName":"active"},{"attributeId":100015,"attributeName":"NL_GENERAL_COMMUNICATION","attributeValue":"False","languageId":2,"languageName":"en","statusId":1,"statusName":"active"},{"attributeId":100018,"attributeName":"NL_BOLLIWOOD_PARK","attributeValue":"False","languageId":2,"languageName":"en","statusId":1,"statusName":"active"},{"attributeId":100019,"attributeName":"NL_MOTIONGATE","attributeValue":"False","languageId":2,"languageName":"en","statusId":1,"statusName":"active"},{"attributeId":100020,"attributeName":"NL_DUBAI_PARK_AND_RESORT","attributeValue":"False","languageId":2,"languageName":"en","statusId":1,"statusName":"active"}]}}]},"resultCode":"0"}
24.10.2016 9:54:04 +0200 10.0.32.247 Login status: 200
24.10.2016 10:00:24 +0200 10.0.32.247 Login req: {
            "languageId":"2",
            "transactionId": "147729602424207458",
            "tenant":"1",
            "profileAttributeFlag":true,
            "externalIdList": {
                "externalIds": [
                    {
                    "externalId" : "jeevan.mahadev@gmail.com"
                    }
                ]
             }
            }
24.10.2016 10:00:24 +0200 10.0.32.247 Login token: 461e797f53bea2ddd0667a35ab988e5
24.10.2016 10:00:24 +0200 10.0.32.247 Login response: {"transactionId":"147729602424207458","userRetrievedList":{"users":[{"id":4534,"description":"jeevan.mahadev@gmail.com","parentBusinessUserId":2,"statusId":1,"roleTypeId":2,"defaultLanguageId":2,"userExternalIdList":{"externalIds":[{"externalId":"jeevan.mahadev@gmail.com","defaultFlag":1,"type":"email","statusId":1}]},"userAttributeList":{"attributeValues":[{"attributeId":9,"attributeName":"name","attributeValue":"Jeevan","languageId":2,"languageName":"en","statusId":1,"statusName":"active"},{"attributeId":10,"attributeName":"surname","attributeValue":"Mahadev","languageId":2,"languageName":"en","statusId":1,"statusName":"active"},{"attributeId":14,"attributeName":"email","attributeValue":"jeevan.mahadev@gmail.com","languageId":2,"languageName":"en","statusId":1,"statusName":"active"},{"attributeId":100003,"attributeName":"customerNumber","attributeValue":"CON-20161024-0033","languageId":2,"languageName":"en","statusId":1,"statusName":"active"},{"attributeId":100004,"attributeName":"language","attributeValue":"EN","languageId":2,"languageName":"en","statusId":1,"statusName":"active"},{"attributeId":100013,"attributeName":"NL_LEGOLAND","attributeValue":"False","languageId":2,"languageName":"en","statusId":1,"statusName":"active"},{"attributeId":100014,"attributeName":"NL_RIVERLAND","attributeValue":"False","languageId":2,"languageName":"en","statusId":1,"statusName":"active"},{"attributeId":100015,"attributeName":"NL_GENERAL_COMMUNICATION","attributeValue":"False","languageId":2,"languageName":"en","statusId":1,"statusName":"active"},{"attributeId":100018,"attributeName":"NL_BOLLIWOOD_PARK","attributeValue":"False","languageId":2,"languageName":"en","statusId":1,"statusName":"active"},{"attributeId":100019,"attributeName":"NL_MOTIONGATE","attributeValue":"False","languageId":2,"languageName":"en","statusId":1,"statusName":"active"},{"attributeId":100020,"attributeName":"NL_DUBAI_PARK_AND_RESORT","attributeValue":"True","languageId":2,"languageName":"en","statusId":1,"statusName":"active"}]}}]},"resultCode":"0"}
24.10.2016 10:00:24 +0200 10.0.32.247 Login status: 200
24.10.2016 10:05:49 +0200 10.0.32.247 TOKEN ricevuto, cache creata
24.10.2016 10:05:54 +0200 10.0.32.247 TOKEN ricevuto, cache creata
24.10.2016 10:13:25 +0200 10.0.32.247 Login req: {
            "languageId":"2",
            "transactionId": "14772968051516112163",
            "tenant":"1",
            "profileAttributeFlag":true,
            "externalIdList": {
                "externalIds": [
                    {
                    "externalId" : "mhycamasis@gmail.com"
                    }
                ]
             }
            }
24.10.2016 10:13:25 +0200 10.0.32.247 Login token: d7f27c251241eda693fc92f24543dd
24.10.2016 10:13:25 +0200 10.0.32.247 Login response: {"transactionId":"14772968051516112163","userRetrievedList":{"users":[{"id":3838,"description":"mhycamasis@gmail.com","parentBusinessUserId":2,"statusId":1,"roleTypeId":2,"defaultLanguageId":2,"userExternalIdList":{"externalIds":[{"externalId":"mhycamasis@gmail.com","defaultFlag":1,"type":"email","statusId":1}]},"userAttributeList":{"attributeValues":[{"attributeId":5,"attributeName":"country","attributeValue":"United Arab Emirates","languageId":2,"languageName":"en","statusId":1,"statusName":"active"},{"attributeId":9,"attributeName":"name","attributeValue":"Mylene Jezel","languageId":2,"languageName":"en","statusId":1,"statusName":"active"},{"attributeId":10,"attributeName":"surname","attributeValue":"Bustos","languageId":2,"languageName":"en","statusId":1,"statusName":"active"},{"attributeId":14,"attributeName":"email","attributeValue":"mhycamasis@gmail.com","languageId":2,"languageName":"en","statusId":1,"statusName":"active"},{"attributeId":100001,"attributeName":"msisdn","attributeValue":"+971-562065684","languageId":2,"languageName":"en","statusId":1,"statusName":"active"},{"attributeId":100003,"attributeName":"customerNumber","attributeValue":"CON-20160920-0036","languageId":2,"languageName":"en","statusId":1,"statusName":"active"},{"attributeId":100004,"attributeName":"language","attributeValue":"EN","languageId":2,"languageName":"en","statusId":1,"statusName":"active"},{"attributeId":100013,"attributeName":"NL_LEGOLAND","attributeValue":"False","languageId":2,"languageName":"en","statusId":1,"statusName":"active"},{"attributeId":100014,"attributeName":"NL_RIVERLAND","attributeValue":"False","languageId":2,"languageName":"en","statusId":1,"statusName":"active"},{"attributeId":100015,"attributeName":"NL_GENERAL_COMMUNICATION","attributeValue":"False","languageId":2,"languageName":"en","statusId":1,"statusName":"active"},{"attributeId":100018,"attributeName":"NL_BOLLIWOOD_PARK","attributeValue":"False","languageId":2,"languageName":"en","statusId":1,"statusName":"active"},{"attributeId":100019,"attributeName":"NL_MOTIONGATE","attributeValue":"False","languageId":2,"languageName":"en","statusId":1,"statusName":"active"},{"attributeId":100020,"attributeName":"NL_DUBAI_PARK_AND_RESORT","attributeValue":"False","languageId":2,"languageName":"en","statusId":1,"statusName":"active"}]}}]},"resultCode":"0"}
24.10.2016 10:13:25 +0200 10.0.32.247 Login status: 200
24.10.2016 11:15:19 +0200 10.0.32.247 TOKEN ricevuto, cache creata
24.10.2016 12:11:05 +0200 10.0.32.247 TOKEN expired => RENEWING. Server response =>401
24.10.2016 12:11:05 +0200 10.0.32.247 RENEWING token
24.10.2016 12:11:05 +0200 10.0.32.247 RENEW TOKEN RESULT =>200 || cb678f6cab314b9f05d0989677307c
24.10.2016 13:10:43 +0200 10.0.32.247 TOKEN expired => RENEWING. Server response =>401
24.10.2016 13:10:43 +0200 10.0.32.247 RENEWING token
24.10.2016 13:10:43 +0200 10.0.32.247 RENEW TOKEN RESULT =>200 || 358dfd5fea7e24b2697438c8811971
24.10.2016 13:30:35 +0200 10.0.32.247 Login req: {
            "languageId":"2",
            "transactionId": "14773086351387779430",
            "tenant":"1",
            "profileAttributeFlag":true,
            "externalIdList": {
                "externalIds": [
                    {
                    "externalId" : "jacob.f.pomperada@gmail.com"
                    }
                ]
             }
            }
24.10.2016 13:30:35 +0200 10.0.32.247 Login token: b558efdf79c3f73f0abdb79f7d0beac
24.10.2016 13:30:35 +0200 10.0.32.247 Login response: {"transactionId":"14773086351387779430","userRetrievedList":{"users":[{"id":2309,"description":"jacob.f.pomperada@gmail.com","parentBusinessUserId":2,"statusId":1,"roleTypeId":2,"defaultLanguageId":2,"userExternalIdList":{"externalIds":[{"externalId":"jacob.f.pomperada@gmail.com","defaultFlag":1,"type":"email","statusId":1}]},"userAttributeList":{"attributeValues":[{"attributeId":9,"attributeName":"name","attributeValue":"Jacob","languageId":2,"languageName":"en","statusId":1,"statusName":"active"},{"attributeId":10,"attributeName":"surname","attributeValue":"Pomperada","languageId":2,"languageName":"en","statusId":1,"statusName":"active"},{"attributeId":14,"attributeName":"email","attributeValue":"jacob.f.pomperada@gmail.com","languageId":2,"languageName":"en","statusId":1,"statusName":"active"},{"attributeId":100003,"attributeName":"customerNumber","attributeValue":"CON-20160725-0018","languageId":2,"languageName":"en","statusId":1,"statusName":"active"},{"attributeId":100004,"attributeName":"language","attributeValue":"EN","languageId":2,"languageName":"en","statusId":1,"statusName":"active"},{"attributeId":100013,"attributeName":"NL_LEGOLAND","attributeValue":"False","languageId":2,"languageName":"en","statusId":1,"statusName":"active"},{"attributeId":100014,"attributeName":"NL_RIVERLAND","attributeValue":"False","languageId":2,"languageName":"en","statusId":1,"statusName":"active"},{"attributeId":100015,"attributeName":"NL_GENERAL_COMMUNICATION","attributeValue":"False","languageId":2,"languageName":"en","statusId":1,"statusName":"active"},{"attributeId":100018,"attributeName":"NL_BOLLIWOOD_PARK","attributeValue":"False","languageId":2,"languageName":"en","statusId":1,"statusName":"active"},{"attributeId":100019,"attributeName":"NL_MOTIONGATE","attributeValue":"False","languageId":2,"languageName":"en","statusId":1,"statusName":"active"},{"attributeId":100020,"attributeName":"NL_DUBAI_PARK_AND_RESORT","attributeValue":"False","languageId":2,"languageName":"en","statusId":1,"statusName":"active"}]}}]},"resultCode":"0"}
24.10.2016 13:30:35 +0200 10.0.32.247 Login status: 200
24.10.2016 14:07:15 +0200 10.0.32.247 TOKEN expired => RENEWING. Server response =>401
24.10.2016 14:07:15 +0200 10.0.32.247 RENEWING token
24.10.2016 14:07:15 +0200 10.0.32.247 RENEW TOKEN RESULT =>200 || b010a85b58729924d49cf58482cecad8
24.10.2016 14:23:21 +0200 10.0.32.247 Login req: {
            "languageId":"2",
            "transactionId": "147731180160430576",
            "tenant":"1",
            "profileAttributeFlag":true,
            "externalIdList": {
                "externalIds": [
                    {
                    "externalId" : "jacob.f.pomperada@gmail.com"
                    }
                ]
             }
            }
24.10.2016 14:23:21 +0200 10.0.32.247 Login token: 8b67c7ee1a374b5f57e2b3b153ed9e44
24.10.2016 14:23:21 +0200 10.0.32.247 Login response: {"transactionId":"147731180160430576","userRetrievedList":{"users":[{"id":2309,"description":"jacob.f.pomperada@gmail.com","parentBusinessUserId":2,"statusId":1,"roleTypeId":2,"defaultLanguageId":2,"userExternalIdList":{"externalIds":[{"externalId":"jacob.f.pomperada@gmail.com","defaultFlag":1,"type":"email","statusId":1}]},"userAttributeList":{"attributeValues":[{"attributeId":9,"attributeName":"name","attributeValue":"Jacob","languageId":2,"languageName":"en","statusId":1,"statusName":"active"},{"attributeId":10,"attributeName":"surname","attributeValue":"Pomperada","languageId":2,"languageName":"en","statusId":1,"statusName":"active"},{"attributeId":14,"attributeName":"email","attributeValue":"jacob.f.pomperada@gmail.com","languageId":2,"languageName":"en","statusId":1,"statusName":"active"},{"attributeId":100003,"attributeName":"customerNumber","attributeValue":"CON-20160725-0018","languageId":2,"languageName":"en","statusId":1,"statusName":"active"},{"attributeId":100004,"attributeName":"language","attributeValue":"EN","languageId":2,"languageName":"en","statusId":1,"statusName":"active"},{"attributeId":100013,"attributeName":"NL_LEGOLAND","attributeValue":"False","languageId":2,"languageName":"en","statusId":1,"statusName":"active"},{"attributeId":100014,"attributeName":"NL_RIVERLAND","attributeValue":"False","languageId":2,"languageName":"en","statusId":1,"statusName":"active"},{"attributeId":100015,"attributeName":"NL_GENERAL_COMMUNICATION","attributeValue":"False","languageId":2,"languageName":"en","statusId":1,"statusName":"active"},{"attributeId":100018,"attributeName":"NL_BOLLIWOOD_PARK","attributeValue":"False","languageId":2,"languageName":"en","statusId":1,"statusName":"active"},{"attributeId":100019,"attributeName":"NL_MOTIONGATE","attributeValue":"False","languageId":2,"languageName":"en","statusId":1,"statusName":"active"},{"attributeId":100020,"attributeName":"NL_DUBAI_PARK_AND_RESORT","attributeValue":"False","languageId":2,"languageName":"en","statusId":1,"statusName":"active"}]}}]},"resultCode":"0"}
24.10.2016 14:23:21 +0200 10.0.32.247 Login status: 200
24.10.2016 14:26:07 +0200 10.0.32.247 Login req: {
            "languageId":"2",
            "transactionId": "1477311967586456536",
            "tenant":"1",
            "profileAttributeFlag":true,
            "externalIdList": {
                "externalIds": [
                    {
                    "externalId" : "exportdxb@mail.ru"
                    }
                ]
             }
            }
24.10.2016 14:26:07 +0200 10.0.32.247 Login token: a98dc3ca58a21ca9caecbcf3d6fe33
24.10.2016 14:26:07 +0200 10.0.32.247 Login response: {"transactionId":"1477311967586456536","userRetrievedList":{"users":[{"id":4543,"description":"exportdxb@mail.ru","parentBusinessUserId":2,"statusId":1,"roleTypeId":2,"defaultLanguageId":2,"userExternalIdList":{"externalIds":[{"externalId":"exportdxb@mail.ru","defaultFlag":1,"type":"email","statusId":1}]},"userAttributeList":{"attributeValues":[{"attributeId":9,"attributeName":"name","attributeValue":"Roman","languageId":2,"languageName":"en","statusId":1,"statusName":"active"},{"attributeId":10,"attributeName":"surname","attributeValue":"Bochko","languageId":2,"languageName":"en","statusId":1,"statusName":"active"},{"attributeId":14,"attributeName":"email","attributeValue":"exportdxb@mail.ru","languageId":2,"languageName":"en","statusId":1,"statusName":"active"},{"attributeId":100003,"attributeName":"customerNumber","attributeValue":"CON-20161024-0051","languageId":2,"languageName":"en","statusId":1,"statusName":"active"},{"attributeId":100004,"attributeName":"language","attributeValue":"EN","languageId":2,"languageName":"en","statusId":1,"statusName":"active"},{"attributeId":100013,"attributeName":"NL_LEGOLAND","attributeValue":"True","languageId":2,"languageName":"en","statusId":1,"statusName":"active"},{"attributeId":100014,"attributeName":"NL_RIVERLAND","attributeValue":"False","languageId":2,"languageName":"en","statusId":1,"statusName":"active"},{"attributeId":100015,"attributeName":"NL_GENERAL_COMMUNICATION","attributeValue":"False","languageId":2,"languageName":"en","statusId":1,"statusName":"active"},{"attributeId":100018,"attributeName":"NL_BOLLIWOOD_PARK","attributeValue":"False","languageId":2,"languageName":"en","statusId":1,"statusName":"active"},{"attributeId":100019,"attributeName":"NL_MOTIONGATE","attributeValue":"False","languageId":2,"languageName":"en","statusId":1,"statusName":"active"},{"attributeId":100020,"attributeName":"NL_DUBAI_PARK_AND_RESORT","attributeValue":"True","languageId":2,"languageName":"en","statusId":1,"statusName":"active"}]}}]},"resultCode":"0"}
24.10.2016 14:26:07 +0200 10.0.32.247 Login status: 200
24.10.2016 14:52:55 +0200 10.0.32.247 Login req: {
            "languageId":"2",
            "transactionId": "1477313575717261837",
            "tenant":"1",
            "profileAttributeFlag":true,
            "externalIdList": {
                "externalIds": [
                    {
                    "externalId" : "gorshkov_gv@mail.ru"
                    }
                ]
             }
            }
24.10.2016 14:52:55 +0200 10.0.32.247 Login token: 55a8fc354c8c123c346f84147526890
24.10.2016 14:52:55 +0200 10.0.32.247 Login response: {"transactionId":"1477313575717261837","userRetrievedList":{"users":[{"id":4544,"description":"gorshkov_gv@mail.ru","parentBusinessUserId":2,"statusId":1,"roleTypeId":2,"defaultLanguageId":2,"userExternalIdList":{"externalIds":[{"externalId":"gorshkov_gv@mail.ru","defaultFlag":1,"type":"email","statusId":1}]},"userAttributeList":{"attributeValues":[{"attributeId":9,"attributeName":"name","attributeValue":"German","languageId":2,"languageName":"en","statusId":1,"statusName":"active"},{"attributeId":10,"attributeName":"surname","attributeValue":"Gorshkov","languageId":2,"languageName":"en","statusId":1,"statusName":"active"},{"attributeId":14,"attributeName":"email","attributeValue":"gorshkov_gv@mail.ru","languageId":2,"languageName":"en","statusId":1,"statusName":"active"},{"attributeId":100003,"attributeName":"customerNumber","attributeValue":"CON-20161024-0052","languageId":2,"languageName":"en","statusId":1,"statusName":"active"},{"attributeId":100004,"attributeName":"language","attributeValue":"EN","languageId":2,"languageName":"en","statusId":1,"statusName":"active"},{"attributeId":100013,"attributeName":"NL_LEGOLAND","attributeValue":"False","languageId":2,"languageName":"en","statusId":1,"statusName":"active"},{"attributeId":100014,"attributeName":"NL_RIVERLAND","attributeValue":"False","languageId":2,"languageName":"en","statusId":1,"statusName":"active"},{"attributeId":100015,"attributeName":"NL_GENERAL_COMMUNICATION","attributeValue":"False","languageId":2,"languageName":"en","statusId":1,"statusName":"active"},{"attributeId":100018,"attributeName":"NL_BOLLIWOOD_PARK","attributeValue":"False","languageId":2,"languageName":"en","statusId":1,"statusName":"active"},{"attributeId":100019,"attributeName":"NL_MOTIONGATE","attributeValue":"False","languageId":2,"languageName":"en","statusId":1,"statusName":"active"},{"attributeId":100020,"attributeName":"NL_DUBAI_PARK_AND_RESORT","attributeValue":"True","languageId":2,"languageName":"en","statusId":1,"statusName":"active"}]}}]},"resultCode":"0"}
24.10.2016 14:52:55 +0200 10.0.32.247 Login status: 200
24.10.2016 15:07:22 +0200 10.0.32.247 TOKEN ricevuto, cache creata
24.10.2016 15:34:05 +0200 10.0.32.247 Login req: {
            "languageId":"2",
            "transactionId": "14773160451898562687",
            "tenant":"1",
            "profileAttributeFlag":true,
            "externalIdList": {
                "externalIds": [
                    {
                    "externalId" : "4myexperiment@gmail.com"
                    }
                ]
             }
            }
24.10.2016 15:34:05 +0200 10.0.32.247 Login token: 66a8fc31bb9ec52f8dad1988a962efd
24.10.2016 15:34:05 +0200 10.0.32.247 Login response: {"transactionId":"14773160451898562687","userRetrievedList":{"users":[{"id":247,"description":"4myexperiment@gmail.com","parentBusinessUserId":2,"statusId":1,"roleTypeId":2,"defaultLanguageId":2,"userExternalIdList":{"externalIds":[{"externalId":"4myexperiment@gmail.com","defaultFlag":1,"type":"email","statusId":1}]},"userAttributeList":{"attributeValues":[{"attributeId":9,"attributeName":"name","attributeValue":"my","languageId":2,"languageName":"en","statusId":1,"statusName":"active"},{"attributeId":10,"attributeName":"surname","attributeValue":"experiment","languageId":2,"languageName":"en","statusId":1,"statusName":"active"},{"attributeId":14,"attributeName":"email","attributeValue":"4myexperiment@gmail.com","languageId":2,"languageName":"en","statusId":1,"statusName":"active"},{"attributeId":100003,"attributeName":"customerNumber","attributeValue":"CON-20160427-0018","languageId":2,"languageName":"en","statusId":1,"statusName":"active"},{"attributeId":100004,"attributeName":"language","attributeValue":"EN","languageId":2,"languageName":"en","statusId":1,"statusName":"active"}]}}]},"resultCode":"0"}
24.10.2016 15:34:05 +0200 10.0.32.247 Login status: 200
24.10.2016 15:49:20 +0200 10.0.32.247 Login req: {
            "languageId":"2",
            "transactionId": "1477316960526848463",
            "tenant":"1",
            "profileAttributeFlag":true,
            "externalIdList": {
                "externalIds": [
                    {
                    "externalId" : "reyam.albanna@motiongatedubai.com"
                    }
                ]
             }
            }
24.10.2016 15:49:20 +0200 10.0.32.247 Login token: 9764c32aaa589a2ee718e8aa22aa78f
24.10.2016 15:49:20 +0200 10.0.32.247 Login response: {"transactionId":"1477316960526848463","userRetrievedList":{"users":[{"id":4547,"description":"reyam.albanna@motiongatedubai.com","parentBusinessUserId":2,"statusId":1,"roleTypeId":2,"defaultLanguageId":2,"userExternalIdList":{"externalIds":[{"externalId":"reyam.albanna@motiongatedubai.com","defaultFlag":1,"type":"email","statusId":1}]},"userAttributeList":{"attributeValues":[{"attributeId":9,"attributeName":"name","attributeValue":"Reyam","languageId":2,"languageName":"en","statusId":1,"statusName":"active"},{"attributeId":10,"attributeName":"surname","attributeValue":"Al Banna","languageId":2,"languageName":"en","statusId":1,"statusName":"active"},{"attributeId":14,"attributeName":"email","attributeValue":"reyam.albanna@motiongatedubai.com","languageId":2,"languageName":"en","statusId":1,"statusName":"active"},{"attributeId":100003,"attributeName":"customerNumber","attributeValue":"CON-20161024-0057","languageId":2,"languageName":"en","statusId":1,"statusName":"active"},{"attributeId":100004,"attributeName":"language","attributeValue":"EN","languageId":2,"languageName":"en","statusId":1,"statusName":"active"},{"attributeId":100013,"attributeName":"NL_LEGOLAND","attributeValue":"False","languageId":2,"languageName":"en","statusId":1,"statusName":"active"},{"attributeId":100014,"attributeName":"NL_RIVERLAND","attributeValue":"False","languageId":2,"languageName":"en","statusId":1,"statusName":"active"},{"attributeId":100015,"attributeName":"NL_GENERAL_COMMUNICATION","attributeValue":"False","languageId":2,"languageName":"en","statusId":1,"statusName":"active"},{"attributeId":100018,"attributeName":"NL_BOLLIWOOD_PARK","attributeValue":"False","languageId":2,"languageName":"en","statusId":1,"statusName":"active"},{"attributeId":100019,"attributeName":"NL_MOTIONGATE","attributeValue":"False","languageId":2,"languageName":"en","statusId":1,"statusName":"active"},{"attributeId":100020,"attributeName":"NL_DUBAI_PARK_AND_RESORT","attributeValue":"True","languageId":2,"languageName":"en","statusId":1,"statusName":"active"}]}}]},"resultCode":"0"}
24.10.2016 15:49:20 +0200 10.0.32.247 Login status: 200
24.10.2016 16:08:09 +0200 10.0.32.247 TOKEN ricevuto, cache creata
24.10.2016 16:16:33 +0200 10.0.32.247 Login req: {
            "languageId":"2",
            "transactionId": "14773185931186094553",
            "tenant":"1",
            "profileAttributeFlag":true,
            "externalIdList": {
                "externalIds": [
                    {
                    "externalId" : "juan_delacruz@mailinator.com"
                    }
                ]
             }
            }
24.10.2016 16:16:33 +0200 10.0.32.247 Login token: cc515b9b5c88bf2d4ed843af231964a
24.10.2016 16:16:33 +0200 10.0.32.247 Login response: {"transactionId":"14773185931186094553","userRetrievedList":{"users":[{"id":4548,"description":"juan_delacruz@mailinator.com","parentBusinessUserId":2,"statusId":1,"roleTypeId":2,"defaultLanguageId":2,"userExternalIdList":{"externalIds":[{"externalId":"juan_delacruz@mailinator.com","defaultFlag":1,"type":"email","statusId":1}]},"userAttributeList":{"attributeValues":[{"attributeId":9,"attributeName":"name","attributeValue":"Juan","languageId":2,"languageName":"en","statusId":1,"statusName":"active"},{"attributeId":10,"attributeName":"surname","attributeValue":"Dela Cruz","languageId":2,"languageName":"en","statusId":1,"statusName":"active"},{"attributeId":14,"attributeName":"email","attributeValue":"juan_delacruz@mailinator.com","languageId":2,"languageName":"en","statusId":1,"statusName":"active"},{"attributeId":100003,"attributeName":"customerNumber","attributeValue":"CON-20161024-0059","languageId":2,"languageName":"en","statusId":1,"statusName":"active"},{"attributeId":100004,"attributeName":"language","attributeValue":"EN","languageId":2,"languageName":"en","statusId":1,"statusName":"active"},{"attributeId":100013,"attributeName":"NL_LEGOLAND","attributeValue":"False","languageId":2,"languageName":"en","statusId":1,"statusName":"active"},{"attributeId":100014,"attributeName":"NL_RIVERLAND","attributeValue":"False","languageId":2,"languageName":"en","statusId":1,"statusName":"active"},{"attributeId":100015,"attributeName":"NL_GENERAL_COMMUNICATION","attributeValue":"False","languageId":2,"languageName":"en","statusId":1,"statusName":"active"},{"attributeId":100018,"attributeName":"NL_BOLLIWOOD_PARK","attributeValue":"False","languageId":2,"languageName":"en","statusId":1,"statusName":"active"},{"attributeId":100019,"attributeName":"NL_MOTIONGATE","attributeValue":"False","languageId":2,"languageName":"en","statusId":1,"statusName":"active"},{"attributeId":100020,"attributeName":"NL_DUBAI_PARK_AND_RESORT","attributeValue":"True","languageId":2,"languageName":"en","statusId":1,"statusName":"active"}]}}]},"resultCode":"0"}
24.10.2016 16:16:33 +0200 10.0.32.247 Login status: 200
24.10.2016 16:35:46 +0200 10.0.32.247 Login req: {
            "languageId":"2",
            "transactionId": "1477319745306306000",
            "tenant":"1",
            "profileAttributeFlag":true,
            "externalIdList": {
                "externalIds": [
                    {
                    "externalId" : "michele.bovello@accenture.com"
                    }
                ]
             }
            }
24.10.2016 16:35:46 +0200 10.0.32.247 Login token: a4a6655bc4df81c1df76667cb4fbd0
24.10.2016 16:35:46 +0200 10.0.32.247 Login response: {"transactionId":"1477319745306306000","userRetrievedList":{"users":[{"id":992,"description":"michele.bovello@accenture.com","parentBusinessUserId":2,"statusId":1,"roleTypeId":2,"defaultLanguageId":2,"userExternalIdList":{"externalIds":[{"externalId":"michele.bovello@accenture.com","defaultFlag":1,"type":"email","statusId":1}]},"userAttributeList":{"attributeValues":[{"attributeId":9,"attributeName":"name","attributeValue":"michele","languageId":2,"languageName":"en","statusId":1,"statusName":"active"},{"attributeId":10,"attributeName":"surname","attributeValue":"bovello","languageId":2,"languageName":"en","statusId":1,"statusName":"active"},{"attributeId":14,"attributeName":"email","attributeValue":"michele.bovello@accenture.com","languageId":2,"languageName":"en","statusId":1,"statusName":"active"},{"attributeId":100003,"attributeName":"customerNumber","attributeValue":"CON-20160423-0017","languageId":2,"languageName":"en","statusId":1,"statusName":"active"},{"attributeId":100004,"attributeName":"language","attributeValue":"EN","languageId":2,"languageName":"en","statusId":1,"statusName":"active"},{"attributeId":100013,"attributeName":"NL_LEGOLAND","attributeValue":"False","languageId":2,"languageName":"en","statusId":1,"statusName":"active"},{"attributeId":100014,"attributeName":"NL_RIVERLAND","attributeValue":"False","languageId":2,"languageName":"en","statusId":1,"statusName":"active"},{"attributeId":100015,"attributeName":"NL_GENERAL_COMMUNICATION","attributeValue":"False","languageId":2,"languageName":"en","statusId":1,"statusName":"active"},{"attributeId":100018,"attributeName":"NL_BOLLIWOOD_PARK","attributeValue":"False","languageId":2,"languageName":"en","statusId":1,"statusName":"active"},{"attributeId":100019,"attributeName":"NL_MOTIONGATE","attributeValue":"False","languageId":2,"languageName":"en","statusId":1,"statusName":"active"},{"attributeId":100020,"attributeName":"NL_DUBAI_PARK_AND_RESORT","attributeValue":"False","languageId":2,"languageName":"en","statusId":1,"statusName":"active"}]}}]},"resultCode":"0"}
24.10.2016 16:35:46 +0200 10.0.32.247 Login status: 200
24.10.2016 16:43:21 +0200 10.0.32.247 Login req: {
            "languageId":"2",
            "transactionId": "14773202011689857157",
            "tenant":"1",
            "profileAttributeFlag":true,
            "externalIdList": {
                "externalIds": [
                    {
                    "externalId" : "Eedo1221@gmail.com"
                    }
                ]
             }
            }
24.10.2016 16:43:21 +0200 10.0.32.247 Login token: d1b05394511bc28d769da7ec618e7b3
24.10.2016 16:43:21 +0200 10.0.32.247 Login response: {"transactionId":"14773202011689857157","userRetrievedList":{"users":[{"id":4549,"description":"eedo1221@gmail.com","parentBusinessUserId":2,"statusId":1,"roleTypeId":2,"defaultLanguageId":2,"userExternalIdList":{"externalIds":[{"externalId":"eedo1221@gmail.com","defaultFlag":1,"type":"email","statusId":1}]},"userAttributeList":{"attributeValues":[{"attributeId":9,"attributeName":"name","attributeValue":"Dana","languageId":2,"languageName":"en","statusId":1,"statusName":"active"},{"attributeId":10,"attributeName":"surname","attributeValue":"E","languageId":2,"languageName":"en","statusId":1,"statusName":"active"},{"attributeId":14,"attributeName":"email","attributeValue":"eedo1221@gmail.com","languageId":2,"languageName":"en","statusId":1,"statusName":"active"},{"attributeId":100004,"attributeName":"language","attributeValue":"AR","languageId":2,"languageName":"en","statusId":1,"statusName":"active"}]}}]},"resultCode":"0"}
24.10.2016 16:43:21 +0200 10.0.32.247 Login status: 200
24.10.2016 17:10:20 +0200 10.0.32.247 TOKEN ricevuto, cache creata
24.10.2016 17:51:17 +0200 10.0.32.247 Login req: {
            "languageId":"2",
            "transactionId": "1477324277641833813",
            "tenant":"1",
            "profileAttributeFlag":true,
            "externalIdList": {
                "externalIds": [
                    {
                    "externalId" : "deematantawi@hotmail.com"
                    }
                ]
             }
            }
24.10.2016 17:51:17 +0200 10.0.32.247 Login token: 5bfea5b2d6e977cbdb9e1f9f894ffd
24.10.2016 17:51:17 +0200 10.0.32.247 Login response: {"transactionId":"1477324277641833813","userRetrievedList":{"users":[{"id":4555,"description":"deematantawi@hotmail.com","parentBusinessUserId":2,"statusId":1,"roleTypeId":2,"defaultLanguageId":2,"userExternalIdList":{"externalIds":[{"externalId":"deematantawi@hotmail.com","defaultFlag":1,"type":"email","statusId":1}]},"userAttributeList":{"attributeValues":[{"attributeId":9,"attributeName":"name","attributeValue":"Deema","languageId":2,"languageName":"en","statusId":1,"statusName":"active"},{"attributeId":10,"attributeName":"surname","attributeValue":"Tantawi","languageId":2,"languageName":"en","statusId":1,"statusName":"active"},{"attributeId":14,"attributeName":"email","attributeValue":"deematantawi@hotmail.com","languageId":2,"languageName":"en","statusId":1,"statusName":"active"},{"attributeId":100003,"attributeName":"customerNumber","attributeValue":"CON-20161024-0065","languageId":2,"languageName":"en","statusId":1,"statusName":"active"},{"attributeId":100004,"attributeName":"language","attributeValue":"AR","languageId":2,"languageName":"en","statusId":1,"statusName":"active"},{"attributeId":100013,"attributeName":"NL_LEGOLAND","attributeValue":"False","languageId":2,"languageName":"en","statusId":1,"statusName":"active"},{"attributeId":100014,"attributeName":"NL_RIVERLAND","attributeValue":"False","languageId":2,"languageName":"en","statusId":1,"statusName":"active"},{"attributeId":100015,"attributeName":"NL_GENERAL_COMMUNICATION","attributeValue":"False","languageId":2,"languageName":"en","statusId":1,"statusName":"active"},{"attributeId":100018,"attributeName":"NL_BOLLIWOOD_PARK","attributeValue":"False","languageId":2,"languageName":"en","statusId":1,"statusName":"active"},{"attributeId":100019,"attributeName":"NL_MOTIONGATE","attributeValue":"False","languageId":2,"languageName":"en","statusId":1,"statusName":"active"},{"attributeId":100020,"attributeName":"NL_DUBAI_PARK_AND_RESORT","attributeValue":"True","languageId":2,"languageName":"en","statusId":1,"statusName":"active"}]}}]},"resultCode":"0"}
24.10.2016 17:51:17 +0200 10.0.32.247 Login status: 200
24.10.2016 17:52:33 +0200 10.0.32.247 Login req: {
            "languageId":"2",
            "transactionId": "14773243532107534867",
            "tenant":"1",
            "profileAttributeFlag":true,
            "externalIdList": {
                "externalIds": [
                    {
                    "externalId" : "deematantawi@hotmail.com"
                    }
                ]
             }
            }
24.10.2016 17:52:33 +0200 10.0.32.247 Login token: 5bfea5b2d6e977cbdb9e1f9f894ffd
24.10.2016 17:52:33 +0200 10.0.32.247 Login response: {"transactionId":"14773243532107534867","userRetrievedList":{"users":[{"id":4555,"description":"deematantawi@hotmail.com","parentBusinessUserId":2,"statusId":1,"roleTypeId":2,"defaultLanguageId":2,"userExternalIdList":{"externalIds":[{"externalId":"deematantawi@hotmail.com","defaultFlag":1,"type":"email","statusId":1}]},"userAttributeList":{"attributeValues":[{"attributeId":9,"attributeName":"name","attributeValue":"Deema","languageId":2,"languageName":"en","statusId":1,"statusName":"active"},{"attributeId":10,"attributeName":"surname","attributeValue":"Tantawi","languageId":2,"languageName":"en","statusId":1,"statusName":"active"},{"attributeId":14,"attributeName":"email","attributeValue":"deematantawi@hotmail.com","languageId":2,"languageName":"en","statusId":1,"statusName":"active"},{"attributeId":100003,"attributeName":"customerNumber","attributeValue":"CON-20161024-0065","languageId":2,"languageName":"en","statusId":1,"statusName":"active"},{"attributeId":100004,"attributeName":"language","attributeValue":"AR","languageId":2,"languageName":"en","statusId":1,"statusName":"active"},{"attributeId":100013,"attributeName":"NL_LEGOLAND","attributeValue":"False","languageId":2,"languageName":"en","statusId":1,"statusName":"active"},{"attributeId":100014,"attributeName":"NL_RIVERLAND","attributeValue":"False","languageId":2,"languageName":"en","statusId":1,"statusName":"active"},{"attributeId":100015,"attributeName":"NL_GENERAL_COMMUNICATION","attributeValue":"False","languageId":2,"languageName":"en","statusId":1,"statusName":"active"},{"attributeId":100018,"attributeName":"NL_BOLLIWOOD_PARK","attributeValue":"False","languageId":2,"languageName":"en","statusId":1,"statusName":"active"},{"attributeId":100019,"attributeName":"NL_MOTIONGATE","attributeValue":"False","languageId":2,"languageName":"en","statusId":1,"statusName":"active"},{"attributeId":100020,"attributeName":"NL_DUBAI_PARK_AND_RESORT","attributeValue":"True","languageId":2,"languageName":"en","statusId":1,"statusName":"active"}]}}]},"resultCode":"0"}
24.10.2016 17:52:33 +0200 10.0.32.247 Login status: 200
24.10.2016 18:10:18 +0200 10.0.32.247 TOKEN expired => RENEWING. Server response =>401
24.10.2016 18:10:18 +0200 10.0.32.247 RENEWING token
24.10.2016 18:10:18 +0200 10.0.32.247 RENEW TOKEN RESULT =>200 || 193e3bb6635c79f89517fcda96a1e7
24.10.2016 19:10:17 +0200 10.0.32.247 TOKEN expired => RENEWING. Server response =>401
24.10.2016 19:10:17 +0200 10.0.32.247 RENEWING token
24.10.2016 19:10:17 +0200 10.0.32.247 RENEW TOKEN RESULT =>200 || 5b51475c40d1339d75d2e0b7b368a60
24.10.2016 19:10:20 +0200 10.0.32.247 TOKEN ricevuto, cache creata
24.10.2016 20:04:51 +0200 10.0.32.247 Login req: {
            "languageId":"2",
            "transactionId": "1477332291203187134",
            "tenant":"1",
            "profileAttributeFlag":true,
            "externalIdList": {
                "externalIds": [
                    {
                    "externalId" : "marylourcableros@yahoo.com"
                    }
                ]
             }
            }
24.10.2016 20:04:51 +0200 10.0.32.247 Login token: 4e7141c8d84dc8f57a7c744a8abeef9
24.10.2016 20:04:51 +0200 10.0.32.247 Login response: {"transactionId":"1477332291203187134","userRetrievedList":{"users":[{"id":4560,"description":"marylourcableros@yahoo.com","parentBusinessUserId":2,"statusId":1,"roleTypeId":2,"defaultLanguageId":2,"userExternalIdList":{"externalIds":[{"externalId":"marylourcableros@yahoo.com","defaultFlag":1,"type":"email","statusId":1}]},"userAttributeList":{"attributeValues":[{"attributeId":9,"attributeName":"name","attributeValue":"Mary lour","languageId":2,"languageName":"en","statusId":1,"statusName":"active"},{"attributeId":10,"attributeName":"surname","attributeValue":"Cableros","languageId":2,"languageName":"en","statusId":1,"statusName":"active"},{"attributeId":14,"attributeName":"email","attributeValue":"marylourcableros@yahoo.com","languageId":2,"languageName":"en","statusId":1,"statusName":"active"},{"attributeId":100003,"attributeName":"customerNumber","attributeValue":"CON-20161024-0073","languageId":2,"languageName":"en","statusId":1,"statusName":"active"},{"attributeId":100004,"attributeName":"language","attributeValue":"EN","languageId":2,"languageName":"en","statusId":1,"statusName":"active"},{"attributeId":100013,"attributeName":"NL_LEGOLAND","attributeValue":"False","languageId":2,"languageName":"en","statusId":1,"statusName":"active"},{"attributeId":100014,"attributeName":"NL_RIVERLAND","attributeValue":"False","languageId":2,"languageName":"en","statusId":1,"statusName":"active"},{"attributeId":100015,"attributeName":"NL_GENERAL_COMMUNICATION","attributeValue":"False","languageId":2,"languageName":"en","statusId":1,"statusName":"active"},{"attributeId":100018,"attributeName":"NL_BOLLIWOOD_PARK","attributeValue":"False","languageId":2,"languageName":"en","statusId":1,"statusName":"active"},{"attributeId":100019,"attributeName":"NL_MOTIONGATE","attributeValue":"False","languageId":2,"languageName":"en","statusId":1,"statusName":"active"},{"attributeId":100020,"attributeName":"NL_DUBAI_PARK_AND_RESORT","attributeValue":"False","languageId":2,"languageName":"en","statusId":1,"statusName":"active"}]}}]},"resultCode":"0"}
24.10.2016 20:04:51 +0200 10.0.32.247 Login status: 200
24.10.2016 20:10:35 +0200 10.0.32.247 TOKEN ricevuto, cache creata
24.10.2016 20:12:31 +0200 10.0.32.247 Login req: {
            "languageId":"2",
            "transactionId": "1477332751864961232",
            "tenant":"1",
            "profileAttributeFlag":true,
            "externalIdList": {
                "externalIds": [
                    {
                    "externalId" : "kayeannelaraph@gmail.com"
                    }
                ]
             }
            }
24.10.2016 20:12:31 +0200 10.0.32.247 Login token: fa8084fea3e6d192d4ebe979719b94
24.10.2016 20:12:31 +0200 10.0.32.247 Login response: {"transactionId":"1477332751864961232","userRetrievedList":{"users":[{"id":4563,"description":"kayeannelaraph@gmail.com","parentBusinessUserId":2,"statusId":1,"roleTypeId":2,"defaultLanguageId":2,"userExternalIdList":{"externalIds":[{"externalId":"kayeannelaraph@gmail.com","defaultFlag":1,"type":"email","statusId":1}]},"userAttributeList":{"attributeValues":[{"attributeId":9,"attributeName":"name","attributeValue":"Kaye","languageId":2,"languageName":"en","statusId":1,"statusName":"active"},{"attributeId":10,"attributeName":"surname","attributeValue":"Lara","languageId":2,"languageName":"en","statusId":1,"statusName":"active"},{"attributeId":14,"attributeName":"email","attributeValue":"kayeannelaraph@gmail.com","languageId":2,"languageName":"en","statusId":1,"statusName":"active"},{"attributeId":100003,"attributeName":"customerNumber","attributeValue":"CON-20161024-0076","languageId":2,"languageName":"en","statusId":1,"statusName":"active"},{"attributeId":100004,"attributeName":"language","attributeValue":"EN","languageId":2,"languageName":"en","statusId":1,"statusName":"active"},{"attributeId":100013,"attributeName":"NL_LEGOLAND","attributeValue":"False","languageId":2,"languageName":"en","statusId":1,"statusName":"active"},{"attributeId":100014,"attributeName":"NL_RIVERLAND","attributeValue":"False","languageId":2,"languageName":"en","statusId":1,"statusName":"active"},{"attributeId":100015,"attributeName":"NL_GENERAL_COMMUNICATION","attributeValue":"False","languageId":2,"languageName":"en","statusId":1,"statusName":"active"},{"attributeId":100018,"attributeName":"NL_BOLLIWOOD_PARK","attributeValue":"False","languageId":2,"languageName":"en","statusId":1,"statusName":"active"},{"attributeId":100019,"attributeName":"NL_MOTIONGATE","attributeValue":"False","languageId":2,"languageName":"en","statusId":1,"statusName":"active"},{"attributeId":100020,"attributeName":"NL_DUBAI_PARK_AND_RESORT","attributeValue":"False","languageId":2,"languageName":"en","statusId":1,"statusName":"active"}]}}]},"resultCode":"0"}
24.10.2016 20:12:31 +0200 10.0.32.247 Login status: 200
24.10.2016 20:12:41 +0200 10.0.32.247 Login req: {
            "languageId":"2",
            "transactionId": "1477332761581624928",
            "tenant":"1",
            "profileAttributeFlag":true,
            "externalIdList": {
                "externalIds": [
                    {
                    "externalId" : "kayeannelaraph@gmail.com"
                    }
                ]
             }
            }
24.10.2016 20:12:41 +0200 10.0.32.247 Login token: fa8084fea3e6d192d4ebe979719b94
24.10.2016 20:12:41 +0200 10.0.32.247 Login response: {"transactionId":"1477332761581624928","userRetrievedList":{"users":[{"id":4563,"description":"kayeannelaraph@gmail.com","parentBusinessUserId":2,"statusId":1,"roleTypeId":2,"defaultLanguageId":2,"userExternalIdList":{"externalIds":[{"externalId":"kayeannelaraph@gmail.com","defaultFlag":1,"type":"email","statusId":1}]},"userAttributeList":{"attributeValues":[{"attributeId":9,"attributeName":"name","attributeValue":"Kaye","languageId":2,"languageName":"en","statusId":1,"statusName":"active"},{"attributeId":10,"attributeName":"surname","attributeValue":"Lara","languageId":2,"languageName":"en","statusId":1,"statusName":"active"},{"attributeId":14,"attributeName":"email","attributeValue":"kayeannelaraph@gmail.com","languageId":2,"languageName":"en","statusId":1,"statusName":"active"},{"attributeId":100003,"attributeName":"customerNumber","attributeValue":"CON-20161024-0076","languageId":2,"languageName":"en","statusId":1,"statusName":"active"},{"attributeId":100004,"attributeName":"language","attributeValue":"EN","languageId":2,"languageName":"en","statusId":1,"statusName":"active"},{"attributeId":100013,"attributeName":"NL_LEGOLAND","attributeValue":"False","languageId":2,"languageName":"en","statusId":1,"statusName":"active"},{"attributeId":100014,"attributeName":"NL_RIVERLAND","attributeValue":"False","languageId":2,"languageName":"en","statusId":1,"statusName":"active"},{"attributeId":100015,"attributeName":"NL_GENERAL_COMMUNICATION","attributeValue":"False","languageId":2,"languageName":"en","statusId":1,"statusName":"active"},{"attributeId":100018,"attributeName":"NL_BOLLIWOOD_PARK","attributeValue":"False","languageId":2,"languageName":"en","statusId":1,"statusName":"active"},{"attributeId":100019,"attributeName":"NL_MOTIONGATE","attributeValue":"False","languageId":2,"languageName":"en","statusId":1,"statusName":"active"},{"attributeId":100020,"attributeName":"NL_DUBAI_PARK_AND_RESORT","attributeValue":"False","languageId":2,"languageName":"en","statusId":1,"statusName":"active"}]}}]},"resultCode":"0"}
24.10.2016 20:12:41 +0200 10.0.32.247 Login status: 200
24.10.2016 20:12:55 +0200 10.0.32.247 Login req: {
            "languageId":"2",
            "transactionId": "14773327751265537331",
            "tenant":"1",
            "profileAttributeFlag":true,
            "externalIdList": {
                "externalIds": [
                    {
                    "externalId" : "kayeannelaraph@gmail.com"
                    }
                ]
             }
            }
24.10.2016 20:12:55 +0200 10.0.32.247 Login token: fa8084fea3e6d192d4ebe979719b94
24.10.2016 20:12:55 +0200 10.0.32.247 Login response: {"transactionId":"14773327751265537331","userRetrievedList":{"users":[{"id":4563,"description":"kayeannelaraph@gmail.com","parentBusinessUserId":2,"statusId":1,"roleTypeId":2,"defaultLanguageId":2,"userExternalIdList":{"externalIds":[{"externalId":"kayeannelaraph@gmail.com","defaultFlag":1,"type":"email","statusId":1}]},"userAttributeList":{"attributeValues":[{"attributeId":9,"attributeName":"name","attributeValue":"Kaye","languageId":2,"languageName":"en","statusId":1,"statusName":"active"},{"attributeId":10,"attributeName":"surname","attributeValue":"Lara","languageId":2,"languageName":"en","statusId":1,"statusName":"active"},{"attributeId":14,"attributeName":"email","attributeValue":"kayeannelaraph@gmail.com","languageId":2,"languageName":"en","statusId":1,"statusName":"active"},{"attributeId":100003,"attributeName":"customerNumber","attributeValue":"CON-20161024-0076","languageId":2,"languageName":"en","statusId":1,"statusName":"active"},{"attributeId":100004,"attributeName":"language","attributeValue":"EN","languageId":2,"languageName":"en","statusId":1,"statusName":"active"},{"attributeId":100013,"attributeName":"NL_LEGOLAND","attributeValue":"False","languageId":2,"languageName":"en","statusId":1,"statusName":"active"},{"attributeId":100014,"attributeName":"NL_RIVERLAND","attributeValue":"False","languageId":2,"languageName":"en","statusId":1,"statusName":"active"},{"attributeId":100015,"attributeName":"NL_GENERAL_COMMUNICATION","attributeValue":"False","languageId":2,"languageName":"en","statusId":1,"statusName":"active"},{"attributeId":100018,"attributeName":"NL_BOLLIWOOD_PARK","attributeValue":"False","languageId":2,"languageName":"en","statusId":1,"statusName":"active"},{"attributeId":100019,"attributeName":"NL_MOTIONGATE","attributeValue":"False","languageId":2,"languageName":"en","statusId":1,"statusName":"active"},{"attributeId":100020,"attributeName":"NL_DUBAI_PARK_AND_RESORT","attributeValue":"False","languageId":2,"languageName":"en","statusId":1,"statusName":"active"}]}}]},"resultCode":"0"}
24.10.2016 20:12:55 +0200 10.0.32.247 Login status: 200
24.10.2016 20:15:32 +0200 10.0.32.247 Login req: {
            "languageId":"2",
            "transactionId": "14773329321893880232",
            "tenant":"1",
            "profileAttributeFlag":true,
            "externalIdList": {
                "externalIds": [
                    {
                    "externalId" : "kayeannelaraph@gmail.com"
                    }
                ]
             }
            }
24.10.2016 20:15:32 +0200 10.0.32.247 Login token: fa8084fea3e6d192d4ebe979719b94
24.10.2016 20:15:32 +0200 10.0.32.247 Login response: {"transactionId":"14773329321893880232","userRetrievedList":{"users":[{"id":4563,"description":"kayeannelaraph@gmail.com","parentBusinessUserId":2,"statusId":1,"roleTypeId":2,"defaultLanguageId":2,"userExternalIdList":{"externalIds":[{"externalId":"kayeannelaraph@gmail.com","defaultFlag":1,"type":"email","statusId":1}]},"userAttributeList":{"attributeValues":[{"attributeId":9,"attributeName":"name","attributeValue":"Kaye","languageId":2,"languageName":"en","statusId":1,"statusName":"active"},{"attributeId":10,"attributeName":"surname","attributeValue":"Lara","languageId":2,"languageName":"en","statusId":1,"statusName":"active"},{"attributeId":14,"attributeName":"email","attributeValue":"kayeannelaraph@gmail.com","languageId":2,"languageName":"en","statusId":1,"statusName":"active"},{"attributeId":100003,"attributeName":"customerNumber","attributeValue":"CON-20161024-0076","languageId":2,"languageName":"en","statusId":1,"statusName":"active"},{"attributeId":100004,"attributeName":"language","attributeValue":"EN","languageId":2,"languageName":"en","statusId":1,"statusName":"active"},{"attributeId":100013,"attributeName":"NL_LEGOLAND","attributeValue":"False","languageId":2,"languageName":"en","statusId":1,"statusName":"active"},{"attributeId":100014,"attributeName":"NL_RIVERLAND","attributeValue":"False","languageId":2,"languageName":"en","statusId":1,"statusName":"active"},{"attributeId":100015,"attributeName":"NL_GENERAL_COMMUNICATION","attributeValue":"False","languageId":2,"languageName":"en","statusId":1,"statusName":"active"},{"attributeId":100018,"attributeName":"NL_BOLLIWOOD_PARK","attributeValue":"False","languageId":2,"languageName":"en","statusId":1,"statusName":"active"},{"attributeId":100019,"attributeName":"NL_MOTIONGATE","attributeValue":"False","languageId":2,"languageName":"en","statusId":1,"statusName":"active"},{"attributeId":100020,"attributeName":"NL_DUBAI_PARK_AND_RESORT","attributeValue":"False","languageId":2,"languageName":"en","statusId":1,"statusName":"active"}]}}]},"resultCode":"0"}
24.10.2016 20:15:32 +0200 10.0.32.247 Login status: 200
24.10.2016 21:10:35 +0200 10.0.32.247 TOKEN ricevuto, cache creata
24.10.2016 22:10:18 +0200 10.0.32.247 TOKEN expired => RENEWING. Server response =>401
24.10.2016 22:10:18 +0200 10.0.32.247 RENEWING token
24.10.2016 22:10:18 +0200 10.0.32.247 RENEW TOKEN RESULT =>200 || 815944d258fcc43ed1ce93b1c5c9c36
24.10.2016 23:10:26 +0200 10.0.32.247 TOKEN ricevuto, cache creata
24.10.2016 23:46:58 +0200 10.0.32.247 Login req: {
            "languageId":"2",
            "transactionId": "14773456172098010847",
            "tenant":"1",
            "profileAttributeFlag":true,
            "externalIdList": {
                "externalIds": [
                    {
                    "externalId" : "10207505460377675"
                    }
                ]
             }
            }
24.10.2016 23:46:58 +0200 10.0.32.247 Login token: 5f2264b14b7cfab7e496d9415c21650
24.10.2016 23:46:58 +0200 10.0.32.247 Login response: {"transactionId":"14773456172098010847","userRetrievedList":{"users":[{"id":4572,"description":"10207505460377675","parentBusinessUserId":2,"statusId":1,"roleTypeId":2,"defaultLanguageId":2,"userExternalIdList":{"externalIds":[{"externalId":"10207505460377675","defaultFlag":1,"type":"socialID","statusId":1}]},"userAttributeList":{"attributeValues":[{"attributeId":9,"attributeName":"name","attributeValue":"Iulia","languageId":2,"languageName":"en","statusId":1,"statusName":"active"},{"attributeId":10,"attributeName":"surname","attributeValue":"Iezan","languageId":2,"languageName":"en","statusId":1,"statusName":"active"},{"attributeId":14,"attributeName":"email","attributeValue":"iulia17tm@yahoo.com","languageId":2,"languageName":"en","statusId":1,"statusName":"active"},{"attributeId":100004,"attributeName":"language","attributeValue":"en","languageId":2,"languageName":"en","statusId":1,"statusName":"active"}]}}]},"resultCode":"0"}
24.10.2016 23:46:58 +0200 10.0.32.247 Login status: 200
24.10.2016 23:49:22 +0200 10.0.32.247 Login req: {
            "languageId":"2",
            "transactionId": "14773457621562699314",
            "tenant":"1",
            "profileAttributeFlag":true,
            "externalIdList": {
                "externalIds": [
                    {
                    "externalId" : "10207505460377675"
                    }
                ]
             }
            }
24.10.2016 23:49:22 +0200 10.0.32.247 Login token: 5f2264b14b7cfab7e496d9415c21650
24.10.2016 23:49:22 +0200 10.0.32.247 Login response: {"transactionId":"14773457621562699314","userRetrievedList":{"users":[{"id":4572,"description":"10207505460377675","parentBusinessUserId":2,"statusId":1,"roleTypeId":2,"defaultLanguageId":2,"userExternalIdList":{"externalIds":[{"externalId":"10207505460377675","defaultFlag":1,"type":"socialID","statusId":1}]},"userAttributeList":{"attributeValues":[{"attributeId":9,"attributeName":"name","attributeValue":"Iulia","languageId":2,"languageName":"en","statusId":1,"statusName":"active"},{"attributeId":10,"attributeName":"surname","attributeValue":"Iezan","languageId":2,"languageName":"en","statusId":1,"statusName":"active"},{"attributeId":14,"attributeName":"email","attributeValue":"iulia17tm@yahoo.com","languageId":2,"languageName":"en","statusId":1,"statusName":"active"},{"attributeId":100003,"attributeName":"customerNumber","attributeValue":"CON-20161025-0002","languageId":2,"languageName":"en","statusId":1,"statusName":"active"},{"attributeId":100004,"attributeName":"language","attributeValue":"en","languageId":2,"languageName":"en","statusId":1,"statusName":"active"}]}}]},"resultCode":"0"}
24.10.2016 23:49:23 +0200 10.0.32.247 Login status: 200