
02.08.2016 0:33:41 +0200 10.0.32.247 TOKEN ricevuto, cache creata
02.08.2016 1:34:16 +0200 10.0.32.247 TOKEN ricevuto, cache creata
02.08.2016 1:36:29 +0200 10.0.32.247 TOKEN expired => RENEWING. Server response =>401
02.08.2016 1:36:29 +0200 10.0.32.247 RENEWING token
02.08.2016 1:36:29 +0200 10.0.32.247 RENEW TOKEN RESULT =>200 || e04866a2bd08476d0e51dd55d7b7269
02.08.2016 1:36:29 +0200 10.0.32.247 error in acapiaccess_getProducts_annualPass: 
02.08.2016 2:00:36 +0200 10.0.32.247 Login req: {
            "languageId":"2",
            "transactionId": "14700960361335790387",
            "tenant":"1",
            "profileAttributeFlag":true,
            "externalIdList": {
                "externalIds": [
                    {
                    "externalId" : "ronalynsalenga27@yahoo.com"
                    }
                ]
             }
            }
02.08.2016 2:00:36 +0200 10.0.32.247 Login token: 664a175ecf3f88122057b7abd9a5514
02.08.2016 2:00:36 +0200 10.0.32.247 Login response: {"transactionId":"14700960361335790387","userRetrievedList":{"users":[{"id":2349,"description":"ronalynsalenga27@yahoo.com","parentBusinessUserId":2,"statusId":1,"roleTypeId":2,"defaultLanguageId":2,"userExternalIdList":{"externalIds":[{"externalId":"ronalynsalenga27@yahoo.com","defaultFlag":1,"type":"email","statusId":1}]},"userAttributeList":{"attributeValues":[{"attributeId":9,"attributeName":"name","attributeValue":"Ronalyn","languageId":2,"languageName":"en","statusId":1,"statusName":"active"},{"attributeId":10,"attributeName":"surname","attributeValue":"Salenga","languageId":2,"languageName":"en","statusId":1,"statusName":"active"},{"attributeId":14,"attributeName":"email","attributeValue":"ronalynsalenga27@yahoo.com","languageId":2,"languageName":"en","statusId":1,"statusName":"active"},{"attributeId":100003,"attributeName":"customerNumber","attributeValue":"CON-20160802-0003","languageId":2,"languageName":"en","statusId":1,"statusName":"active"},{"attributeId":100004,"attributeName":"language","attributeValue":"EN","languageId":2,"languageName":"en","statusId":1,"statusName":"active"}]}}]},"resultCode":"0"}
02.08.2016 2:00:36 +0200 10.0.32.247 Login status: 200
02.08.2016 2:49:28 +0200 10.0.32.247 TOKEN ricevuto, cache creata
02.08.2016 3:51:16 +0200 10.0.32.247 TOKEN ricevuto, cache creata
02.08.2016 4:19:59 +0200 10.0.32.247 Login req: {
            "languageId":"2",
            "transactionId": "14701043991433391952",
            "tenant":"1",
            "profileAttributeFlag":true,
            "externalIdList": {
                "externalIds": [
                    {
                    "externalId" : "premmalee@hotmail.com"
                    }
                ]
             }
            }
02.08.2016 4:19:59 +0200 10.0.32.247 Login token: 4747f7fcb74a3ed87eea0c12b612d1f
02.08.2016 4:19:59 +0200 10.0.32.247 Login response: {"transactionId":"14701043991433391952","userRetrievedList":{"users":[{"id":2350,"description":"premmalee@hotmail.com","parentBusinessUserId":2,"statusId":1,"roleTypeId":2,"defaultLanguageId":2,"userExternalIdList":{"externalIds":[{"externalId":"premmalee@hotmail.com","defaultFlag":1,"type":"email","statusId":1}]},"userAttributeList":{"attributeValues":[{"attributeId":9,"attributeName":"name","attributeValue":"Prem kumar","languageId":2,"languageName":"en","statusId":1,"statusName":"active"},{"attributeId":10,"attributeName":"surname","attributeValue":"Ramamurthy","languageId":2,"languageName":"en","statusId":1,"statusName":"active"},{"attributeId":14,"attributeName":"email","attributeValue":"premmalee@hotmail.com","languageId":2,"languageName":"en","statusId":1,"statusName":"active"},{"attributeId":100003,"attributeName":"customerNumber","attributeValue":"CON-20160802-0004","languageId":2,"languageName":"en","statusId":1,"statusName":"active"},{"attributeId":100004,"attributeName":"language","attributeValue":"EN","languageId":2,"languageName":"en","statusId":1,"statusName":"active"}]}}]},"resultCode":"0"}
02.08.2016 4:19:59 +0200 10.0.32.247 Login status: 200
02.08.2016 5:00:29 +0200 10.0.32.247 TOKEN ricevuto, cache creata
02.08.2016 5:25:07 +0200 10.0.32.247 Login req: {
            "languageId":"2",
            "transactionId": "1470108307500563505",
            "tenant":"1",
            "profileAttributeFlag":true,
            "externalIdList": {
                "externalIds": [
                    {
                    "externalId" : "abdulla_1239@yahoo.com"
                    }
                ]
             }
            }
02.08.2016 5:25:07 +0200 10.0.32.247 Login token: 3befdfd628a5334d721d7fae076b87c
02.08.2016 5:25:07 +0200 10.0.32.247 Login response: {"transactionId":"1470108307500563505","userRetrievedList":{"users":[{"id":2351,"description":"abdulla_1239@yahoo.com","parentBusinessUserId":2,"statusId":1,"roleTypeId":2,"defaultLanguageId":2,"userExternalIdList":{"externalIds":[{"externalId":"abdulla_1239@yahoo.com","defaultFlag":1,"type":"email","statusId":1}]},"userAttributeList":{"attributeValues":[{"attributeId":9,"attributeName":"name","attributeValue":"Abdulla","languageId":2,"languageName":"en","statusId":1,"statusName":"active"},{"attributeId":10,"attributeName":"surname","attributeValue":"Salman","languageId":2,"languageName":"en","statusId":1,"statusName":"active"},{"attributeId":14,"attributeName":"email","attributeValue":"abdulla_1239@yahoo.com","languageId":2,"languageName":"en","statusId":1,"statusName":"active"},{"attributeId":100003,"attributeName":"customerNumber","attributeValue":"CON-20160802-0006","languageId":2,"languageName":"en","statusId":1,"statusName":"active"},{"attributeId":100004,"attributeName":"language","attributeValue":"EN","languageId":2,"languageName":"en","statusId":1,"statusName":"active"},{"attributeId":100020,"attributeName":"NL_DUBAI_PARK_AND_RESORT","attributeValue":"true","languageId":2,"languageName":"en","statusId":1,"statusName":"active"}]}}]},"resultCode":"0"}
02.08.2016 5:25:07 +0200 10.0.32.247 Login status: 200
02.08.2016 5:59:12 +0200 10.0.32.247 TOKEN expired => RENEWING. Server response =>401
02.08.2016 5:59:12 +0200 10.0.32.247 RENEWING token
02.08.2016 5:59:12 +0200 10.0.32.247 RENEW TOKEN RESULT =>200 || 1561a472df2cf88d14b37f7a5eacd35
02.08.2016 5:59:13 +0200 10.0.32.247 error in acapiaccess_getProducts_annualPass: 
02.08.2016 6:10:58 +0200 10.0.32.247 Login req: {
            "languageId":"2",
            "transactionId": "14701110581645773926",
            "tenant":"1",
            "profileAttributeFlag":true,
            "externalIdList": {
                "externalIds": [
                    {
                    "externalId" : "raghad.2001t@hotmail.com"
                    }
                ]
             }
            }
02.08.2016 6:10:58 +0200 10.0.32.247 Login token: 674120547fdd8e69de5998a8f8caeadd
02.08.2016 6:10:58 +0200 10.0.32.247 Login response: {"transactionId":"14701110581645773926","userRetrievedList":{"users":[{"id":2352,"description":"raghad.2001t@hotmail.com","parentBusinessUserId":2,"statusId":1,"roleTypeId":2,"defaultLanguageId":2,"userExternalIdList":{"externalIds":[{"externalId":"raghad.2001t@hotmail.com","defaultFlag":1,"type":"email","statusId":1}]},"userAttributeList":{"attributeValues":[{"attributeId":9,"attributeName":"name","attributeValue":"Raghad","languageId":2,"languageName":"en","statusId":1,"statusName":"active"},{"attributeId":10,"attributeName":"surname","attributeValue":"Alotaibi","languageId":2,"languageName":"en","statusId":1,"statusName":"active"},{"attributeId":14,"attributeName":"email","attributeValue":"raghad.2001t@hotmail.com","languageId":2,"languageName":"en","statusId":1,"statusName":"active"},{"attributeId":100003,"attributeName":"customerNumber","attributeValue":"CON-20160802-0007","languageId":2,"languageName":"en","statusId":1,"statusName":"active"},{"attributeId":100004,"attributeName":"language","attributeValue":"AR","languageId":2,"languageName":"en","statusId":1,"statusName":"active"},{"attributeId":100020,"attributeName":"NL_DUBAI_PARK_AND_RESORT","attributeValue":"true","languageId":2,"languageName":"en","statusId":1,"statusName":"active"}]}}]},"resultCode":"0"}
02.08.2016 6:10:58 +0200 10.0.32.247 Login status: 200
02.08.2016 6:59:17 +0200 10.0.32.247 TOKEN ricevuto, cache creata
02.08.2016 7:29:30 +0200 10.0.32.247 Login req: {
            "languageId":"2",
            "transactionId": "14701157701835664457",
            "tenant":"1",
            "profileAttributeFlag":true,
            "externalIdList": {
                "externalIds": [
                    {
                    "externalId" : "922453497881495"
                    }
                ]
             }
            }
02.08.2016 7:29:30 +0200 10.0.32.247 Login token: c26756405cf88e5c832152c1428e7bea
02.08.2016 7:29:30 +0200 10.0.32.247 Login response: {"transactionId":"14701157701835664457","userRetrievedList":{"users":[{"id":2354,"description":"922453497881495","parentBusinessUserId":2,"statusId":1,"roleTypeId":2,"defaultLanguageId":2,"userExternalIdList":{"externalIds":[{"externalId":"922453497881495","defaultFlag":1,"type":"socialID","statusId":1}]},"userAttributeList":{"attributeValues":[{"attributeId":9,"attributeName":"name","attributeValue":"Abdul","languageId":2,"languageName":"en","statusId":1,"statusName":"active"},{"attributeId":10,"attributeName":"surname","attributeValue":"Qadoos","languageId":2,"languageName":"en","statusId":1,"statusName":"active"},{"attributeId":14,"attributeName":"email","attributeValue":"abdulqadoos13@gmail.com","languageId":2,"languageName":"en","statusId":1,"statusName":"active"},{"attributeId":100004,"attributeName":"language","attributeValue":"en","languageId":2,"languageName":"en","statusId":1,"statusName":"active"}]}}]},"resultCode":"0"}
02.08.2016 7:29:30 +0200 10.0.32.247 Login status: 200
02.08.2016 7:34:14 +0200 10.0.32.247 Login req: {
            "languageId":"2",
            "transactionId": "14701160542127707132",
            "tenant":"1",
            "profileAttributeFlag":true,
            "externalIdList": {
                "externalIds": [
                    {
                    "externalId" : "4myexperiment@gmail.com"
                    }
                ]
             }
            }
02.08.2016 7:34:14 +0200 10.0.32.247 Login token: 3827eeaf42a7721e912a12b9ee3f647f
02.08.2016 7:34:14 +0200 10.0.32.247 Login response: {"transactionId":"14701160542127707132","userRetrievedList":{"users":[{"id":247,"description":"4myexperiment@gmail.com","parentBusinessUserId":2,"statusId":1,"roleTypeId":2,"defaultLanguageId":2,"userExternalIdList":{"externalIds":[{"externalId":"4myexperiment@gmail.com","defaultFlag":1,"type":"email","statusId":1}]},"userAttributeList":{"attributeValues":[{"attributeId":9,"attributeName":"name","attributeValue":"my","languageId":2,"languageName":"en","statusId":1,"statusName":"active"},{"attributeId":10,"attributeName":"surname","attributeValue":"experiment","languageId":2,"languageName":"en","statusId":1,"statusName":"active"},{"attributeId":14,"attributeName":"email","attributeValue":"4myexperiment@gmail.com","languageId":2,"languageName":"en","statusId":1,"statusName":"active"},{"attributeId":100003,"attributeName":"customerNumber","attributeValue":"CON-20160427-0018","languageId":2,"languageName":"en","statusId":1,"statusName":"active"},{"attributeId":100004,"attributeName":"language","attributeValue":"EN","languageId":2,"languageName":"en","statusId":1,"statusName":"active"}]}}]},"resultCode":"0"}
02.08.2016 7:34:14 +0200 10.0.32.247 Login status: 200
02.08.2016 7:35:22 +0200 10.0.32.247 Login req: {
            "languageId":"2",
            "transactionId": "1470116122780999293",
            "tenant":"1",
            "profileAttributeFlag":true,
            "externalIdList": {
                "externalIds": [
                    {
                    "externalId" : "4myexperiment@gmail.com"
                    }
                ]
             }
            }
02.08.2016 7:35:22 +0200 10.0.32.247 Login token: 3827eeaf42a7721e912a12b9ee3f647f
02.08.2016 7:35:22 +0200 10.0.32.247 Login response: {"transactionId":"1470116122780999293","userRetrievedList":{"users":[{"id":247,"description":"4myexperiment@gmail.com","parentBusinessUserId":2,"statusId":1,"roleTypeId":2,"defaultLanguageId":2,"userExternalIdList":{"externalIds":[{"externalId":"4myexperiment@gmail.com","defaultFlag":1,"type":"email","statusId":1}]},"userAttributeList":{"attributeValues":[{"attributeId":9,"attributeName":"name","attributeValue":"my","languageId":2,"languageName":"en","statusId":1,"statusName":"active"},{"attributeId":10,"attributeName":"surname","attributeValue":"experiment","languageId":2,"languageName":"en","statusId":1,"statusName":"active"},{"attributeId":14,"attributeName":"email","attributeValue":"4myexperiment@gmail.com","languageId":2,"languageName":"en","statusId":1,"statusName":"active"},{"attributeId":100003,"attributeName":"customerNumber","attributeValue":"CON-20160427-0018","languageId":2,"languageName":"en","statusId":1,"statusName":"active"},{"attributeId":100004,"attributeName":"language","attributeValue":"EN","languageId":2,"languageName":"en","statusId":1,"statusName":"active"}]}}]},"resultCode":"0"}
02.08.2016 7:35:22 +0200 10.0.32.247 Login status: 200
02.08.2016 7:50:38 +0200 10.0.32.247 Login req: {
            "languageId":"2",
            "transactionId": "14701170371727901118",
            "tenant":"1",
            "profileAttributeFlag":true,
            "externalIdList": {
                "externalIds": [
                    {
                    "externalId" : "10153631798342750"
                    }
                ]
             }
            }
02.08.2016 7:50:38 +0200 10.0.32.247 Login token: 3d988e119fe673ada8ce3bbf7cc4
02.08.2016 7:50:38 +0200 10.0.32.247 Login response: {"transactionId":"14701170371727901118","userRetrievedList":{"users":[{"id":2355,"description":"10153631798342750","parentBusinessUserId":2,"statusId":1,"roleTypeId":2,"defaultLanguageId":2,"userExternalIdList":{"externalIds":[{"externalId":"10153631798342750","defaultFlag":1,"type":"socialID","statusId":1}]},"userAttributeList":{"attributeValues":[{"attributeId":9,"attributeName":"name","attributeValue":"Dyan","languageId":2,"languageName":"en","statusId":1,"statusName":"active"},{"attributeId":10,"attributeName":"surname","attributeValue":"Andrado","languageId":2,"languageName":"en","statusId":1,"statusName":"active"},{"attributeId":14,"attributeName":"email","attributeValue":"bingolittle3@gmail.com","languageId":2,"languageName":"en","statusId":1,"statusName":"active"},{"attributeId":100004,"attributeName":"language","attributeValue":"en","languageId":2,"languageName":"en","statusId":1,"statusName":"active"}]}}]},"resultCode":"0"}
02.08.2016 7:50:38 +0200 10.0.32.247 Login status: 200
02.08.2016 7:59:31 +0200 10.0.32.247 TOKEN ricevuto, cache creata
02.08.2016 7:59:36 +0200 10.0.32.247 TOKEN ricevuto, cache creata
02.08.2016 8:17:48 +0200 10.0.32.247 error in acapiaccess_getProducts_annualPass: 
02.08.2016 9:02:11 +0200 10.0.32.247 TOKEN ricevuto, cache creata
02.08.2016 9:14:08 +0200 10.0.32.247 Login req: {
            "languageId":"2",
            "transactionId": "14701220482094105131",
            "tenant":"1",
            "profileAttributeFlag":true,
            "externalIdList": {
                "externalIds": [
                    {
                    "externalId" : "emanh18880@gmail.com"
                    }
                ]
             }
            }
02.08.2016 9:14:08 +0200 10.0.32.247 Login token: 4db732bc6177e8aec4bfdda8d6643c65
02.08.2016 9:14:08 +0200 10.0.32.247 Login response: {"transactionId":"14701220482094105131","userRetrievedList":{"users":[{"id":2357,"description":"emanh18880@gmail.com","parentBusinessUserId":2,"statusId":1,"roleTypeId":2,"defaultLanguageId":2,"userExternalIdList":{"externalIds":[{"externalId":"emanh18880@gmail.com","defaultFlag":1,"type":"email","statusId":1}]},"userAttributeList":{"attributeValues":[{"attributeId":9,"attributeName":"name","attributeValue":"Iman","languageId":2,"languageName":"en","statusId":1,"statusName":"active"},{"attributeId":10,"attributeName":"surname","attributeValue":"Hussein","languageId":2,"languageName":"en","statusId":1,"statusName":"active"},{"attributeId":14,"attributeName":"email","attributeValue":"emanh18880@gmail.com","languageId":2,"languageName":"en","statusId":1,"statusName":"active"},{"attributeId":100003,"attributeName":"customerNumber","attributeValue":"CON-20160802-0013","languageId":2,"languageName":"en","statusId":1,"statusName":"active"},{"attributeId":100004,"attributeName":"language","attributeValue":"EN","languageId":2,"languageName":"en","statusId":1,"statusName":"active"}]}}]},"resultCode":"0"}
02.08.2016 9:14:08 +0200 10.0.32.247 Login status: 200
02.08.2016 9:21:20 +0200 10.0.32.247 Login req: {
            "languageId":"2",
            "transactionId": "14701224801343202750",
            "tenant":"1",
            "profileAttributeFlag":true,
            "externalIdList": {
                "externalIds": [
                    {
                    "externalId" : "jacob.f.pomperada@gmail.com"
                    }
                ]
             }
            }
02.08.2016 9:21:20 +0200 10.0.32.247 Login token: 6a77d35409d213acbbe4eeeac70e
02.08.2016 9:21:20 +0200 10.0.32.247 Login response: {"transactionId":"14701224801343202750","userRetrievedList":{"users":[{"id":2309,"description":"jacob.f.pomperada@gmail.com","parentBusinessUserId":2,"statusId":1,"roleTypeId":2,"defaultLanguageId":2,"userExternalIdList":{"externalIds":[{"externalId":"jacob.f.pomperada@gmail.com","defaultFlag":1,"type":"email","statusId":1}]},"userAttributeList":{"attributeValues":[{"attributeId":9,"attributeName":"name","attributeValue":"Jacob","languageId":2,"languageName":"en","statusId":1,"statusName":"active"},{"attributeId":10,"attributeName":"surname","attributeValue":"Pomperada","languageId":2,"languageName":"en","statusId":1,"statusName":"active"},{"attributeId":14,"attributeName":"email","attributeValue":"jacob.f.pomperada@gmail.com","languageId":2,"languageName":"en","statusId":1,"statusName":"active"},{"attributeId":100003,"attributeName":"customerNumber","attributeValue":"CON-20160725-0018","languageId":2,"languageName":"en","statusId":1,"statusName":"active"},{"attributeId":100004,"attributeName":"language","attributeValue":"EN","languageId":2,"languageName":"en","statusId":1,"statusName":"active"},{"attributeId":100013,"attributeName":"NL_LEGOLAND","attributeValue":"False","languageId":2,"languageName":"en","statusId":1,"statusName":"active"},{"attributeId":100014,"attributeName":"NL_RIVERLAND","attributeValue":"False","languageId":2,"languageName":"en","statusId":1,"statusName":"active"},{"attributeId":100015,"attributeName":"NL_GENERAL_COMMUNICATION","attributeValue":"False","languageId":2,"languageName":"en","statusId":1,"statusName":"active"},{"attributeId":100018,"attributeName":"NL_BOLLIWOOD_PARK","attributeValue":"False","languageId":2,"languageName":"en","statusId":1,"statusName":"active"},{"attributeId":100019,"attributeName":"NL_MOTIONGATE","attributeValue":"False","languageId":2,"languageName":"en","statusId":1,"statusName":"active"},{"attributeId":100020,"attributeName":"NL_DUBAI_PARK_AND_RESORT","attributeValue":"False","languageId":2,"languageName":"en","statusId":1,"statusName":"active"}]}}]},"resultCode":"0"}
02.08.2016 9:21:20 +0200 10.0.32.247 Login status: 200
02.08.2016 9:40:52 +0200 10.0.32.247 Login req: {
            "languageId":"2",
            "transactionId": "14701236521088312936",
            "tenant":"1",
            "profileAttributeFlag":true,
            "externalIdList": {
                "externalIds": [
                    {
                    "externalId" : "451201525071951"
                    }
                ]
             }
            }
02.08.2016 9:40:52 +0200 10.0.32.247 Login token: cf71ac77d5aa12c8edc98b27907b943a
02.08.2016 9:40:52 +0200 10.0.32.247 Login response: {"transactionId":"14701236521088312936","userRetrievedList":{"users":[{"id":2358,"description":"451201525071951","parentBusinessUserId":2,"statusId":1,"roleTypeId":2,"defaultLanguageId":2,"userExternalIdList":{"externalIds":[{"externalId":"451201525071951","defaultFlag":1,"type":"socialID","statusId":1}]},"userAttributeList":{"attributeValues":[{"attributeId":9,"attributeName":"name","attributeValue":"Omahmed","languageId":2,"languageName":"en","statusId":1,"statusName":"active"},{"attributeId":10,"attributeName":"surname","attributeValue":"Hala","languageId":2,"languageName":"en","statusId":1,"statusName":"active"},{"attributeId":14,"attributeName":"email","attributeValue":"do7a8888@gmail.com","languageId":2,"languageName":"en","statusId":1,"statusName":"active"},{"attributeId":100004,"attributeName":"language","attributeValue":"ar","languageId":2,"languageName":"en","statusId":1,"statusName":"active"}]}}]},"resultCode":"0"}
02.08.2016 9:40:52 +0200 10.0.32.247 Login status: 200
02.08.2016 10:01:58 +0200 10.0.32.247 Login req: {
            "languageId":"2",
            "transactionId": "14701249171262331316",
            "tenant":"1",
            "profileAttributeFlag":true,
            "externalIdList": {
                "externalIds": [
                    {
                    "externalId" : "jacob.f.pomperada@gmail.com"
                    }
                ]
             }
            }
02.08.2016 10:01:58 +0200 10.0.32.247 Login token: 6a77d35409d213acbbe4eeeac70e
02.08.2016 10:01:58 +0200 10.0.32.247 Login response: {"transactionId":"14701249171262331316","userRetrievedList":{"users":[{"id":2309,"description":"jacob.f.pomperada@gmail.com","parentBusinessUserId":2,"statusId":1,"roleTypeId":2,"defaultLanguageId":2,"userExternalIdList":{"externalIds":[{"externalId":"jacob.f.pomperada@gmail.com","defaultFlag":1,"type":"email","statusId":1}]},"userAttributeList":{"attributeValues":[{"attributeId":9,"attributeName":"name","attributeValue":"Jacob","languageId":2,"languageName":"en","statusId":1,"statusName":"active"},{"attributeId":10,"attributeName":"surname","attributeValue":"Pomperada","languageId":2,"languageName":"en","statusId":1,"statusName":"active"},{"attributeId":14,"attributeName":"email","attributeValue":"jacob.f.pomperada@gmail.com","languageId":2,"languageName":"en","statusId":1,"statusName":"active"},{"attributeId":100003,"attributeName":"customerNumber","attributeValue":"CON-20160725-0018","languageId":2,"languageName":"en","statusId":1,"statusName":"active"},{"attributeId":100004,"attributeName":"language","attributeValue":"EN","languageId":2,"languageName":"en","statusId":1,"statusName":"active"},{"attributeId":100013,"attributeName":"NL_LEGOLAND","attributeValue":"False","languageId":2,"languageName":"en","statusId":1,"statusName":"active"},{"attributeId":100014,"attributeName":"NL_RIVERLAND","attributeValue":"False","languageId":2,"languageName":"en","statusId":1,"statusName":"active"},{"attributeId":100015,"attributeName":"NL_GENERAL_COMMUNICATION","attributeValue":"False","languageId":2,"languageName":"en","statusId":1,"statusName":"active"},{"attributeId":100018,"attributeName":"NL_BOLLIWOOD_PARK","attributeValue":"False","languageId":2,"languageName":"en","statusId":1,"statusName":"active"},{"attributeId":100019,"attributeName":"NL_MOTIONGATE","attributeValue":"False","languageId":2,"languageName":"en","statusId":1,"statusName":"active"},{"attributeId":100020,"attributeName":"NL_DUBAI_PARK_AND_RESORT","attributeValue":"False","languageId":2,"languageName":"en","statusId":1,"statusName":"active"}]}}]},"resultCode":"0"}
02.08.2016 10:01:58 +0200 10.0.32.247 Login status: 200
02.08.2016 10:02:17 +0200 10.0.32.247 TOKEN ricevuto, cache creata
02.08.2016 10:22:05 +0200 10.0.32.247 Login req: {
            "languageId":"2",
            "transactionId": "14701261251732007901",
            "tenant":"1",
            "profileAttributeFlag":true,
            "externalIdList": {
                "externalIds": [
                    {
                    "externalId" : "105029359940214"
                    }
                ]
             }
            }
02.08.2016 10:22:05 +0200 10.0.32.247 Login token: 93b6c015331ffd72c87dda9f2a65bf47
02.08.2016 10:22:05 +0200 10.0.32.247 Login response: {"transactionId":"14701261251732007901","userRetrievedList":{"users":[{"id":2072,"description":"105029359940214","parentBusinessUserId":2,"statusId":1,"roleTypeId":2,"defaultLanguageId":2,"userExternalIdList":{"externalIds":[{"externalId":"105029359940214","defaultFlag":1,"type":"socialID","statusId":1}]},"userAttributeList":{"attributeValues":[{"attributeId":9,"attributeName":"name","attributeValue":"Jacob","languageId":2,"languageName":"en","statusId":1,"statusName":"active"},{"attributeId":10,"attributeName":"surname","attributeValue":"Pomperada","languageId":2,"languageName":"en","statusId":1,"statusName":"active"},{"attributeId":14,"attributeName":"email","attributeValue":"jacob.f.pomperada@gmail.com","languageId":2,"languageName":"en","statusId":1,"statusName":"active"},{"attributeId":100003,"attributeName":"customerNumber","attributeValue":"CON-20160725-0018","languageId":2,"languageName":"en","statusId":1,"statusName":"active"},{"attributeId":100004,"attributeName":"language","attributeValue":"EN","languageId":2,"languageName":"en","statusId":1,"statusName":"active"}]}}]},"resultCode":"0"}
02.08.2016 10:22:05 +0200 10.0.32.247 Login status: 200
02.08.2016 10:22:25 +0200 10.0.32.247 Login req: {
            "languageId":"2",
            "transactionId": "1470126145774923602",
            "tenant":"1",
            "profileAttributeFlag":true,
            "externalIdList": {
                "externalIds": [
                    {
                    "externalId" : "10154678341371564"
                    }
                ]
             }
            }
02.08.2016 10:22:25 +0200 10.0.32.247 Login token: 5227b51bed3819d3455c1c34b43b1e9
02.08.2016 10:22:25 +0200 10.0.32.247 Login response: {"transactionId":"1470126145774923602","userRetrievedList":{"users":[{"id":2363,"description":"10154678341371564","parentBusinessUserId":2,"statusId":1,"roleTypeId":2,"defaultLanguageId":2,"userExternalIdList":{"externalIds":[{"externalId":"10154678341371564","defaultFlag":1,"type":"socialID","statusId":1}]},"userAttributeList":{"attributeValues":[{"attributeId":9,"attributeName":"name","attributeValue":"Allan","languageId":2,"languageName":"en","statusId":1,"statusName":"active"},{"attributeId":10,"attributeName":"surname","attributeValue":"Tinsay","languageId":2,"languageName":"en","statusId":1,"statusName":"active"},{"attributeId":14,"attributeName":"email","attributeValue":"allanc_10s@yahoo.com","languageId":2,"languageName":"en","statusId":1,"statusName":"active"},{"attributeId":100004,"attributeName":"language","attributeValue":"en","languageId":2,"languageName":"en","statusId":1,"statusName":"active"}]}}]},"resultCode":"0"}
02.08.2016 10:22:25 +0200 10.0.32.247 Login status: 200
02.08.2016 10:24:01 +0200 10.0.32.247 error in acapiaccess_getProducts_annualPass: 
02.08.2016 10:33:03 +0200 10.0.32.247 Login req: {
            "languageId":"2",
            "transactionId": "14701267831381991755",
            "tenant":"1",
            "profileAttributeFlag":true,
            "externalIdList": {
                "externalIds": [
                    {
                    "externalId" : "jacob.f.pomperada@gmail.com"
                    }
                ]
             }
            }
02.08.2016 10:33:03 +0200 10.0.32.247 Login token: 7de8ac1c70f27620e5a7408f58732250
02.08.2016 10:33:03 +0200 10.0.32.247 Login response: {"transactionId":"14701267831381991755","userRetrievedList":{"users":[{"id":2309,"description":"jacob.f.pomperada@gmail.com","parentBusinessUserId":2,"statusId":1,"roleTypeId":2,"defaultLanguageId":2,"userExternalIdList":{"externalIds":[{"externalId":"jacob.f.pomperada@gmail.com","defaultFlag":1,"type":"email","statusId":1}]},"userAttributeList":{"attributeValues":[{"attributeId":9,"attributeName":"name","attributeValue":"Jacob","languageId":2,"languageName":"en","statusId":1,"statusName":"active"},{"attributeId":10,"attributeName":"surname","attributeValue":"Pomperada","languageId":2,"languageName":"en","statusId":1,"statusName":"active"},{"attributeId":14,"attributeName":"email","attributeValue":"jacob.f.pomperada@gmail.com","languageId":2,"languageName":"en","statusId":1,"statusName":"active"},{"attributeId":100003,"attributeName":"customerNumber","attributeValue":"CON-20160725-0018","languageId":2,"languageName":"en","statusId":1,"statusName":"active"},{"attributeId":100004,"attributeName":"language","attributeValue":"EN","languageId":2,"languageName":"en","statusId":1,"statusName":"active"},{"attributeId":100013,"attributeName":"NL_LEGOLAND","attributeValue":"False","languageId":2,"languageName":"en","statusId":1,"statusName":"active"},{"attributeId":100014,"attributeName":"NL_RIVERLAND","attributeValue":"False","languageId":2,"languageName":"en","statusId":1,"statusName":"active"},{"attributeId":100015,"attributeName":"NL_GENERAL_COMMUNICATION","attributeValue":"False","languageId":2,"languageName":"en","statusId":1,"statusName":"active"},{"attributeId":100018,"attributeName":"NL_BOLLIWOOD_PARK","attributeValue":"False","languageId":2,"languageName":"en","statusId":1,"statusName":"active"},{"attributeId":100019,"attributeName":"NL_MOTIONGATE","attributeValue":"False","languageId":2,"languageName":"en","statusId":1,"statusName":"active"},{"attributeId":100020,"attributeName":"NL_DUBAI_PARK_AND_RESORT","attributeValue":"False","languageId":2,"languageName":"en","statusId":1,"statusName":"active"}]}}]},"resultCode":"0"}
02.08.2016 10:33:03 +0200 10.0.32.247 Login status: 200
02.08.2016 11:02:54 +0200 10.0.32.247 TOKEN ricevuto, cache creata
02.08.2016 11:22:31 +0200 10.0.32.247 Login req: {
            "languageId":"2",
            "transactionId": "1470129751989844031",
            "tenant":"1",
            "profileAttributeFlag":true,
            "externalIdList": {
                "externalIds": [
                    {
                    "externalId" : "1241059445938111"
                    }
                ]
             }
            }
02.08.2016 11:22:31 +0200 10.0.32.247 Login token: 601f1cdf961d94e1fae8715e6b09c70
02.08.2016 11:22:31 +0200 10.0.32.247 Login response: {"transactionId":"1470129751989844031","userRetrievedList":{"users":[{"id":2364,"description":"1241059445938111","parentBusinessUserId":2,"statusId":1,"roleTypeId":2,"defaultLanguageId":2,"userExternalIdList":{"externalIds":[{"externalId":"1241059445938111","defaultFlag":1,"type":"socialID","statusId":1}]},"userAttributeList":{"attributeValues":[{"attributeId":9,"attributeName":"name","attributeValue":"Bryann","languageId":2,"languageName":"en","statusId":1,"statusName":"active"},{"attributeId":10,"attributeName":"surname","attributeValue":"Castillo","languageId":2,"languageName":"en","statusId":1,"statusName":"active"},{"attributeId":14,"attributeName":"email","attributeValue":"rjbryanncastillo@yahoo.com","languageId":2,"languageName":"en","statusId":1,"statusName":"active"},{"attributeId":100004,"attributeName":"language","attributeValue":"en","languageId":2,"languageName":"en","statusId":1,"statusName":"active"}]}}]},"resultCode":"0"}
02.08.2016 11:22:31 +0200 10.0.32.247 Login status: 200
02.08.2016 12:03:01 +0200 10.0.32.247 TOKEN ricevuto, cache creata
02.08.2016 12:17:14 +0200 10.0.32.247 Login req: {
            "languageId":"2",
            "transactionId": "1470133034438305445",
            "tenant":"1",
            "profileAttributeFlag":true,
            "externalIdList": {
                "externalIds": [
                    {
                    "externalId" : "10153694683605895"
                    }
                ]
             }
            }
02.08.2016 12:17:14 +0200 10.0.32.247 Login token: 1b9b874c4681849ce2384ffd38f077
02.08.2016 12:17:14 +0200 10.0.32.247 Login response: {"transactionId":"1470133034438305445","userRetrievedList":{"users":[{"id":1858,"description":"10153694683605895","parentBusinessUserId":2,"statusId":1,"roleTypeId":2,"defaultLanguageId":2,"userExternalIdList":{"externalIds":[{"externalId":"10153694683605895","defaultFlag":1,"type":"socialID","statusId":1}]},"userAttributeList":{"attributeValues":[{"attributeId":9,"attributeName":"name","attributeValue":"Evans","languageId":2,"languageName":"en","statusId":1,"statusName":"active"},{"attributeId":10,"attributeName":"surname","attributeValue":"Anthony","languageId":2,"languageName":"en","statusId":1,"statusName":"active"},{"attributeId":14,"attributeName":"email","attributeValue":"easyereal2@yahoo.com","languageId":2,"languageName":"en","statusId":1,"statusName":"active"},{"attributeId":100003,"attributeName":"customerNumber","attributeValue":"CON-20160719-0016","languageId":2,"languageName":"en","statusId":1,"statusName":"active"},{"attributeId":100004,"attributeName":"language","attributeValue":"en","languageId":2,"languageName":"en","statusId":1,"statusName":"active"}]}}]},"resultCode":"0"}
02.08.2016 12:17:14 +0200 10.0.32.247 Login status: 200
02.08.2016 12:18:16 +0200 10.0.32.247 Login req: {
            "languageId":"2",
            "transactionId": "14701330961894883214",
            "tenant":"1",
            "profileAttributeFlag":true,
            "externalIdList": {
                "externalIds": [
                    {
                    "externalId" : "agada_blessing@yahoo.com"
                    }
                ]
             }
            }
02.08.2016 12:18:16 +0200 10.0.32.247 Login token: e9363b9d67e86cf04195e9addb2edbb
02.08.2016 12:18:16 +0200 10.0.32.247 Login response: {"transactionId":"14701330961894883214","userRetrievedList":{"users":[{"id":2365,"description":"agada_blessing@yahoo.com","parentBusinessUserId":2,"statusId":1,"roleTypeId":2,"defaultLanguageId":2,"userExternalIdList":{"externalIds":[{"externalId":"agada_blessing@yahoo.com","defaultFlag":1,"type":"email","statusId":1}]},"userAttributeList":{"attributeValues":[{"attributeId":9,"attributeName":"name","attributeValue":"Blessing","languageId":2,"languageName":"en","statusId":1,"statusName":"active"},{"attributeId":10,"attributeName":"surname","attributeValue":"Agada","languageId":2,"languageName":"en","statusId":1,"statusName":"active"},{"attributeId":14,"attributeName":"email","attributeValue":"agada_blessing@yahoo.com","languageId":2,"languageName":"en","statusId":1,"statusName":"active"},{"attributeId":100003,"attributeName":"customerNumber","attributeValue":"CON-20160802-0020","languageId":2,"languageName":"en","statusId":1,"statusName":"active"},{"attributeId":100004,"attributeName":"language","attributeValue":"EN","languageId":2,"languageName":"en","statusId":1,"statusName":"active"}]}}]},"resultCode":"0"}
02.08.2016 12:18:16 +0200 10.0.32.247 Login status: 200
02.08.2016 12:37:32 +0200 10.0.32.247 Login req: {
            "languageId":"2",
            "transactionId": "1470134252779563440",
            "tenant":"1",
            "profileAttributeFlag":true,
            "externalIdList": {
                "externalIds": [
                    {
                    "externalId" : "Bluemoon.ma22@gmail.com"
                    }
                ]
             }
            }
02.08.2016 12:37:32 +0200 10.0.32.247 Login token: dfcfc7699a6ccf24a4366f6f5ece862
02.08.2016 12:37:32 +0200 10.0.32.247 Login response: {"transactionId":"1470134252779563440","userRetrievedList":{"users":[{"id":2368,"description":"bluemoon.ma22@gmail.com","parentBusinessUserId":2,"statusId":1,"roleTypeId":2,"defaultLanguageId":2,"userExternalIdList":{"externalIds":[{"externalId":"bluemoon.ma22@gmail.com","defaultFlag":1,"type":"email","statusId":1}]},"userAttributeList":{"attributeValues":[{"attributeId":9,"attributeName":"name","attributeValue":"MONA","languageId":2,"languageName":"en","statusId":1,"statusName":"active"},{"attributeId":10,"attributeName":"surname","attributeValue":"Abdullahi","languageId":2,"languageName":"en","statusId":1,"statusName":"active"},{"attributeId":14,"attributeName":"email","attributeValue":"bluemoon.ma22@gmail.com","languageId":2,"languageName":"en","statusId":1,"statusName":"active"},{"attributeId":100003,"attributeName":"customerNumber","attributeValue":"CON-20160802-0021","languageId":2,"languageName":"en","statusId":1,"statusName":"active"},{"attributeId":100004,"attributeName":"language","attributeValue":"AR","languageId":2,"languageName":"en","statusId":1,"statusName":"active"},{"attributeId":100020,"attributeName":"NL_DUBAI_PARK_AND_RESORT","attributeValue":"true","languageId":2,"languageName":"en","statusId":1,"statusName":"active"}]}}]},"resultCode":"0"}
02.08.2016 12:37:32 +0200 10.0.32.247 Login status: 200
02.08.2016 12:56:55 +0200 10.0.32.247 Login req: {
            "languageId":"2",
            "transactionId": "1470135415682402692",
            "tenant":"1",
            "profileAttributeFlag":true,
            "externalIdList": {
                "externalIds": [
                    {
                    "externalId" : "leoyataga@yahoo.fr"
                    }
                ]
             }
            }
02.08.2016 12:56:55 +0200 10.0.32.247 Login token: c4a29ab61e61ce2ba7d0a72244487cd
02.08.2016 12:56:55 +0200 10.0.32.247 Login response: {"transactionId":"1470135415682402692","userRetrievedList":{"users":[{"id":2369,"description":"leoyataga@yahoo.fr","parentBusinessUserId":2,"statusId":1,"roleTypeId":2,"defaultLanguageId":2,"userExternalIdList":{"externalIds":[{"externalId":"leoyataga@yahoo.fr","defaultFlag":1,"type":"email","statusId":1}]},"userAttributeList":{"attributeValues":[{"attributeId":9,"attributeName":"name","attributeValue":"Leonel","languageId":2,"languageName":"en","statusId":1,"statusName":"active"},{"attributeId":10,"attributeName":"surname","attributeValue":"Yataga","languageId":2,"languageName":"en","statusId":1,"statusName":"active"},{"attributeId":14,"attributeName":"email","attributeValue":"leoyataga@yahoo.fr","languageId":2,"languageName":"en","statusId":1,"statusName":"active"},{"attributeId":100003,"attributeName":"customerNumber","attributeValue":"CON-20160802-0024","languageId":2,"languageName":"en","statusId":1,"statusName":"active"},{"attributeId":100004,"attributeName":"language","attributeValue":"EN","languageId":2,"languageName":"en","statusId":1,"statusName":"active"},{"attributeId":100020,"attributeName":"NL_DUBAI_PARK_AND_RESORT","attributeValue":"true","languageId":2,"languageName":"en","statusId":1,"statusName":"active"}]}}]},"resultCode":"0"}
02.08.2016 12:56:55 +0200 10.0.32.247 Login status: 200
02.08.2016 13:03:56 +0200 10.0.32.247 TOKEN ricevuto, cache creata
02.08.2016 13:44:36 +0200 10.0.32.247 Login req: {
            "languageId":"2",
            "transactionId": "147013827685200562",
            "tenant":"1",
            "profileAttributeFlag":true,
            "externalIdList": {
                "externalIds": [
                    {
                    "externalId" : "Rania.khalid12@hotmail.com"
                    }
                ]
             }
            }
02.08.2016 13:44:36 +0200 10.0.32.247 Login token: 2c6a3eba8af4c65678c3ce6ed477e2f9
02.08.2016 13:44:36 +0200 10.0.32.247 Login response: {"transactionId":"147013827685200562","userRetrievedList":{"users":[{"id":2371,"description":"rania.khalid12@hotmail.com","parentBusinessUserId":2,"statusId":1,"roleTypeId":2,"defaultLanguageId":2,"userExternalIdList":{"externalIds":[{"externalId":"rania.khalid12@hotmail.com","defaultFlag":1,"type":"email","statusId":1}]},"userAttributeList":{"attributeValues":[{"attributeId":9,"attributeName":"name","attributeValue":"Rania","languageId":2,"languageName":"en","statusId":1,"statusName":"active"},{"attributeId":10,"attributeName":"surname","attributeValue":"Habbach","languageId":2,"languageName":"en","statusId":1,"statusName":"active"},{"attributeId":14,"attributeName":"email","attributeValue":"rania.khalid12@hotmail.com","languageId":2,"languageName":"en","statusId":1,"statusName":"active"},{"attributeId":100003,"attributeName":"customerNumber","attributeValue":"CON-20160802-0026","languageId":2,"languageName":"en","statusId":1,"statusName":"active"},{"attributeId":100004,"attributeName":"language","attributeValue":"AR","languageId":2,"languageName":"en","statusId":1,"statusName":"active"}]}}]},"resultCode":"0"}
02.08.2016 13:44:36 +0200 10.0.32.247 Login status: 200
02.08.2016 14:05:54 +0200 10.0.32.247 TOKEN ricevuto, cache creata
02.08.2016 15:08:51 +0200 10.0.32.247 TOKEN ricevuto, cache creata
02.08.2016 16:09:01 +0200 10.0.32.247 TOKEN ricevuto, cache creata
02.08.2016 16:41:10 +0200 10.0.32.247 Login req: {
            "languageId":"2",
            "transactionId": "14701488701688560304",
            "tenant":"1",
            "profileAttributeFlag":true,
            "externalIdList": {
                "externalIds": [
                    {
                    "externalId" : "10210200095183963"
                    }
                ]
             }
            }
02.08.2016 16:41:10 +0200 10.0.32.247 Login token: 734c698df826ec0931e6a7dda9779e4
02.08.2016 16:41:10 +0200 10.0.32.247 Login response: {"transactionId":"14701488701688560304","userRetrievedList":{"users":[{"id":2374,"description":"10210200095183963","parentBusinessUserId":2,"statusId":1,"roleTypeId":2,"defaultLanguageId":2,"userExternalIdList":{"externalIds":[{"externalId":"10210200095183963","defaultFlag":1,"type":"socialID","statusId":1}]},"userAttributeList":{"attributeValues":[{"attributeId":9,"attributeName":"name","attributeValue":"Esmail","languageId":2,"languageName":"en","statusId":1,"statusName":"active"},{"attributeId":10,"attributeName":"surname","attributeValue":"Ahmed","languageId":2,"languageName":"en","statusId":1,"statusName":"active"},{"attributeId":14,"attributeName":"email","attributeValue":"esmail1999@hotmail.com","languageId":2,"languageName":"en","statusId":1,"statusName":"active"},{"attributeId":100004,"attributeName":"language","attributeValue":"en","languageId":2,"languageName":"en","statusId":1,"statusName":"active"}]}}]},"resultCode":"0"}
02.08.2016 16:41:10 +0200 10.0.32.247 Login status: 200
02.08.2016 17:09:49 +0200 10.0.32.247 TOKEN ricevuto, cache creata
02.08.2016 17:56:36 +0200 10.0.32.247 Login req: {
            "languageId":"2",
            "transactionId": "14701533961770933988",
            "tenant":"1",
            "profileAttributeFlag":true,
            "externalIdList": {
                "externalIds": [
                    {
                    "externalId" : "malou_cedo@yahoo.com"
                    }
                ]
             }
            }
02.08.2016 17:56:36 +0200 10.0.32.247 Login token: 85d281651d3be2e14d399ec8da13dbcf
02.08.2016 17:56:36 +0200 10.0.32.247 Login response: {"transactionId":"14701533961770933988","userRetrievedList":{"users":[{"id":2376,"description":"malou_cedo@yahoo.com","parentBusinessUserId":2,"statusId":1,"roleTypeId":2,"defaultLanguageId":2,"userExternalIdList":{"externalIds":[{"externalId":"malou_cedo@yahoo.com","defaultFlag":1,"type":"email","statusId":1}]},"userAttributeList":{"attributeValues":[{"attributeId":9,"attributeName":"name","attributeValue":"Marilou","languageId":2,"languageName":"en","statusId":1,"statusName":"active"},{"attributeId":10,"attributeName":"surname","attributeValue":"Castillo","languageId":2,"languageName":"en","statusId":1,"statusName":"active"},{"attributeId":14,"attributeName":"email","attributeValue":"malou_cedo@yahoo.com","languageId":2,"languageName":"en","statusId":1,"statusName":"active"},{"attributeId":100003,"attributeName":"customerNumber","attributeValue":"CON-20160802-0032","languageId":2,"languageName":"en","statusId":1,"statusName":"active"},{"attributeId":100004,"attributeName":"language","attributeValue":"EN","languageId":2,"languageName":"en","statusId":1,"statusName":"active"},{"attributeId":100020,"attributeName":"NL_DUBAI_PARK_AND_RESORT","attributeValue":"true","languageId":2,"languageName":"en","statusId":1,"statusName":"active"}]}}]},"resultCode":"0"}
02.08.2016 17:56:36 +0200 10.0.32.247 Login status: 200
02.08.2016 18:01:42 +0200 10.0.32.247 Login req: {
            "languageId":"2",
            "transactionId": "1470153702896758008",
            "tenant":"1",
            "profileAttributeFlag":true,
            "externalIdList": {
                "externalIds": [
                    {
                    "externalId" : "agada_blessing@yahoo.com"
                    }
                ]
             }
            }
02.08.2016 18:01:42 +0200 10.0.32.247 Login token: e31d32221f2272e82d6759fa142e14
02.08.2016 18:01:42 +0200 10.0.32.247 Login response: {"transactionId":"1470153702896758008","userRetrievedList":{"users":[{"id":2365,"description":"agada_blessing@yahoo.com","parentBusinessUserId":2,"statusId":1,"roleTypeId":2,"defaultLanguageId":2,"userExternalIdList":{"externalIds":[{"externalId":"agada_blessing@yahoo.com","defaultFlag":1,"type":"email","statusId":1}]},"userAttributeList":{"attributeValues":[{"attributeId":9,"attributeName":"name","attributeValue":"Blessing","languageId":2,"languageName":"en","statusId":1,"statusName":"active"},{"attributeId":10,"attributeName":"surname","attributeValue":"Agada","languageId":2,"languageName":"en","statusId":1,"statusName":"active"},{"attributeId":14,"attributeName":"email","attributeValue":"agada_blessing@yahoo.com","languageId":2,"languageName":"en","statusId":1,"statusName":"active"},{"attributeId":100003,"attributeName":"customerNumber","attributeValue":"CON-20160802-0020","languageId":2,"languageName":"en","statusId":1,"statusName":"active"},{"attributeId":100004,"attributeName":"language","attributeValue":"EN","languageId":2,"languageName":"en","statusId":1,"statusName":"active"}]}}]},"resultCode":"0"}
02.08.2016 18:01:42 +0200 10.0.32.247 Login status: 200
02.08.2016 18:10:01 +0200 10.0.32.247 TOKEN ricevuto, cache creata
02.08.2016 18:10:07 +0200 10.0.32.247 TOKEN ricevuto, cache creata
02.08.2016 18:11:41 +0200 10.0.32.247 Login req: {
            "languageId":"2",
            "transactionId": "1470154301711082279",
            "tenant":"1",
            "profileAttributeFlag":true,
            "externalIdList": {
                "externalIds": [
                    {
                    "externalId" : "agada_blessing@yahoo.com"
                    }
                ]
             }
            }
02.08.2016 18:11:41 +0200 10.0.32.247 Login token: e31d32221f2272e82d6759fa142e14
02.08.2016 18:11:41 +0200 10.0.32.247 Login response: {"transactionId":"1470154301711082279","userRetrievedList":{"users":[{"id":2365,"description":"agada_blessing@yahoo.com","parentBusinessUserId":2,"statusId":1,"roleTypeId":2,"defaultLanguageId":2,"userExternalIdList":{"externalIds":[{"externalId":"agada_blessing@yahoo.com","defaultFlag":1,"type":"email","statusId":1}]},"userAttributeList":{"attributeValues":[{"attributeId":9,"attributeName":"name","attributeValue":"Blessing","languageId":2,"languageName":"en","statusId":1,"statusName":"active"},{"attributeId":10,"attributeName":"surname","attributeValue":"Agada","languageId":2,"languageName":"en","statusId":1,"statusName":"active"},{"attributeId":14,"attributeName":"email","attributeValue":"agada_blessing@yahoo.com","languageId":2,"languageName":"en","statusId":1,"statusName":"active"},{"attributeId":100003,"attributeName":"customerNumber","attributeValue":"CON-20160802-0020","languageId":2,"languageName":"en","statusId":1,"statusName":"active"},{"attributeId":100004,"attributeName":"language","attributeValue":"EN","languageId":2,"languageName":"en","statusId":1,"statusName":"active"}]}}]},"resultCode":"0"}
02.08.2016 18:11:41 +0200 10.0.32.247 Login status: 200
02.08.2016 19:10:26 +0200 10.0.32.247 TOKEN ricevuto, cache creata
02.08.2016 19:24:51 +0200 10.0.32.247 Login req: {
            "languageId":"2",
            "transactionId": "1470158691622450173",
            "tenant":"1",
            "profileAttributeFlag":true,
            "externalIdList": {
                "externalIds": [
                    {
                    "externalId" : "10210394496045826"
                    }
                ]
             }
            }
02.08.2016 19:24:51 +0200 10.0.32.247 Login token: bc2bcb0df85192799edbdb524ec789d
02.08.2016 19:24:51 +0200 10.0.32.247 Login response: {"transactionId":"1470158691622450173","userRetrievedList":{"users":[{"id":2379,"description":"10210394496045826","parentBusinessUserId":2,"statusId":1,"roleTypeId":2,"defaultLanguageId":2,"userExternalIdList":{"externalIds":[{"externalId":"10210394496045826","defaultFlag":1,"type":"socialID","statusId":1}]},"userAttributeList":{"attributeValues":[{"attributeId":9,"attributeName":"name","attributeValue":"Kabeer","languageId":2,"languageName":"en","statusId":1,"statusName":"active"},{"attributeId":10,"attributeName":"surname","attributeValue":"Hajireen","languageId":2,"languageName":"en","statusId":1,"statusName":"active"},{"attributeId":14,"attributeName":"email","attributeValue":"kkhajireen@yahoo.com","languageId":2,"languageName":"en","statusId":1,"statusName":"active"},{"attributeId":100004,"attributeName":"language","attributeValue":"en","languageId":2,"languageName":"en","statusId":1,"statusName":"active"}]}}]},"resultCode":"0"}
02.08.2016 19:24:51 +0200 10.0.32.247 Login status: 200
02.08.2016 20:11:44 +0200 10.0.32.247 TOKEN ricevuto, cache creata
02.08.2016 20:21:05 +0200 10.0.32.247 Login req: {
            "languageId":"2",
            "transactionId": "14701620651926307599",
            "tenant":"1",
            "profileAttributeFlag":true,
            "externalIdList": {
                "externalIds": [
                    {
                    "externalId" : "cian_belen@yahoo.com"
                    }
                ]
             }
            }
02.08.2016 20:21:05 +0200 10.0.32.247 Login token: fb84525668ee9576cd764eea8728cb
02.08.2016 20:21:05 +0200 10.0.32.247 Login response: {"transactionId":"14701620651926307599","userRetrievedList":{"users":[{"id":2380,"description":"cian_belen@yahoo.com","parentBusinessUserId":2,"statusId":1,"roleTypeId":2,"defaultLanguageId":2,"userExternalIdList":{"externalIds":[{"externalId":"cian_belen@yahoo.com","defaultFlag":1,"type":"email","statusId":1}]},"userAttributeList":{"attributeValues":[{"attributeId":9,"attributeName":"name","attributeValue":"Feleciano Jr","languageId":2,"languageName":"en","statusId":1,"statusName":"active"},{"attributeId":10,"attributeName":"surname","attributeValue":"Belen","languageId":2,"languageName":"en","statusId":1,"statusName":"active"},{"attributeId":14,"attributeName":"email","attributeValue":"cian_belen@yahoo.com","languageId":2,"languageName":"en","statusId":1,"statusName":"active"},{"attributeId":100003,"attributeName":"customerNumber","attributeValue":"CON-20160802-0036","languageId":2,"languageName":"en","statusId":1,"statusName":"active"},{"attributeId":100004,"attributeName":"language","attributeValue":"EN","languageId":2,"languageName":"en","statusId":1,"statusName":"active"}]}}]},"resultCode":"0"}
02.08.2016 20:21:05 +0200 10.0.32.247 Login status: 200
02.08.2016 21:16:11 +0200 10.0.32.247 TOKEN ricevuto, cache creata
02.08.2016 22:06:00 +0200 10.0.32.247 Login req: {
            "languageId":"2",
            "transactionId": "147016836037387433",
            "tenant":"1",
            "profileAttributeFlag":true,
            "externalIdList": {
                "externalIds": [
                    {
                    "externalId" : "tadi@khonini.com"
                    }
                ]
             }
            }
02.08.2016 22:06:00 +0200 10.0.32.247 Login token: 518774311748fd814b05e744c651bb0
02.08.2016 22:06:00 +0200 10.0.32.247 Login response: {"transactionId":"147016836037387433","userRetrievedList":{"users":[{"id":2381,"description":"tadi@khonini.com","parentBusinessUserId":2,"statusId":1,"roleTypeId":2,"defaultLanguageId":2,"userExternalIdList":{"externalIds":[{"externalId":"tadi@khonini.com","defaultFlag":1,"type":"email","statusId":1}]},"userAttributeList":{"attributeValues":[{"attributeId":9,"attributeName":"name","attributeValue":"tadi","languageId":2,"languageName":"en","statusId":1,"statusName":"active"},{"attributeId":10,"attributeName":"surname","attributeValue":"alkhonini","languageId":2,"languageName":"en","statusId":1,"statusName":"active"},{"attributeId":14,"attributeName":"email","attributeValue":"tadi@khonini.com","languageId":2,"languageName":"en","statusId":1,"statusName":"active"},{"attributeId":100003,"attributeName":"customerNumber","attributeValue":"CON-20160803-0001","languageId":2,"languageName":"en","statusId":1,"statusName":"active"},{"attributeId":100004,"attributeName":"language","attributeValue":"AR","languageId":2,"languageName":"en","statusId":1,"statusName":"active"},{"attributeId":100020,"attributeName":"NL_DUBAI_PARK_AND_RESORT","attributeValue":"true","languageId":2,"languageName":"en","statusId":1,"statusName":"active"}]}}]},"resultCode":"0"}
02.08.2016 22:06:00 +0200 10.0.32.247 Login status: 200
02.08.2016 22:20:26 +0200 10.0.32.247 TOKEN ricevuto, cache creata
02.08.2016 23:22:45 +0200 10.0.32.247 TOKEN ricevuto, cache creata
02.08.2016 23:56:26 +0200 10.0.32.247 Login req: {
            "languageId":"2",
            "transactionId": "14701749862011331225",
            "tenant":"1",
            "profileAttributeFlag":true,
            "externalIdList": {
                "externalIds": [
                    {
                    "externalId" : "dr.elreem@hotmail.com"
                    }
                ]
             }
            }
02.08.2016 23:56:26 +0200 10.0.32.247 Login token: e7473cc8df2595352a58dcc72b33d651
02.08.2016 23:56:26 +0200 10.0.32.247 Login response: {"transactionId":"14701749862011331225","userRetrievedList":{"users":[{"id":2382,"description":"dr.elreem@hotmail.com","parentBusinessUserId":2,"statusId":1,"roleTypeId":2,"defaultLanguageId":2,"userExternalIdList":{"externalIds":[{"externalId":"dr.elreem@hotmail.com","defaultFlag":1,"type":"email","statusId":1}]},"userAttributeList":{"attributeValues":[{"attributeId":9,"attributeName":"name","attributeValue":"Mariam","languageId":2,"languageName":"en","statusId":1,"statusName":"active"},{"attributeId":10,"attributeName":"surname","attributeValue":"AlMaazmi","languageId":2,"languageName":"en","statusId":1,"statusName":"active"},{"attributeId":14,"attributeName":"email","attributeValue":"dr.elreem@hotmail.com","languageId":2,"languageName":"en","statusId":1,"statusName":"active"},{"attributeId":100003,"attributeName":"customerNumber","attributeValue":"CON-20160803-0002","languageId":2,"languageName":"en","statusId":1,"statusName":"active"},{"attributeId":100004,"attributeName":"language","attributeValue":"EN","languageId":2,"languageName":"en","statusId":1,"statusName":"active"},{"attributeId":100020,"attributeName":"NL_DUBAI_PARK_AND_RESORT","attributeValue":"true","languageId":2,"languageName":"en","statusId":1,"statusName":"active"}]}}]},"resultCode":"0"}
02.08.2016 23:56:26 +0200 10.0.32.247 Login status: 200