
10.05.2016 0:10:28 +0200 10.0.32.247 TOKEN ricevuto, cache creata
10.05.2016 1:27:29 +0200 10.0.32.247 TOKEN ricevuto, cache creata
10.05.2016 2:13:38 +0200 10.0.32.247 TOKEN expired => RENEWING. Server response =>401
10.05.2016 2:13:38 +0200 10.0.32.247 RENEWING token
10.05.2016 2:13:38 +0200 10.0.32.247 RENEW TOKEN RESULT =>200 || 54159e6e3fc7bc69e0a220d1974da88f
10.05.2016 2:13:38 +0200 10.0.32.247 error in acapiaccess_getProducts_annualPass: 
10.05.2016 3:22:17 +0200 10.0.32.247 TOKEN ricevuto, cache creata
10.05.2016 4:22:59 +0200 10.0.32.247 TOKEN ricevuto, cache creata
10.05.2016 5:26:44 +0200 10.0.32.247 TOKEN ricevuto, cache creata
10.05.2016 6:29:29 +0200 10.0.32.247 TOKEN ricevuto, cache creata
10.05.2016 7:30:29 +0200 10.0.32.247 TOKEN ricevuto, cache creata
10.05.2016 8:21:52 +0200 10.0.32.247 Login req: {
            "languageId":"2",
            "transactionId": "14628613122141240215",
            "tenant":"1",
            "profileAttributeFlag":true,
            "externalIdList": {
                "externalIds": [
                    {
                    "externalId" : "540048786168086"
                    }
                ]
             }   
            }
10.05.2016 8:21:52 +0200 10.0.32.247 Login token: 96b5899dfd1bd8c2a1bc19bd2bf6a22
10.05.2016 8:21:52 +0200 10.0.32.247 Login response: {"transactionId":"14628613122141240215","userRetrievedList":{"users":[{"id":480,"description":"540048786168086","parentBusinessUserId":2,"statusId":1,"roleTypeId":2,"defaultLanguageId":2,"userExternalIdList":{"externalIds":[{"externalId":"540048786168086","defaultFlag":1,"type":"socialID","statusId":1}]},"userAttributeList":{"attributeValues":[{"attributeId":9,"attributeName":"name","attributeValue":"Keith","languageId":2,"languageName":"en","statusId":1,"statusName":"active"},{"attributeId":10,"attributeName":"surname","attributeValue":"Lawrence","languageId":2,"languageName":"en","statusId":1,"statusName":"active"},{"attributeId":14,"attributeName":"email","attributeValue":"jojivinas143@gmail.com","languageId":2,"languageName":"en","statusId":1,"statusName":"active"},{"attributeId":100004,"attributeName":"language","attributeValue":"en","languageId":2,"languageName":"en","statusId":1,"statusName":"active"}]}}]},"resultCode":"0"}
10.05.2016 8:21:52 +0200 10.0.32.247 Login status: 200
10.05.2016 8:30:50 +0200 10.0.32.247 TOKEN ricevuto, cache creata
10.05.2016 8:31:04 +0200 10.0.32.247 TOKEN ricevuto, cache creata
10.05.2016 9:20:11 +0200 10.0.32.247 Login req: {
            "languageId":"2",
            "transactionId": "14628648111669835507",
            "tenant":"1",
            "profileAttributeFlag":true,
            "externalIdList": {
                "externalIds": [
                    {
                    "externalId" : "jazelmaelolos@gmail.com"
                    }
                ]
             }   
            }
10.05.2016 9:20:11 +0200 10.0.32.247 Login token: ddaae4c02930c75c25c47fcfab437d50
10.05.2016 9:20:11 +0200 10.0.32.247 Login response: {"transactionId":"14628648111669835507","userRetrievedList":{"users":[{"id":482,"description":"jazelmaelolos@gmail.com","parentBusinessUserId":2,"statusId":1,"roleTypeId":2,"defaultLanguageId":2,"userExternalIdList":{"externalIds":[{"externalId":"jazelmaelolos@gmail.com","defaultFlag":1,"type":"email","statusId":1}]},"userAttributeList":{"attributeValues":[{"attributeId":9,"attributeName":"name","attributeValue":"jazel mae","languageId":2,"languageName":"en","statusId":1,"statusName":"active"},{"attributeId":10,"attributeName":"surname","attributeValue":"lolos","languageId":2,"languageName":"en","statusId":1,"statusName":"active"},{"attributeId":14,"attributeName":"email","attributeValue":"jazelmaelolos@gmail.com","languageId":2,"languageName":"en","statusId":1,"statusName":"active"},{"attributeId":100004,"attributeName":"language","attributeValue":"EN","languageId":2,"languageName":"en","statusId":1,"statusName":"active"},{"attributeId":100020,"attributeName":"NL_DUBAI_PARK_AND_RESORT","attributeValue":"true","languageId":2,"languageName":"en","statusId":1,"statusName":"active"}]}}]},"resultCode":"0"}
10.05.2016 9:20:11 +0200 10.0.32.247 Login status: 200
10.05.2016 9:23:58 +0200 10.0.32.247 Login req: {
            "languageId":"2",
            "transactionId": "1462865038664899276",
            "tenant":"1",
            "profileAttributeFlag":true,
            "externalIdList": {
                "externalIds": [
                    {
                    "externalId" : "86868331@qq.com"
                    }
                ]
             }   
            }
10.05.2016 9:23:58 +0200 10.0.32.247 Login token: 197ab0faaf46cb7b5a73d2f8b2c1f02c
10.05.2016 9:23:58 +0200 10.0.32.247 Login response: {"transactionId":"1462865038664899276","userRetrievedList":{"users":[{"id":483,"description":"86868331@qq.com","parentBusinessUserId":2,"statusId":1,"roleTypeId":2,"defaultLanguageId":2,"userExternalIdList":{"externalIds":[{"externalId":"86868331@qq.com","defaultFlag":1,"type":"email","statusId":1}]},"userAttributeList":{"attributeValues":[{"attributeId":14,"attributeName":"email","attributeValue":"86868331@qq.com","languageId":2,"languageName":"en","statusId":1,"statusName":"active"},{"attributeId":9,"attributeName":"name","attributeValue":"MIN","languageId":2,"languageName":"en","statusId":1,"statusName":"active"},{"attributeId":10,"attributeName":"surname","attributeValue":"NAO","languageId":2,"languageName":"en","statusId":1,"statusName":"active"},{"attributeId":100004,"attributeName":"language","attributeValue":"EN","languageId":2,"languageName":"en","statusId":1,"statusName":"active"},{"attributeId":100020,"attributeName":"NL_DUBAI_PARK_AND_RESORT","attributeValue":"true","languageId":2,"languageName":"en","statusId":1,"statusName":"active"},{"attributeId":100003,"attributeName":"customerNumber","attributeValue":"CON-20160510-0008","languageId":2,"languageName":"en","statusId":1,"statusName":"active"}]}}]},"resultCode":"0"}
10.05.2016 9:23:58 +0200 10.0.32.247 Login status: 200
10.05.2016 9:33:41 +0200 10.0.32.247 TOKEN ricevuto, cache creata
10.05.2016 9:35:39 +0200 10.0.32.247 Login req: {
            "languageId":"2",
            "transactionId": "14628657391682898280",
            "tenant":"1",
            "profileAttributeFlag":true,
            "externalIdList": {
                "externalIds": [
                    {
                    "externalId" : "vikramgupta85@gmail.com"
                    }
                ]
             }   
            }
10.05.2016 9:35:39 +0200 10.0.32.247 Login token: c1265f228381c81f4052868457cbc220
10.05.2016 9:35:39 +0200 10.0.32.247 Login response: {"transactionId":"14628657391682898280","userRetrievedList":{"users":[{"id":484,"description":"vikramgupta85@gmail.com","parentBusinessUserId":2,"statusId":1,"roleTypeId":2,"defaultLanguageId":2,"userExternalIdList":{"externalIds":[{"externalId":"vikramgupta85@gmail.com","defaultFlag":1,"type":"email","statusId":1}]},"userAttributeList":{"attributeValues":[{"attributeId":9,"attributeName":"name","attributeValue":"vikram","languageId":2,"languageName":"en","statusId":1,"statusName":"active"},{"attributeId":10,"attributeName":"surname","attributeValue":"gupta","languageId":2,"languageName":"en","statusId":1,"statusName":"active"},{"attributeId":14,"attributeName":"email","attributeValue":"vikramgupta85@gmail.com","languageId":2,"languageName":"en","statusId":1,"statusName":"active"},{"attributeId":100004,"attributeName":"language","attributeValue":"EN","languageId":2,"languageName":"en","statusId":1,"statusName":"active"},{"attributeId":100020,"attributeName":"NL_DUBAI_PARK_AND_RESORT","attributeValue":"true","languageId":2,"languageName":"en","statusId":1,"statusName":"active"}]}}]},"resultCode":"0"}
10.05.2016 9:35:39 +0200 10.0.32.247 Login status: 200
10.05.2016 9:42:56 +0200 10.0.32.247 Login req: {
            "languageId":"2",
            "transactionId": "14628661761896434054",
            "tenant":"1",
            "profileAttributeFlag":true,
            "externalIdList": {
                "externalIds": [
                    {
                    "externalId" : "4myexperiment@gmail.com"
                    }
                ]
             }   
            }
10.05.2016 9:42:56 +0200 10.0.32.247 Login token: dcc3f5df9a0a5ca6d23645a8698222
10.05.2016 9:42:56 +0200 10.0.32.247 Login response: {"transactionId":"14628661761896434054","userRetrievedList":{"users":[{"id":247,"description":"4myexperiment@gmail.com","parentBusinessUserId":2,"statusId":1,"roleTypeId":2,"defaultLanguageId":2,"userExternalIdList":{"externalIds":[{"externalId":"4myexperiment@gmail.com","defaultFlag":1,"type":"email","statusId":1}]},"userAttributeList":{"attributeValues":[{"attributeId":9,"attributeName":"name","attributeValue":"my","languageId":2,"languageName":"en","statusId":1,"statusName":"active"},{"attributeId":10,"attributeName":"surname","attributeValue":"experiment","languageId":2,"languageName":"en","statusId":1,"statusName":"active"},{"attributeId":14,"attributeName":"email","attributeValue":"4myexperiment@gmail.com","languageId":2,"languageName":"en","statusId":1,"statusName":"active"},{"attributeId":100003,"attributeName":"customerNumber","attributeValue":"CON-20160427-0018","languageId":2,"languageName":"en","statusId":1,"statusName":"active"},{"attributeId":100004,"attributeName":"language","attributeValue":"EN","languageId":2,"languageName":"en","statusId":1,"statusName":"active"}]}}]},"resultCode":"0"}
10.05.2016 9:42:56 +0200 10.0.32.247 Login status: 200
10.05.2016 10:33:43 +0200 10.0.32.247 TOKEN ricevuto, cache creata
10.05.2016 10:34:10 +0200 10.0.32.247 Login req: {
            "languageId":"2",
            "transactionId": "1462869250615359234",
            "tenant":"1",
            "profileAttributeFlag":true,
            "externalIdList": {
                "externalIds": [
                    {
                    "externalId" : "10154128615849798"
                    }
                ]
             }   
            }
10.05.2016 10:34:10 +0200 10.0.32.247 Login token: 0e422af589bb4d3e648e48d1aa7d0
10.05.2016 10:34:10 +0200 10.0.32.247 Login response: {"transactionId":"1462869250615359234","userRetrievedList":{"users":[{"id":172,"description":"10154128615849798","parentBusinessUserId":2,"statusId":1,"roleTypeId":2,"defaultLanguageId":2,"userExternalIdList":{"externalIds":[{"externalId":"10154128615849798","defaultFlag":1,"type":"socialID","statusId":1}]},"userAttributeList":{"attributeValues":[{"attributeId":9,"attributeName":"name","attributeValue":"Mostafa","languageId":2,"languageName":"en","statusId":1,"statusName":"active"},{"attributeId":10,"attributeName":"surname","attributeValue":"Khalifa","languageId":2,"languageName":"en","statusId":1,"statusName":"active"},{"attributeId":14,"attributeName":"email","attributeValue":"mostafahassan81@yahoo.com","languageId":2,"languageName":"en","statusId":1,"statusName":"active"},{"attributeId":100003,"attributeName":"customerNumber","attributeValue":"CON-20160426-0017","languageId":2,"languageName":"en","statusId":1,"statusName":"active"},{"attributeId":100004,"attributeName":"language","attributeValue":"en","languageId":2,"languageName":"en","statusId":1,"statusName":"active"}]}}]},"resultCode":"0"}
10.05.2016 10:34:10 +0200 10.0.32.247 Login status: 200
10.05.2016 10:56:10 +0200 10.0.32.247 Login req: {
            "languageId":"2",
            "transactionId": "14628705701111724026",
            "tenant":"1",
            "profileAttributeFlag":true,
            "externalIdList": {
                "externalIds": [
                    {
                    "externalId" : "spatanwala@hotmail.com"
                    }
                ]
             }   
            }
10.05.2016 10:56:10 +0200 10.0.32.247 Login token: ec53387cab52ba2b23f691e1d3b366c
10.05.2016 10:56:10 +0200 10.0.32.247 Login response: {"transactionId":"14628705701111724026","userRetrievedList":{"users":[{"id":486,"description":"spatanwala@hotmail.com","parentBusinessUserId":2,"statusId":1,"roleTypeId":2,"defaultLanguageId":2,"userExternalIdList":{"externalIds":[{"externalId":"spatanwala@hotmail.com","defaultFlag":1,"type":"email","statusId":1}]},"userAttributeList":{"attributeValues":[{"attributeId":9,"attributeName":"name","attributeValue":"Shabbir","languageId":2,"languageName":"en","statusId":1,"statusName":"active"},{"attributeId":10,"attributeName":"surname","attributeValue":"Patanwala","languageId":2,"languageName":"en","statusId":1,"statusName":"active"},{"attributeId":14,"attributeName":"email","attributeValue":"spatanwala@hotmail.com","languageId":2,"languageName":"en","statusId":1,"statusName":"active"},{"attributeId":100004,"attributeName":"language","attributeValue":"EN","languageId":2,"languageName":"en","statusId":1,"statusName":"active"},{"attributeId":100020,"attributeName":"NL_DUBAI_PARK_AND_RESORT","attributeValue":"true","languageId":2,"languageName":"en","statusId":1,"statusName":"active"}]}}]},"resultCode":"0"}
10.05.2016 10:56:10 +0200 10.0.32.247 Login status: 200
10.05.2016 11:34:56 +0200 10.0.32.247 TOKEN ricevuto, cache creata
10.05.2016 11:52:49 +0200 10.0.32.247 error in acapiaccess_getProducts_annualPass: 
10.05.2016 12:35:36 +0200 10.0.32.247 TOKEN ricevuto, cache creata
10.05.2016 12:53:12 +0200 10.0.32.247 Login req: {
            "languageId":"2",
            "transactionId": "14628775921392934704",
            "tenant":"1",
            "profileAttributeFlag":true,
            "externalIdList": {
                "externalIds": [
                    {
                    "externalId" : "10154041099507324"
                    }
                ]
             }   
            }
10.05.2016 12:53:12 +0200 10.0.32.247 Login token: 2dc8402c4d130bc67a16faae45858e4
10.05.2016 12:53:12 +0200 10.0.32.247 Login response: {"transactionId":"14628775921392934704","userRetrievedList":{"users":[{"id":488,"description":"10154041099507324","parentBusinessUserId":2,"statusId":1,"roleTypeId":2,"defaultLanguageId":2,"userExternalIdList":{"externalIds":[{"externalId":"10154041099507324","defaultFlag":1,"type":"socialID","statusId":1}]},"userAttributeList":{"attributeValues":[{"attributeId":9,"attributeName":"name","attributeValue":"Zeeshan","languageId":2,"languageName":"en","statusId":1,"statusName":"active"},{"attributeId":10,"attributeName":"surname","attributeValue":"Khan","languageId":2,"languageName":"en","statusId":1,"statusName":"active"},{"attributeId":14,"attributeName":"email","attributeValue":"zrlover@hotmail.com","languageId":2,"languageName":"en","statusId":1,"statusName":"active"},{"attributeId":100004,"attributeName":"language","attributeValue":"en","languageId":2,"languageName":"en","statusId":1,"statusName":"active"}]}}]},"resultCode":"0"}
10.05.2016 12:53:12 +0200 10.0.32.247 Login status: 200
10.05.2016 12:55:19 +0200 10.0.32.247 Login req: {
            "languageId":"2",
            "transactionId": "14628777191466790743",
            "tenant":"1",
            "profileAttributeFlag":true,
            "externalIdList": {
                "externalIds": [
                    {
                    "externalId" : "10154041099507324"
                    }
                ]
             }   
            }
10.05.2016 12:55:19 +0200 10.0.32.247 Login token: 2dc8402c4d130bc67a16faae45858e4
10.05.2016 12:55:19 +0200 10.0.32.247 Login response: {"transactionId":"14628777191466790743","userRetrievedList":{"users":[{"id":488,"description":"10154041099507324","parentBusinessUserId":2,"statusId":1,"roleTypeId":2,"defaultLanguageId":2,"userExternalIdList":{"externalIds":[{"externalId":"10154041099507324","defaultFlag":1,"type":"socialID","statusId":1}]},"userAttributeList":{"attributeValues":[{"attributeId":9,"attributeName":"name","attributeValue":"Zeeshan","languageId":2,"languageName":"en","statusId":1,"statusName":"active"},{"attributeId":10,"attributeName":"surname","attributeValue":"Khan","languageId":2,"languageName":"en","statusId":1,"statusName":"active"},{"attributeId":14,"attributeName":"email","attributeValue":"zrlover@hotmail.com","languageId":2,"languageName":"en","statusId":1,"statusName":"active"},{"attributeId":100003,"attributeName":"customerNumber","attributeValue":"CON-20160510-0013","languageId":2,"languageName":"en","statusId":1,"statusName":"active"},{"attributeId":100004,"attributeName":"language","attributeValue":"en","languageId":2,"languageName":"en","statusId":1,"statusName":"active"}]}}]},"resultCode":"0"}
10.05.2016 12:55:19 +0200 10.0.32.247 Login status: 200
10.05.2016 13:15:40 +0200 10.0.32.247 Login req: {
            "languageId":"2",
            "transactionId": "1462878940192040437",
            "tenant":"1",
            "profileAttributeFlag":true,
            "externalIdList": {
                "externalIds": [
                    {
                    "externalId" : "776197075849097"
                    }
                ]
             }   
            }
10.05.2016 13:15:40 +0200 10.0.32.247 Login token: ce47a48024c7667219782d9e575a2c13
10.05.2016 13:15:40 +0200 10.0.32.247 Login response: {"transactionId":"1462878940192040437","userRetrievedList":{"users":[{"id":490,"description":"776197075849097","parentBusinessUserId":2,"statusId":1,"roleTypeId":2,"defaultLanguageId":2,"userExternalIdList":{"externalIds":[{"externalId":"776197075849097","defaultFlag":1,"type":"socialID","statusId":1}]},"userAttributeList":{"attributeValues":[{"attributeId":9,"attributeName":"name","attributeValue":"Abida","languageId":2,"languageName":"en","statusId":1,"statusName":"active"},{"attributeId":10,"attributeName":"surname","attributeValue":"Chaudari","languageId":2,"languageName":"en","statusId":1,"statusName":"active"},{"attributeId":14,"attributeName":"email","attributeValue":"abidabombay@gmail.com","languageId":2,"languageName":"en","statusId":1,"statusName":"active"},{"attributeId":100004,"attributeName":"language","attributeValue":"en","languageId":2,"languageName":"en","statusId":1,"statusName":"active"}]}}]},"resultCode":"0"}
10.05.2016 13:15:40 +0200 10.0.32.247 Login status: 200
10.05.2016 13:36:13 +0200 10.0.32.247 TOKEN ricevuto, cache creata
10.05.2016 14:37:03 +0200 10.0.32.247 TOKEN ricevuto, cache creata
10.05.2016 15:03:46 +0200 10.0.32.247 Login req: {
            "languageId":"2",
            "transactionId": "1462885426871383794",
            "tenant":"1",
            "profileAttributeFlag":true,
            "externalIdList": {
                "externalIds": [
                    {
                    "externalId" : "271910476493862"
                    }
                ]
             }   
            }
10.05.2016 15:03:46 +0200 10.0.32.247 Login token: 372b7872fae1ebb02a8911ed233bb45a
10.05.2016 15:03:46 +0200 10.0.32.247 Login response: {"transactionId":"1462885426871383794","userRetrievedList":{"users":[{"id":492,"description":"271910476493862","parentBusinessUserId":2,"statusId":1,"roleTypeId":2,"defaultLanguageId":2,"userExternalIdList":{"externalIds":[{"externalId":"271910476493862","defaultFlag":1,"type":"socialID","statusId":1}]},"userAttributeList":{"attributeValues":[{"attributeId":9,"attributeName":"name","attributeValue":"Kalthoom","languageId":2,"languageName":"en","statusId":1,"statusName":"active"},{"attributeId":10,"attributeName":"surname","attributeValue":"Alsafi","languageId":2,"languageName":"en","statusId":1,"statusName":"active"},{"attributeId":14,"attributeName":"email","attributeValue":"kalthooomz@gmail.com","languageId":2,"languageName":"en","statusId":1,"statusName":"active"},{"attributeId":100004,"attributeName":"language","attributeValue":"en","languageId":2,"languageName":"en","statusId":1,"statusName":"active"}]}}]},"resultCode":"0"}
10.05.2016 15:03:46 +0200 10.0.32.247 Login status: 200
10.05.2016 15:42:42 +0200 10.0.32.247 TOKEN ricevuto, cache creata
10.05.2016 16:42:55 +0200 10.0.32.247 TOKEN ricevuto, cache creata
10.05.2016 16:48:43 +0200 10.0.32.247 TOKEN expired => RENEWING. Server response =>401
10.05.2016 16:48:43 +0200 10.0.32.247 RENEWING token
10.05.2016 16:48:44 +0200 10.0.32.247 RENEW TOKEN RESULT =>200 || 919c5246e96be7619b1e6e89bf3f
10.05.2016 16:48:44 +0200 10.0.32.247 error in acapiaccess_getProducts_annualPass: 
10.05.2016 16:59:06 +0200 10.0.32.247 Login req: {
            "languageId":"2",
            "transactionId": "1462892346967689308",
            "tenant":"1",
            "profileAttributeFlag":true,
            "externalIdList": {
                "externalIds": [
                    {
                    "externalId" : "dxb5775@gmail.com"
                    }
                ]
             }   
            }
10.05.2016 16:59:06 +0200 10.0.32.247 Login token: 1403c8bef140d73fb79a90514eae8d
10.05.2016 16:59:06 +0200 10.0.32.247 Login response: {"transactionId":"1462892346967689308","userRetrievedList":{"users":[{"id":493,"description":"dxb5775@gmail.com","parentBusinessUserId":2,"statusId":1,"roleTypeId":2,"defaultLanguageId":2,"userExternalIdList":{"externalIds":[{"externalId":"dxb5775@gmail.com","defaultFlag":1,"type":"email","statusId":1}]},"userAttributeList":{"attributeValues":[{"attributeId":9,"attributeName":"name","attributeValue":"Raj","languageId":2,"languageName":"en","statusId":1,"statusName":"active"},{"attributeId":10,"attributeName":"surname","attributeValue":"Kakkar","languageId":2,"languageName":"en","statusId":1,"statusName":"active"},{"attributeId":14,"attributeName":"email","attributeValue":"dxb5775@gmail.com","languageId":2,"languageName":"en","statusId":1,"statusName":"active"},{"attributeId":100003,"attributeName":"customerNumber","attributeValue":"CON-20160510-0019","languageId":2,"languageName":"en","statusId":1,"statusName":"active"},{"attributeId":100004,"attributeName":"language","attributeValue":"EN","languageId":2,"languageName":"en","statusId":1,"statusName":"active"},{"attributeId":100020,"attributeName":"NL_DUBAI_PARK_AND_RESORT","attributeValue":"true","languageId":2,"languageName":"en","statusId":1,"statusName":"active"}]}}]},"resultCode":"0"}
10.05.2016 16:59:06 +0200 10.0.32.247 Login status: 200
10.05.2016 17:06:52 +0200 10.0.32.247 Login req: {
            "languageId":"2",
            "transactionId": "14628928128620560",
            "tenant":"1",
            "profileAttributeFlag":true,
            "externalIdList": {
                "externalIds": [
                    {
                    "externalId" : "alingabrield@gmail.com"
                    }
                ]
             }   
            }
10.05.2016 17:06:52 +0200 10.0.32.247 Login token: f64c913d798f2e178c9e90ec6c5f5d59
10.05.2016 17:06:52 +0200 10.0.32.247 Login response: {"transactionId":"14628928128620560","userRetrievedList":{"users":[{"id":494,"description":"alingabrield@gmail.com","parentBusinessUserId":2,"statusId":1,"roleTypeId":2,"defaultLanguageId":2,"userExternalIdList":{"externalIds":[{"externalId":"alingabrield@gmail.com","defaultFlag":1,"type":"email","statusId":1}]},"userAttributeList":{"attributeValues":[{"attributeId":9,"attributeName":"name","attributeValue":"Alin Gabriel","languageId":2,"languageName":"en","statusId":1,"statusName":"active"},{"attributeId":10,"attributeName":"surname","attributeValue":"Dumitru","languageId":2,"languageName":"en","statusId":1,"statusName":"active"},{"attributeId":14,"attributeName":"email","attributeValue":"alingabrield@gmail.com","languageId":2,"languageName":"en","statusId":1,"statusName":"active"},{"attributeId":100003,"attributeName":"customerNumber","attributeValue":"CON-20160510-0020","languageId":2,"languageName":"en","statusId":1,"statusName":"active"},{"attributeId":100004,"attributeName":"language","attributeValue":"EN","languageId":2,"languageName":"en","statusId":1,"statusName":"active"},{"attributeId":100020,"attributeName":"NL_DUBAI_PARK_AND_RESORT","attributeValue":"true","languageId":2,"languageName":"en","statusId":1,"statusName":"active"}]}}]},"resultCode":"0"}
10.05.2016 17:06:52 +0200 10.0.32.247 Login status: 200
10.05.2016 17:16:27 +0200 10.0.32.247 Login req: {
            "languageId":"2",
            "transactionId": "1462893387699765145",
            "tenant":"1",
            "profileAttributeFlag":true,
            "externalIdList": {
                "externalIds": [
                    {
                    "externalId" : "federica.corinto@accenture.com"
                    }
                ]
             }   
            }
10.05.2016 17:16:27 +0200 10.0.32.247 Login token: 8e68d4b339d684662a614c87ccd760b4
10.05.2016 17:16:27 +0200 10.0.32.247 Login response: {"transactionId":"1462893387699765145","userRetrievedList":{"users":[{"id":173,"description":"federica.corinto@accenture.com","parentBusinessUserId":2,"statusId":1,"roleTypeId":2,"defaultLanguageId":2,"userExternalIdList":{"externalIds":[{"externalId":"federica.corinto@accenture.com","defaultFlag":1,"type":"email","statusId":1}]},"userAttributeList":{"attributeValues":[{"attributeId":9,"attributeName":"name","attributeValue":"federica","languageId":2,"languageName":"en","statusId":1,"statusName":"active"},{"attributeId":10,"attributeName":"surname","attributeValue":"corinto","languageId":2,"languageName":"en","statusId":1,"statusName":"active"},{"attributeId":14,"attributeName":"email","attributeValue":"federica.corinto@accenture.com","languageId":2,"languageName":"en","statusId":1,"statusName":"active"},{"attributeId":100003,"attributeName":"customerNumber","attributeValue":"CON-20160426-0018","languageId":2,"languageName":"en","statusId":1,"statusName":"active"},{"attributeId":100004,"attributeName":"language","attributeValue":"EN","languageId":2,"languageName":"en","statusId":1,"statusName":"active"},{"attributeId":100020,"attributeName":"NL_DUBAI_PARK_AND_RESORT","attributeValue":"true","languageId":2,"languageName":"en","statusId":1,"statusName":"active"}]}}]},"resultCode":"0"}
10.05.2016 17:16:27 +0200 10.0.32.247 Login status: 200
10.05.2016 17:17:19 +0200 10.0.32.247 Login req: {
            "languageId":"2",
            "transactionId": "14628934391157914808",
            "tenant":"1",
            "profileAttributeFlag":true,
            "externalIdList": {
                "externalIds": [
                    {
                    "externalId" : "10208825936790447"
                    }
                ]
             }   
            }
10.05.2016 17:17:19 +0200 10.0.32.247 Login token: 1d3df6b7b1caa719ed5b20f0c636c693
10.05.2016 17:17:19 +0200 10.0.32.247 Login response: {"transactionId":"14628934391157914808","userRetrievedList":{"users":[{"id":401,"description":"10208825936790447","parentBusinessUserId":2,"statusId":1,"roleTypeId":2,"defaultLanguageId":2,"userExternalIdList":{"externalIds":[{"externalId":"10208825936790447","defaultFlag":1,"type":"socialID","statusId":1}]},"userAttributeList":{"attributeValues":[{"attributeId":9,"attributeName":"name","attributeValue":"La Federica","languageId":2,"languageName":"en","statusId":1,"statusName":"active"},{"attributeId":10,"attributeName":"surname","attributeValue":"Corinto","languageId":2,"languageName":"en","statusId":1,"statusName":"active"},{"attributeId":14,"attributeName":"email","attributeValue":"fede-corinto@hotmail.it","languageId":2,"languageName":"en","statusId":1,"statusName":"active"},{"attributeId":100003,"attributeName":"customerNumber","attributeValue":"CON-20160503-0031","languageId":2,"languageName":"en","statusId":1,"statusName":"active"},{"attributeId":100004,"attributeName":"language","attributeValue":"en","languageId":2,"languageName":"en","statusId":1,"statusName":"active"}]}}]},"resultCode":"0"}
10.05.2016 17:17:19 +0200 10.0.32.247 Login status: 200
10.05.2016 17:48:46 +0200 10.0.32.247 TOKEN ricevuto, cache creata
10.05.2016 18:28:46 +0200 10.0.32.247 Login req: {
            "languageId":"2",
            "transactionId": "1462897726345071325",
            "tenant":"1",
            "profileAttributeFlag":true,
            "externalIdList": {
                "externalIds": [
                    {
                    "externalId" : "974959482552849"
                    }
                ]
             }   
            }
10.05.2016 18:28:46 +0200 10.0.32.247 Login token: 1608ca4ea78b96b5033e0bd28cf58d0
10.05.2016 18:28:46 +0200 10.0.32.247 Login response: {"transactionId":"1462897726345071325","userRetrievedList":{"users":[{"id":499,"description":"974959482552849","parentBusinessUserId":2,"statusId":1,"roleTypeId":2,"defaultLanguageId":2,"userExternalIdList":{"externalIds":[{"externalId":"974959482552849","defaultFlag":1,"type":"socialID","statusId":1}]},"userAttributeList":{"attributeValues":[{"attributeId":9,"attributeName":"name","attributeValue":"Joel","languageId":2,"languageName":"en","statusId":1,"statusName":"active"},{"attributeId":10,"attributeName":"surname","attributeValue":"Laru-an","languageId":2,"languageName":"en","statusId":1,"statusName":"active"},{"attributeId":14,"attributeName":"email","attributeValue":"toys_jojo@yahoo.com","languageId":2,"languageName":"en","statusId":1,"statusName":"active"},{"attributeId":100004,"attributeName":"language","attributeValue":"en","languageId":2,"languageName":"en","statusId":1,"statusName":"active"}]}}]},"resultCode":"0"}
10.05.2016 18:28:46 +0200 10.0.32.247 Login status: 200
10.05.2016 18:40:24 +0200 10.0.32.247 Login req: {
            "languageId":"2",
            "transactionId": "14628984241820589234",
            "tenant":"1",
            "profileAttributeFlag":true,
            "externalIdList": {
                "externalIds": [
                    {
                    "externalId" : "624811397681406"
                    }
                ]
             }   
            }
10.05.2016 18:40:24 +0200 10.0.32.247 Login token: 10bc4e241479d31ed446e1ad1ba8a24
10.05.2016 18:40:24 +0200 10.0.32.247 Login response: {"transactionId":"14628984241820589234","userRetrievedList":{"users":[{"id":500,"description":"624811397681406","parentBusinessUserId":2,"statusId":1,"roleTypeId":2,"defaultLanguageId":2,"userExternalIdList":{"externalIds":[{"externalId":"624811397681406","defaultFlag":1,"type":"socialID","statusId":1}]},"userAttributeList":{"attributeValues":[{"attributeId":9,"attributeName":"name","attributeValue":"Shermurod","languageId":2,"languageName":"en","statusId":1,"statusName":"active"},{"attributeId":10,"attributeName":"surname","attributeValue":"Mirsaidov","languageId":2,"languageName":"en","statusId":1,"statusName":"active"},{"attributeId":14,"attributeName":"email","attributeValue":"mirsaidov.shermurod@mail.ru","languageId":2,"languageName":"en","statusId":1,"statusName":"active"},{"attributeId":100004,"attributeName":"language","attributeValue":"en","languageId":2,"languageName":"en","statusId":1,"statusName":"active"}]}}]},"resultCode":"0"}
10.05.2016 18:40:24 +0200 10.0.32.247 Login status: 200
10.05.2016 18:52:11 +0200 10.0.32.247 TOKEN ricevuto, cache creata
10.05.2016 19:55:13 +0200 10.0.32.247 TOKEN ricevuto, cache creata
10.05.2016 20:43:27 +0200 10.0.32.247 Login req: {
            "languageId":"2",
            "transactionId": "1462905807845287499",
            "tenant":"1",
            "profileAttributeFlag":true,
            "externalIdList": {
                "externalIds": [
                    {
                    "externalId" : "jassem5029@hotmail.com"
                    }
                ]
             }   
            }
10.05.2016 20:43:27 +0200 10.0.32.247 Login token: 7cf192d906efca7c3d2175e1ea87
10.05.2016 20:43:27 +0200 10.0.32.247 Login response: {"transactionId":"1462905807845287499","userRetrievedList":{"users":[{"id":501,"description":"jassem5029@hotmail.com","parentBusinessUserId":2,"statusId":1,"roleTypeId":2,"defaultLanguageId":2,"userExternalIdList":{"externalIds":[{"externalId":"jassem5029@hotmail.com","defaultFlag":1,"type":"email","statusId":1}]},"userAttributeList":{"attributeValues":[{"attributeId":9,"attributeName":"name","attributeValue":"jassem","languageId":2,"languageName":"en","statusId":1,"statusName":"active"},{"attributeId":10,"attributeName":"surname","attributeValue":"Al Mazrooei","languageId":2,"languageName":"en","statusId":1,"statusName":"active"},{"attributeId":14,"attributeName":"email","attributeValue":"jassem5029@hotmail.com","languageId":2,"languageName":"en","statusId":1,"statusName":"active"},{"attributeId":100004,"attributeName":"language","attributeValue":"EN","languageId":2,"languageName":"en","statusId":1,"statusName":"active"},{"attributeId":100020,"attributeName":"NL_DUBAI_PARK_AND_RESORT","attributeValue":"true","languageId":2,"languageName":"en","statusId":1,"statusName":"active"}]}}]},"resultCode":"0"}
10.05.2016 20:43:27 +0200 10.0.32.247 Login status: 200
10.05.2016 20:55:29 +0200 10.0.32.247 TOKEN ricevuto, cache creata
10.05.2016 21:59:38 +0200 10.0.32.247 TOKEN ricevuto, cache creata
10.05.2016 23:00:17 +0200 10.0.32.247 TOKEN ricevuto, cache creata
10.05.2016 23:26:03 +0200 10.0.32.247 Login req: {
            "languageId":"2",
            "transactionId": "1462915563437971754",
            "tenant":"1",
            "profileAttributeFlag":true,
            "externalIdList": {
                "externalIds": [
                    {
                    "externalId" : "10204821198929596"
                    }
                ]
             }   
            }
10.05.2016 23:26:03 +0200 10.0.32.247 Login token: 245679a7ad4f6d84aadc739d715da783
10.05.2016 23:26:03 +0200 10.0.32.247 Login response: {"transactionId":"1462915563437971754","userRetrievedList":{"users":[{"id":502,"description":"10204821198929596","parentBusinessUserId":2,"statusId":1,"roleTypeId":2,"defaultLanguageId":2,"userExternalIdList":{"externalIds":[{"externalId":"10204821198929596","defaultFlag":1,"type":"socialID","statusId":1}]},"userAttributeList":{"attributeValues":[{"attributeId":9,"attributeName":"name","attributeValue":"Cecille","languageId":2,"languageName":"en","statusId":1,"statusName":"active"},{"attributeId":10,"attributeName":"surname","attributeValue":"Celeste","languageId":2,"languageName":"en","statusId":1,"statusName":"active"},{"attributeId":14,"attributeName":"email","attributeValue":"cecille_kc017@yahoo.com","languageId":2,"languageName":"en","statusId":1,"statusName":"active"},{"attributeId":100004,"attributeName":"language","attributeValue":"en","languageId":2,"languageName":"en","statusId":1,"statusName":"active"}]}}]},"resultCode":"0"}
10.05.2016 23:26:03 +0200 10.0.32.247 Login status: 200
10.05.2016 23:29:53 +0200 10.0.32.247 Login req: {
            "languageId":"2",
            "transactionId": "14629157931698168074",
            "tenant":"1",
            "profileAttributeFlag":true,
            "externalIdList": {
                "externalIds": [
                    {
                    "externalId" : "10153641426414272"
                    }
                ]
             }   
            }
10.05.2016 23:29:53 +0200 10.0.32.247 Login token: fc85fd1fd76f77c6b2ab1e0b0e6c9b2
10.05.2016 23:29:53 +0200 10.0.32.247 Login response: {"transactionId":"14629157931698168074","userRetrievedList":{"users":[{"id":32,"description":"10153641426414272","parentBusinessUserId":2,"statusId":1,"roleTypeId":2,"defaultLanguageId":2,"userExternalIdList":{"externalIds":[{"externalId":"10153641426414272","defaultFlag":1,"type":"socialID","statusId":1}]},"userAttributeList":{"attributeValues":[{"attributeId":9,"attributeName":"name","attributeValue":"Hesham","languageId":2,"languageName":"en","statusId":1,"statusName":"active"},{"attributeId":10,"attributeName":"surname","attributeValue":"Ghaleb","languageId":2,"languageName":"en","statusId":1,"statusName":"active"},{"attributeId":14,"attributeName":"email","attributeValue":"hesham_g@hotmail.com","languageId":2,"languageName":"en","statusId":1,"statusName":"active"},{"attributeId":100003,"attributeName":"customerNumber","attributeValue":"CON-20160422-0001","languageId":2,"languageName":"en","statusId":1,"statusName":"active"},{"attributeId":100004,"attributeName":"language","attributeValue":"en","languageId":2,"languageName":"en","statusId":1,"statusName":"active"}]}}]},"resultCode":"0"}
10.05.2016 23:29:53 +0200 10.0.32.247 Login status: 200