
2016-09-23 09:42:48 10.0.32.247 API REQUEST BODY {
    "catalog":"DPR",
    "lang":"EN",
    "billingAddress": {
        "title": "Mrs",
        "firstname": "Nadia",
        "lastname": "Alkhatib",
        "email": "nadiatiger11@gmail.com","phoneNumber": "+971-564507870","country": "United Arab Emirates",
        "region": "",
        "address": "JBr RImal3",
        "address2": "",
        "city": "Dubai",
        "zipCode": "0000",
        "state": "none"
    },
    "contactInformation": {
        "title": "Mrs",
        "firstname": "Nadia",
        "lastname": "Alkhatib",
        "email": "nadiatiger11@gmail.com","phoneNumber": "+971-564507870","country": "United Arab Emirates",
        "region": "",
        "address": "JBr RImal3",
        "address2": "",
        "city": "Dubai",
        "zipCode": "0000",
        "state": "none"
    },
    "products": [{
            "productId": "EA685FBD-CA24-2837-086B-0152C6788381",
            "productName": "LEGOLAND Dubai LEGOLAND® Water Park Annual Pass",
            "quantity": 2,
            "unitPrice": 995,
        "unitTax": 0,
        "taxCalcType": 3,"holders": [{
                                   "firstname": "Tiger",
                                    "lastname": "Lutfi",
                                    "birthday": "2011-10-24",
                                    "country": "United Arab Emirates",
                                    "city": "",
                                    "email": "nadiatiger11@gmail.com",
                                    "phoneNumber": "+971-564507870"
                                },{
                                   "firstname": "Nadia",
                                    "lastname": "Alkhatib",
                                    "birthday": "1981-03-08",
                                    "country": "United Arab Emirates",
                                    "city": "",
                                    "email": "nadiatiger11@gmail.com",
                                    "phoneNumber": "+971-564507870"
                                }]
        }],
    "paymentAmount": 1990,
    "type": 1,
    "newsletterEnabled": 1,
    "termsAccepted": 1
    }
2016-09-23 09:42:48 10.0.32.247 REQUEST ||AED|1990|https://www.dubaiparksandresorts.com/en/booking/confirmation|https://www.dubaiparksandresorts.com/en/booking/payment|02|INTERNET|CC|xxxx xxxx xxxx xxxx|xxx|MM|YYYY|cardtype|cardholder-name|cardholder-surname|address|address 2|city|state|zip|IT|email||||phone|||||||||||||||||||| |firstname|lastname|email|phone number|https://www.dubaiparksandresorts.com/en/booking/payment
2016-09-23 09:51:48 10.0.32.247 API REQUEST BODY {
    "catalog":"DPR",
    "lang":"EN",
    "billingAddress": {
        "title": "Mrs",
        "firstname": "Nadia",
        "lastname": "Alkhatib",
        "email": "nadiatiger11@gmail.com","phoneNumber": "+971-564507870","country": "United Arab Emirates",
        "region": "",
        "address": "JBr RImal3",
        "address2": "602",
        "city": "Dubai",
        "zipCode": "0000",
        "state": "none"
    },
    "contactInformation": {
        "title": "Mrs",
        "firstname": "Nadia",
        "lastname": "Alkhatib",
        "email": "nadiatiger11@gmail.com","phoneNumber": "+971-564507870","country": "United Arab Emirates",
        "region": "",
        "address": "JBr RImal3",
        "address2": "602",
        "city": "Dubai",
        "zipCode": "0000",
        "state": "none"
    },
    "products": [{
            "productId": "EA685FBD-CA24-2837-086B-0152C6788381",
            "productName": "LEGOLAND Dubai LEGOLAND® Water Park Annual Pass",
            "quantity": 2,
            "unitPrice": 995,
        "unitTax": 0,
        "taxCalcType": 3,"holders": [{
                                   "firstname": "Nadia",
                                    "lastname": "Alkhatib",
                                    "birthday": "1981-3-8",
                                    "country": "United Arab Emirates",
                                    "city": "",
                                    "email": "nadiatiger11@gmail.com",
                                    "phoneNumber": "+971-564507870"
                                },{
                                   "firstname": "Tiger",
                                    "lastname": "Lutfi",
                                    "birthday": "2011-10-24",
                                    "country": "United Arab Emirates",
                                    "city": "",
                                    "email": "nadiatiger11@gmail.com",
                                    "phoneNumber": "+971-564507870"
                                }]
        }],
    "paymentAmount": 1990,
    "type": 1,
    "newsletterEnabled": 1,
    "termsAccepted": 1
    }
2016-09-23 09:51:48 10.0.32.247 REQUEST ||AED|1990|https://www.dubaiparksandresorts.com/en/booking/confirmation|https://www.dubaiparksandresorts.com/en/booking/payment|02|INTERNET|CC|xxxx xxxx xxxx xxxx|xxx|MM|YYYY|cardtype|cardholder-name|cardholder-surname|address|address 2|city|state|zip|IT|email||||phone|||||||||||||||||||| |firstname|lastname|email|phone number|https://www.dubaiparksandresorts.com/en/booking/payment
2016-09-23 10:25:33 10.0.32.247 API REQUEST BODY {
    "catalog":"DPR",
    "lang":"EN",
    "billingAddress": {
        "title": "Mrs",
        "firstname": "V",
        "lastname": "Geger",
        "email": "ewee@ttt.it","phoneNumber": "+1 242-452345432543","country": "Albania",
        "region": "",
        "address": "fdgsdfgfdhfg",
        "address2": "sdfgfdg",
        "city": "Rewrt",
        "zipCode": "254354",
        "state": "none"
    },
    "contactInformation": {
        "title": "Mrs",
        "firstname": "V",
        "lastname": "Geger",
        "email": "ewee@ttt.it","phoneNumber": "+1 242-452345432543","country": "Albania",
        "region": "",
        "address": "fdgsdfgfdhfg",
        "address2": "sdfgfdg",
        "city": "Rewrt",
        "zipCode": "254354",
        "state": "none"
    },
    "products": [{
            "productId": "CA1B8BA3-B73E-4915-5CC9-0153F0C8E255",
            "productName": "Multipark Annual Pass",
            "quantity": 1,
            "unitPrice": 2495,
        "unitTax": 0,
        "taxCalcType": 3,"holders": [{
                                   "firstname": "Fvddfgsdfg",
                                    "lastname": "Gdsgd",
                                    "birthday": "1980-02-05",
                                    "country": "Aland Islands",
                                    "city": "",
                                    "email": "fff@fff.it",
                                    "phoneNumber": "+1242-534543"
                                }]
        }],
    "paymentAmount": 2495,
    "type": 1,
    "newsletterEnabled": 1,
    "termsAccepted": 1
    }
2016-09-23 10:25:33 10.0.32.247 REQUEST ||AED|2495|https://www.dubaiparksandresorts.com/en/booking/confirmation|https://www.dubaiparksandresorts.com/en/booking/payment|02|INTERNET|CC|xxxx xxxx xxxx xxxx|xxx|MM|YYYY|cardtype|cardholder-name|cardholder-surname|address|address 2|city|state|zip|IT|email||||phone|||||||||||||||||||| |firstname|lastname|email|phone number|https://www.dubaiparksandresorts.com/en/booking/payment
2016-09-23 21:32:06 10.0.32.247 API REQUEST BODY {
    "catalog":"DPR",
    "lang":"EN",
    "billingAddress": {
        "title": "Mr",
        "firstname": "Raja",
        "lastname": "Guwalani",
        "email": "rohan7782436@hotmail.com","phoneNumber": "+971-506508492","country": "United Arab Emirates",
        "region": "",
        "address": "F 15 sharaf dg bldg opp astoria hotel",
        "address2": "bur dubai",
        "city": "Dubai",
        "zipCode": "2375",
        "state": "none"
    },
    "contactInformation": {
        "title": "Mr",
        "firstname": "Raja",
        "lastname": "Guwalani",
        "email": "rohan7782436@hotmail.com","phoneNumber": "+971-506508492","country": "United Arab Emirates",
        "region": "",
        "address": "F 15 sharaf dg bldg opp astoria hotel",
        "address2": "bur dubai",
        "city": "Dubai",
        "zipCode": "2375",
        "state": "none"
    },
    "products": [{
            "productId": "84AA4A65-00C8-CE89-5C1C-0153EFC4251A",
            "productName": "motiongate™ Dubai LEGOLAND® Water Park Annual Pass",
            "quantity": 5,
            "unitPrice": 1095,
        "unitTax": 0,
        "taxCalcType": 3,"holders": [{
                                   "firstname": "Raja",
                                    "lastname": "Guwalani",
                                    "birthday": "1981-11-24",
                                    "country": "United Arab Emirates",
                                    "city": "",
                                    "email": "rohan7782436@hotmail.com",
                                    "phoneNumber": "+971-506508492"
                                },{
                                   "firstname": "Sakshi",
                                    "lastname": "Guwalani",
                                    "birthday": "1983-05-18",
                                    "country": "United Arab Emirates",
                                    "city": "",
                                    "email": "rohan7782436@hotmail.com",
                                    "phoneNumber": "+971-501818038"
                                },{
                                   "firstname": "Shanta",
                                    "lastname": "Guwalani",
                                    "birthday": "1961-08-03",
                                    "country": "United Arab Emirates",
                                    "city": "",
                                    "email": "rohan7782436@hotmail.com",
                                    "phoneNumber": "+971-504259524"
                                },{
                                   "firstname": "Usha",
                                    "lastname": "Guwalani",
                                    "birthday": "1980-11-12",
                                    "country": "United Arab Emirates",
                                    "city": "",
                                    "email": "rohan7782436@hotmail.com",
                                    "phoneNumber": "+971-553835566"
                                },{
                                   "firstname": "Avika",
                                    "lastname": "Guwalani",
                                    "birthday": "2009-09-09",
                                    "country": "United Arab Emirates",
                                    "city": "",
                                    "email": "rohan7782436@hotmail.com",
                                    "phoneNumber": "+971-506508492"
                                }]
        }],
    "paymentAmount": 5475,
    "type": 1,
    "newsletterEnabled": 1,
    "termsAccepted": 1
    }
2016-09-23 21:32:06 10.0.32.247 REQUEST ||AED|5475|https://www.dubaiparksandresorts.com/en/booking/confirmation|https://www.dubaiparksandresorts.com/en/booking/payment|02|INTERNET|CC|xxxx xxxx xxxx xxxx|xxx|MM|YYYY|cardtype|cardholder-name|cardholder-surname|address|address 2|city|state|zip|IT|email||||phone|||||||||||||||||||| |firstname|lastname|email|phone number|https://www.dubaiparksandresorts.com/en/booking/payment
2016-09-23 21:33:51 10.0.32.247 API REQUEST BODY {
    "catalog":"DPR",
    "lang":"EN",
    "billingAddress": {
        "title": "Mr",
        "firstname": "Raja",
        "lastname": "Guwalani",
        "email": "rohan7782436@hotmail.com","phoneNumber": "+971-506508492","country": "United Arab Emirates",
        "region": "",
        "address": "F 15 sharaf dg bldg opp astoria hotel",
        "address2": "bur dubai",
        "city": "Dubai",
        "zipCode": "2375",
        "state": "none"
    },
    "contactInformation": {
        "title": "Mr",
        "firstname": "Raja",
        "lastname": "Guwalani",
        "email": "rohan7782436@hotmail.com","phoneNumber": "+971-506508492","country": "United Arab Emirates",
        "region": "",
        "address": "F 15 sharaf dg bldg opp astoria hotel",
        "address2": "bur dubai",
        "city": "Dubai",
        "zipCode": "2375",
        "state": "none"
    },
    "products": [{
            "productId": "84AA4A65-00C8-CE89-5C1C-0153EFC4251A",
            "productName": "motiongate™ Dubai LEGOLAND® Water Park Annual Pass",
            "quantity": 5,
            "unitPrice": 1095,
        "unitTax": 0,
        "taxCalcType": 3,"holders": [{
                                   "firstname": "Raja",
                                    "lastname": "Guwalani",
                                    "birthday": "1981-11-24",
                                    "country": "United Arab Emirates",
                                    "city": "",
                                    "email": "rohan7782436@hotmail.com",
                                    "phoneNumber": "+971-506508492"
                                },{
                                   "firstname": "Sakshi",
                                    "lastname": "Guwalani",
                                    "birthday": "1983-05-18",
                                    "country": "United Arab Emirates",
                                    "city": "",
                                    "email": "rohan7782436@hotmail.com",
                                    "phoneNumber": "+971-501818038"
                                },{
                                   "firstname": "Shanta",
                                    "lastname": "Guwalani",
                                    "birthday": "1961-08-03",
                                    "country": "United Arab Emirates",
                                    "city": "",
                                    "email": "rohan7782436@hotmail.com",
                                    "phoneNumber": "+971-504259524"
                                },{
                                   "firstname": "Usha",
                                    "lastname": "Guwalani",
                                    "birthday": "1980-11-12",
                                    "country": "United Arab Emirates",
                                    "city": "",
                                    "email": "rohan7782436@hotmail.com",
                                    "phoneNumber": "+971-553835566"
                                },{
                                   "firstname": "Avika",
                                    "lastname": "Guwalani",
                                    "birthday": "2009-09-09",
                                    "country": "United Arab Emirates",
                                    "city": "",
                                    "email": "rohan7782436@hotmail.com",
                                    "phoneNumber": "+971-506508492"
                                }]
        }],
    "paymentAmount": 5475,
    "type": 1,
    "newsletterEnabled": 1,
    "termsAccepted": 1
    }
2016-09-23 21:33:51 10.0.32.247 REQUEST ||AED|5475|https://www.dubaiparksandresorts.com/en/booking/confirmation|https://www.dubaiparksandresorts.com/en/booking/payment|02|INTERNET|CC|xxxx xxxx xxxx xxxx|xxx|MM|YYYY|cardtype|cardholder-name|cardholder-surname|address|address 2|city|state|zip|IT|email||||phone|||||||||||||||||||| |firstname|lastname|email|phone number|https://www.dubaiparksandresorts.com/en/booking/payment
2016-09-23 21:35:21 10.0.32.247 API REQUEST BODY {
    "catalog":"DPR",
    "lang":"EN",
    "billingAddress": {
        "title": "Mr",
        "firstname": "Raja",
        "lastname": "Guwalani",
        "email": "rohan7782436@hotmail.com","phoneNumber": "+971-506508492","country": "United Arab Emirates",
        "region": "",
        "address": "F 15 sharaf dg bldg opp astoria hotel",
        "address2": "bur dubai",
        "city": "Dubai",
        "zipCode": "2375",
        "state": "none"
    },
    "contactInformation": {
        "title": "Mr",
        "firstname": "Raja",
        "lastname": "Guwalani",
        "email": "rohan7782436@hotmail.com","phoneNumber": "+971-506508492","country": "United Arab Emirates",
        "region": "",
        "address": "F 15 sharaf dg bldg opp astoria hotel",
        "address2": "bur dubai",
        "city": "Dubai",
        "zipCode": "2375",
        "state": "none"
    },
    "products": [{
            "productId": "84AA4A65-00C8-CE89-5C1C-0153EFC4251A",
            "productName": "motiongate™ Dubai LEGOLAND® Water Park Annual Pass",
            "quantity": 5,
            "unitPrice": 1095,
        "unitTax": 0,
        "taxCalcType": 3,"holders": [{
                                   "firstname": "Raja",
                                    "lastname": "Guwalani",
                                    "birthday": "1981-11-24",
                                    "country": "United Arab Emirates",
                                    "city": "",
                                    "email": "rohan7782436@hotmail.com",
                                    "phoneNumber": "+971-506508492"
                                },{
                                   "firstname": "Sakshi",
                                    "lastname": "Guwalani",
                                    "birthday": "1983-05-18",
                                    "country": "United Arab Emirates",
                                    "city": "",
                                    "email": "rohan7782436@hotmail.com",
                                    "phoneNumber": "+971-501818038"
                                },{
                                   "firstname": "Shanta",
                                    "lastname": "Guwalani",
                                    "birthday": "1961-08-03",
                                    "country": "United Arab Emirates",
                                    "city": "",
                                    "email": "rohan7782436@hotmail.com",
                                    "phoneNumber": "+971-504259524"
                                },{
                                   "firstname": "Usha",
                                    "lastname": "Guwalani",
                                    "birthday": "1980-11-12",
                                    "country": "United Arab Emirates",
                                    "city": "",
                                    "email": "rohan7782436@hotmail.com",
                                    "phoneNumber": "+971-553835566"
                                },{
                                   "firstname": "Avika",
                                    "lastname": "Guwalani",
                                    "birthday": "2009-09-09",
                                    "country": "United Arab Emirates",
                                    "city": "",
                                    "email": "rohan7782436@hotmail.com",
                                    "phoneNumber": "+971-506508492"
                                }]
        }],
    "paymentAmount": 5475,
    "type": 1,
    "newsletterEnabled": 1,
    "termsAccepted": 1
    }
2016-09-23 21:35:21 10.0.32.247 REQUEST ||AED|5475|https://www.dubaiparksandresorts.com/en/booking/confirmation|https://www.dubaiparksandresorts.com/en/booking/payment|02|INTERNET|CC|xxxx xxxx xxxx xxxx|xxx|MM|YYYY|cardtype|cardholder-name|cardholder-surname|address|address 2|city|state|zip|IT|email||||phone|||||||||||||||||||| |firstname|lastname|email|phone number|https://www.dubaiparksandresorts.com/en/booking/payment
2016-09-23 21:37:21 10.0.32.247 API REQUEST BODY {
    "catalog":"DPR",
    "lang":"EN",
    "billingAddress": {
        "title": "Mr",
        "firstname": "Raja",
        "lastname": "Guwalani",
        "email": "rohan7782436@hotmail.com","phoneNumber": "+971-506508492","country": "United Arab Emirates",
        "region": "",
        "address": "F 15 sharaf dg bldg opp astoria hotel",
        "address2": "bur dubai",
        "city": "Dubai",
        "zipCode": "2375",
        "state": "none"
    },
    "contactInformation": {
        "title": "Mr",
        "firstname": "Raja",
        "lastname": "Guwalani",
        "email": "rohan7782436@hotmail.com","phoneNumber": "+971-506508492","country": "United Arab Emirates",
        "region": "",
        "address": "F 15 sharaf dg bldg opp astoria hotel",
        "address2": "bur dubai",
        "city": "Dubai",
        "zipCode": "2375",
        "state": "none"
    },
    "products": [{
            "productId": "84AA4A65-00C8-CE89-5C1C-0153EFC4251A",
            "productName": "motiongate™ Dubai LEGOLAND® Water Park Annual Pass",
            "quantity": 5,
            "unitPrice": 1095,
        "unitTax": 0,
        "taxCalcType": 3,"holders": [{
                                   "firstname": "Raja",
                                    "lastname": "Guwalani",
                                    "birthday": "1981-11-24",
                                    "country": "United Arab Emirates",
                                    "city": "",
                                    "email": "rohan7782436@hotmail.com",
                                    "phoneNumber": "+971-506508492"
                                },{
                                   "firstname": "Sakshi",
                                    "lastname": "Guwalani",
                                    "birthday": "1983-05-18",
                                    "country": "United Arab Emirates",
                                    "city": "",
                                    "email": "rohan7782436@hotmail.com",
                                    "phoneNumber": "+971-501818038"
                                },{
                                   "firstname": "Shanta",
                                    "lastname": "Guwalani",
                                    "birthday": "1961-08-03",
                                    "country": "United Arab Emirates",
                                    "city": "",
                                    "email": "rohan7782436@hotmail.com",
                                    "phoneNumber": "+971-504259524"
                                },{
                                   "firstname": "Usha",
                                    "lastname": "Guwalani",
                                    "birthday": "1980-11-12",
                                    "country": "United Arab Emirates",
                                    "city": "",
                                    "email": "rohan7782436@hotmail.com",
                                    "phoneNumber": "+971-553835566"
                                },{
                                   "firstname": "Avika",
                                    "lastname": "Guwalani",
                                    "birthday": "2009-09-09",
                                    "country": "United Arab Emirates",
                                    "city": "",
                                    "email": "rohan7782436@hotmail.com",
                                    "phoneNumber": "+971-506508492"
                                }]
        }],
    "paymentAmount": 5475,
    "type": 1,
    "newsletterEnabled": 1,
    "termsAccepted": 1
    }
2016-09-23 21:37:21 10.0.32.247 REQUEST ||AED|5475|https://www.dubaiparksandresorts.com/en/booking/confirmation|https://www.dubaiparksandresorts.com/en/booking/payment|02|INTERNET|CC|xxxx xxxx xxxx xxxx|xxx|MM|YYYY|cardtype|cardholder-name|cardholder-surname|address|address 2|city|state|zip|IT|email||||phone|||||||||||||||||||| |firstname|lastname|email|phone number|https://www.dubaiparksandresorts.com/en/booking/payment