
2017-01-23 12:49:56 180.191.154.60 API REQUEST BODY {
    "lang":"AR",
    "billingAddress": {
        "title": "Mr",
        "firstname": "Chona",
        "lastname": "Velasquez",
        "email": "chona.velasquez@mailinator.com","phoneNumber": "+1 242-3232","country": "United Arab Emirates",
        "region": "",
        "address": "BGC",
        "address2": "",
        "city": "Mnaila",
        "zipCode": "2121",
        "state": "none"
    },
    "contactInformation": {
        "title": "Mr",
        "firstname": "Chona",
        "lastname": "Velasquez",
        "email": "chona.velasquez@mailinator.com","phoneNumber": "+1 242-3232","country": "United Arab Emirates",
        "region": "",
        "address": "BGC",
        "address2": "",
        "city": "Mnaila",
        "zipCode": "2121",
        "state": "none"
    },
    "newsletterEnabled": 1,
    "termsAccepted": 1
    ,"ShopCart":{"SubTotal":1425,"TotalTax":0,"TotalAmount":1425,"TotalDue":1425,"CurrencyRounding":0,"DiscountRoundingList":[],"Items":[{"ShopCartItemId":"512D18B1-444E-C207-7F90-0159CB25E894","IconName":"ticket.png","SubIcon":"None","ProductId":"6A9BF4FB-47CC-0718-0CF5-0157EB188586","ProductCode":"RMTUND1DA1DF002","ProductName":"Jaan-E-Jigar Evening Show Silver 2","ProductCategoryId":"EF2115D3-0CB3-15EB-05BF-015622B7933C","ChargeToWallet":false,"ForceMediaGeneration":false,"MediaExclusiveUse":false,"VariableDescription":false,"ShopCartItemType":1,"ProductType":1,"NewMediaList":[],"TimeTicketStatementList":[],"TaxCalcType":3,"UnitRawPrice":95,"UnitAmount":95,"UnitTax":0,"UnitDiscount":0,"UnitGrossFull":95,"UnitNetFull":95,"UnitNetDisc":95,"Quantity":15,"QuantityUnit":1,"TotalWalletDeposits":0,"TotalAmount":1425,"TotalTax":0,"TotalDiscount":0,"TotalGrossFull":1425,"TotalNetFull":1425,"TotalNetDisc":1425,"PresaleUnitAmount":0,"OptionsHash":"00000000000000000000000000000000","Entitlement":{"ExpRule":11,"ExpRuleQty":1,"ValidFromTime":"19:30","SimpleIncProductList":[],"EntList":[{"EventId":"9D0A978F-713F-7834-038F-0152A68C9898","EntType":3,"EntryType":1,"EntryQty":1,"SimpleIncProductList":[],"EntList":[]},{"EventId":"801FC9B3-6E0F-012D-0735-015622C05D45","EntType":3,"EntryType":2,"EntryQty":1,"SimpleIncProductList":[],"EntList":[]}]},"AttributeItemList":[{"AttributeId":"F089E193-E09F-1C8D-0CA9-0157EB163207","AttributeCode":"SHOWS","AttributeName":"Raj Mahal Shows","AttributeItemId":"60C786A8-B7F5-F3CA-0CD2-0157EB17173F","AttributeItemCode":"EVENING","AttributeItemName":"Evening Show","AttributeItemNameExt":"","SeatCategory":false,"SeatCategoryColor":"","SelectionType":1,"ITL_AttributeItemName":[],"ITL_AttributeItemNameExt":[],"OptionList":[]},{"AttributeId":"F0776F7B-995E-0DA5-39BF-015327DB373E","AttributeCode":"TC","AttributeName":"Terms & Conditions","AttributeItemId":"9A205A97-9009-4179-0100-015379CEF680","AttributeItemCode":"TC0005","AttributeItemName":"TC0005","AttributeItemNameExt":"","SeatCategory":false,"SeatCategoryColor":"","SelectionType":1,"ITL_AttributeItemName":[],"ITL_AttributeItemNameExt":[],"OptionList":[]},{"AttributeId":"9F5E6BB0-72AD-2B11-037E-0152A6690EE4","AttributeCode":"VENUE","AttributeName":"Venue","AttributeItemId":"FC7B1D0D-0B62-22EB-03B1-0152A69C9FAC","AttributeItemCode":"BWPARK","AttributeItemName":"Bollywood Park","AttributeItemNameExt":"","SeatCategory":false,"SeatCategoryColor":"","SelectionType":1,"ITL_AttributeItemName":[],"ITL_AttributeItemNameExt":[],"OptionList":[]},{"AttributeId":"FDD04E92-C39D-E826-7F77-01562C8F6A61","AttributeCode":"USAGE","AttributeName":"Days from Usage","AttributeItemId":"36FB7120-8473-3BA8-23AD-01568401930B","AttributeItemCode":"US-NDATED1","AttributeItemName":"Non Dated 1 Day","AttributeItemNameExt":"","SeatCategory":false,"SeatCategoryColor":"","SelectionType":1,"ITL_AttributeItemName":[],"ITL_AttributeItemNameExt":[],"OptionList":[]},{"AttributeId":"4BDD8A2F-E798-FC65-4077-0158489520AE","AttributeCode":"RAJFINAL","AttributeName":"RAJFINAL","AttributeItemId":"65025159-210A-59E7-0F07-0158489A1C16","AttributeItemCode":"GOLDF","AttributeItemName":"Silver 2","AttributeItemNameExt":"","SeatCategory":true,"SeatCategoryColor":"#FFCC00","SelectionType":1,"ITL_AttributeItemName":[],"ITL_AttributeItemNameExt":[],"OptionList":[]}],"OptionList":[],"ProductMetaDataList":[],"PerformanceList":[{"PerformanceId":"E1B835EF-5B40-B047-4DA8-0158DA36AA44","EventId":"801FC9B3-6E0F-012D-0735-015622C05D45","EventCode":"Theater_RM","EventName":"Jaan-E-Jigar","EventProfilePictureId":"4F38E1DE-8C1F-595A-191C-015824437A81","LocationId":"BAAC9BEF-A584-C917-00AF-01525EC9F327","LocationCode":"2G597J2HST4TSQ","LocationName":"Bollywood Park","AccessAreaId":"963653D3-2ECF-3DD1-252D-0158489B8648","AccessAreaCode":"2M6BCWWHXB5B09","AccessAreaName":"Raj Mahal Shows","DateTimeFrom":"2017-01-26T20:00:00.000","DateTimeTo":"2017-01-26T22:30:00.000","SeatAllocation":true,"SeatCategoryIDs":"40F84986-D345-BC6E-0F0C-0158489A1C26,65025159-210A-59E7-0F07-0158489A1C16,7E03EAF7-94F5-FB11-0F09-0158489A1C16,81ABFE52-ED62-E666-0F04-0158489A1C06,BC33B3CC-17DC-1781-0F1C-0158489A1C4E,E1D526E1-626E-78C5-3352-01584A89E30C","QuantityHeld":0,"QuantityReserved":35,"QuantityPaid":35,"QuantityFree":805,"QuantityMax":840,"SoldOutWarnLimit":20}],"Items":[],"ItemDetailList":[{"Position":1,"SeatHoldId":"0D4D8ACC-684B-E3A6-7F93-0159CB25E8A4","SeatList":[{"SeatId":"8E530DFF-DC30-8822-1EAB-E0D4E0DCA382","SeatName":"K\/10 (Lower - Silver 2)","ManualPick":false}],"BiometricList":[]},{"Position":2,"SeatHoldId":"0D4D8ACC-684B-E3A6-7F93-0159CB25E8A4","SeatList":[{"SeatId":"4BD5A96C-8B8F-0ABB-988A-0EBE98451053","SeatName":"K\/9 (Lower - Silver 2)","ManualPick":false}],"BiometricList":[]},{"Position":3,"SeatHoldId":"0D4D8ACC-684B-E3A6-7F93-0159CB25E8A4","SeatList":[{"SeatId":"C9EC884B-4DC9-5085-25EC-349B8B11FFBB","SeatName":"K\/8 (Lower - Silver 2)","ManualPick":false}],"BiometricList":[]},{"Position":4,"SeatHoldId":"0D4D8ACC-684B-E3A6-7F93-0159CB25E8A4","SeatList":[{"SeatId":"6AC16FAB-00AE-0F33-7EB6-FB01E5EE2AB1","SeatName":"K\/7 (Lower - Silver 2)","ManualPick":false}],"BiometricList":[]},{"Position":5,"SeatHoldId":"0D4D8ACC-684B-E3A6-7F93-0159CB25E8A4","SeatList":[{"SeatId":"5D36FD63-A4F1-9E8C-1208-E0CF983CC9FD","SeatName":"K\/6 (Lower - Silver 2)","ManualPick":false}],"BiometricList":[]},{"Position":6,"SeatHoldId":"0D4D8ACC-684B-E3A6-7F93-0159CB25E8A4","SeatList":[{"SeatId":"0547CA88-69EB-3339-D71A-00847DAFA7BF","SeatName":"K\/5 (Lower - Silver 2)","ManualPick":false}],"BiometricList":[]},{"Position":7,"SeatHoldId":"0D4D8ACC-684B-E3A6-7F93-0159CB25E8A4","SeatList":[{"SeatId":"038803B2-145A-5026-FDB0-F150B3430070","SeatName":"K\/4 (Lower - Silver 2)","ManualPick":false}],"BiometricList":[]},{"Position":8,"SeatHoldId":"0D4D8ACC-684B-E3A6-7F93-0159CB25E8A4","SeatList":[{"SeatId":"E1CF177C-8347-27A5-F56A-442B8ECE6415","SeatName":"K\/3 (Lower - Silver 2)","ManualPick":false}],"BiometricList":[]},{"Position":9,"SeatHoldId":"0D4D8ACC-684B-E3A6-7F93-0159CB25E8A4","SeatList":[{"SeatId":"559C449C-AA84-AC4C-7E08-AECE72F31D45","SeatName":"K\/2 (Lower - Silver 2)","ManualPick":false}],"BiometricList":[]},{"Position":10,"SeatHoldId":"0D4D8ACC-684B-E3A6-7F93-0159CB25E8A4","SeatList":[{"SeatId":"9692395D-0707-A958-B8FB-9D5E9DC37097","SeatName":"K\/1 (Lower - Silver 2)","ManualPick":false}],"BiometricList":[]},{"Position":11,"SeatHoldId":"0D4D8ACC-684B-E3A6-7F93-0159CB25E8A4","SeatList":[{"SeatId":"D494DAC0-4464-2193-C85C-95AFD98192A5","SeatName":"K\/30 (Lower - Silver 2)","ManualPick":false}],"BiometricList":[]},{"Position":12,"SeatHoldId":"0D4D8ACC-684B-E3A6-7F93-0159CB25E8A4","SeatList":[{"SeatId":"F7ED298F-732C-B430-3CBB-A50099550721","SeatName":"K\/31 (Lower - Silver 2)","ManualPick":false}],"BiometricList":[]},{"Position":13,"SeatHoldId":"0D4D8ACC-684B-E3A6-7F93-0159CB25E8A4","SeatList":[{"SeatId":"7046DBA7-3EBE-49FA-0C3D-51EFA09CBB80","SeatName":"K\/32 (Lower - Silver 2)","ManualPick":false}],"BiometricList":[]},{"Position":14,"SeatHoldId":"0D4D8ACC-684B-E3A6-7F93-0159CB25E8A4","SeatList":[{"SeatId":"282511AE-6C3F-FE73-4E51-3FC53FC0AA6E","SeatName":"K\/33 (Lower - Silver 2)","ManualPick":false}],"BiometricList":[]},{"Position":15,"SeatHoldId":"0D4D8ACC-684B-E3A6-7F93-0159CB25E8A4","SeatList":[{"SeatId":"31AAC639-29A3-AE43-2FA6-BDA873B2845D","SeatName":"K\/34 (Lower - Silver 2)","ManualPick":false}],"BiometricList":[]}],"ItemDiscountList":[],"UnitTaxList":[],"NeedHold":false,"RequireAccount":false,"HoldedQuantity":15,"SeatCategoryId":"65025159-210A-59E7-0F07-0158489A1C16","DocTemplateId":"86DACE1A-FB31-F9A9-3DE9-015814CD6A4C","DocEditorType":2,"SeatMapId":"861E5A6C-C60F-44D2-B4B0-4B82F60D0D82","GroupTicketOption":1,"QuantityMin":1,"QuantityStep":1,"GroupingDesc":"Jaan-E-Jigar - Bollywood Park - 26\/01\/2017 08:00 PM","HidePriceVisibility":false,"BiometricCheckLevel":1,"BiometricEnrollOnPOS":false,"ActionPlus":{"Enabled":true,"Visible":true,"Selected":false},"ActionMinus":{"Enabled":true,"Visible":true,"Selected":false},"ActionTrash":{"Enabled":true,"Visible":true,"Selected":false},"ActionDetails":{"Enabled":true,"Visible":true,"Selected":false},"ActionQuantity":{"Enabled":true,"Visible":true,"Selected":false},"ActionAddDeposit":{"Enabled":false,"Visible":true,"Selected":false},"ActionAddAccount":{"Enabled":false,"Visible":true,"Selected":false},"ActionAddMedia":{"Enabled":false,"Visible":true,"Selected":false},"ActionSeatMap":{"Enabled":true,"Visible":true,"Selected":false},"UnitAmountConverted":95,"UnitRawPriceConverted":95,"TotalAmountConverted":1425,"HolderList":[]}],"CreditItems":[],"Transaction":{"TransactionType":1},"SaleChannelId":"97E6A600-3F11-E760-5F2A-01562B7FD2D5","FrozenPrices":false,"Reservation":{"WishedDisapproval":false,"PaymentList":[],"LinkedSaleList":[]},"NeedHold":false,"HasHold":true,"SeatBestType":1,"HoldId":"5DD48181-7787-7406-7F91-0159CB25E894","SaleFlowType":1,"SaleAccountList":[],"SaleSurveyMetaDataList":[],"TransactionSurveyMetaDataList":[],"InstallmentContractIssue":{"DocumentData":""},"TransactionStartTime":1485171976340,"SelItemId":"512D18B1-444E-C207-7F90-0159CB25E894","HasApplicablePromos":false,"HidePriceVisibility":false,"LocationList":[],"ActionCheckOut":{"Enabled":true,"Visible":true,"Selected":false},"ActionEmptyCart":{"Enabled":true,"Visible":true,"Selected":false},"ActionResApp":{"Enabled":false,"Visible":true,"Selected":false},"ActionResPay":{"Enabled":false,"Visible":true,"Selected":false},"ActionResEnc":{"Enabled":false,"Visible":true,"Selected":false},"ActionResPrn":{"Enabled":false,"Visible":true,"Selected":false},"ActionResVal":{"Enabled":false,"Visible":true,"Selected":false},"ActionResBat":{"Enabled":true,"Visible":false,"Selected":false},"ActionResOpt":{"Enabled":true,"Visible":false,"Selected":false},"ActionResDep":{"Enabled":false,"Visible":false,"Selected":false},"ActionSaleTabView":{"Enabled":false,"Visible":false,"Selected":false},"LangISO":"AR","TotalAmountConverted":1425}}
2017-01-23 12:49:56 180.191.154.60 API RESPONSE 
2017-01-23 12:49:56 180.191.154.60 REQUEST 201511041000008|WBKFGHKA|AED|1425|https://uat.dubaiparksandresorts.com/ar/booking/confirmation|https://uat.dubaiparksandresorts.com/ar/booking/payment|02|INTERNET|CC|xxxx xxxx xxxx xxxx|xxx|MM|YYYY|cardtype|cardholder-name|cardholder-surname|address|address 2|city|state|zip|IT|email||||phone|||||||||||||||||||| |firstname|lastname|email|phone number|https://uat.dubaiparksandresorts.com/ar/booking/payment
2017-01-23 12:50:14 180.191.154.60 RESPONSE STATUS:SUCCESS xbh884H/y4jYOErsJEsNRuP9hWcdZ5dg4Vz+ZxUVX9Rj+9gh6h6hlNAlk416hvxVSF3ouAFUOu6ZdYiptuJdjtrha5eybEWWXe36ZeWIw/O8ScwOvlJFzytKya2L+t/DRSNM3z5LgYn+HrT8zPi/52ZodSHi+hZsfd7xqAuNpo8zBW9tnoQlB4v5PEZkLoepQOmJtG48HylK+5O4yLwbFwet+fG9yHHd+2ZV5f9qY8oZH2jaAeml66/4V/VhAzV3FcZF2x4RtcsEzdADTPSQFyTRusyXjlbG8Yh2CDB8es9n8emSGmbNUm4Gse95Ipjp+KX6MPtIV000v+kRLfP+lA==
2017-01-23 12:50:14 180.191.154.60 RESPONSE STATUS:SUCCESS WBKFGHKA|2001701000490899|AED|1425.0|SUCCESS|4851722090436768204011|CC|VISA|00000|No Error.|02|NOT ENROLLED|Partially Secure|831000|||NO|||Chona|Velasquez|chona.velasquez@mailinator.com|+1 242-3232|https://uat.dubaiparksandresorts.com/ar/booking/payment|
2017-01-23 13:04:26 180.191.154.60 API REQUEST BODY {
    "lang":"AR",
    "billingAddress": {
        "title": "Mr",
        "firstname": "Hazel",
        "lastname": "Ko",
        "email": "hazel.ko@mailinator.com","phoneNumber": "+971-3232","country": "United Arab Emirates",
        "region": "",
        "address": "GC",
        "address2": "",
        "city": "Dsd",
        "zipCode": "2121",
        "state": "none"
    },
    "contactInformation": {
        "title": "Mr",
        "firstname": "Hazel",
        "lastname": "Ko",
        "email": "hazel.ko@mailinator.com","phoneNumber": "+971-3232","country": "United Arab Emirates",
        "region": "",
        "address": "GC",
        "address2": "",
        "city": "Dsd",
        "zipCode": "2121",
        "state": "none"
    },
    "newsletterEnabled": 1,
    "termsAccepted": 1
    ,"ShopCart":{"SubTotal":2250,"TotalTax":0,"TotalAmount":2250,"TotalDue":2250,"CurrencyRounding":0,"DiscountRoundingList":[],"Items":[{"ShopCartItemId":"DBBB753C-E755-0090-7791-0159CB353584","IconName":"ticket.png","SubIcon":"None","ProductId":"5A2C80D0-1934-1213-0DCE-0157EB27D018","ProductCode":"RMTUND1DA1DF005","ProductName":"Jaan-E-Jigar Evening Show Platinum 2","ProductCategoryId":"EF2115D3-0CB3-15EB-05BF-015622B7933C","ChargeToWallet":false,"ForceMediaGeneration":false,"MediaExclusiveUse":false,"VariableDescription":false,"ShopCartItemType":1,"ProductType":1,"NewMediaList":[],"TimeTicketStatementList":[],"TaxCalcType":3,"UnitRawPrice":150,"UnitAmount":150,"UnitTax":0,"UnitDiscount":0,"UnitGrossFull":150,"UnitNetFull":150,"UnitNetDisc":150,"Quantity":15,"QuantityUnit":1,"TotalWalletDeposits":0,"TotalAmount":2250,"TotalTax":0,"TotalDiscount":0,"TotalGrossFull":2250,"TotalNetFull":2250,"TotalNetDisc":2250,"PresaleUnitAmount":0,"OptionsHash":"00000000000000000000000000000000","Entitlement":{"ExpRule":11,"ExpRuleQty":1,"ValidFromTime":"19:30","SimpleIncProductList":[],"EntList":[{"EventId":"9D0A978F-713F-7834-038F-0152A68C9898","EntType":3,"EntryType":1,"EntryQty":1,"SimpleIncProductList":[],"EntList":[]},{"EventId":"801FC9B3-6E0F-012D-0735-015622C05D45","EntType":3,"EntryType":2,"EntryQty":1,"SimpleIncProductList":[],"EntList":[]}]},"AttributeItemList":[{"AttributeId":"F089E193-E09F-1C8D-0CA9-0157EB163207","AttributeCode":"SHOWS","AttributeName":"Raj Mahal Shows","AttributeItemId":"60C786A8-B7F5-F3CA-0CD2-0157EB17173F","AttributeItemCode":"EVENING","AttributeItemName":"Evening Show","AttributeItemNameExt":"","SeatCategory":false,"SeatCategoryColor":"","SelectionType":1,"ITL_AttributeItemName":[],"ITL_AttributeItemNameExt":[],"OptionList":[]},{"AttributeId":"F0776F7B-995E-0DA5-39BF-015327DB373E","AttributeCode":"TC","AttributeName":"Terms & Conditions","AttributeItemId":"9A205A97-9009-4179-0100-015379CEF680","AttributeItemCode":"TC0005","AttributeItemName":"TC0005","AttributeItemNameExt":"","SeatCategory":false,"SeatCategoryColor":"","SelectionType":1,"ITL_AttributeItemName":[],"ITL_AttributeItemNameExt":[],"OptionList":[]},{"AttributeId":"9F5E6BB0-72AD-2B11-037E-0152A6690EE4","AttributeCode":"VENUE","AttributeName":"Venue","AttributeItemId":"FC7B1D0D-0B62-22EB-03B1-0152A69C9FAC","AttributeItemCode":"BWPARK","AttributeItemName":"Bollywood Park","AttributeItemNameExt":"","SeatCategory":false,"SeatCategoryColor":"","SelectionType":1,"ITL_AttributeItemName":[],"ITL_AttributeItemNameExt":[],"OptionList":[]},{"AttributeId":"FDD04E92-C39D-E826-7F77-01562C8F6A61","AttributeCode":"USAGE","AttributeName":"Days from Usage","AttributeItemId":"36FB7120-8473-3BA8-23AD-01568401930B","AttributeItemCode":"US-NDATED1","AttributeItemName":"Non Dated 1 Day","AttributeItemNameExt":"","SeatCategory":false,"SeatCategoryColor":"","SelectionType":1,"ITL_AttributeItemName":[],"ITL_AttributeItemNameExt":[],"OptionList":[]},{"AttributeId":"4BDD8A2F-E798-FC65-4077-0158489520AE","AttributeCode":"RAJFINAL","AttributeName":"RAJFINAL","AttributeItemId":"BC33B3CC-17DC-1781-0F1C-0158489A1C4E","AttributeItemCode":"VIP-2","AttributeItemName":"Platinum 2","AttributeItemNameExt":"","SeatCategory":true,"SeatCategoryColor":"#433EDE","SelectionType":1,"ITL_AttributeItemName":[],"ITL_AttributeItemNameExt":[],"OptionList":[]}],"OptionList":[],"ProductMetaDataList":[],"PerformanceList":[{"PerformanceId":"E1B835EF-5B40-B047-4DA8-0158DA36AA44","EventId":"801FC9B3-6E0F-012D-0735-015622C05D45","EventCode":"Theater_RM","EventName":"Jaan-E-Jigar","EventProfilePictureId":"4F38E1DE-8C1F-595A-191C-015824437A81","LocationId":"BAAC9BEF-A584-C917-00AF-01525EC9F327","LocationCode":"2G597J2HST4TSQ","LocationName":"Bollywood Park","AccessAreaId":"963653D3-2ECF-3DD1-252D-0158489B8648","AccessAreaCode":"2M6BCWWHXB5B09","AccessAreaName":"Raj Mahal Shows","DateTimeFrom":"2017-01-26T20:00:00.000","DateTimeTo":"2017-01-26T22:30:00.000","SeatAllocation":true,"SeatCategoryIDs":"40F84986-D345-BC6E-0F0C-0158489A1C26,65025159-210A-59E7-0F07-0158489A1C16,7E03EAF7-94F5-FB11-0F09-0158489A1C16,81ABFE52-ED62-E666-0F04-0158489A1C06,BC33B3CC-17DC-1781-0F1C-0158489A1C4E,E1D526E1-626E-78C5-3352-01584A89E30C","QuantityHeld":6,"QuantityReserved":50,"QuantityPaid":50,"QuantityFree":784,"QuantityMax":840,"SoldOutWarnLimit":20}],"Items":[],"ItemDetailList":[{"Position":1,"SeatHoldId":"1826C38E-AA75-0BF4-7794-0159CB353594","SeatList":[{"SeatId":"F1C35F04-D557-6E46-9AD0-299A303089E2","SeatName":"A\/5 (Raj Mahal Shows - Platinum 2)","ManualPick":false}],"BiometricList":[]},{"Position":2,"SeatHoldId":"1826C38E-AA75-0BF4-7794-0159CB353594","SeatList":[{"SeatId":"6142C97D-FF86-AF6E-480F-D5F3721826FF","SeatName":"A\/4 (Raj Mahal Shows - Platinum 2)","ManualPick":false}],"BiometricList":[]},{"Position":3,"SeatHoldId":"1826C38E-AA75-0BF4-7794-0159CB353594","SeatList":[{"SeatId":"C7FABFC1-1FC6-F29A-D262-30AB121998F4","SeatName":"A\/3 (Raj Mahal Shows - Platinum 2)","ManualPick":false}],"BiometricList":[]},{"Position":4,"SeatHoldId":"1826C38E-AA75-0BF4-7794-0159CB353594","SeatList":[{"SeatId":"D7634A22-A94D-A074-3BD9-17A60CC46DE3","SeatName":"A\/2 (Raj Mahal Shows - Platinum 2)","ManualPick":false}],"BiometricList":[]},{"Position":5,"SeatHoldId":"1826C38E-AA75-0BF4-7794-0159CB353594","SeatList":[{"SeatId":"56B88AAB-3B89-A015-4CCF-4E31071F297F","SeatName":"A\/1 (Raj Mahal Shows - Platinum 2)","ManualPick":false}],"BiometricList":[]},{"Position":6,"SeatHoldId":"1826C38E-AA75-0BF4-7794-0159CB353594","SeatList":[{"SeatId":"EBA15C4A-3264-738A-9325-63E759BB134E","SeatName":"B\/6 (Raj Mahal Shows - Platinum 2)","ManualPick":false}],"BiometricList":[]},{"Position":7,"SeatHoldId":"1826C38E-AA75-0BF4-7794-0159CB353594","SeatList":[{"SeatId":"E0480951-BA0C-60A4-1C64-7C9C593ED9DA","SeatName":"B\/5 (Raj Mahal Shows - Platinum 2)","ManualPick":false}],"BiometricList":[]},{"Position":8,"SeatHoldId":"1826C38E-AA75-0BF4-7794-0159CB353594","SeatList":[{"SeatId":"B0BA15B5-2E93-8EED-DE27-7A055E94A5D3","SeatName":"B\/4 (Raj Mahal Shows - Platinum 2)","ManualPick":false}],"BiometricList":[]},{"Position":9,"SeatHoldId":"1826C38E-AA75-0BF4-7794-0159CB353594","SeatList":[{"SeatId":"56F742A5-C87A-0660-FAC3-750A60FEEE94","SeatName":"B\/3 (Raj Mahal Shows - Platinum 2)","ManualPick":false}],"BiometricList":[]},{"Position":10,"SeatHoldId":"1826C38E-AA75-0BF4-7794-0159CB353594","SeatList":[{"SeatId":"57E53C20-43C6-F0EE-3E09-8ABA4EAD670A","SeatName":"B\/2 (Raj Mahal Shows - Platinum 2)","ManualPick":false}],"BiometricList":[]},{"Position":11,"SeatHoldId":"1826C38E-AA75-0BF4-7794-0159CB353594","SeatList":[{"SeatId":"9E936622-4B7E-1593-3DBD-2E78A89401AD","SeatName":"B\/1 (Raj Mahal Shows - Platinum 2)","ManualPick":false}],"BiometricList":[]},{"Position":12,"SeatHoldId":"1826C38E-AA75-0BF4-7794-0159CB353594","SeatList":[{"SeatId":"DC18E179-A941-D0B9-6999-7C6E2A9A55D3","SeatName":"C\/5 (Raj Mahal Shows - Platinum 2)","ManualPick":false}],"BiometricList":[]},{"Position":13,"SeatHoldId":"1826C38E-AA75-0BF4-7794-0159CB353594","SeatList":[{"SeatId":"45F6B394-64BB-F69C-39A9-97541967059E","SeatName":"C\/4 (Raj Mahal Shows - Platinum 2)","ManualPick":false}],"BiometricList":[]},{"Position":14,"SeatHoldId":"1826C38E-AA75-0BF4-7794-0159CB353594","SeatList":[{"SeatId":"BAF78890-8202-EC0A-2A79-0A8E988E74F4","SeatName":"C\/3 (Raj Mahal Shows - Platinum 2)","ManualPick":false}],"BiometricList":[]},{"Position":15,"SeatHoldId":"1826C38E-AA75-0BF4-7794-0159CB353594","SeatList":[{"SeatId":"6BB6A728-F24C-D65A-89A9-7E031BD4A603","SeatName":"C\/2 (Raj Mahal Shows - Platinum 2)","ManualPick":false}],"BiometricList":[]}],"ItemDiscountList":[],"UnitTaxList":[],"NeedHold":false,"RequireAccount":false,"HoldedQuantity":15,"SeatCategoryId":"BC33B3CC-17DC-1781-0F1C-0158489A1C4E","DocTemplateId":"86DACE1A-FB31-F9A9-3DE9-015814CD6A4C","DocEditorType":2,"SeatMapId":"861E5A6C-C60F-44D2-B4B0-4B82F60D0D82","GroupTicketOption":1,"QuantityMin":1,"QuantityStep":1,"GroupingDesc":"Jaan-E-Jigar - Bollywood Park - 26\/01\/2017 08:00 PM","HidePriceVisibility":false,"BiometricCheckLevel":1,"BiometricEnrollOnPOS":false,"ActionPlus":{"Enabled":true,"Visible":true,"Selected":false},"ActionMinus":{"Enabled":true,"Visible":true,"Selected":false},"ActionTrash":{"Enabled":true,"Visible":true,"Selected":false},"ActionDetails":{"Enabled":true,"Visible":true,"Selected":false},"ActionQuantity":{"Enabled":true,"Visible":true,"Selected":false},"ActionAddDeposit":{"Enabled":false,"Visible":true,"Selected":false},"ActionAddAccount":{"Enabled":false,"Visible":true,"Selected":false},"ActionAddMedia":{"Enabled":false,"Visible":true,"Selected":false},"ActionSeatMap":{"Enabled":true,"Visible":true,"Selected":false},"UnitAmountConverted":150,"UnitRawPriceConverted":150,"TotalAmountConverted":2250,"HolderList":[]}],"CreditItems":[],"Transaction":{"TransactionType":1},"SaleChannelId":"97E6A600-3F11-E760-5F2A-01562B7FD2D5","FrozenPrices":false,"Reservation":{"WishedDisapproval":false,"PaymentList":[],"LinkedSaleList":[]},"NeedHold":false,"HasHold":true,"SeatBestType":2,"HoldId":"0BEFE34C-100C-BC0F-7793-0159CB353594","SaleFlowType":1,"SaleAccountList":[],"SaleSurveyMetaDataList":[],"TransactionSurveyMetaDataList":[],"InstallmentContractIssue":{"DocumentData":""},"TransactionStartTime":1485172979092,"SelItemId":"DBBB753C-E755-0090-7791-0159CB353584","HasApplicablePromos":false,"HidePriceVisibility":false,"LocationList":[],"ActionCheckOut":{"Enabled":true,"Visible":true,"Selected":false},"ActionEmptyCart":{"Enabled":true,"Visible":true,"Selected":false},"ActionResApp":{"Enabled":false,"Visible":true,"Selected":false},"ActionResPay":{"Enabled":false,"Visible":true,"Selected":false},"ActionResEnc":{"Enabled":false,"Visible":true,"Selected":false},"ActionResPrn":{"Enabled":false,"Visible":true,"Selected":false},"ActionResVal":{"Enabled":false,"Visible":true,"Selected":false},"ActionResBat":{"Enabled":true,"Visible":false,"Selected":false},"ActionResOpt":{"Enabled":true,"Visible":false,"Selected":false},"ActionResDep":{"Enabled":false,"Visible":false,"Selected":false},"ActionSaleTabView":{"Enabled":false,"Visible":false,"Selected":false},"LangISO":"AR","TotalAmountConverted":2250}}
2017-01-23 13:04:26 180.191.154.60 API RESPONSE 
2017-01-23 13:04:26 180.191.154.60 REQUEST 201511041000008|U9HDEFHA|AED|2250|https://uat.dubaiparksandresorts.com/ar/booking/confirmation|https://uat.dubaiparksandresorts.com/ar/booking/payment|02|INTERNET|CC|xxxx xxxx xxxx xxxx|xxx|MM|YYYY|cardtype|cardholder-name|cardholder-surname|address|address 2|city|state|zip|IT|email||||phone|||||||||||||||||||| |firstname|lastname|email|phone number|https://uat.dubaiparksandresorts.com/ar/booking/payment
2017-01-23 13:04:41 180.191.154.60 RESPONSE STATUS:SUCCESS oSEj2m6id7w6JC2Jd70FUQZzSH0q1izSsgri4fCiBhsbgHrW16saS4RwL/arNmh5EnvZyCnl0E/am46u5u1kZruL03ucm9aKqPmLDF3j12vBCtdGsT4f3xqDGr5KLiniqJVjuLlNQOJT8gfq2lLNvlMrQYo0refovQ429cFbRoJ8XFdMVnDkb3gz5OxiEz2bkzM2Vqs+/SMO+WrKHnimMDyAd4aynvVxUkit97Zkd1YGswSvgUQQgLOhpVt4wDET0fUs5jtb1uk+zr/So+qJfnXxDMddgGdBsQ8XFyuT+Y/Ip4MXAPk5MhRikJvY2vMl
2017-01-23 13:04:41 180.191.154.60 RESPONSE STATUS:SUCCESS U9HDEFHA|2001701000490902|AED|2250.0|SUCCESS|4851730782306026904011|CC|VISA|00000|No Error.|02|NOT ENROLLED|Partially Secure|831000|||NO|||Hazel|Ko|hazel.ko@mailinator.com|+971-3232|https://uat.dubaiparksandresorts.com/ar/booking/payment|
2017-01-23 13:13:34 180.191.154.60 API REQUEST BODY {
    "lang":"AR",
    "billingAddress": {
        "title": "Mr",
        "firstname": "Joey",
        "lastname": "Smith",
        "email": "joey.smith@mailinator.com","phoneNumber": "+971-3232","country": "United Arab Emirates",
        "region": "",
        "address": "BGC",
        "address2": "",
        "city": "Manila",
        "zipCode": "2122",
        "state": "none"
    },
    "contactInformation": {
        "title": "Mr",
        "firstname": "Joey",
        "lastname": "Smith",
        "email": "joey.smith@mailinator.com","phoneNumber": "+971-3232","country": "United Arab Emirates",
        "region": "",
        "address": "BGC",
        "address2": "",
        "city": "Manila",
        "zipCode": "2122",
        "state": "none"
    },
    "newsletterEnabled": 1,
    "termsAccepted": 1
    ,"ShopCart":{"SubTotal":1340,"TotalTax":0,"TotalAmount":1340,"TotalDue":1340,"CurrencyRounding":0,"DiscountRoundingList":[],"Items":[{"ShopCartItemId":"240BABAA-4A41-EBBD-5298-0159CB3AB152","IconName":"ticket.png","SubIcon":"None","ProductId":"A24004B7-2405-569B-223E-015715C7CB3C","ProductCode":"MUPADT1GE1DF001","ProductName":"All Theme Parks hopper 1 Day ADT","ProductCategoryId":"6D967264-52F0-337D-2812-0152F087BCEF","ChargeToWallet":false,"ForceMediaGeneration":false,"MediaExclusiveUse":true,"VariableDescription":false,"ProfilePictureId":"E95148C6-021E-6F52-227E-015715C7CBA3","ShopCartItemType":1,"ProductType":1,"NewMediaList":[],"TimeTicketStatementList":[],"TaxCalcType":3,"UnitRawPrice":480,"UnitAmount":480,"UnitTax":0,"UnitDiscount":0,"UnitGrossFull":480,"UnitNetFull":480,"UnitNetDisc":480,"Quantity":1,"QuantityUnit":1,"TotalWalletDeposits":0,"TotalAmount":480,"TotalTax":0,"TotalDiscount":0,"TotalGrossFull":480,"TotalNetFull":480,"TotalNetDisc":480,"PresaleUnitAmount":0,"OptionsHash":"00000000000000000000000000000000","Entitlement":{"EntryType":1,"EntryQty":1,"ReEntryType":1,"AntiPassBackMinutes":10,"CrossoverRule":1,"ExpRule":11,"ExpRuleQty":1,"ValidFromDate":"2016-11-15","ValidToDate":"2017-05-15","SimpleIncProductList":[],"EntList":[{"EventId":"9D0A978F-713F-7834-038F-0152A68C9898","EntType":3,"SimpleIncProductList":[],"EntList":[]},{"EventId":"48435D0D-66CD-AFA7-03CB-0152A69F846A","EntType":3,"SimpleIncProductList":[],"EntList":[]},{"EventId":"D8B68BC9-0A2B-C4C5-0398-0152A68EA187","EntType":3,"SimpleIncProductList":[],"EntList":[]}]},"AttributeItemList":[{"AttributeId":"576B4680-3890-91B8-0631-0152B5A69E4D","AttributeCode":"HOPPER","AttributeName":"Hopper","AttributeItemId":"502A33DE-3054-84DE-196A-0155E30B882E","AttributeItemCode":"XO-SAMEDAY","AttributeItemName":"Crossover Same day Unlimited","AttributeItemNameExt":"","SeatCategory":false,"SeatCategoryColor":"","SelectionType":1,"ITL_AttributeItemName":[],"ITL_AttributeItemNameExt":[],"OptionList":[]},{"AttributeId":"D561B103-EBA2-4321-159D-0152DE7BB005","AttributeCode":"ACCVENUE","AttributeName":"Accessible Venue","AttributeItemId":"E989AC08-51E5-0DA1-15A8-0152DE7EDB8C","AttributeItemCode":"MP","AttributeItemName":"Multipark","AttributeItemNameExt":"","SeatCategory":false,"SeatCategoryColor":"","SelectionType":1,"ITL_AttributeItemName":[],"ITL_AttributeItemNameExt":[],"OptionList":[]},{"AttributeId":"C389DCD7-A61C-C596-03BE-0152A69DA2DD","AttributeCode":"AGECAT","AttributeName":"Age Category","AttributeItemId":"011396E7-CEDC-D3D0-03C1-0152A69E8640","AttributeItemCode":"ADT","AttributeItemName":"Adult","AttributeItemNameExt":"","SeatCategory":false,"SeatCategoryColor":"","SelectionType":1,"ITL_AttributeItemName":[],"ITL_AttributeItemNameExt":[],"OptionList":[]},{"AttributeId":"FAD64838-5F6E-11DB-0FE9-0152BBF3CB3F","AttributeCode":"PRONAME","AttributeName":"Product Name for B2C","AttributeItemId":"ED68FFFA-5736-9504-0733-0152BF765A39","AttributeItemCode":"DPR1D3P","AttributeItemName":"DPR 1 Day 3 Parks","AttributeItemNameExt":"","SeatCategory":false,"SeatCategoryColor":"","SelectionType":1,"ITL_AttributeItemName":[],"ITL_AttributeItemNameExt":[],"OptionList":[]},{"AttributeId":"B6F2ABE6-39B2-496C-060C-0152B5938D32","AttributeCode":"VISITDATE","AttributeName":"Visit Date","AttributeItemId":"1290641C-3AA9-EBBF-5539-01558B5D4CE1","AttributeItemCode":"NONDATE","AttributeItemName":"Non-Dated","AttributeItemNameExt":"","SeatCategory":false,"SeatCategoryColor":"","SelectionType":1,"ITL_AttributeItemName":[],"ITL_AttributeItemNameExt":[],"OptionList":[]},{"AttributeId":"9F5E6BB0-72AD-2B11-037E-0152A6690EE4","AttributeCode":"VENUE","AttributeName":"Venue","AttributeItemId":"1276F2A6-3A1D-614F-061D-0152B59B648F","AttributeItemCode":"MULTIPRK","AttributeItemName":"Multipark","AttributeItemNameExt":"","SeatCategory":false,"SeatCategoryColor":"","SelectionType":1,"ITL_AttributeItemName":[],"ITL_AttributeItemNameExt":[],"OptionList":[]},{"AttributeId":"CA7FC31C-0C8E-5601-0620-0152B59BD43F","AttributeCode":"NOFDAYS","AttributeName":"Number of Days","AttributeItemId":"4B8CF581-0FF1-3EDA-0623-0152B59CB60E","AttributeItemCode":"1DAY","AttributeItemName":"1 Day","AttributeItemNameExt":"","SeatCategory":false,"SeatCategoryColor":"","SelectionType":1,"ITL_AttributeItemName":[],"ITL_AttributeItemNameExt":[],"OptionList":[]},{"AttributeId":"BAC7A177-1218-037C-0638-0152B5A77374","AttributeCode":"NUMOFENTRY","AttributeName":"Number of Entries","AttributeItemId":"3BAC7E1E-D630-3952-063B-0152B5A88ECD","AttributeItemCode":"1ENTRY","AttributeItemName":"1 Entry","AttributeItemNameExt":"","SeatCategory":false,"SeatCategoryColor":"","SelectionType":1,"ITL_AttributeItemName":[],"ITL_AttributeItemNameExt":[],"OptionList":[]},{"AttributeId":"FDD04E92-C39D-E826-7F77-01562C8F6A61","AttributeCode":"USAGE","AttributeName":"Days from Usage","AttributeItemId":"36FB7120-8473-3BA8-23AD-01568401930B","AttributeItemCode":"US-NDATED1","AttributeItemName":"Non Dated 1 Day","AttributeItemNameExt":"","SeatCategory":false,"SeatCategoryColor":"","SelectionType":1,"ITL_AttributeItemName":[],"ITL_AttributeItemNameExt":[],"OptionList":[]},{"AttributeId":"C5BDC4BC-DDA6-B2E4-233E-015683F74619","AttributeCode":"DATE-RANGE","AttributeName":"Date Range","AttributeItemId":"2A0CBA46-169D-A873-2341-015683FE40FA","AttributeItemCode":"RANGE-1","AttributeItemName":"2016-11-15 to 2017-05-15","AttributeItemNameExt":"","SeatCategory":false,"SeatCategoryColor":"","SelectionType":1,"ITL_AttributeItemName":[],"ITL_AttributeItemNameExt":[],"OptionList":[]},{"AttributeId":"F0776F7B-995E-0DA5-39BF-015327DB373E","AttributeCode":"TC","AttributeName":"Terms & Conditions","AttributeItemId":"32419FE2-E13C-47D1-00FE-015379CEF680","AttributeItemCode":"TC0004","AttributeItemName":"TC0004","AttributeItemNameExt":"","SeatCategory":false,"SeatCategoryColor":"","SelectionType":1,"ITL_AttributeItemName":[],"ITL_AttributeItemNameExt":[],"OptionList":[]}],"OptionList":[],"ProductMetaDataList":[{"MetaFieldId":"E1B22BC6-DA71-07A1-1500-0155298DC570","MetaFieldCode":"MAR","Value":"1 Day All Theme Parks unlimited access (no Water Park)","MetaFieldDataType":1,"MultiLanguageText":{"Default":"1 Day All Theme Parks unlimited access (no Water Park)","TransList":[]}},{"MetaFieldId":"B62FC635-2828-A6E7-1502-0155298DFC9A","MetaFieldCode":"MSUB","Value":"One day admission (Adult)(Hopper)","MetaFieldDataType":1,"MultiLanguageText":{"Default":"One day admission (Adult)(Hopper)","TransList":[]}}],"PerformanceList":[],"Items":[],"ItemDetailList":[{"Position":1,"SeatList":[],"BiometricList":[]}],"ItemDiscountList":[],"UnitTaxList":[],"NeedHold":false,"RequireAccount":false,"DocTemplateId":"DEBAEDFD-6CB6-1844-29E3-01581590908D","DocEditorType":2,"GroupTicketOption":1,"QuantityMin":1,"QuantityStep":1,"GroupingDesc":"Other","HidePriceVisibility":false,"BiometricCheckLevel":20,"BiometricEnrollOnPOS":false,"ActionPlus":{"Enabled":true,"Visible":true,"Selected":false},"ActionMinus":{"Enabled":false,"Visible":true,"Selected":false},"ActionTrash":{"Enabled":true,"Visible":true,"Selected":false},"ActionDetails":{"Enabled":true,"Visible":true,"Selected":false},"ActionQuantity":{"Enabled":true,"Visible":true,"Selected":false},"ActionAddDeposit":{"Enabled":false,"Visible":true,"Selected":false},"ActionAddAccount":{"Enabled":false,"Visible":true,"Selected":false},"ActionAddMedia":{"Enabled":false,"Visible":true,"Selected":false},"ActionSeatMap":{"Enabled":false,"Visible":false,"Selected":false},"UnitAmountConverted":480,"UnitRawPriceConverted":480,"TotalAmountConverted":480,"HolderList":[]},{"ShopCartItemId":"1B4909BE-C633-4FE9-52A5-0159CB3AB1E5","IconName":"ticket.png","SubIcon":"None","ProductId":"52481E36-5505-F786-22BF-015715CA0138","ProductCode":"MUPCHD1GE1DF001","ProductName":"All Theme Parks hopper 1 Day CHD","ProductCategoryId":"6D967264-52F0-337D-2812-0152F087BCEF","ChargeToWallet":false,"ForceMediaGeneration":false,"MediaExclusiveUse":true,"VariableDescription":false,"ProfilePictureId":"B14E5B10-EA9C-887B-22F9-015715CA018B","ShopCartItemType":1,"ProductType":1,"NewMediaList":[],"TimeTicketStatementList":[],"TaxCalcType":3,"UnitRawPrice":430,"UnitAmount":430,"UnitTax":0,"UnitDiscount":0,"UnitGrossFull":430,"UnitNetFull":430,"UnitNetDisc":430,"Quantity":1,"QuantityUnit":1,"TotalWalletDeposits":0,"TotalAmount":430,"TotalTax":0,"TotalDiscount":0,"TotalGrossFull":430,"TotalNetFull":430,"TotalNetDisc":430,"PresaleUnitAmount":0,"OptionsHash":"00000000000000000000000000000000","Entitlement":{"EntryType":1,"EntryQty":1,"ReEntryType":1,"AntiPassBackMinutes":10,"CrossoverRule":1,"ExpRule":11,"ExpRuleQty":1,"ValidFromDate":"2016-11-15","ValidToDate":"2017-05-15","SimpleIncProductList":[],"EntList":[{"EventId":"9D0A978F-713F-7834-038F-0152A68C9898","EntType":3,"SimpleIncProductList":[],"EntList":[]},{"EventId":"48435D0D-66CD-AFA7-03CB-0152A69F846A","EntType":3,"SimpleIncProductList":[],"EntList":[]},{"EventId":"D8B68BC9-0A2B-C4C5-0398-0152A68EA187","EntType":3,"SimpleIncProductList":[],"EntList":[]}]},"AttributeItemList":[{"AttributeId":"576B4680-3890-91B8-0631-0152B5A69E4D","AttributeCode":"HOPPER","AttributeName":"Hopper","AttributeItemId":"502A33DE-3054-84DE-196A-0155E30B882E","AttributeItemCode":"XO-SAMEDAY","AttributeItemName":"Crossover Same day Unlimited","AttributeItemNameExt":"","SeatCategory":false,"SeatCategoryColor":"","SelectionType":1,"ITL_AttributeItemName":[],"ITL_AttributeItemNameExt":[],"OptionList":[]},{"AttributeId":"D561B103-EBA2-4321-159D-0152DE7BB005","AttributeCode":"ACCVENUE","AttributeName":"Accessible Venue","AttributeItemId":"E989AC08-51E5-0DA1-15A8-0152DE7EDB8C","AttributeItemCode":"MP","AttributeItemName":"Multipark","AttributeItemNameExt":"","SeatCategory":false,"SeatCategoryColor":"","SelectionType":1,"ITL_AttributeItemName":[],"ITL_AttributeItemNameExt":[],"OptionList":[]},{"AttributeId":"FAD64838-5F6E-11DB-0FE9-0152BBF3CB3F","AttributeCode":"PRONAME","AttributeName":"Product Name for B2C","AttributeItemId":"ED68FFFA-5736-9504-0733-0152BF765A39","AttributeItemCode":"DPR1D3P","AttributeItemName":"DPR 1 Day 3 Parks","AttributeItemNameExt":"","SeatCategory":false,"SeatCategoryColor":"","SelectionType":1,"ITL_AttributeItemName":[],"ITL_AttributeItemNameExt":[],"OptionList":[]},{"AttributeId":"B6F2ABE6-39B2-496C-060C-0152B5938D32","AttributeCode":"VISITDATE","AttributeName":"Visit Date","AttributeItemId":"1290641C-3AA9-EBBF-5539-01558B5D4CE1","AttributeItemCode":"NONDATE","AttributeItemName":"Non-Dated","AttributeItemNameExt":"","SeatCategory":false,"SeatCategoryColor":"","SelectionType":1,"ITL_AttributeItemName":[],"ITL_AttributeItemNameExt":[],"OptionList":[]},{"AttributeId":"9F5E6BB0-72AD-2B11-037E-0152A6690EE4","AttributeCode":"VENUE","AttributeName":"Venue","AttributeItemId":"1276F2A6-3A1D-614F-061D-0152B59B648F","AttributeItemCode":"MULTIPRK","AttributeItemName":"Multipark","AttributeItemNameExt":"","SeatCategory":false,"SeatCategoryColor":"","SelectionType":1,"ITL_AttributeItemName":[],"ITL_AttributeItemNameExt":[],"OptionList":[]},{"AttributeId":"CA7FC31C-0C8E-5601-0620-0152B59BD43F","AttributeCode":"NOFDAYS","AttributeName":"Number of Days","AttributeItemId":"4B8CF581-0FF1-3EDA-0623-0152B59CB60E","AttributeItemCode":"1DAY","AttributeItemName":"1 Day","AttributeItemNameExt":"","SeatCategory":false,"SeatCategoryColor":"","SelectionType":1,"ITL_AttributeItemName":[],"ITL_AttributeItemNameExt":[],"OptionList":[]},{"AttributeId":"BAC7A177-1218-037C-0638-0152B5A77374","AttributeCode":"NUMOFENTRY","AttributeName":"Number of Entries","AttributeItemId":"3BAC7E1E-D630-3952-063B-0152B5A88ECD","AttributeItemCode":"1ENTRY","AttributeItemName":"1 Entry","AttributeItemNameExt":"","SeatCategory":false,"SeatCategoryColor":"","SelectionType":1,"ITL_AttributeItemName":[],"ITL_AttributeItemNameExt":[],"OptionList":[]},{"AttributeId":"FDD04E92-C39D-E826-7F77-01562C8F6A61","AttributeCode":"USAGE","AttributeName":"Days from Usage","AttributeItemId":"36FB7120-8473-3BA8-23AD-01568401930B","AttributeItemCode":"US-NDATED1","AttributeItemName":"Non Dated 1 Day","AttributeItemNameExt":"","SeatCategory":false,"SeatCategoryColor":"","SelectionType":1,"ITL_AttributeItemName":[],"ITL_AttributeItemNameExt":[],"OptionList":[]},{"AttributeId":"C389DCD7-A61C-C596-03BE-0152A69DA2DD","AttributeCode":"AGECAT","AttributeName":"Age Category","AttributeItemId":"D1BD2C20-2587-92E9-03C3-0152A69E864F","AttributeItemCode":"CHLD","AttributeItemName":"Child","AttributeItemNameExt":"","SeatCategory":false,"SeatCategoryColor":"","SelectionType":1,"ITL_AttributeItemName":[],"ITL_AttributeItemNameExt":[],"OptionList":[]},{"AttributeId":"C5BDC4BC-DDA6-B2E4-233E-015683F74619","AttributeCode":"DATE-RANGE","AttributeName":"Date Range","AttributeItemId":"2A0CBA46-169D-A873-2341-015683FE40FA","AttributeItemCode":"RANGE-1","AttributeItemName":"2016-11-15 to 2017-05-15","AttributeItemNameExt":"","SeatCategory":false,"SeatCategoryColor":"","SelectionType":1,"ITL_AttributeItemName":[],"ITL_AttributeItemNameExt":[],"OptionList":[]},{"AttributeId":"F0776F7B-995E-0DA5-39BF-015327DB373E","AttributeCode":"TC","AttributeName":"Terms & Conditions","AttributeItemId":"32419FE2-E13C-47D1-00FE-015379CEF680","AttributeItemCode":"TC0004","AttributeItemName":"TC0004","AttributeItemNameExt":"","SeatCategory":false,"SeatCategoryColor":"","SelectionType":1,"ITL_AttributeItemName":[],"ITL_AttributeItemNameExt":[],"OptionList":[]}],"OptionList":[],"ProductMetaDataList":[{"MetaFieldId":"E1B22BC6-DA71-07A1-1500-0155298DC570","MetaFieldCode":"MAR","Value":"1 Day All Theme Parks unlimited access (no Water Park)","MetaFieldDataType":1,"MultiLanguageText":{"Default":"1 Day All Theme Parks unlimited access (no Water Park)","TransList":[]}},{"MetaFieldId":"B62FC635-2828-A6E7-1502-0155298DFC9A","MetaFieldCode":"MSUB","Value":"One day admission (Child) (Hopper)","MetaFieldDataType":1,"MultiLanguageText":{"Default":"One day admission (Child) (Hopper)","TransList":[]}}],"PerformanceList":[],"Items":[],"ItemDetailList":[{"Position":1,"SeatList":[],"BiometricList":[]}],"ItemDiscountList":[],"UnitTaxList":[],"NeedHold":false,"RequireAccount":false,"DocTemplateId":"A9FC4A83-5620-F40E-6678-01532E5FEC23","DocEditorType":3,"GroupTicketOption":1,"QuantityMin":1,"QuantityStep":1,"GroupingDesc":"Other","HidePriceVisibility":false,"BiometricCheckLevel":10,"BiometricEnrollOnPOS":false,"ActionPlus":{"Enabled":true,"Visible":true,"Selected":false},"ActionMinus":{"Enabled":false,"Visible":true,"Selected":false},"ActionTrash":{"Enabled":true,"Visible":true,"Selected":false},"ActionDetails":{"Enabled":true,"Visible":true,"Selected":false},"ActionQuantity":{"Enabled":true,"Visible":true,"Selected":false},"ActionAddDeposit":{"Enabled":false,"Visible":true,"Selected":false},"ActionAddAccount":{"Enabled":false,"Visible":true,"Selected":false},"ActionAddMedia":{"Enabled":false,"Visible":true,"Selected":false},"ActionSeatMap":{"Enabled":false,"Visible":false,"Selected":false},"UnitAmountConverted":430,"UnitRawPriceConverted":430,"TotalAmountConverted":430,"HolderList":[]},{"ShopCartItemId":"E9C4E4C8-919C-1C6C-52B7-0159CB3AB287","IconName":"ticket.png","SubIcon":"None","ProductId":"01D0885C-E95B-075B-2342-015715CB0B0C","ProductCode":"MUPSEN1GE1DF001","ProductName":"All Theme Parks hopper 1 Day SEN","ProductCategoryId":"6D967264-52F0-337D-2812-0152F087BCEF","ChargeToWallet":false,"ForceMediaGeneration":false,"MediaExclusiveUse":true,"VariableDescription":false,"ProfilePictureId":"B5008C9C-7D96-C757-237C-015715CB0B61","ShopCartItemType":1,"ProductType":1,"NewMediaList":[],"TimeTicketStatementList":[],"TaxCalcType":3,"UnitRawPrice":430,"UnitAmount":430,"UnitTax":0,"UnitDiscount":0,"UnitGrossFull":430,"UnitNetFull":430,"UnitNetDisc":430,"Quantity":1,"QuantityUnit":1,"TotalWalletDeposits":0,"TotalAmount":430,"TotalTax":0,"TotalDiscount":0,"TotalGrossFull":430,"TotalNetFull":430,"TotalNetDisc":430,"PresaleUnitAmount":0,"OptionsHash":"00000000000000000000000000000000","Entitlement":{"EntryType":1,"EntryQty":1,"ReEntryType":1,"AntiPassBackMinutes":10,"CrossoverRule":1,"ExpRule":11,"ExpRuleQty":1,"ValidFromDate":"2016-11-15","ValidToDate":"2017-05-15","SimpleIncProductList":[],"EntList":[{"EventId":"9D0A978F-713F-7834-038F-0152A68C9898","EntType":3,"SimpleIncProductList":[],"EntList":[]},{"EventId":"48435D0D-66CD-AFA7-03CB-0152A69F846A","EntType":3,"SimpleIncProductList":[],"EntList":[]},{"EventId":"D8B68BC9-0A2B-C4C5-0398-0152A68EA187","EntType":3,"SimpleIncProductList":[],"EntList":[]}]},"AttributeItemList":[{"AttributeId":"576B4680-3890-91B8-0631-0152B5A69E4D","AttributeCode":"HOPPER","AttributeName":"Hopper","AttributeItemId":"502A33DE-3054-84DE-196A-0155E30B882E","AttributeItemCode":"XO-SAMEDAY","AttributeItemName":"Crossover Same day Unlimited","AttributeItemNameExt":"","SeatCategory":false,"SeatCategoryColor":"","SelectionType":1,"ITL_AttributeItemName":[],"ITL_AttributeItemNameExt":[],"OptionList":[]},{"AttributeId":"D561B103-EBA2-4321-159D-0152DE7BB005","AttributeCode":"ACCVENUE","AttributeName":"Accessible Venue","AttributeItemId":"E989AC08-51E5-0DA1-15A8-0152DE7EDB8C","AttributeItemCode":"MP","AttributeItemName":"Multipark","AttributeItemNameExt":"","SeatCategory":false,"SeatCategoryColor":"","SelectionType":1,"ITL_AttributeItemName":[],"ITL_AttributeItemNameExt":[],"OptionList":[]},{"AttributeId":"FAD64838-5F6E-11DB-0FE9-0152BBF3CB3F","AttributeCode":"PRONAME","AttributeName":"Product Name for B2C","AttributeItemId":"ED68FFFA-5736-9504-0733-0152BF765A39","AttributeItemCode":"DPR1D3P","AttributeItemName":"DPR 1 Day 3 Parks","AttributeItemNameExt":"","SeatCategory":false,"SeatCategoryColor":"","SelectionType":1,"ITL_AttributeItemName":[],"ITL_AttributeItemNameExt":[],"OptionList":[]},{"AttributeId":"B6F2ABE6-39B2-496C-060C-0152B5938D32","AttributeCode":"VISITDATE","AttributeName":"Visit Date","AttributeItemId":"1290641C-3AA9-EBBF-5539-01558B5D4CE1","AttributeItemCode":"NONDATE","AttributeItemName":"Non-Dated","AttributeItemNameExt":"","SeatCategory":false,"SeatCategoryColor":"","SelectionType":1,"ITL_AttributeItemName":[],"ITL_AttributeItemNameExt":[],"OptionList":[]},{"AttributeId":"9F5E6BB0-72AD-2B11-037E-0152A6690EE4","AttributeCode":"VENUE","AttributeName":"Venue","AttributeItemId":"1276F2A6-3A1D-614F-061D-0152B59B648F","AttributeItemCode":"MULTIPRK","AttributeItemName":"Multipark","AttributeItemNameExt":"","SeatCategory":false,"SeatCategoryColor":"","SelectionType":1,"ITL_AttributeItemName":[],"ITL_AttributeItemNameExt":[],"OptionList":[]},{"AttributeId":"CA7FC31C-0C8E-5601-0620-0152B59BD43F","AttributeCode":"NOFDAYS","AttributeName":"Number of Days","AttributeItemId":"4B8CF581-0FF1-3EDA-0623-0152B59CB60E","AttributeItemCode":"1DAY","AttributeItemName":"1 Day","AttributeItemNameExt":"","SeatCategory":false,"SeatCategoryColor":"","SelectionType":1,"ITL_AttributeItemName":[],"ITL_AttributeItemNameExt":[],"OptionList":[]},{"AttributeId":"BAC7A177-1218-037C-0638-0152B5A77374","AttributeCode":"NUMOFENTRY","AttributeName":"Number of Entries","AttributeItemId":"3BAC7E1E-D630-3952-063B-0152B5A88ECD","AttributeItemCode":"1ENTRY","AttributeItemName":"1 Entry","AttributeItemNameExt":"","SeatCategory":false,"SeatCategoryColor":"","SelectionType":1,"ITL_AttributeItemName":[],"ITL_AttributeItemNameExt":[],"OptionList":[]},{"AttributeId":"FDD04E92-C39D-E826-7F77-01562C8F6A61","AttributeCode":"USAGE","AttributeName":"Days from Usage","AttributeItemId":"36FB7120-8473-3BA8-23AD-01568401930B","AttributeItemCode":"US-NDATED1","AttributeItemName":"Non Dated 1 Day","AttributeItemNameExt":"","SeatCategory":false,"SeatCategoryColor":"","SelectionType":1,"ITL_AttributeItemName":[],"ITL_AttributeItemNameExt":[],"OptionList":[]},{"AttributeId":"C389DCD7-A61C-C596-03BE-0152A69DA2DD","AttributeCode":"AGECAT","AttributeName":"Age Category","AttributeItemId":"8ED170BE-40D4-271F-03C5-0152A69E864F","AttributeItemCode":"SENIOR","AttributeItemName":"Senior","AttributeItemNameExt":"","SeatCategory":false,"SeatCategoryColor":"","SelectionType":1,"ITL_AttributeItemName":[],"ITL_AttributeItemNameExt":[],"OptionList":[]},{"AttributeId":"C5BDC4BC-DDA6-B2E4-233E-015683F74619","AttributeCode":"DATE-RANGE","AttributeName":"Date Range","AttributeItemId":"2A0CBA46-169D-A873-2341-015683FE40FA","AttributeItemCode":"RANGE-1","AttributeItemName":"2016-11-15 to 2017-05-15","AttributeItemNameExt":"","SeatCategory":false,"SeatCategoryColor":"","SelectionType":1,"ITL_AttributeItemName":[],"ITL_AttributeItemNameExt":[],"OptionList":[]},{"AttributeId":"F0776F7B-995E-0DA5-39BF-015327DB373E","AttributeCode":"TC","AttributeName":"Terms & Conditions","AttributeItemId":"32419FE2-E13C-47D1-00FE-015379CEF680","AttributeItemCode":"TC0004","AttributeItemName":"TC0004","AttributeItemNameExt":"","SeatCategory":false,"SeatCategoryColor":"","SelectionType":1,"ITL_AttributeItemName":[],"ITL_AttributeItemNameExt":[],"OptionList":[]}],"OptionList":[],"ProductMetaDataList":[{"MetaFieldId":"E1B22BC6-DA71-07A1-1500-0155298DC570","MetaFieldCode":"MAR","Value":"1 Day All Theme Parks unlimited access (no Water Park)","MetaFieldDataType":1,"MultiLanguageText":{"Default":"1 Day All Theme Parks unlimited access (no Water Park)","TransList":[]}},{"MetaFieldId":"B62FC635-2828-A6E7-1502-0155298DFC9A","MetaFieldCode":"MSUB","Value":"One day admission (Senior) (Hopper)","MetaFieldDataType":1,"MultiLanguageText":{"Default":"One day admission (Senior) (Hopper)","TransList":[]}}],"PerformanceList":[],"Items":[],"ItemDetailList":[{"Position":1,"SeatList":[],"BiometricList":[]}],"ItemDiscountList":[],"UnitTaxList":[],"NeedHold":false,"RequireAccount":false,"DocTemplateId":"A9FC4A83-5620-F40E-6678-01532E5FEC23","DocEditorType":3,"GroupTicketOption":1,"QuantityMin":1,"QuantityStep":1,"GroupingDesc":"Other","HidePriceVisibility":false,"BiometricCheckLevel":20,"BiometricEnrollOnPOS":false,"ActionPlus":{"Enabled":true,"Visible":true,"Selected":false},"ActionMinus":{"Enabled":false,"Visible":true,"Selected":false},"ActionTrash":{"Enabled":true,"Visible":true,"Selected":false},"ActionDetails":{"Enabled":true,"Visible":true,"Selected":false},"ActionQuantity":{"Enabled":true,"Visible":true,"Selected":false},"ActionAddDeposit":{"Enabled":false,"Visible":true,"Selected":false},"ActionAddAccount":{"Enabled":false,"Visible":true,"Selected":false},"ActionAddMedia":{"Enabled":false,"Visible":true,"Selected":false},"ActionSeatMap":{"Enabled":false,"Visible":false,"Selected":false},"UnitAmountConverted":430,"UnitRawPriceConverted":430,"TotalAmountConverted":430,"HolderList":[]}],"CreditItems":[],"Transaction":{"TransactionType":1},"SaleChannelId":"97E6A600-3F11-E760-5F2A-01562B7FD2D5","FrozenPrices":false,"Reservation":{"WishedDisapproval":false,"PaymentList":[],"LinkedSaleList":[]},"NeedHold":false,"HasHold":false,"SaleFlowType":1,"SaleAccountList":[],"SaleSurveyMetaDataList":[],"TransactionSurveyMetaDataList":[],"InstallmentContractIssue":{"DocumentData":""},"TransactionStartTime":1485173338450,"SelItemId":"E9C4E4C8-919C-1C6C-52B7-0159CB3AB287","HasApplicablePromos":false,"HidePriceVisibility":false,"LocationList":[],"ActionCheckOut":{"Enabled":true,"Visible":true,"Selected":false},"ActionEmptyCart":{"Enabled":true,"Visible":true,"Selected":false},"ActionResApp":{"Enabled":false,"Visible":true,"Selected":false},"ActionResPay":{"Enabled":false,"Visible":true,"Selected":false},"ActionResEnc":{"Enabled":false,"Visible":true,"Selected":false},"ActionResPrn":{"Enabled":false,"Visible":true,"Selected":false},"ActionResVal":{"Enabled":false,"Visible":true,"Selected":false},"ActionResBat":{"Enabled":true,"Visible":false,"Selected":false},"ActionResOpt":{"Enabled":true,"Visible":false,"Selected":false},"ActionResDep":{"Enabled":false,"Visible":false,"Selected":false},"ActionSaleTabView":{"Enabled":false,"Visible":false,"Selected":false},"LangISO":"AR","TotalAmountConverted":1340}}
2017-01-23 13:13:34 180.191.154.60 API RESPONSE 
2017-01-23 13:13:34 180.191.154.60 REQUEST 201511041000008|XCMGHJMF|AED|1340|https://uat.dubaiparksandresorts.com/ar/booking/confirmation|https://uat.dubaiparksandresorts.com/ar/booking/payment|02|INTERNET|CC|xxxx xxxx xxxx xxxx|xxx|MM|YYYY|cardtype|cardholder-name|cardholder-surname|address|address 2|city|state|zip|IT|email||||phone|||||||||||||||||||| |firstname|lastname|email|phone number|https://uat.dubaiparksandresorts.com/ar/booking/payment
2017-01-23 13:13:48 180.191.154.60 RESPONSE STATUS:SUCCESS mxyDVZZR7//FsfkhHSKeP0DEgUrm7xTozfFpTgWF4Xytmky32H7kkbBiHaEGnOiFbDBRyptlslQfujZxTPzlzp9/o08XYSkunGxY0C/eIfe9Fpj9WxTk8ym5ewbzbj63AXdLU18erQjYn/Dju7mTuQb5SNlIeqFpSn5RSpf2AKTeToaFB691IXcgz4R6vklAaPW8k/DtvOZTm37HVzvNQ+CgGfFgLRR9U45y0jLxTAUC9M5Wpa8rNd3VGTOCZsP9BOIXx/5RnECoIOqf3XzMblEqNL+ENp6XL1AZMHWYVqwCDp8wg/eZ50NGyIDiIeFWv99XIMiUhk14bmJBrtpdRA==
2017-01-23 13:13:48 180.191.154.60 RESPONSE STATUS:SUCCESS XCMGHJMF|2001701000490904|AED|1340.0|SUCCESS|4851736251346207704011|CC|VISA|00000|No Error.|02|NOT ENROLLED|Partially Secure|831000|||NO|||Joey|Smith|joey.smith@mailinator.com|+971-3232|https://uat.dubaiparksandresorts.com/ar/booking/payment|
2017-01-23 15:40:25 111.125.209.153 API REQUEST BODY {
    "lang":"EN",
    "billingAddress": {
        "title": "Mr",
        "firstname": "varam",
        "lastname": "prasad",
        "email": "sakamurivaraprasad@gmail.com","phoneNumber": "+971-39859834598","country": "United Arab Emirates",
        "region": "",
        "address": "chennai",
        "address2": "",
        "city": "chennai",
        "zipCode": "45345",
        "state": "none"
    },
    "contactInformation": {
        "title": "Mr",
        "firstname": "varam",
        "lastname": "prasad",
        "email": "sakamurivaraprasad@gmail.com","phoneNumber": "+971-39859834598","country": "United Arab Emirates",
        "region": "",
        "address": "chennai",
        "address2": "",
        "city": "chennai",
        "zipCode": "45345",
        "state": "none"
    },
    "newsletterEnabled": 1,
    "termsAccepted": 1
    ,"ShopCart":{"SubTotal":480,"TotalTax":0,"TotalAmount":480,"TotalDue":480,"CurrencyRounding":0,"DiscountRoundingList":[],"Items":[{"ShopCartItemId":"44F786A6-4F60-44D5-6411-0159CBC356C0","IconName":"ticket.png","SubIcon":"None","ProductId":"A24004B7-2405-569B-223E-015715C7CB3C","ProductCode":"MUPADT1GE1DF001","ProductName":"All Theme Parks hopper 1 Day ADT","ProductCategoryId":"6D967264-52F0-337D-2812-0152F087BCEF","ChargeToWallet":false,"ForceMediaGeneration":false,"MediaExclusiveUse":true,"VariableDescription":false,"ProfilePictureId":"E95148C6-021E-6F52-227E-015715C7CBA3","ShopCartItemType":1,"ProductType":1,"NewMediaList":[],"TimeTicketStatementList":[],"TaxCalcType":3,"UnitRawPrice":480,"UnitAmount":480,"UnitTax":0,"UnitDiscount":0,"UnitGrossFull":480,"UnitNetFull":480,"UnitNetDisc":480,"Quantity":1,"QuantityUnit":1,"TotalWalletDeposits":0,"TotalAmount":480,"TotalTax":0,"TotalDiscount":0,"TotalGrossFull":480,"TotalNetFull":480,"TotalNetDisc":480,"PresaleUnitAmount":0,"OptionsHash":"00000000000000000000000000000000","Entitlement":{"EntryType":1,"EntryQty":1,"ReEntryType":1,"AntiPassBackMinutes":10,"CrossoverRule":1,"ExpRule":11,"ExpRuleQty":1,"ValidFromDate":"2016-11-15","ValidToDate":"2017-05-15","SimpleIncProductList":[],"EntList":[{"EventId":"9D0A978F-713F-7834-038F-0152A68C9898","EntType":3,"SimpleIncProductList":[],"EntList":[]},{"EventId":"48435D0D-66CD-AFA7-03CB-0152A69F846A","EntType":3,"SimpleIncProductList":[],"EntList":[]},{"EventId":"D8B68BC9-0A2B-C4C5-0398-0152A68EA187","EntType":3,"SimpleIncProductList":[],"EntList":[]}]},"AttributeItemList":[{"AttributeId":"576B4680-3890-91B8-0631-0152B5A69E4D","AttributeCode":"HOPPER","AttributeName":"Hopper","AttributeItemId":"502A33DE-3054-84DE-196A-0155E30B882E","AttributeItemCode":"XO-SAMEDAY","AttributeItemName":"Crossover Same day Unlimited","AttributeItemNameExt":"","SeatCategory":false,"SeatCategoryColor":"","SelectionType":1,"ITL_AttributeItemName":[],"ITL_AttributeItemNameExt":[],"OptionList":[]},{"AttributeId":"D561B103-EBA2-4321-159D-0152DE7BB005","AttributeCode":"ACCVENUE","AttributeName":"Accessible Venue","AttributeItemId":"E989AC08-51E5-0DA1-15A8-0152DE7EDB8C","AttributeItemCode":"MP","AttributeItemName":"Multipark","AttributeItemNameExt":"","SeatCategory":false,"SeatCategoryColor":"","SelectionType":1,"ITL_AttributeItemName":[],"ITL_AttributeItemNameExt":[],"OptionList":[]},{"AttributeId":"C389DCD7-A61C-C596-03BE-0152A69DA2DD","AttributeCode":"AGECAT","AttributeName":"Age Category","AttributeItemId":"011396E7-CEDC-D3D0-03C1-0152A69E8640","AttributeItemCode":"ADT","AttributeItemName":"Adult","AttributeItemNameExt":"","SeatCategory":false,"SeatCategoryColor":"","SelectionType":1,"ITL_AttributeItemName":[],"ITL_AttributeItemNameExt":[],"OptionList":[]},{"AttributeId":"FAD64838-5F6E-11DB-0FE9-0152BBF3CB3F","AttributeCode":"PRONAME","AttributeName":"Product Name for B2C","AttributeItemId":"ED68FFFA-5736-9504-0733-0152BF765A39","AttributeItemCode":"DPR1D3P","AttributeItemName":"DPR 1 Day 3 Parks","AttributeItemNameExt":"","SeatCategory":false,"SeatCategoryColor":"","SelectionType":1,"ITL_AttributeItemName":[],"ITL_AttributeItemNameExt":[],"OptionList":[]},{"AttributeId":"B6F2ABE6-39B2-496C-060C-0152B5938D32","AttributeCode":"VISITDATE","AttributeName":"Visit Date","AttributeItemId":"1290641C-3AA9-EBBF-5539-01558B5D4CE1","AttributeItemCode":"NONDATE","AttributeItemName":"Non-Dated","AttributeItemNameExt":"","SeatCategory":false,"SeatCategoryColor":"","SelectionType":1,"ITL_AttributeItemName":[],"ITL_AttributeItemNameExt":[],"OptionList":[]},{"AttributeId":"9F5E6BB0-72AD-2B11-037E-0152A6690EE4","AttributeCode":"VENUE","AttributeName":"Venue","AttributeItemId":"1276F2A6-3A1D-614F-061D-0152B59B648F","AttributeItemCode":"MULTIPRK","AttributeItemName":"Multipark","AttributeItemNameExt":"","SeatCategory":false,"SeatCategoryColor":"","SelectionType":1,"ITL_AttributeItemName":[],"ITL_AttributeItemNameExt":[],"OptionList":[]},{"AttributeId":"CA7FC31C-0C8E-5601-0620-0152B59BD43F","AttributeCode":"NOFDAYS","AttributeName":"Number of Days","AttributeItemId":"4B8CF581-0FF1-3EDA-0623-0152B59CB60E","AttributeItemCode":"1DAY","AttributeItemName":"1 Day","AttributeItemNameExt":"","SeatCategory":false,"SeatCategoryColor":"","SelectionType":1,"ITL_AttributeItemName":[],"ITL_AttributeItemNameExt":[],"OptionList":[]},{"AttributeId":"BAC7A177-1218-037C-0638-0152B5A77374","AttributeCode":"NUMOFENTRY","AttributeName":"Number of Entries","AttributeItemId":"3BAC7E1E-D630-3952-063B-0152B5A88ECD","AttributeItemCode":"1ENTRY","AttributeItemName":"1 Entry","AttributeItemNameExt":"","SeatCategory":false,"SeatCategoryColor":"","SelectionType":1,"ITL_AttributeItemName":[],"ITL_AttributeItemNameExt":[],"OptionList":[]},{"AttributeId":"FDD04E92-C39D-E826-7F77-01562C8F6A61","AttributeCode":"USAGE","AttributeName":"Days from Usage","AttributeItemId":"36FB7120-8473-3BA8-23AD-01568401930B","AttributeItemCode":"US-NDATED1","AttributeItemName":"Non Dated 1 Day","AttributeItemNameExt":"","SeatCategory":false,"SeatCategoryColor":"","SelectionType":1,"ITL_AttributeItemName":[],"ITL_AttributeItemNameExt":[],"OptionList":[]},{"AttributeId":"C5BDC4BC-DDA6-B2E4-233E-015683F74619","AttributeCode":"DATE-RANGE","AttributeName":"Date Range","AttributeItemId":"2A0CBA46-169D-A873-2341-015683FE40FA","AttributeItemCode":"RANGE-1","AttributeItemName":"2016-11-15 to 2017-05-15","AttributeItemNameExt":"","SeatCategory":false,"SeatCategoryColor":"","SelectionType":1,"ITL_AttributeItemName":[],"ITL_AttributeItemNameExt":[],"OptionList":[]},{"AttributeId":"F0776F7B-995E-0DA5-39BF-015327DB373E","AttributeCode":"TC","AttributeName":"Terms & Conditions","AttributeItemId":"32419FE2-E13C-47D1-00FE-015379CEF680","AttributeItemCode":"TC0004","AttributeItemName":"TC0004","AttributeItemNameExt":"","SeatCategory":false,"SeatCategoryColor":"","SelectionType":1,"ITL_AttributeItemName":[],"ITL_AttributeItemNameExt":[],"OptionList":[]}],"OptionList":[],"ProductMetaDataList":[{"MetaFieldId":"E1B22BC6-DA71-07A1-1500-0155298DC570","MetaFieldCode":"MAR","Value":"1 Day All Theme Parks unlimited access (no Water Park)","MetaFieldDataType":1,"MultiLanguageText":{"Default":"1 Day All Theme Parks unlimited access (no Water Park)","TransList":[]}},{"MetaFieldId":"B62FC635-2828-A6E7-1502-0155298DFC9A","MetaFieldCode":"MSUB","Value":"One day admission (Adult)(Hopper)","MetaFieldDataType":1,"MultiLanguageText":{"Default":"One day admission (Adult)(Hopper)","TransList":[]}}],"PerformanceList":[],"Items":[],"ItemDetailList":[{"Position":1,"SeatList":[],"BiometricList":[]}],"ItemDiscountList":[],"UnitTaxList":[],"NeedHold":false,"RequireAccount":false,"DocTemplateId":"DEBAEDFD-6CB6-1844-29E3-01581590908D","DocEditorType":2,"GroupTicketOption":1,"QuantityMin":1,"QuantityStep":1,"GroupingDesc":"Other","HidePriceVisibility":false,"BiometricCheckLevel":20,"BiometricEnrollOnPOS":false,"ActionPlus":{"Enabled":true,"Visible":true,"Selected":false},"ActionMinus":{"Enabled":false,"Visible":true,"Selected":false},"ActionTrash":{"Enabled":true,"Visible":true,"Selected":false},"ActionDetails":{"Enabled":true,"Visible":true,"Selected":false},"ActionQuantity":{"Enabled":true,"Visible":true,"Selected":false},"ActionAddDeposit":{"Enabled":false,"Visible":true,"Selected":false},"ActionAddAccount":{"Enabled":false,"Visible":true,"Selected":false},"ActionAddMedia":{"Enabled":false,"Visible":true,"Selected":false},"ActionSeatMap":{"Enabled":false,"Visible":false,"Selected":false},"UnitAmountConverted":480,"UnitRawPriceConverted":480,"TotalAmountConverted":480,"HolderList":[]}],"CreditItems":[],"Transaction":{"TransactionType":1},"SaleChannelId":"97E6A600-3F11-E760-5F2A-01562B7FD2D5","FrozenPrices":false,"Reservation":{"WishedDisapproval":false,"PaymentList":[],"LinkedSaleList":[]},"NeedHold":false,"HasHold":false,"SaleFlowType":1,"SaleAccountList":[],"SaleSurveyMetaDataList":[],"TransactionSurveyMetaDataList":[],"InstallmentContractIssue":{"DocumentData":""},"TransactionStartTime":1485182293711,"SelItemId":"44F786A6-4F60-44D5-6411-0159CBC356C0","HasApplicablePromos":false,"HidePriceVisibility":false,"LocationList":[],"ActionCheckOut":{"Enabled":true,"Visible":true,"Selected":false},"ActionEmptyCart":{"Enabled":true,"Visible":true,"Selected":false},"ActionResApp":{"Enabled":false,"Visible":true,"Selected":false},"ActionResPay":{"Enabled":false,"Visible":true,"Selected":false},"ActionResEnc":{"Enabled":false,"Visible":true,"Selected":false},"ActionResPrn":{"Enabled":false,"Visible":true,"Selected":false},"ActionResVal":{"Enabled":false,"Visible":true,"Selected":false},"ActionResBat":{"Enabled":true,"Visible":false,"Selected":false},"ActionResOpt":{"Enabled":true,"Visible":false,"Selected":false},"ActionResDep":{"Enabled":false,"Visible":false,"Selected":false},"ActionSaleTabView":{"Enabled":false,"Visible":false,"Selected":false},"LangISO":"EN","TotalAmountConverted":480}}
2017-01-23 15:40:25 111.125.209.153 API RESPONSE 
2017-01-23 15:40:25 111.125.209.153 REQUEST 201511041000008|2HTPQRU6|AED|480|https://uat.dubaiparksandresorts.com/en/booking/confirmation|https://uat.dubaiparksandresorts.com/en/booking/payment|02|INTERNET|CC|xxxx xxxx xxxx xxxx|xxx|MM|YYYY|cardtype|cardholder-name|cardholder-surname|address|address 2|city|state|zip|IT|email||||phone|||||||||||||||||||| |firstname|lastname|email|phone number|https://uat.dubaiparksandresorts.com/en/booking/payment